%!PS-Adobe-3.0 EPSF-3.0
%%Title: /home/stuart/_PhD/SAC Flux Tube Paper/images/VALIIIc.eps
%%Creator: matplotlib version 1.1.0, http://matplotlib.sourceforge.net/
%%CreationDate: Fri Aug 10 08:50:21 2012
%%Orientation: portrait
%%BoundingBox: -72 108 684 684
%%EndComments
%%BeginProlog
/mpldict 11 dict def
mpldict begin
/m { moveto } bind def
/l { lineto } bind def
/r { rlineto } bind def
/c { curveto } bind def
/cl { closepath } bind def
/box {
m
1 index 0 r
0 exch r
neg 0 r
cl
} bind def
/clipbox {
box
clip
newpath
} bind def
%!PS-Adobe-3.0 Resource-Font
%%Title: cmr10
%%Copyright: Copyright (C) 1994, Basil K. Malyshev. All Rights Reserved.012BaKoMa Fonts Collection, Level-B.
%%Creator: Converted from TrueType to type 3 by PPR
25 dict begin
/_d{bind def}bind def
/_m{moveto}_d
/_l{lineto}_d
/_cl{closepath eofill}_d
/_c{curveto}_d
/_sc{7 -1 roll{setcachedevice}{pop pop pop pop pop pop}ifelse}_d
/_e{exec}_d
/FontName /Cmr10 def
/PaintType 0 def
/FontMatrix[.001 0 0 .001 0 0]def
/FontBBox[-44 -250 1009 750]def
/FontType 3 def
/Encoding [ /three ] def
/FontInfo 10 dict dup begin
/FamilyName (cmr10) def
/FullName (cmr10) def
/Notice (Copyright (C) 1994, Basil K. Malyshev. All Rights Reserved.012BaKoMa Fonts Collection, Level-B. ) def
/Weight (Regular) def
/Version (1.1/12-Nov-94) def
/ItalicAngle 0.0 def
/isFixedPitch false def
/UnderlinePosition -133 def
/UnderlineThickness 20 def
end readonly def
/CharStrings 1 dict dup begin
/three{{500 0 42 -21 457 666 _sc
95 77 _m
111 54 132 37 158 26 _c
184 15 213 10 243 10 _c
281 10 309 26 325 59 _c
341 92 350 130 350 172 _c
350 190 348 209 345 228 _c
341 247 335 265 327 281 _c
319 297 308 310 294 320 _c
280 330 262 335 242 335 _c
176 335 _l
170 335 167 338 167 344 _c
167 353 _l
167 358 170 361 176 361 _c
231 365 _l
254 365 273 373 289 391 _c
305 409 316 430 323 456 _c
330 481 334 505 334 528 _c
334 560 326 586 311 606 _c
296 626 273 637 243 637 _c
217 637 193 632 170 622 _c
147 612 129 598 115 579 _c
116 579 117 580 118 580 _c
119 580 120 580 122 580 _c
137 580 150 574 160 564 _c
170 554 175 541 175 527 _c
175 512 170 499 160 489 _c
150 479 137 474 122 474 _c
}_e{107 474 94 479 84 489 _c
74 499 69 512 69 527 _c
69 555 77 580 95 601 _c
112 622 134 638 161 649 _c
188 660 215 666 243 666 _c
263 666 284 663 307 657 _c
329 651 350 642 368 631 _c
386 619 401 605 413 588 _c
424 570 430 550 430 528 _c
430 500 423 474 411 450 _c
399 426 382 406 360 389 _c
338 371 314 358 288 350 _c
317 344 345 333 371 317 _c
397 301 417 280 433 255 _c
449 229 457 202 457 173 _c
457 136 446 103 426 73 _c
406 43 379 19 347 3 _c
314 -13 279 -21 243 -21 _c
211 -21 180 -15 149 -3 _c
117 8 92 25 72 49 _c
52 73 42 101 42 135 _c
42 151 47 165 58 176 _c
69 187 83 193 100 193 _c
110 193 120 190 129 185 _c
138 180 145 173 150 164 _c
155 154 158 145 158 135 _c
158 118 152 104 141 93 _c
129 82 116 77 100 77 _c
95 77 _l
_cl}_e}_d
end readonly def

/BuildGlyph
 {exch begin
 CharStrings exch
 2 copy known not{pop /.notdef}if
 true 3 1 roll get exec
 end}_d

/BuildChar {
 1 index /Encoding get exch get
 1 index /BuildGlyph get exec
}_d

FontName currentdict end definefont pop
%!PS-Adobe-3.0 Resource-Font
%%Title: Bitstream Vera Sans
%%Copyright: Copyright (c) 2003 by Bitstream, Inc. All Rights Reserved.
%%Creator: Converted from TrueType to type 3 by PPR
25 dict begin
/_d{bind def}bind def
/_m{moveto}_d
/_l{lineto}_d
/_cl{closepath eofill}_d
/_c{curveto}_d
/_sc{7 -1 roll{setcachedevice}{pop pop pop pop pop pop}ifelse}_d
/_e{exec}_d
/FontName /BitstreamVeraSans-Roman def
/PaintType 0 def
/FontMatrix[.001 0 0 .001 0 0]def
/FontBBox[-183 -236 1287 928]def
/FontType 3 def
/Encoding [ /space /hyphen /period /zero /one /two /three /four /five /six /seven /eight /nine /H /K /M /T /bracketleft /bracketright /e /g /h /i /k /m /t ] def
/FontInfo 10 dict dup begin
/FamilyName (Bitstream Vera Sans) def
/FullName (Bitstream Vera Sans) def
/Notice (Copyright (c) 2003 by Bitstream, Inc. All Rights Reserved. Bitstream Vera is a trademark of Bitstream, Inc.) def
/Weight (Roman) def
/Version (Release 1.10) def
/ItalicAngle 0.0 def
/isFixedPitch false def
/UnderlinePosition -213 def
/UnderlineThickness 143 def
end readonly def
/CharStrings 26 dict dup begin
/space{318 0 0 0 0 0 _sc
}_d
/hyphen{361 0 49 234 312 314 _sc
49 314 _m
312 314 _l
312 234 _l
49 234 _l
49 314 _l
_cl}_d
/period{318 0 107 0 210 124 _sc
107 124 _m
210 124 _l
210 0 _l
107 0 _l
107 124 _l
_cl}_d
/zero{636 0 66 -13 570 742 _sc
318 664 _m
267 664 229 639 203 589 _c
177 539 165 464 165 364 _c
165 264 177 189 203 139 _c
229 89 267 64 318 64 _c
369 64 407 89 433 139 _c
458 189 471 264 471 364 _c
471 464 458 539 433 589 _c
407 639 369 664 318 664 _c
318 742 _m
399 742 461 709 505 645 _c
548 580 570 486 570 364 _c
570 241 548 147 505 83 _c
461 19 399 -13 318 -13 _c
236 -13 173 19 130 83 _c
87 147 66 241 66 364 _c
66 486 87 580 130 645 _c
173 709 236 742 318 742 _c
_cl}_d
/one{636 0 110 0 544 729 _sc
124 83 _m
285 83 _l
285 639 _l
110 604 _l
110 694 _l
284 729 _l
383 729 _l
383 83 _l
544 83 _l
544 0 _l
124 0 _l
124 83 _l
_cl}_d
/two{{636 0 73 0 536 742 _sc
192 83 _m
536 83 _l
536 0 _l
73 0 _l
73 83 _l
110 121 161 173 226 239 _c
290 304 331 346 348 365 _c
380 400 402 430 414 455 _c
426 479 433 504 433 528 _c
433 566 419 598 392 622 _c
365 646 330 659 286 659 _c
255 659 222 653 188 643 _c
154 632 117 616 78 594 _c
78 694 _l
118 710 155 722 189 730 _c
223 738 255 742 284 742 _c
359 742 419 723 464 685 _c
509 647 532 597 532 534 _c
532 504 526 475 515 449 _c
504 422 484 390 454 354 _c
446 344 420 317 376 272 _c
332 227 271 164 192 83 _c
_cl}_e}_d
/three{{636 0 76 -13 556 742 _sc
406 393 _m
453 383 490 362 516 330 _c
542 298 556 258 556 212 _c
556 140 531 84 482 45 _c
432 6 362 -13 271 -13 _c
240 -13 208 -10 176 -4 _c
144 1 110 10 76 22 _c
76 117 _l
103 101 133 89 166 81 _c
198 73 232 69 268 69 _c
330 69 377 81 409 105 _c
441 129 458 165 458 212 _c
458 254 443 288 413 312 _c
383 336 341 349 287 349 _c
202 349 _l
202 430 _l
291 430 _l
339 430 376 439 402 459 _c
428 478 441 506 441 543 _c
441 580 427 609 401 629 _c
374 649 336 659 287 659 _c
260 659 231 656 200 650 _c
169 644 135 635 98 623 _c
98 711 _l
135 721 170 729 203 734 _c
235 739 266 742 296 742 _c
}_e{370 742 429 725 473 691 _c
517 657 539 611 539 553 _c
539 513 527 479 504 451 _c
481 423 448 403 406 393 _c
_cl}_e}_d
/four{636 0 49 0 580 729 _sc
378 643 _m
129 254 _l
378 254 _l
378 643 _l
352 729 _m
476 729 _l
476 254 _l
580 254 _l
580 172 _l
476 172 _l
476 0 _l
378 0 _l
378 172 _l
49 172 _l
49 267 _l
352 729 _l
_cl}_d
/five{{636 0 77 -13 549 729 _sc
108 729 _m
495 729 _l
495 646 _l
198 646 _l
198 467 _l
212 472 227 476 241 478 _c
255 480 270 482 284 482 _c
365 482 429 459 477 415 _c
525 370 549 310 549 234 _c
549 155 524 94 475 51 _c
426 8 357 -13 269 -13 _c
238 -13 207 -10 175 -6 _c
143 -1 111 6 77 17 _c
77 116 _l
106 100 136 88 168 80 _c
199 72 232 69 267 69 _c
323 69 368 83 401 113 _c
433 143 450 183 450 234 _c
450 284 433 324 401 354 _c
368 384 323 399 267 399 _c
241 399 214 396 188 390 _c
162 384 135 375 108 363 _c
108 729 _l
_cl}_e}_d
/six{{636 0 70 -13 573 742 _sc
330 404 _m
286 404 251 388 225 358 _c
199 328 186 286 186 234 _c
186 181 199 139 225 109 _c
251 79 286 64 330 64 _c
374 64 409 79 435 109 _c
461 139 474 181 474 234 _c
474 286 461 328 435 358 _c
409 388 374 404 330 404 _c
526 713 _m
526 623 _l
501 635 476 644 451 650 _c
425 656 400 659 376 659 _c
310 659 260 637 226 593 _c
192 549 172 482 168 394 _c
187 422 211 444 240 459 _c
269 474 301 482 336 482 _c
409 482 467 459 509 415 _c
551 371 573 310 573 234 _c
573 159 550 99 506 54 _c
462 9 403 -13 330 -13 _c
246 -13 181 19 137 83 _c
92 147 70 241 70 364 _c
70 479 97 571 152 639 _c
206 707 280 742 372 742 _c
}_e{396 742 421 739 447 735 _c
472 730 498 723 526 713 _c
_cl}_e}_d
/seven{636 0 82 0 551 729 _sc
82 729 _m
551 729 _l
551 687 _l
286 0 _l
183 0 _l
432 646 _l
82 646 _l
82 729 _l
_cl}_d
/eight{{636 0 68 -13 568 742 _sc
318 346 _m
271 346 234 333 207 308 _c
180 283 167 249 167 205 _c
167 161 180 126 207 101 _c
234 76 271 64 318 64 _c
364 64 401 76 428 102 _c
455 127 469 161 469 205 _c
469 249 455 283 429 308 _c
402 333 365 346 318 346 _c
219 388 _m
177 398 144 418 120 447 _c
96 476 85 511 85 553 _c
85 611 105 657 147 691 _c
188 725 245 742 318 742 _c
390 742 447 725 489 691 _c
530 657 551 611 551 553 _c
551 511 539 476 515 447 _c
491 418 459 398 417 388 _c
464 377 501 355 528 323 _c
554 291 568 251 568 205 _c
568 134 546 80 503 43 _c
459 5 398 -13 318 -13 _c
237 -13 175 5 132 43 _c
89 80 68 134 68 205 _c
68 251 81 291 108 323 _c
134 355 171 377 219 388 _c
}_e{183 544 _m
183 506 194 476 218 455 _c
242 434 275 424 318 424 _c
360 424 393 434 417 455 _c
441 476 453 506 453 544 _c
453 582 441 611 417 632 _c
393 653 360 664 318 664 _c
275 664 242 653 218 632 _c
194 611 183 582 183 544 _c
_cl}_e}_d
/nine{{636 0 63 -13 566 742 _sc
110 15 _m
110 105 _l
134 93 159 84 185 78 _c
210 72 235 69 260 69 _c
324 69 374 90 408 134 _c
442 178 462 244 468 334 _c
448 306 424 284 396 269 _c
367 254 335 247 300 247 _c
226 247 168 269 126 313 _c
84 357 63 417 63 494 _c
63 568 85 628 129 674 _c
173 719 232 742 306 742 _c
390 742 455 709 499 645 _c
543 580 566 486 566 364 _c
566 248 538 157 484 89 _c
429 21 356 -13 264 -13 _c
239 -13 214 -10 189 -6 _c
163 -2 137 5 110 15 _c
306 324 _m
350 324 385 339 411 369 _c
437 399 450 441 450 494 _c
450 546 437 588 411 618 _c
385 648 350 664 306 664 _c
262 664 227 648 201 618 _c
175 588 162 546 162 494 _c
}_e{162 441 175 399 201 369 _c
227 339 262 324 306 324 _c
_cl}_e}_d
/H{752 0 98 0 654 729 _sc
98 729 _m
197 729 _l
197 430 _l
555 430 _l
555 729 _l
654 729 _l
654 0 _l
555 0 _l
555 347 _l
197 347 _l
197 0 _l
98 0 _l
98 729 _l
_cl}_d
/K{656 0 98 0 677 729 _sc
98 729 _m
197 729 _l
197 421 _l
524 729 _l
651 729 _l
289 389 _l
677 0 _l
547 0 _l
197 351 _l
197 0 _l
98 0 _l
98 729 _l
_cl}_d
/M{863 0 98 0 765 729 _sc
98 729 _m
245 729 _l
431 233 _l
618 729 _l
765 729 _l
765 0 _l
669 0 _l
669 640 _l
481 140 _l
382 140 _l
194 640 _l
194 0 _l
98 0 _l
98 729 _l
_cl}_d
/T{611 0 -2 0 614 729 _sc
-2 729 _m
614 729 _l
614 646 _l
355 646 _l
355 0 _l
256 0 _l
256 646 _l
-2 646 _l
-2 729 _l
_cl}_d
/bracketleft{390 0 86 -131 293 760 _sc
86 760 _m
293 760 _l
293 690 _l
176 690 _l
176 -61 _l
293 -61 _l
293 -131 _l
86 -131 _l
86 760 _l
_cl}_d
/bracketright{390 0 97 -131 304 760 _sc
304 760 _m
304 -131 _l
97 -131 _l
97 -61 _l
214 -61 _l
214 690 _l
97 690 _l
97 760 _l
304 760 _l
_cl}_d
/e{{615 0 55 -13 562 560 _sc
562 296 _m
562 252 _l
149 252 _l
153 190 171 142 205 110 _c
238 78 284 62 344 62 _c
378 62 412 66 444 74 _c
476 82 509 95 541 113 _c
541 28 _l
509 14 476 3 442 -3 _c
408 -9 373 -13 339 -13 _c
251 -13 182 12 131 62 _c
80 112 55 181 55 268 _c
55 357 79 428 127 481 _c
175 533 241 560 323 560 _c
397 560 455 536 498 489 _c
540 441 562 377 562 296 _c
472 322 _m
471 371 457 410 431 440 _c
404 469 368 484 324 484 _c
274 484 234 469 204 441 _c
174 413 156 373 152 322 _c
472 322 _l
_cl}_e}_d
/g{{635 0 55 -207 544 560 _sc
454 280 _m
454 344 440 395 414 431 _c
387 467 349 485 301 485 _c
253 485 215 467 188 431 _c
161 395 148 344 148 280 _c
148 215 161 165 188 129 _c
215 93 253 75 301 75 _c
349 75 387 93 414 129 _c
440 165 454 215 454 280 _c
544 68 _m
544 -24 523 -93 482 -139 _c
440 -184 377 -207 292 -207 _c
260 -207 231 -204 203 -200 _c
175 -195 147 -188 121 -178 _c
121 -91 _l
147 -105 173 -115 199 -122 _c
225 -129 251 -133 278 -133 _c
336 -133 380 -117 410 -87 _c
439 -56 454 -10 454 52 _c
454 96 _l
435 64 411 40 382 24 _c
353 8 319 0 279 0 _c
211 0 157 25 116 76 _c
75 127 55 195 55 280 _c
55 364 75 432 116 483 _c
157 534 211 560 279 560 _c
}_e{319 560 353 552 382 536 _c
411 520 435 496 454 464 _c
454 547 _l
544 547 _l
544 68 _l
_cl}_e}_d
/h{634 0 91 0 549 760 _sc
549 330 _m
549 0 _l
459 0 _l
459 327 _l
459 379 448 417 428 443 _c
408 469 378 482 338 482 _c
289 482 251 466 223 435 _c
195 404 181 362 181 309 _c
181 0 _l
91 0 _l
91 760 _l
181 760 _l
181 462 _l
202 494 227 519 257 535 _c
286 551 320 560 358 560 _c
420 560 468 540 500 501 _c
532 462 549 405 549 330 _c
_cl}_d
/i{278 0 94 0 184 760 _sc
94 547 _m
184 547 _l
184 0 _l
94 0 _l
94 547 _l
94 760 _m
184 760 _l
184 646 _l
94 646 _l
94 760 _l
_cl}_d
/k{579 0 91 0 576 760 _sc
91 760 _m
181 760 _l
181 311 _l
449 547 _l
564 547 _l
274 291 _l
576 0 _l
459 0 _l
181 267 _l
181 0 _l
91 0 _l
91 760 _l
_cl}_d
/m{{974 0 91 0 889 560 _sc
520 442 _m
542 482 569 511 600 531 _c
631 550 668 560 711 560 _c
767 560 811 540 842 500 _c
873 460 889 403 889 330 _c
889 0 _l
799 0 _l
799 327 _l
799 379 789 418 771 444 _c
752 469 724 482 686 482 _c
639 482 602 466 575 435 _c
548 404 535 362 535 309 _c
535 0 _l
445 0 _l
445 327 _l
445 379 435 418 417 444 _c
398 469 369 482 331 482 _c
285 482 248 466 221 435 _c
194 404 181 362 181 309 _c
181 0 _l
91 0 _l
91 547 _l
181 547 _l
181 462 _l
201 495 226 520 255 536 _c
283 552 317 560 357 560 _c
397 560 430 550 458 530 _c
486 510 506 480 520 442 _c
}_e{_cl}_e}_d
/t{392 0 27 0 368 702 _sc
183 702 _m
183 547 _l
368 547 _l
368 477 _l
183 477 _l
183 180 _l
183 135 189 106 201 94 _c
213 81 238 75 276 75 _c
368 75 _l
368 0 _l
276 0 _l
206 0 158 13 132 39 _c
106 65 93 112 93 180 _c
93 477 _l
27 477 _l
27 547 _l
93 547 _l
93 702 _l
183 702 _l
_cl}_d
end readonly def

/BuildGlyph
 {exch begin
 CharStrings exch
 2 copy known not{pop /.notdef}if
 true 3 1 roll get exec
 end}_d

/BuildChar {
 1 index /Encoding get exch get
 1 index /BuildGlyph get exec
}_d

FontName currentdict end definefont pop
%!PS-Adobe-3.0 Resource-Font
%%Title: cmmi10
%%Copyright: Copyright (C) 1994, Basil K. Malyshev. All Rights Reserved.012BaKoMa Fonts Collection, Level-B.
%%Creator: Converted from TrueType to type 3 by PPR
25 dict begin
/_d{bind def}bind def
/_m{moveto}_d
/_l{lineto}_d
/_cl{closepath eofill}_d
/_c{curveto}_d
/_sc{7 -1 roll{setcachedevice}{pop pop pop pop pop pop}ifelse}_d
/_e{exec}_d
/FontName /Cmmi10 def
/PaintType 0 def
/FontMatrix[.001 0 0 .001 0 0]def
/FontBBox[-34 -250 1048 750]def
/FontType 3 def
/Encoding [ /rho ] def
/FontInfo 10 dict dup begin
/FamilyName (cmmi10) def
/FullName (cmmi10) def
/Notice (Copyright (C) 1994, Basil K. Malyshev. All Rights Reserved.012BaKoMa Fonts Collection, Level-B. ) def
/Weight (Regular) def
/Version (1.1/12-Nov-94) def
/ItalicAngle 0.0 def
/isFixedPitch false def
/UnderlinePosition -133 def
/UnderlineThickness 20 def
end readonly def
/CharStrings 1 dict dup begin
/rho{{517 0 28 -215 504 442 _sc
28 -187 _m
28 -183 28 -180 29 -179 _c
128 219 _l
137 255 153 290 176 324 _c
199 358 227 387 260 409 _c
292 431 327 442 363 442 _c
391 442 416 434 438 419 _c
460 403 476 383 487 359 _c
498 335 504 308 504 279 _c
504 246 497 212 484 178 _c
470 144 452 112 429 84 _c
406 55 379 32 349 15 _c
319 -1 287 -10 254 -10 _c
234 -10 216 -4 199 6 _c
181 17 168 32 158 52 _c
99 -183 _l
97 -192 92 -200 84 -206 _c
76 -212 68 -215 58 -215 _c
50 -215 43 -212 37 -207 _c
31 -202 28 -195 28 -187 _c
256 15 _m
291 15 322 33 348 69 _c
374 105 394 148 408 197 _c
422 246 429 288 429 322 _c
429 347 423 369 412 388 _c
401 406 384 416 361 416 _c
331 416 306 405 284 383 _c
262 361 244 335 231 305 _c
217 275 206 245 198 213 _c
171 101 _l
175 77 184 56 199 40 _c
214 23 233 15 256 15 _c
}_e{_cl}_e}_d
end readonly def

/BuildGlyph
 {exch begin
 CharStrings exch
 2 copy known not{pop /.notdef}if
 true 3 1 roll get exec
 end}_d

/BuildChar {
 1 index /Encoding get exch get
 1 index /BuildGlyph get exec
}_d

FontName currentdict end definefont pop
%!PS-Adobe-3.0 Resource-Font
%%Title: cmsy10
%%Copyright: Copyright (C) 1994, Basil K. Malyshev. All Rights Reserved.012BaKoMa Fonts Collection, Level-B.
%%Creator: Converted from TrueType to type 3 by PPR
25 dict begin
/_d{bind def}bind def
/_m{moveto}_d
/_l{lineto}_d
/_cl{closepath eofill}_d
/_c{curveto}_d
/_sc{7 -1 roll{setcachedevice}{pop pop pop pop pop pop}ifelse}_d
/_e{exec}_d
/FontName /Cmsy10 def
/PaintType 0 def
/FontMatrix[.001 0 0 .001 0 0]def
/FontBBox[-29 -960 1123 779]def
/FontType 3 def
/Encoding [ /minus ] def
/FontInfo 10 dict dup begin
/FamilyName (cmsy10) def
/FullName (cmsy10) def
/Notice (Copyright (C) 1994, Basil K. Malyshev. All Rights Reserved.012BaKoMa Fonts Collection, Level-B. ) def
/Weight (Regular) def
/Version (1.1/12-Nov-94) def
/ItalicAngle 0.0 def
/isFixedPitch false def
/UnderlinePosition -133 def
/UnderlineThickness 20 def
end readonly def
/CharStrings 1 dict dup begin
/minus{777 0 83 230 694 270 _sc
102 230 _m
96 230 92 232 88 236 _c
84 240 83 245 83 250 _c
83 254 84 259 88 263 _c
92 267 96 270 102 270 _c
676 270 _l
681 270 685 267 689 263 _c
692 259 694 254 694 250 _c
694 245 692 240 689 236 _c
685 232 681 230 676 230 _c
102 230 _l
_cl}_d
end readonly def

/BuildGlyph
 {exch begin
 CharStrings exch
 2 copy known not{pop /.notdef}if
 true 3 1 roll get exec
 end}_d

/BuildChar {
 1 index /Encoding get exch get
 1 index /BuildGlyph get exec
}_d

FontName currentdict end definefont pop
end
%%EndProlog
mpldict begin
-72 108 translate
756 576 0 0 clipbox
gsave
0 0 m
756 0 l
756 576 l
0 576 l
cl
1.000 setgray
fill
grestore
gsave
94.5 57.6 m
680.4 57.6 l
680.4 518.4 l
94.5 518.4 l
cl
1.000 setgray
fill
grestore
1.500 setlinewidth
1 setlinejoin
2 setlinecap
[] 0 setdash
0.000 0.000 1.000 setrgbcolor
gsave
585.9 460.8 94.5 57.6 clipbox
685.087 79.1092 m
677.471 82.8306 l
658.429 91.0935 l
617.416 109.213 l
564.685 134.887 l
538.319 149.047 l
498.771 171.187 l
469.476 188.744 l
440.181 206.674 l
406.492 228.89 l
381.591 246.319 l
359.62 262.52 l
344.972 273.466 l
315.677 297.169 l
301.03 310.081 l
286.382 324.18 l
271.735 339.249 l
257.087 354.452 l
245.369 366.361 l
226.327 384.751 l
197.032 410.974 l
167.738 435.024 l
138.442 456.567 l
123.795 466.115 l
109.148 474.482 l
94.5 481.252 l
stroke
grestore
0 setlinecap
0.000 setgray
gsave
/o {
gsave
newpath
translate
0 0 m
0 5.5 l
gsave
0.000 setgray
fill
grestore
stroke
grestore
} bind def
94.5 57.6 o
grestore
gsave
/o {
gsave
newpath
translate
0 0 m
0 -5.5 l
gsave
0.000 setgray
fill
grestore
stroke
grestore
} bind def
94.5 518.4 o
grestore
/BitstreamVeraSans-Roman findfont
20.000 scalefont
setfont
gsave
79.921875 35.475000 translate
0.000000 rotate
0.000000 0.281250 m /zero glyphshow
12.724609 0.281250 m /period glyphshow
19.082031 0.281250 m /zero glyphshow
grestore
gsave
/o {
gsave
newpath
translate
0 0 m
0 5.5 l
gsave
0.000 setgray
fill
grestore
stroke
grestore
} bind def
240.975 57.6 o
grestore
gsave
/o {
gsave
newpath
translate
0 0 m
0 -5.5 l
gsave
0.000 setgray
fill
grestore
stroke
grestore
} bind def
240.975 518.4 o
grestore
gsave
226.600000 35.475000 translate
0.000000 rotate
0.000000 0.281250 m /zero glyphshow
12.724609 0.281250 m /period glyphshow
19.082031 0.281250 m /five glyphshow
grestore
gsave
/o {
gsave
newpath
translate
0 0 m
0 5.5 l
gsave
0.000 setgray
fill
grestore
stroke
grestore
} bind def
387.45 57.6 o
grestore
gsave
/o {
gsave
newpath
translate
0 0 m
0 -5.5 l
gsave
0.000 setgray
fill
grestore
stroke
grestore
} bind def
387.45 518.4 o
grestore
gsave
373.317187 35.475000 translate
0.000000 rotate
0.000000 0.281250 m /one glyphshow
12.724609 0.281250 m /period glyphshow
19.082031 0.281250 m /zero glyphshow
grestore
gsave
/o {
gsave
newpath
translate
0 0 m
0 5.5 l
gsave
0.000 setgray
fill
grestore
stroke
grestore
} bind def
533.925 57.6 o
grestore
gsave
/o {
gsave
newpath
translate
0 0 m
0 -5.5 l
gsave
0.000 setgray
fill
grestore
stroke
grestore
} bind def
533.925 518.4 o
grestore
gsave
519.995312 35.740625 translate
0.000000 rotate
0.000000 0.281250 m /one glyphshow
12.724609 0.281250 m /period glyphshow
19.082031 0.281250 m /five glyphshow
grestore
gsave
/o {
gsave
newpath
translate
0 0 m
0 5.5 l
gsave
0.000 setgray
fill
grestore
stroke
grestore
} bind def
680.4 57.6 o
grestore
gsave
/o {
gsave
newpath
translate
0 0 m
0 -5.5 l
gsave
0.000 setgray
fill
grestore
stroke
grestore
} bind def
680.4 518.4 o
grestore
gsave
665.900000 35.475000 translate
0.000000 rotate
0.000000 0.281250 m /two glyphshow
12.724609 0.281250 m /period glyphshow
19.082031 0.281250 m /zero glyphshow
grestore
gsave
325.895312 11.115625 translate
0.000000 rotate
0.000000 4.156250 m /H glyphshow
15.039062 4.156250 m /e glyphshow
27.343750 4.156250 m /i glyphshow
32.900391 4.156250 m /g glyphshow
45.595703 4.156250 m /h glyphshow
58.271484 4.156250 m /t glyphshow
66.113281 4.156250 m /space glyphshow
72.470703 4.156250 m /bracketleft glyphshow
80.273438 4.156250 m /M glyphshow
97.529297 4.156250 m /m glyphshow
117.011719 4.156250 m /bracketright glyphshow
grestore
gsave
/o {
gsave
newpath
translate
0 0 m
6 0 l
gsave
0.000 setgray
fill
grestore
stroke
grestore
} bind def
94.5 57.6 o
grestore
gsave
36.500000 46.600000 translate
0.000000 rotate
/BitstreamVeraSans-Roman findfont
20.0 scalefont
setfont
0.000000 1.109375 moveto
/one glyphshow

12.724609 1.109375 moveto
/zero glyphshow

/BitstreamVeraSans-Roman findfont
14.0 scalefont
setfont
25.449219 11.609375 moveto
/hyphen glyphshow

30.500977 11.609375 moveto
/one glyphshow

39.408203 11.609375 moveto
/zero glyphshow


grestore
gsave
/o {
gsave
newpath
translate
0 0 m
6 0 l
gsave
0.000 setgray
fill
grestore
stroke
grestore
} bind def
94.5 123.429 o
grestore
gsave
45.500000 112.428571 translate
0.000000 rotate
/BitstreamVeraSans-Roman findfont
20.0 scalefont
setfont
0.000000 1.109375 moveto
/one glyphshow

12.724609 1.109375 moveto
/zero glyphshow

/BitstreamVeraSans-Roman findfont
14.0 scalefont
setfont
25.449219 11.609375 moveto
/hyphen glyphshow

30.500977 11.609375 moveto
/nine glyphshow


grestore
gsave
/o {
gsave
newpath
translate
0 0 m
6 0 l
gsave
0.000 setgray
fill
grestore
stroke
grestore
} bind def
94.5 189.257 o
grestore
gsave
45.500000 178.257143 translate
0.000000 rotate
/BitstreamVeraSans-Roman findfont
20.0 scalefont
setfont
0.000000 1.109375 moveto
/one glyphshow

12.724609 1.109375 moveto
/zero glyphshow

/BitstreamVeraSans-Roman findfont
14.0 scalefont
setfont
25.449219 11.609375 moveto
/hyphen glyphshow

30.500977 11.609375 moveto
/eight glyphshow


grestore
gsave
/o {
gsave
newpath
translate
0 0 m
6 0 l
gsave
0.000 setgray
fill
grestore
stroke
grestore
} bind def
94.5 255.086 o
grestore
gsave
45.500000 244.085714 translate
0.000000 rotate
/BitstreamVeraSans-Roman findfont
20.0 scalefont
setfont
0.000000 1.295313 moveto
/one glyphshow

12.724609 1.295313 moveto
/zero glyphshow

/BitstreamVeraSans-Roman findfont
14.0 scalefont
setfont
25.449219 11.795313 moveto
/hyphen glyphshow

30.500977 11.795313 moveto
/seven glyphshow


grestore
gsave
/o {
gsave
newpath
translate
0 0 m
6 0 l
gsave
0.000 setgray
fill
grestore
stroke
grestore
} bind def
94.5 320.914 o
grestore
gsave
45.500000 309.914286 translate
0.000000 rotate
/BitstreamVeraSans-Roman findfont
20.0 scalefont
setfont
0.000000 1.109375 moveto
/one glyphshow

12.724609 1.109375 moveto
/zero glyphshow

/BitstreamVeraSans-Roman findfont
14.0 scalefont
setfont
25.449219 11.609375 moveto
/hyphen glyphshow

30.500977 11.609375 moveto
/six glyphshow


grestore
gsave
/o {
gsave
newpath
translate
0 0 m
6 0 l
gsave
0.000 setgray
fill
grestore
stroke
grestore
} bind def
94.5 386.743 o
grestore
gsave
45.500000 375.742857 translate
0.000000 rotate
/BitstreamVeraSans-Roman findfont
20.0 scalefont
setfont
0.000000 1.295313 moveto
/one glyphshow

12.724609 1.295313 moveto
/zero glyphshow

/BitstreamVeraSans-Roman findfont
14.0 scalefont
setfont
25.449219 11.795313 moveto
/hyphen glyphshow

30.500977 11.795313 moveto
/five glyphshow


grestore
gsave
/o {
gsave
newpath
translate
0 0 m
6 0 l
gsave
0.000 setgray
fill
grestore
stroke
grestore
} bind def
94.5 452.571 o
grestore
gsave
45.500000 441.571429 translate
0.000000 rotate
/BitstreamVeraSans-Roman findfont
20.0 scalefont
setfont
0.000000 1.295313 moveto
/one glyphshow

12.724609 1.295313 moveto
/zero glyphshow

/BitstreamVeraSans-Roman findfont
14.0 scalefont
setfont
25.449219 11.795313 moveto
/hyphen glyphshow

30.500977 11.795313 moveto
/four glyphshow


grestore
gsave
/o {
gsave
newpath
translate
0 0 m
6 0 l
gsave
0.000 setgray
fill
grestore
stroke
grestore
} bind def
94.5 518.4 o
grestore
gsave
45.500000 507.400000 translate
0.000000 rotate
/BitstreamVeraSans-Roman findfont
20.0 scalefont
setfont
0.000000 1.109375 moveto
/one glyphshow

12.724609 1.109375 moveto
/zero glyphshow

/BitstreamVeraSans-Roman findfont
14.0 scalefont
setfont
25.449219 11.609375 moveto
/hyphen glyphshow

30.500977 11.609375 moveto
/three glyphshow


grestore
1.000 setlinewidth
gsave
/o {
gsave
newpath
translate
0 0 m
4 0 l
gsave
0.000 setgray
fill
grestore
stroke
grestore
} bind def
94.5 77.4164 o
grestore
gsave
/o {
gsave
newpath
translate
0 0 m
4 0 l
gsave
0.000 setgray
fill
grestore
stroke
grestore
} bind def
94.5 97.2327 o
grestore
gsave
/o {
gsave
newpath
translate
0 0 m
4 0 l
gsave
0.000 setgray
fill
grestore
stroke
grestore
} bind def
94.5 108.825 o
grestore
gsave
/o {
gsave
newpath
translate
0 0 m
4 0 l
gsave
0.000 setgray
fill
grestore
stroke
grestore
} bind def
94.5 117.049 o
grestore
gsave
/o {
gsave
newpath
translate
0 0 m
4 0 l
gsave
0.000 setgray
fill
grestore
stroke
grestore
} bind def
94.5 143.245 o
grestore
gsave
/o {
gsave
newpath
translate
0 0 m
4 0 l
gsave
0.000 setgray
fill
grestore
stroke
grestore
} bind def
94.5 163.061 o
grestore
gsave
/o {
gsave
newpath
translate
0 0 m
4 0 l
gsave
0.000 setgray
fill
grestore
stroke
grestore
} bind def
94.5 174.653 o
grestore
gsave
/o {
gsave
newpath
translate
0 0 m
4 0 l
gsave
0.000 setgray
fill
grestore
stroke
grestore
} bind def
94.5 182.878 o
grestore
gsave
/o {
gsave
newpath
translate
0 0 m
4 0 l
gsave
0.000 setgray
fill
grestore
stroke
grestore
} bind def
94.5 209.074 o
grestore
gsave
/o {
gsave
newpath
translate
0 0 m
4 0 l
gsave
0.000 setgray
fill
grestore
stroke
grestore
} bind def
94.5 228.89 o
grestore
gsave
/o {
gsave
newpath
translate
0 0 m
4 0 l
gsave
0.000 setgray
fill
grestore
stroke
grestore
} bind def
94.5 240.482 o
grestore
gsave
/o {
gsave
newpath
translate
0 0 m
4 0 l
gsave
0.000 setgray
fill
grestore
stroke
grestore
} bind def
94.5 248.706 o
grestore
gsave
/o {
gsave
newpath
translate
0 0 m
4 0 l
gsave
0.000 setgray
fill
grestore
stroke
grestore
} bind def
94.5 274.902 o
grestore
gsave
/o {
gsave
newpath
translate
0 0 m
4 0 l
gsave
0.000 setgray
fill
grestore
stroke
grestore
} bind def
94.5 294.718 o
grestore
gsave
/o {
gsave
newpath
translate
0 0 m
4 0 l
gsave
0.000 setgray
fill
grestore
stroke
grestore
} bind def
94.5 306.31 o
grestore
gsave
/o {
gsave
newpath
translate
0 0 m
4 0 l
gsave
0.000 setgray
fill
grestore
stroke
grestore
} bind def
94.5 314.535 o
grestore
gsave
/o {
gsave
newpath
translate
0 0 m
4 0 l
gsave
0.000 setgray
fill
grestore
stroke
grestore
} bind def
94.5 340.731 o
grestore
gsave
/o {
gsave
newpath
translate
0 0 m
4 0 l
gsave
0.000 setgray
fill
grestore
stroke
grestore
} bind def
94.5 360.547 o
grestore
gsave
/o {
gsave
newpath
translate
0 0 m
4 0 l
gsave
0.000 setgray
fill
grestore
stroke
grestore
} bind def
94.5 372.139 o
grestore
gsave
/o {
gsave
newpath
translate
0 0 m
4 0 l
gsave
0.000 setgray
fill
grestore
stroke
grestore
} bind def
94.5 380.363 o
grestore
gsave
/o {
gsave
newpath
translate
0 0 m
4 0 l
gsave
0.000 setgray
fill
grestore
stroke
grestore
} bind def
94.5 406.559 o
grestore
gsave
/o {
gsave
newpath
translate
0 0 m
4 0 l
gsave
0.000 setgray
fill
grestore
stroke
grestore
} bind def
94.5 426.376 o
grestore
gsave
/o {
gsave
newpath
translate
0 0 m
4 0 l
gsave
0.000 setgray
fill
grestore
stroke
grestore
} bind def
94.5 437.967 o
grestore
gsave
/o {
gsave
newpath
translate
0 0 m
4 0 l
gsave
0.000 setgray
fill
grestore
stroke
grestore
} bind def
94.5 446.192 o
grestore
gsave
/o {
gsave
newpath
translate
0 0 m
4 0 l
gsave
0.000 setgray
fill
grestore
stroke
grestore
} bind def
94.5 472.388 o
grestore
gsave
/o {
gsave
newpath
translate
0 0 m
4 0 l
gsave
0.000 setgray
fill
grestore
stroke
grestore
} bind def
94.5 492.204 o
grestore
gsave
/o {
gsave
newpath
translate
0 0 m
4 0 l
gsave
0.000 setgray
fill
grestore
stroke
grestore
} bind def
94.5 503.796 o
grestore
gsave
/o {
gsave
newpath
translate
0 0 m
4 0 l
gsave
0.000 setgray
fill
grestore
stroke
grestore
} bind def
94.5 512.021 o
grestore
gsave
31.500000 236.000000 translate
90.000000 rotate
/Cmmi10 findfont
20.0 scalefont
setfont
0.000000 5.167188 moveto
/rho glyphshow

/BitstreamVeraSans-Roman findfont
20.0 scalefont
setfont
10.341797 5.167188 moveto
/space glyphshow

16.699219 5.167188 moveto
/bracketleft glyphshow

24.501953 5.167188 moveto
/k glyphshow

36.083984 5.167188 moveto
/g glyphshow

48.779297 5.167188 moveto
/space glyphshow

55.136719 5.167188 moveto
/m glyphshow

/Cmsy10 findfont
14.0 scalefont
setfont
74.619141 13.670313 moveto
/minus glyphshow

/Cmr10 findfont
14.0 scalefont
setfont
85.495117 13.670313 moveto
/three glyphshow

/BitstreamVeraSans-Roman findfont
20.0 scalefont
setfont
95.896367 5.167188 moveto
/bracketright glyphshow


grestore
1.500 setlinewidth
2 setlinecap
gsave
94.5 518.4 m
680.4 518.4 l
stroke
grestore
gsave
680.4 57.6 m
680.4 518.4 l
stroke
grestore
gsave
94.5 57.6 m
680.4 57.6 l
stroke
grestore
gsave
94.5 57.6 m
94.5 518.4 l
stroke
grestore
gsave
245.369250 379.751015 translate
0.000000 rotate
/Cmmi10 findfont
20.0 scalefont
setfont
0.000000 5.156250 moveto
/rho glyphshow


grestore
0 setlinecap
[6 6] 0 setdash
0.000 0.500 0.000 setrgbcolor
gsave
585.9 460.8 94.5 57.6 clipbox
685.087 499.968 m
677.471 473.637 l
658.429 444.672 l
617.416 403.858 l
564.685 378.843 l
538.319 369.627 l
498.771 357.778 l
469.476 349.879 l
440.181 340.663 l
406.492 326.181 l
381.591 311.04 l
359.62 288.658 l
344.972 274.834 l
315.677 226.121 l
301.03 193.207 l
286.382 153.71 l
271.735 112.896 l
257.087 87.8811 l
245.369 79.9817 l
226.327 86.5646 l
197.032 118.821 l
167.738 160.293 l
138.442 212.955 l
123.795 249.161 l
109.148 299.849 l
94.5 376.21 l
stroke
grestore
[] 0 setdash
0.000 setgray
gsave
/o {
gsave
newpath
translate
0 0 m
-6 0 l
gsave
0.000 setgray
fill
grestore
stroke
grestore
} bind def
680.4 57.6 o
grestore
gsave
685.400000 50.037500 translate
0.000000 rotate
0.000000 0.281250 m /four glyphshow
12.724609 0.281250 m /zero glyphshow
25.449219 0.281250 m /zero glyphshow
38.173828 0.281250 m /zero glyphshow
grestore
gsave
/o {
gsave
newpath
translate
0 0 m
-6 0 l
gsave
0.000 setgray
fill
grestore
stroke
grestore
} bind def
680.4 123.429 o
grestore
gsave
685.400000 115.866071 translate
0.000000 rotate
0.000000 0.281250 m /four glyphshow
12.724609 0.281250 m /five glyphshow
25.449219 0.281250 m /zero glyphshow
38.173828 0.281250 m /zero glyphshow
grestore
gsave
/o {
gsave
newpath
translate
0 0 m
-6 0 l
gsave
0.000 setgray
fill
grestore
stroke
grestore
} bind def
680.4 189.257 o
grestore
gsave
685.400000 181.694643 translate
0.000000 rotate
0.000000 0.281250 m /five glyphshow
12.724609 0.281250 m /zero glyphshow
25.449219 0.281250 m /zero glyphshow
38.173828 0.281250 m /zero glyphshow
grestore
gsave
/o {
gsave
newpath
translate
0 0 m
-6 0 l
gsave
0.000 setgray
fill
grestore
stroke
grestore
} bind def
680.4 255.086 o
grestore
gsave
685.400000 247.523214 translate
0.000000 rotate
0.000000 0.281250 m /five glyphshow
12.724609 0.281250 m /five glyphshow
25.449219 0.281250 m /zero glyphshow
38.173828 0.281250 m /zero glyphshow
grestore
gsave
/o {
gsave
newpath
translate
0 0 m
-6 0 l
gsave
0.000 setgray
fill
grestore
stroke
grestore
} bind def
680.4 320.914 o
grestore
gsave
685.400000 313.351786 translate
0.000000 rotate
0.000000 0.281250 m /six glyphshow
12.724609 0.281250 m /zero glyphshow
25.449219 0.281250 m /zero glyphshow
38.173828 0.281250 m /zero glyphshow
grestore
gsave
/o {
gsave
newpath
translate
0 0 m
-6 0 l
gsave
0.000 setgray
fill
grestore
stroke
grestore
} bind def
680.4 386.743 o
grestore
gsave
685.400000 379.180357 translate
0.000000 rotate
0.000000 0.281250 m /six glyphshow
12.724609 0.281250 m /five glyphshow
25.449219 0.281250 m /zero glyphshow
38.173828 0.281250 m /zero glyphshow
grestore
gsave
/o {
gsave
newpath
translate
0 0 m
-6 0 l
gsave
0.000 setgray
fill
grestore
stroke
grestore
} bind def
680.4 452.571 o
grestore
gsave
685.400000 445.008929 translate
0.000000 rotate
0.000000 0.281250 m /seven glyphshow
12.724609 0.281250 m /zero glyphshow
25.449219 0.281250 m /zero glyphshow
38.173828 0.281250 m /zero glyphshow
grestore
gsave
/o {
gsave
newpath
translate
0 0 m
-6 0 l
gsave
0.000 setgray
fill
grestore
stroke
grestore
} bind def
680.4 518.4 o
grestore
gsave
685.400000 510.837500 translate
0.000000 rotate
0.000000 0.281250 m /seven glyphshow
12.724609 0.281250 m /five glyphshow
25.449219 0.281250 m /zero glyphshow
38.173828 0.281250 m /zero glyphshow
grestore
gsave
756.806250 265.187500 translate
90.000000 rotate
0.000000 2.640625 m /T glyphshow
12.216797 2.640625 m /space glyphshow
18.574219 2.640625 m /bracketleft glyphshow
26.376953 2.640625 m /K glyphshow
39.492188 2.640625 m /bracketright glyphshow
grestore
gsave
498.771000 377.526857 translate
0.000000 rotate
0.000000 0.000000 m /T glyphshow
grestore

end
showpage
