\relax 
\citation{Shelyag2011}
\citation{Bonet2008,Wedemeyer-Bohm2009,Bonet2010}
\citation{Bonet2008}
\citation{Wedemeyer-Bohm2009}
\citation{Wedemeyer-Bohm2009}
\citation{Fedun2011}
\citation{Vigeesh2011a}
\bibstyle{plainnat}
\bibdata{UKMHD_poster}
\bibcite{Bonet2010}{{1}{2010}{{Bonet et~al.}}{{Bonet, M\'{a}rquez, {S\'{a}nchez Almeida}, Palacios, {Mart\'{\i }nez Pillet}, Solanki, {Iniesta del Toro}, Domingo, Berkefeld, Schmidt, Gandorfer, Barthol, and Kn\"{o}lker}}}
\bibcite{Bonet2008}{{2}{2008}{{Bonet and Marquez}}{{}}}
\bibcite{Fedun2011}{{3}{2011}{{Fedun et~al.}}{{Fedun, Shelyag, and Erd\'{e}lyi}}}
\bibcite{Shelyag2011}{{4}{2011}{{Shelyag et~al.}}{{Shelyag, Fedun, Keenan, Erd\'{e}lyi, and Mathioudakis}}}
\bibcite{Vigeesh2011a}{{5}{2011}{{Vigeesh et~al.}}{{Vigeesh, Fedun, Hasan, and Erd\'{e}lyi}}}
\bibcite{Wedemeyer-Bohm2009}{{6}{2009}{{Wedemeyer-B\"{o}hm and {Rouppe van der Voort}}}{{}}}
\@writefile{toc}{\contentsline {section}{\numberline {1}Vortices in the Photosphere}{1}}
\@writefile{toc}{\contentsline {section}{\numberline {2}Simulation Configuration}{1}}
\newlabel{Vertical}{{1}{1}}
\newlabel{tor1}{{2}{1}}
\newlabel{Tor2}{{3}{1}}
\@writefile{toc}{\contentsline {section}{\numberline {3}Simulation Results}{1}}
\@writefile{toc}{\contentsline {section}{\numberline {4}Conclusion}{1}}
