%!PS-Adobe-3.0 EPSF-3.0
%%Title: /home/stuart/Documents/Dropbox/_PhD/SAC Flux Tube Paper/images/vacs.eps
%%Creator: matplotlib version 1.1.1, http://matplotlib.sourceforge.net/
%%CreationDate: Wed Sep 26 16:14:13 2012
%%Orientation: portrait
%%BoundingBox: -84 94 696 697
%%EndComments
%%BeginProlog
/mpldict 9 dict def
mpldict begin
/m { moveto } bind def
/l { lineto } bind def
/r { rlineto } bind def
/c { curveto } bind def
/cl { closepath } bind def
/box {
m
1 index 0 r
0 exch r
neg 0 r
cl
} bind def
/clipbox {
box
clip
newpath
} bind def
%!PS-Adobe-3.0 Resource-Font
%%Title: Bitstream Vera Sans
%%Copyright: Copyright (c) 2003 by Bitstream, Inc. All Rights Reserved.
%%Creator: Converted from TrueType to type 3 by PPR
25 dict begin
/_d{bind def}bind def
/_m{moveto}_d
/_l{lineto}_d
/_cl{closepath eofill}_d
/_c{curveto}_d
/_sc{7 -1 roll{setcachedevice}{pop pop pop pop pop pop}ifelse}_d
/_e{exec}_d
/FontName /BitstreamVeraSans-Roman def
/PaintType 0 def
/FontMatrix[.001 0 0 .001 0 0]def
/FontBBox[-183 -236 1287 928]def
/FontType 3 def
/Encoding [ /space /period /slash /zero /one /two /four /six /eight /B /C /H /M /S /bracketleft /bracketright /a /c /d /e /g /h /i /k /m /n /o /p /r /s /t /u ] def
/FontInfo 10 dict dup begin
/FamilyName (Bitstream Vera Sans) def
/FullName (Bitstream Vera Sans) def
/Notice (Copyright (c) 2003 by Bitstream, Inc. All Rights Reserved. Bitstream Vera is a trademark of Bitstream, Inc.) def
/Weight (Roman) def
/Version (Release 1.10) def
/ItalicAngle 0.0 def
/isFixedPitch false def
/UnderlinePosition -213 def
/UnderlineThickness 143 def
end readonly def
/CharStrings 32 dict dup begin
/space{318 0 0 0 0 0 _sc
}_d
/period{318 0 107 0 210 124 _sc
107 124 _m
210 124 _l
210 0 _l
107 0 _l
107 124 _l
_cl}_d
/slash{337 0 0 -92 337 729 _sc
254 729 _m
337 729 _l
83 -92 _l
0 -92 _l
254 729 _l
_cl}_d
/zero{636 0 66 -13 570 742 _sc
318 664 _m
267 664 229 639 203 589 _c
177 539 165 464 165 364 _c
165 264 177 189 203 139 _c
229 89 267 64 318 64 _c
369 64 407 89 433 139 _c
458 189 471 264 471 364 _c
471 464 458 539 433 589 _c
407 639 369 664 318 664 _c
318 742 _m
399 742 461 709 505 645 _c
548 580 570 486 570 364 _c
570 241 548 147 505 83 _c
461 19 399 -13 318 -13 _c
236 -13 173 19 130 83 _c
87 147 66 241 66 364 _c
66 486 87 580 130 645 _c
173 709 236 742 318 742 _c
_cl}_d
/one{636 0 110 0 544 729 _sc
124 83 _m
285 83 _l
285 639 _l
110 604 _l
110 694 _l
284 729 _l
383 729 _l
383 83 _l
544 83 _l
544 0 _l
124 0 _l
124 83 _l
_cl}_d
/two{{636 0 73 0 536 742 _sc
192 83 _m
536 83 _l
536 0 _l
73 0 _l
73 83 _l
110 121 161 173 226 239 _c
290 304 331 346 348 365 _c
380 400 402 430 414 455 _c
426 479 433 504 433 528 _c
433 566 419 598 392 622 _c
365 646 330 659 286 659 _c
255 659 222 653 188 643 _c
154 632 117 616 78 594 _c
78 694 _l
118 710 155 722 189 730 _c
223 738 255 742 284 742 _c
}_e{359 742 419 723 464 685 _c
509 647 532 597 532 534 _c
532 504 526 475 515 449 _c
504 422 484 390 454 354 _c
446 344 420 317 376 272 _c
332 227 271 164 192 83 _c
_cl}_e}_d
/four{636 0 49 0 580 729 _sc
378 643 _m
129 254 _l
378 254 _l
378 643 _l
352 729 _m
476 729 _l
476 254 _l
580 254 _l
580 172 _l
476 172 _l
476 0 _l
378 0 _l
378 172 _l
49 172 _l
49 267 _l
352 729 _l
_cl}_d
/six{{636 0 70 -13 573 742 _sc
330 404 _m
286 404 251 388 225 358 _c
199 328 186 286 186 234 _c
186 181 199 139 225 109 _c
251 79 286 64 330 64 _c
374 64 409 79 435 109 _c
461 139 474 181 474 234 _c
474 286 461 328 435 358 _c
409 388 374 404 330 404 _c
526 713 _m
526 623 _l
501 635 476 644 451 650 _c
425 656 400 659 376 659 _c
310 659 260 637 226 593 _c
}_e{192 549 172 482 168 394 _c
187 422 211 444 240 459 _c
269 474 301 482 336 482 _c
409 482 467 459 509 415 _c
551 371 573 310 573 234 _c
573 159 550 99 506 54 _c
462 9 403 -13 330 -13 _c
246 -13 181 19 137 83 _c
92 147 70 241 70 364 _c
70 479 97 571 152 639 _c
206 707 280 742 372 742 _c
396 742 421 739 447 735 _c
472 730 498 723 526 713 _c
_cl}_e}_d
/eight{{636 0 68 -13 568 742 _sc
318 346 _m
271 346 234 333 207 308 _c
180 283 167 249 167 205 _c
167 161 180 126 207 101 _c
234 76 271 64 318 64 _c
364 64 401 76 428 102 _c
455 127 469 161 469 205 _c
469 249 455 283 429 308 _c
402 333 365 346 318 346 _c
219 388 _m
177 398 144 418 120 447 _c
96 476 85 511 85 553 _c
85 611 105 657 147 691 _c
188 725 245 742 318 742 _c
}_e{390 742 447 725 489 691 _c
530 657 551 611 551 553 _c
551 511 539 476 515 447 _c
491 418 459 398 417 388 _c
464 377 501 355 528 323 _c
554 291 568 251 568 205 _c
568 134 546 80 503 43 _c
459 5 398 -13 318 -13 _c
237 -13 175 5 132 43 _c
89 80 68 134 68 205 _c
68 251 81 291 108 323 _c
134 355 171 377 219 388 _c
183 544 _m
183 506 194 476 218 455 _c
}_e{242 434 275 424 318 424 _c
360 424 393 434 417 455 _c
441 476 453 506 453 544 _c
453 582 441 611 417 632 _c
393 653 360 664 318 664 _c
275 664 242 653 218 632 _c
194 611 183 582 183 544 _c
_cl}_e}_d
/B{{686 0 98 0 615 729 _sc
197 348 _m
197 81 _l
355 81 _l
408 81 447 92 473 114 _c
498 136 511 169 511 215 _c
511 260 498 293 473 315 _c
447 337 408 348 355 348 _c
197 348 _l
197 648 _m
197 428 _l
343 428 _l
391 428 426 437 450 455 _c
474 473 486 500 486 538 _c
486 574 474 602 450 620 _c
426 638 391 648 343 648 _c
197 648 _l
98 729 _m
350 729 _l
}_e{425 729 483 713 524 682 _c
564 650 585 606 585 549 _c
585 504 574 468 553 442 _c
532 416 502 399 462 393 _c
510 382 548 360 575 327 _c
601 294 615 253 615 204 _c
615 138 592 88 548 53 _c
504 17 441 0 360 0 _c
98 0 _l
98 729 _l
_cl}_e}_d
/C{{698 0 56 -13 644 742 _sc
644 673 _m
644 569 _l
610 599 575 622 537 638 _c
499 653 460 661 418 661 _c
334 661 270 635 226 584 _c
182 533 160 460 160 364 _c
160 268 182 194 226 143 _c
270 92 334 67 418 67 _c
460 67 499 74 537 90 _c
575 105 610 128 644 159 _c
644 56 _l
609 32 572 15 534 4 _c
496 -7 455 -13 412 -13 _c
302 -13 215 20 151 87 _c
}_e{87 154 56 246 56 364 _c
56 481 87 573 151 641 _c
215 708 302 742 412 742 _c
456 742 497 736 535 725 _c
573 713 610 696 644 673 _c
_cl}_e}_d
/H{752 0 98 0 654 729 _sc
98 729 _m
197 729 _l
197 430 _l
555 430 _l
555 729 _l
654 729 _l
654 0 _l
555 0 _l
555 347 _l
197 347 _l
197 0 _l
98 0 _l
98 729 _l
_cl}_d
/M{863 0 98 0 765 729 _sc
98 729 _m
245 729 _l
431 233 _l
618 729 _l
765 729 _l
765 0 _l
669 0 _l
669 640 _l
481 140 _l
382 140 _l
194 640 _l
194 0 _l
98 0 _l
98 729 _l
_cl}_d
/S{{635 0 66 -13 579 742 _sc
535 705 _m
535 609 _l
497 627 462 640 429 649 _c
395 657 363 662 333 662 _c
279 662 237 651 208 631 _c
179 610 165 580 165 542 _c
165 510 174 485 194 469 _c
213 452 250 439 304 429 _c
364 417 _l
437 403 491 378 526 343 _c
561 307 579 260 579 201 _c
579 130 555 77 508 41 _c
460 5 391 -13 300 -13 _c
265 -13 228 -9 189 -2 _c
}_e{150 5 110 16 69 32 _c
69 134 _l
109 111 148 94 186 83 _c
224 71 262 66 300 66 _c
356 66 399 77 430 99 _c
460 121 476 152 476 194 _c
476 230 465 258 443 278 _c
421 298 385 313 335 323 _c
275 335 _l
201 349 148 372 115 404 _c
82 435 66 478 66 534 _c
66 598 88 649 134 686 _c
179 723 242 742 322 742 _c
356 742 390 739 426 733 _c
461 727 497 717 535 705 _c
}_e{_cl}_e}_d
/bracketleft{390 0 86 -131 293 760 _sc
86 760 _m
293 760 _l
293 690 _l
176 690 _l
176 -61 _l
293 -61 _l
293 -131 _l
86 -131 _l
86 760 _l
_cl}_d
/bracketright{390 0 97 -131 304 760 _sc
304 760 _m
304 -131 _l
97 -131 _l
97 -61 _l
214 -61 _l
214 690 _l
97 690 _l
97 760 _l
304 760 _l
_cl}_d
/a{{613 0 60 -13 522 560 _sc
343 275 _m
270 275 220 266 192 250 _c
164 233 150 205 150 165 _c
150 133 160 107 181 89 _c
202 70 231 61 267 61 _c
317 61 357 78 387 114 _c
417 149 432 196 432 255 _c
432 275 _l
343 275 _l
522 312 _m
522 0 _l
432 0 _l
432 83 _l
411 49 385 25 355 10 _c
325 -5 287 -13 243 -13 _c
187 -13 142 2 109 33 _c
76 64 60 106 60 159 _c
}_e{60 220 80 266 122 298 _c
163 329 224 345 306 345 _c
432 345 _l
432 354 _l
432 395 418 427 391 450 _c
364 472 326 484 277 484 _c
245 484 215 480 185 472 _c
155 464 127 453 100 439 _c
100 522 _l
132 534 164 544 195 550 _c
226 556 256 560 286 560 _c
365 560 424 539 463 498 _c
502 457 522 395 522 312 _c
_cl}_e}_d
/c{{550 0 55 -13 488 560 _sc
488 526 _m
488 442 _l
462 456 437 466 411 473 _c
385 480 360 484 334 484 _c
276 484 230 465 198 428 _c
166 391 150 339 150 273 _c
150 206 166 154 198 117 _c
230 80 276 62 334 62 _c
360 62 385 65 411 72 _c
437 79 462 90 488 104 _c
488 21 _l
462 9 436 0 410 -5 _c
383 -10 354 -13 324 -13 _c
242 -13 176 12 128 64 _c
}_e{79 115 55 185 55 273 _c
55 362 79 432 128 483 _c
177 534 244 560 330 560 _c
358 560 385 557 411 551 _c
437 545 463 537 488 526 _c
_cl}_e}_d
/d{{635 0 55 -13 544 760 _sc
454 464 _m
454 760 _l
544 760 _l
544 0 _l
454 0 _l
454 82 _l
435 49 411 25 382 10 _c
353 -5 319 -13 279 -13 _c
213 -13 159 13 117 65 _c
75 117 55 187 55 273 _c
55 359 75 428 117 481 _c
159 533 213 560 279 560 _c
319 560 353 552 382 536 _c
411 520 435 496 454 464 _c
148 273 _m
148 207 161 155 188 117 _c
215 79 253 61 301 61 _c
}_e{348 61 385 79 413 117 _c
440 155 454 207 454 273 _c
454 339 440 390 413 428 _c
385 466 348 485 301 485 _c
253 485 215 466 188 428 _c
161 390 148 339 148 273 _c
_cl}_e}_d
/e{{615 0 55 -13 562 560 _sc
562 296 _m
562 252 _l
149 252 _l
153 190 171 142 205 110 _c
238 78 284 62 344 62 _c
378 62 412 66 444 74 _c
476 82 509 95 541 113 _c
541 28 _l
509 14 476 3 442 -3 _c
408 -9 373 -13 339 -13 _c
251 -13 182 12 131 62 _c
80 112 55 181 55 268 _c
55 357 79 428 127 481 _c
175 533 241 560 323 560 _c
397 560 455 536 498 489 _c
}_e{540 441 562 377 562 296 _c
472 322 _m
471 371 457 410 431 440 _c
404 469 368 484 324 484 _c
274 484 234 469 204 441 _c
174 413 156 373 152 322 _c
472 322 _l
_cl}_e}_d
/g{{635 0 55 -207 544 560 _sc
454 280 _m
454 344 440 395 414 431 _c
387 467 349 485 301 485 _c
253 485 215 467 188 431 _c
161 395 148 344 148 280 _c
148 215 161 165 188 129 _c
215 93 253 75 301 75 _c
349 75 387 93 414 129 _c
440 165 454 215 454 280 _c
544 68 _m
544 -24 523 -93 482 -139 _c
440 -184 377 -207 292 -207 _c
260 -207 231 -204 203 -200 _c
175 -195 147 -188 121 -178 _c
}_e{121 -91 _l
147 -105 173 -115 199 -122 _c
225 -129 251 -133 278 -133 _c
336 -133 380 -117 410 -87 _c
439 -56 454 -10 454 52 _c
454 96 _l
435 64 411 40 382 24 _c
353 8 319 0 279 0 _c
211 0 157 25 116 76 _c
75 127 55 195 55 280 _c
55 364 75 432 116 483 _c
157 534 211 560 279 560 _c
319 560 353 552 382 536 _c
411 520 435 496 454 464 _c
454 547 _l
544 547 _l
}_e{544 68 _l
_cl}_e}_d
/h{634 0 91 0 549 760 _sc
549 330 _m
549 0 _l
459 0 _l
459 327 _l
459 379 448 417 428 443 _c
408 469 378 482 338 482 _c
289 482 251 466 223 435 _c
195 404 181 362 181 309 _c
181 0 _l
91 0 _l
91 760 _l
181 760 _l
181 462 _l
202 494 227 519 257 535 _c
286 551 320 560 358 560 _c
420 560 468 540 500 501 _c
532 462 549 405 549 330 _c
_cl}_d
/i{278 0 94 0 184 760 _sc
94 547 _m
184 547 _l
184 0 _l
94 0 _l
94 547 _l
94 760 _m
184 760 _l
184 646 _l
94 646 _l
94 760 _l
_cl}_d
/k{579 0 91 0 576 760 _sc
91 760 _m
181 760 _l
181 311 _l
449 547 _l
564 547 _l
274 291 _l
576 0 _l
459 0 _l
181 267 _l
181 0 _l
91 0 _l
91 760 _l
_cl}_d
/m{{974 0 91 0 889 560 _sc
520 442 _m
542 482 569 511 600 531 _c
631 550 668 560 711 560 _c
767 560 811 540 842 500 _c
873 460 889 403 889 330 _c
889 0 _l
799 0 _l
799 327 _l
799 379 789 418 771 444 _c
752 469 724 482 686 482 _c
639 482 602 466 575 435 _c
548 404 535 362 535 309 _c
535 0 _l
445 0 _l
445 327 _l
445 379 435 418 417 444 _c
398 469 369 482 331 482 _c
}_e{285 482 248 466 221 435 _c
194 404 181 362 181 309 _c
181 0 _l
91 0 _l
91 547 _l
181 547 _l
181 462 _l
201 495 226 520 255 536 _c
283 552 317 560 357 560 _c
397 560 430 550 458 530 _c
486 510 506 480 520 442 _c
_cl}_e}_d
/n{634 0 91 0 549 560 _sc
549 330 _m
549 0 _l
459 0 _l
459 327 _l
459 379 448 417 428 443 _c
408 469 378 482 338 482 _c
289 482 251 466 223 435 _c
195 404 181 362 181 309 _c
181 0 _l
91 0 _l
91 547 _l
181 547 _l
181 462 _l
202 494 227 519 257 535 _c
286 551 320 560 358 560 _c
420 560 468 540 500 501 _c
532 462 549 405 549 330 _c
_cl}_d
/o{612 0 55 -13 557 560 _sc
306 484 _m
258 484 220 465 192 427 _c
164 389 150 338 150 273 _c
150 207 163 156 191 118 _c
219 80 257 62 306 62 _c
354 62 392 80 420 118 _c
448 156 462 207 462 273 _c
462 337 448 389 420 427 _c
392 465 354 484 306 484 _c
306 560 _m
384 560 445 534 490 484 _c
534 433 557 363 557 273 _c
557 183 534 113 490 63 _c
445 12 384 -13 306 -13 _c
227 -13 165 12 121 63 _c
77 113 55 183 55 273 _c
55 363 77 433 121 484 _c
165 534 227 560 306 560 _c
_cl}_d
/p{{635 0 91 -207 580 560 _sc
181 82 _m
181 -207 _l
91 -207 _l
91 547 _l
181 547 _l
181 464 _l
199 496 223 520 252 536 _c
281 552 316 560 356 560 _c
422 560 476 533 518 481 _c
559 428 580 359 580 273 _c
580 187 559 117 518 65 _c
476 13 422 -13 356 -13 _c
316 -13 281 -5 252 10 _c
223 25 199 49 181 82 _c
487 273 _m
487 339 473 390 446 428 _c
418 466 381 485 334 485 _c
}_e{286 485 249 466 222 428 _c
194 390 181 339 181 273 _c
181 207 194 155 222 117 _c
249 79 286 61 334 61 _c
381 61 418 79 446 117 _c
473 155 487 207 487 273 _c
_cl}_e}_d
/r{411 0 91 0 411 560 _sc
411 463 _m
401 469 390 473 378 476 _c
366 478 353 480 339 480 _c
288 480 249 463 222 430 _c
194 397 181 350 181 288 _c
181 0 _l
91 0 _l
91 547 _l
181 547 _l
181 462 _l
199 495 224 520 254 536 _c
284 552 321 560 365 560 _c
371 560 378 559 386 559 _c
393 558 401 557 411 555 _c
411 463 _l
_cl}_d
/s{{521 0 54 -13 472 560 _sc
443 531 _m
443 446 _l
417 458 391 468 364 475 _c
336 481 308 485 279 485 _c
234 485 200 478 178 464 _c
156 450 145 430 145 403 _c
145 382 153 366 169 354 _c
185 342 217 330 265 320 _c
296 313 _l
360 299 405 279 432 255 _c
458 230 472 195 472 151 _c
472 100 452 60 412 31 _c
372 1 316 -13 246 -13 _c
216 -13 186 -10 154 -5 _c
}_e{122 0 89 8 54 20 _c
54 113 _l
87 95 120 82 152 74 _c
184 65 216 61 248 61 _c
290 61 323 68 346 82 _c
368 96 380 117 380 144 _c
380 168 371 187 355 200 _c
339 213 303 226 247 238 _c
216 245 _l
160 257 119 275 95 299 _c
70 323 58 356 58 399 _c
58 450 76 490 112 518 _c
148 546 200 560 268 560 _c
301 560 332 557 362 552 _c
391 547 418 540 443 531 _c
}_e{_cl}_e}_d
/t{392 0 27 0 368 702 _sc
183 702 _m
183 547 _l
368 547 _l
368 477 _l
183 477 _l
183 180 _l
183 135 189 106 201 94 _c
213 81 238 75 276 75 _c
368 75 _l
368 0 _l
276 0 _l
206 0 158 13 132 39 _c
106 65 93 112 93 180 _c
93 477 _l
27 477 _l
27 547 _l
93 547 _l
93 702 _l
183 702 _l
_cl}_d
/u{634 0 85 -13 543 547 _sc
85 216 _m
85 547 _l
175 547 _l
175 219 _l
175 167 185 129 205 103 _c
225 77 255 64 296 64 _c
344 64 383 79 411 110 _c
439 141 453 183 453 237 _c
453 547 _l
543 547 _l
543 0 _l
453 0 _l
453 84 _l
431 50 405 26 377 10 _c
348 -5 315 -13 277 -13 _c
214 -13 166 6 134 45 _c
101 83 85 140 85 216 _c
_cl}_d
end readonly def

/BuildGlyph
 {exch begin
 CharStrings exch
 2 copy known not{pop /.notdef}if
 true 3 1 roll get exec
 end}_d

/BuildChar {
 1 index /Encoding get exch get
 1 index /BuildGlyph get exec
}_d

FontName currentdict end definefont pop
%!PS-Adobe-3.0 Resource-Font
%%Title: cmmi10
%%Copyright: Copyright (C) 1994, Basil K. Malyshev. All Rights Reserved.012BaKoMa Fonts Collection, Level-B.
%%Creator: Converted from TrueType to type 3 by PPR
25 dict begin
/_d{bind def}bind def
/_m{moveto}_d
/_l{lineto}_d
/_cl{closepath eofill}_d
/_c{curveto}_d
/_sc{7 -1 roll{setcachedevice}{pop pop pop pop pop pop}ifelse}_d
/_e{exec}_d
/FontName /Cmmi10 def
/PaintType 0 def
/FontMatrix[.001 0 0 .001 0 0]def
/FontBBox[-34 -250 1048 750]def
/FontType 3 def
/Encoding [ /s /A /C /V ] def
/FontInfo 10 dict dup begin
/FamilyName (cmmi10) def
/FullName (cmmi10) def
/Notice (Copyright (C) 1994, Basil K. Malyshev. All Rights Reserved.012BaKoMa Fonts Collection, Level-B. ) def
/Weight (Regular) def
/Version (1.1/12-Nov-94) def
/ItalicAngle 0.0 def
/isFixedPitch false def
/UnderlinePosition -133 def
/UnderlineThickness 20 def
end readonly def
/CharStrings 4 dict dup begin
/s{{468 0 52 -10 419 442 _sc
87 61 _m
105 30 141 15 195 15 _c
218 15 240 19 261 27 _c
282 35 300 47 314 63 _c
328 79 335 98 335 121 _c
335 138 328 152 316 163 _c
304 174 289 182 271 186 _c
217 197 _l
192 203 172 214 156 231 _c
140 248 132 269 132 293 _c
132 322 140 348 156 371 _c
172 394 193 412 219 424 _c
245 436 273 442 302 442 _c
332 442 359 434 383 420 _c
}_e{407 405 419 384 419 356 _c
419 340 414 327 406 315 _c
397 303 385 298 370 298 _c
361 298 353 300 347 306 _c
341 312 338 319 338 328 _c
338 336 340 343 344 351 _c
348 358 354 364 362 368 _c
369 372 377 375 385 375 _c
379 389 368 399 352 406 _c
336 412 318 416 300 416 _c
282 416 265 412 249 406 _c
232 399 218 389 208 376 _c
198 362 193 347 193 329 _c
}_e{193 317 197 306 205 297 _c
213 288 224 282 237 278 _c
295 266 _l
313 262 330 255 346 245 _c
361 235 373 222 382 207 _c
391 192 396 175 396 156 _c
396 131 389 106 375 82 _c
361 58 344 39 324 25 _c
288 1 245 -10 194 -10 _c
158 -10 126 -2 96 14 _c
66 30 52 54 52 86 _c
52 104 57 119 67 133 _c
77 147 92 154 111 154 _c
121 154 130 150 138 144 _c
}_e{145 137 149 128 149 118 _c
149 102 143 89 132 78 _c
120 66 107 61 92 61 _c
87 61 _l
_cl}_e}_d
/A{{750 0 35 0 723 716 _sc
45 0 _m
38 0 35 4 35 13 _c
37 27 42 35 48 35 _c
74 35 97 40 117 51 _c
137 61 154 78 169 101 _c
170 102 171 103 171 103 _c
528 705 _l
533 712 539 716 547 716 _c
560 716 _l
562 716 564 715 566 714 _c
568 713 569 712 571 710 _c
572 708 573 707 573 705 _c
634 59 _l
634 56 635 52 638 46 _c
644 38 669 35 713 35 _c
}_e{719 35 723 30 723 22 _c
721 13 719 7 717 4 _c
715 1 712 0 706 0 _c
456 0 _l
450 0 447 4 447 13 _c
450 27 454 35 460 35 _c
512 35 540 44 544 62 _c
529 227 _l
282 227 _l
202 93 _l
197 85 195 77 195 68 _c
195 56 200 47 212 42 _c
223 37 235 35 249 35 _c
255 35 259 30 259 22 _c
256 12 254 6 253 4 _c
251 1 248 0 242 0 _c
}_e{45 0 _l
302 262 _m
525 262 _l
495 586 _l
302 262 _l
_cl}_e}_d
/C{{714 0 51 -21 760 705 _sc
146 216 _m
146 176 153 140 169 110 _c
184 79 206 55 236 38 _c
266 21 301 13 341 13 _c
383 13 423 23 462 45 _c
501 67 534 96 562 132 _c
589 168 608 206 618 246 _c
619 250 622 252 626 252 _c
638 252 _l
640 252 642 251 644 249 _c
646 247 647 245 647 243 _c
647 242 646 241 646 240 _c
634 194 612 150 580 110 _c
547 69 508 37 462 14 _c
}_e{416 -9 370 -21 322 -21 _c
270 -21 223 -9 182 13 _c
140 36 108 68 85 110 _c
62 152 51 199 51 252 _c
51 308 63 363 88 418 _c
113 472 147 521 189 564 _c
231 607 280 641 334 667 _c
388 692 443 705 499 705 _c
521 705 542 701 562 695 _c
582 688 601 678 619 664 _c
636 650 650 635 661 617 _c
740 703 _l
740 704 741 705 745 705 _c
751 705 _l
753 705 755 703 757 701 _c
}_e{759 699 760 697 760 695 _c
692 425 _l
692 420 689 418 684 418 _c
666 418 _l
660 418 658 421 658 429 _c
660 443 662 461 662 482 _c
662 514 656 545 645 574 _c
634 602 617 625 594 643 _c
570 661 542 670 509 670 _c
454 670 404 656 359 629 _c
314 601 276 565 244 521 _c
212 477 188 427 171 373 _c
154 319 146 266 146 216 _c
_cl}_e}_d
/V{{583 0 55 -21 769 683 _sc
220 -10 _m
140 626 _l
135 640 110 648 65 648 _c
58 648 55 652 55 661 _c
56 668 58 673 60 677 _c
62 681 66 683 72 683 _c
316 683 _l
319 683 321 681 323 679 _c
325 676 326 673 326 670 _c
323 655 319 648 313 648 _c
261 648 233 639 230 621 _c
296 98 _l
604 590 _l
610 600 613 609 613 616 _c
613 628 607 636 597 641 _c
586 645 574 648 560 648 _c
}_e{553 648 550 652 550 661 _c
551 666 552 670 553 673 _c
554 676 556 678 558 680 _c
560 682 563 683 567 683 _c
760 683 _l
766 683 769 678 769 670 _c
766 655 762 648 756 648 _c
706 648 666 626 638 582 _c
636 580 635 580 635 580 _c
266 -10 _l
261 -17 255 -21 247 -21 _c
233 -21 _l
225 -21 221 -17 220 -10 _c
_cl}_e}_d
end readonly def

/BuildGlyph
 {exch begin
 CharStrings exch
 2 copy known not{pop /.notdef}if
 true 3 1 roll get exec
 end}_d

/BuildChar {
 1 index /Encoding get exch get
 1 index /BuildGlyph get exec
}_d

FontName currentdict end definefont pop
end
%%EndProlog
mpldict begin
-84.6 94.05 translate
781.2 603.9 0 0 clipbox
gsave
0 0 m
781.2 0 l
781.2 603.9 l
0 603.9 l
cl
1.000 setgray
fill
grestore
gsave
97.65 60.39 m
703.08 60.39 l
703.08 543.51 l
97.65 543.51 l
cl
1.000 setgray
fill
grestore
1.000 setlinewidth
1 setlinejoin
0 setlinecap
[6 6] 0 setdash
0.000 0.000 1.000 setrgbcolor
gsave
605.4 483.1 97.65 60.39 clipbox
130.001 60.39 m
134.623 60.39 l
139.244 60.39 l
143.866 60.39 l
148.488 60.39 l
153.109 60.39 l
157.731 60.39 l
162.352 60.39 l
166.974 60.39 l
171.596 60.39 l
176.217 60.39 l
180.839 60.39 l
185.46 60.39 l
190.082 60.39 l
194.704 60.39 l
199.325 60.39 l
203.947 60.39 l
208.568 60.39 l
213.19 60.39 l
217.812 60.39 l
222.433 60.39 l
227.055 60.39 l
231.676 60.39 l
236.298 60.39 l
240.92 60.39 l
245.541 60.39 l
250.163 60.39 l
254.785 60.39 l
259.406 60.39 l
264.028 60.39 l
268.649 60.39 l
273.271 60.39 l
277.893 60.39 l
282.514 60.39 l
287.136 60.39 l
291.757 60.39 l
296.379 60.39 l
301.001 60.39 l
305.622 60.39 l
310.244 60.39 l
314.865 60.39 l
319.487 60.39 l
324.109 60.39 l
328.73 60.39 l
333.352 60.39 l
337.973 60.39 l
342.595 60.39 l
347.217 60.39 l
351.838 60.39 l
356.46 60.39 l
361.081 60.39 l
365.703 60.39 l
370.325 60.39 l
374.946 60.39 l
379.568 60.39 l
384.189 60.3901 l
388.811 60.3901 l
393.433 60.3903 l
398.054 60.3906 l
402.676 60.3911 l
407.297 60.3921 l
411.919 60.3937 l
416.541 60.3965 l
421.162 60.4009 l
425.784 60.4077 l
430.405 60.4178 l
435.027 60.4327 l
439.649 60.4537 l
444.27 60.4828 l
448.892 60.5221 l
453.513 60.5739 l
458.135 60.6408 l
462.757 60.7254 l
467.378 60.8307 l
472 60.9591 l
476.621 61.1133 l
481.243 61.2957 l
485.865 61.5081 l
490.486 61.7523 l
495.108 62.0294 l
499.729 62.34 l
504.351 62.6845 l
508.973 63.0624 l
513.594 63.473 l
518.216 63.9151 l
522.837 64.3871 l
527.459 64.8871 l
532.081 65.4129 l
536.702 65.9623 l
541.324 66.5329 l
545.945 67.1224 l
550.567 67.7286 l
555.189 68.3494 l
559.81 68.9829 l
564.432 69.6276 l
569.054 70.2823 l
573.675 70.946 l
578.297 71.6182 l
582.918 72.2988 l
587.54 72.9877 l
592.162 73.6856 l
596.783 74.3929 l
601.405 75.1108 l
606.026 75.8404 l
610.648 76.5829 l
615.27 77.3398 l
619.891 78.1126 l
624.513 78.9031 l
629.134 79.7127 l
633.756 80.5435 l
638.378 81.3972 l
642.999 82.276 l
647.621 83.1823 l
652.242 84.1186 l
656.864 85.0884 l
661.486 86.0956 l
666.107 87.1453 l
670.729 88.2442 l
675.35 89.4005 l
stroke
grestore
2 setlinecap
[] 0 setdash
gsave
605.4 483.1 97.65 60.39 clipbox
130.001 379.093 m
134.623 367.944 l
139.244 353.314 l
143.866 340.693 l
148.488 329.473 l
153.109 319.438 l
157.731 310.419 l
162.352 302.28 l
166.974 294.908 l
171.596 288.21 l
176.217 282.107 l
180.839 276.533 l
185.46 271.432 l
190.082 266.756 l
194.704 262.462 l
199.325 258.515 l
203.947 254.881 l
208.568 251.534 l
213.19 248.45 l
217.812 245.605 l
222.433 242.982 l
227.055 240.562 l
231.676 238.332 l
236.298 236.277 l
240.92 234.384 l
245.541 232.645 l
250.163 231.049 l
254.785 229.587 l
259.406 228.252 l
264.028 227.038 l
268.649 225.938 l
273.271 224.948 l
277.893 224.064 l
282.514 223.281 l
287.136 222.597 l
291.757 222.009 l
296.379 221.514 l
301.001 221.112 l
305.622 220.799 l
310.244 220.573 l
314.865 220.434 l
319.487 220.378 l
324.109 220.402 l
328.73 220.503 l
333.352 220.677 l
337.973 220.919 l
342.595 221.222 l
347.217 221.582 l
351.838 221.991 l
356.46 222.439 l
361.081 222.918 l
365.703 223.421 l
370.325 223.936 l
374.946 224.455 l
379.568 224.968 l
384.189 225.467 l
388.811 225.944 l
393.433 226.391 l
398.054 226.805 l
402.676 227.18 l
407.297 227.516 l
411.919 227.812 l
416.541 228.069 l
421.162 228.292 l
425.784 228.487 l
430.405 228.659 l
435.027 228.818 l
439.649 228.974 l
444.27 229.134 l
448.892 229.311 l
453.513 229.518 l
458.135 229.758 l
462.757 230.043 l
467.378 230.397 l
472 230.791 l
476.621 231.264 l
481.243 231.864 l
485.865 232.466 l
490.486 233.187 l
495.108 234.05 l
499.729 234.935 l
504.351 235.996 l
508.973 237.094 l
513.594 238.307 l
518.216 239.696 l
522.837 241.11 l
527.459 242.724 l
532.081 244.384 l
536.702 246.178 l
541.324 248.171 l
545.945 250.201 l
550.567 252.462 l
555.189 254.784 l
559.81 257.268 l
564.432 259.99 l
569.054 262.767 l
573.675 265.821 l
578.297 268.962 l
582.918 272.304 l
587.54 275.929 l
592.162 279.653 l
596.783 283.637 l
601.405 287.811 l
606.026 292.277 l
610.648 296.877 l
615.27 301.729 l
619.891 306.928 l
624.513 312.233 l
629.134 317.932 l
633.756 323.768 l
638.378 329.895 l
642.999 336.422 l
647.621 343.081 l
652.242 350.212 l
656.864 357.534 l
661.486 365.246 l
666.107 373.503 l
670.729 382.031 l
675.35 386.94 l
stroke
grestore
0 setlinecap
[6 6] 0 setdash
0.000 0.500 0.000 setrgbcolor
gsave
605.4 483.1 97.65 60.39 clipbox
130.001 397.235 m
134.623 393.971 l
139.244 390.841 l
143.866 387.845 l
148.488 384.979 l
153.109 382.242 l
157.731 379.63 l
162.352 377.143 l
166.974 374.775 l
171.596 372.524 l
176.217 370.385 l
180.839 368.356 l
185.46 366.432 l
190.082 364.61 l
194.704 362.884 l
199.325 361.252 l
203.947 359.71 l
208.568 358.253 l
213.19 356.879 l
217.812 355.583 l
222.433 354.363 l
227.055 353.216 l
231.676 352.138 l
236.298 351.128 l
240.92 350.182 l
245.541 349.3 l
250.163 348.48 l
254.785 347.72 l
259.406 347.02 l
264.028 346.38 l
268.649 345.8 l
273.271 345.281 l
277.893 344.824 l
282.514 344.432 l
287.136 344.109 l
291.757 343.857 l
296.379 343.681 l
301.001 343.587 l
305.622 343.578 l
310.244 343.662 l
314.865 343.844 l
319.487 344.129 l
324.109 344.524 l
328.73 345.032 l
333.352 345.659 l
337.973 346.408 l
342.595 347.28 l
347.217 348.275 l
351.838 349.393 l
356.46 350.631 l
361.081 351.984 l
365.703 353.445 l
370.325 355.006 l
374.946 356.657 l
379.568 358.386 l
384.189 360.182 l
388.811 362.03 l
393.433 363.916 l
398.054 365.828 l
402.676 367.75 l
407.297 369.671 l
411.919 371.579 l
416.541 373.463 l
421.162 375.315 l
425.784 377.128 l
430.405 378.899 l
435.027 380.626 l
439.649 382.307 l
444.27 383.945 l
448.892 385.543 l
453.513 387.106 l
458.135 388.64 l
462.757 390.151 l
467.378 391.648 l
472 393.136 l
476.621 394.623 l
481.243 396.114 l
485.865 397.618 l
490.486 399.137 l
495.108 400.673 l
499.729 402.235 l
504.351 403.817 l
508.973 405.428 l
513.594 407.062 l
518.216 408.718 l
522.837 410.4 l
527.459 412.098 l
532.081 413.819 l
536.702 415.555 l
541.324 417.305 l
545.945 419.072 l
550.567 420.852 l
555.189 422.65 l
559.81 424.467 l
564.432 426.304 l
569.054 428.171 l
573.675 430.069 l
578.297 432.009 l
582.918 433.995 l
587.54 436.035 l
592.162 438.142 l
596.783 440.317 l
601.405 442.575 l
606.026 444.916 l
610.648 447.354 l
615.27 449.894 l
619.891 452.54 l
624.513 455.305 l
629.134 458.189 l
633.756 461.21 l
638.378 464.375 l
642.999 467.696 l
647.621 471.201 l
652.242 474.909 l
656.864 478.863 l
661.486 483.108 l
666.107 487.708 l
670.729 492.754 l
675.35 498.35 l
stroke
grestore
2 setlinecap
[] 0 setdash
gsave
605.4 483.1 97.65 60.39 clipbox
130.001 454.838 m
134.623 449.614 l
139.244 439.075 l
143.866 430.198 l
148.488 422.344 l
153.109 415.345 l
157.731 409.072 l
162.352 403.422 l
166.974 398.311 l
171.596 393.669 l
176.217 389.439 l
180.839 385.575 l
185.46 382.034 l
190.082 378.783 l
194.704 375.793 l
199.325 373.038 l
203.947 370.496 l
208.568 368.148 l
213.19 365.977 l
217.812 363.968 l
222.433 362.109 l
227.055 360.389 l
231.676 358.797 l
236.298 357.325 l
240.92 355.966 l
245.541 354.713 l
250.163 353.561 l
254.785 352.505 l
259.406 351.543 l
264.028 350.671 l
268.649 349.889 l
273.271 349.195 l
277.893 348.591 l
282.514 348.078 l
287.136 347.659 l
291.757 347.337 l
296.379 347.117 l
301.001 347.004 l
305.622 347.005 l
310.244 347.125 l
314.865 347.371 l
319.487 347.75 l
324.109 348.267 l
328.73 348.928 l
333.352 349.737 l
337.973 350.698 l
342.595 351.81 l
347.217 353.073 l
351.838 354.488 l
356.46 356.044 l
361.081 357.735 l
365.703 359.554 l
370.325 361.486 l
374.946 363.517 l
379.568 365.63 l
384.189 367.808 l
388.811 370.032 l
393.433 372.283 l
398.054 374.541 l
402.676 376.789 l
407.297 379.01 l
411.919 381.188 l
416.541 383.311 l
421.162 385.369 l
425.784 387.354 l
430.405 389.263 l
435.027 391.092 l
439.649 392.846 l
444.27 394.519 l
448.892 396.124 l
453.513 397.67 l
458.135 399.145 l
462.757 400.562 l
467.378 401.957 l
472 403.259 l
476.621 404.528 l
481.243 405.862 l
485.865 406.992 l
490.486 408.132 l
495.108 409.34 l
499.729 410.347 l
504.351 411.453 l
508.973 412.385 l
513.594 413.261 l
518.216 414.217 l
522.837 414.93 l
527.459 415.736 l
532.081 416.331 l
536.702 416.854 l
541.324 417.447 l
545.945 417.77 l
550.567 418.185 l
555.189 418.375 l
559.81 418.491 l
564.432 418.688 l
569.054 418.611 l
573.675 418.646 l
578.297 418.46 l
582.918 418.218 l
587.54 418.075 l
592.162 417.696 l
596.783 417.339 l
601.405 416.881 l
606.026 416.468 l
610.648 415.856 l
615.27 415.188 l
619.891 414.619 l
624.513 413.767 l
629.134 413.033 l
633.756 412.058 l
638.378 411.011 l
642.999 410.049 l
647.621 408.79 l
652.242 407.651 l
656.864 406.282 l
661.486 404.877 l
666.107 403.622 l
670.729 402.172 l
675.35 396.529 l
stroke
grestore
1.500 setlinewidth
0 setlinecap
0.000 setgray
gsave
/o {
gsave
newpath
translate
1.5 setlinewidth
1 setlinejoin
0 setlinecap
0 0 m
0 7 l
gsave
0.000 setgray
fill
grestore
stroke
grestore
} bind def
97.65 60.39 o
grestore
gsave
/o {
gsave
newpath
translate
1.5 setlinewidth
1 setlinejoin
0 setlinecap
0 0 m
0 -7 l
gsave
0.000 setgray
fill
grestore
stroke
grestore
} bind def
97.65 543.51 o
grestore
/BitstreamVeraSans-Roman findfont
14.000 scalefont
setfont
gsave
87.439062 42.796250 translate
0.000000 rotate
0.000000 0.203125 m /zero glyphshow
8.907227 0.203125 m /period glyphshow
13.357422 0.203125 m /zero glyphshow
grestore
gsave
/o {
gsave
newpath
translate
1.5 setlinewidth
1 setlinejoin
0 setlinecap
0 0 m
0 7 l
gsave
0.000 setgray
fill
grestore
stroke
grestore
} bind def
173.329 60.39 o
grestore
gsave
/o {
gsave
newpath
translate
1.5 setlinewidth
1 setlinejoin
0 setlinecap
0 0 m
0 -7 l
gsave
0.000 setgray
fill
grestore
stroke
grestore
} bind def
173.329 543.51 o
grestore
gsave
163.360000 42.796250 translate
0.000000 rotate
0.000000 0.203125 m /zero glyphshow
8.907227 0.203125 m /period glyphshow
13.357422 0.203125 m /two glyphshow
grestore
gsave
/o {
gsave
newpath
translate
1.5 setlinewidth
1 setlinejoin
0 setlinecap
0 0 m
0 7 l
gsave
0.000 setgray
fill
grestore
stroke
grestore
} bind def
249.007 60.39 o
grestore
gsave
/o {
gsave
newpath
translate
1.5 setlinewidth
1 setlinejoin
0 setlinecap
0 0 m
0 -7 l
gsave
0.000 setgray
fill
grestore
stroke
grestore
} bind def
249.007 543.51 o
grestore
gsave
238.726250 42.796250 translate
0.000000 rotate
0.000000 0.203125 m /zero glyphshow
8.907227 0.203125 m /period glyphshow
13.357422 0.203125 m /four glyphshow
grestore
gsave
/o {
gsave
newpath
translate
1.5 setlinewidth
1 setlinejoin
0 setlinecap
0 0 m
0 7 l
gsave
0.000 setgray
fill
grestore
stroke
grestore
} bind def
324.686 60.39 o
grestore
gsave
/o {
gsave
newpath
translate
1.5 setlinewidth
1 setlinejoin
0 setlinecap
0 0 m
0 -7 l
gsave
0.000 setgray
fill
grestore
stroke
grestore
} bind def
324.686 543.51 o
grestore
gsave
314.451875 42.796250 translate
0.000000 rotate
0.000000 0.203125 m /zero glyphshow
8.907227 0.203125 m /period glyphshow
13.357422 0.203125 m /six glyphshow
grestore
gsave
/o {
gsave
newpath
translate
1.5 setlinewidth
1 setlinejoin
0 setlinecap
0 0 m
0 7 l
gsave
0.000 setgray
fill
grestore
stroke
grestore
} bind def
400.365 60.39 o
grestore
gsave
/o {
gsave
newpath
translate
1.5 setlinewidth
1 setlinejoin
0 setlinecap
0 0 m
0 -7 l
gsave
0.000 setgray
fill
grestore
stroke
grestore
} bind def
400.365 543.51 o
grestore
gsave
390.169687 42.796250 translate
0.000000 rotate
0.000000 0.203125 m /zero glyphshow
8.907227 0.203125 m /period glyphshow
13.357422 0.203125 m /eight glyphshow
grestore
gsave
/o {
gsave
newpath
translate
1.5 setlinewidth
1 setlinejoin
0 setlinecap
0 0 m
0 7 l
gsave
0.000 setgray
fill
grestore
stroke
grestore
} bind def
476.044 60.39 o
grestore
gsave
/o {
gsave
newpath
translate
1.5 setlinewidth
1 setlinejoin
0 setlinecap
0 0 m
0 -7 l
gsave
0.000 setgray
fill
grestore
stroke
grestore
} bind def
476.044 543.51 o
grestore
gsave
466.145312 42.796250 translate
0.000000 rotate
0.000000 0.203125 m /one glyphshow
8.907227 0.203125 m /period glyphshow
13.357422 0.203125 m /zero glyphshow
grestore
gsave
/o {
gsave
newpath
translate
1.5 setlinewidth
1 setlinejoin
0 setlinecap
0 0 m
0 7 l
gsave
0.000 setgray
fill
grestore
stroke
grestore
} bind def
551.722 60.39 o
grestore
gsave
/o {
gsave
newpath
translate
1.5 setlinewidth
1 setlinejoin
0 setlinecap
0 0 m
0 -7 l
gsave
0.000 setgray
fill
grestore
stroke
grestore
} bind def
551.722 543.51 o
grestore
gsave
542.066250 42.999375 translate
0.000000 rotate
0.000000 0.000000 m /one glyphshow
8.907227 0.000000 m /period glyphshow
13.357422 0.000000 m /two glyphshow
grestore
gsave
/o {
gsave
newpath
translate
1.5 setlinewidth
1 setlinejoin
0 setlinecap
0 0 m
0 7 l
gsave
0.000 setgray
fill
grestore
stroke
grestore
} bind def
627.401 60.39 o
grestore
gsave
/o {
gsave
newpath
translate
1.5 setlinewidth
1 setlinejoin
0 setlinecap
0 0 m
0 -7 l
gsave
0.000 setgray
fill
grestore
stroke
grestore
} bind def
627.401 543.51 o
grestore
gsave
617.432500 43.186875 translate
0.000000 rotate
0.000000 0.000000 m /one glyphshow
8.907227 0.000000 m /period glyphshow
13.357422 0.000000 m /four glyphshow
grestore
gsave
/o {
gsave
newpath
translate
1.5 setlinewidth
1 setlinejoin
0 setlinecap
0 0 m
0 7 l
gsave
0.000 setgray
fill
grestore
stroke
grestore
} bind def
703.08 60.39 o
grestore
gsave
/o {
gsave
newpath
translate
1.5 setlinewidth
1 setlinejoin
0 setlinecap
0 0 m
0 -7 l
gsave
0.000 setgray
fill
grestore
stroke
grestore
} bind def
703.08 543.51 o
grestore
gsave
693.158125 42.796250 translate
0.000000 rotate
0.000000 0.203125 m /one glyphshow
8.907227 0.203125 m /period glyphshow
13.357422 0.203125 m /six glyphshow
grestore
gsave
357.271250 24.249375 translate
0.000000 rotate
0.000000 2.906250 m /H glyphshow
10.527344 2.906250 m /e glyphshow
19.140625 2.906250 m /i glyphshow
23.030273 2.906250 m /g glyphshow
31.916992 2.906250 m /h glyphshow
40.790039 2.906250 m /t glyphshow
46.279297 2.906250 m /space glyphshow
50.729492 2.906250 m /bracketleft glyphshow
56.191406 2.906250 m /M glyphshow
68.270508 2.906250 m /m glyphshow
81.908203 2.906250 m /bracketright glyphshow
grestore
gsave
/o {
gsave
newpath
translate
1.5 setlinewidth
1 setlinejoin
0 setlinecap
0 0 m
7 0 l
gsave
0.000 setgray
fill
grestore
stroke
grestore
} bind def
97.65 60.39 o
grestore
gsave
/o {
gsave
newpath
translate
1.5 setlinewidth
1 setlinejoin
0 setlinecap
0 0 m
-7 0 l
gsave
0.000 setgray
fill
grestore
stroke
grestore
} bind def
703.08 60.39 o
grestore
gsave
85.587500 55.093125 translate
0.000000 rotate
0.000000 0.203125 m /zero glyphshow
grestore
gsave
/o {
gsave
newpath
translate
1.5 setlinewidth
1 setlinejoin
0 setlinecap
0 0 m
7 0 l
gsave
0.000 setgray
fill
grestore
stroke
grestore
} bind def
97.65 140.91 o
grestore
gsave
/o {
gsave
newpath
translate
1.5 setlinewidth
1 setlinejoin
0 setlinecap
0 0 m
-7 0 l
gsave
0.000 setgray
fill
grestore
stroke
grestore
} bind def
703.08 140.91 o
grestore
gsave
86.181250 135.714687 translate
0.000000 rotate
0.000000 0.000000 m /two glyphshow
grestore
gsave
/o {
gsave
newpath
translate
1.5 setlinewidth
1 setlinejoin
0 setlinecap
0 0 m
7 0 l
gsave
0.000 setgray
fill
grestore
stroke
grestore
} bind def
97.65 221.43 o
grestore
gsave
/o {
gsave
newpath
translate
1.5 setlinewidth
1 setlinejoin
0 setlinecap
0 0 m
-7 0 l
gsave
0.000 setgray
fill
grestore
stroke
grestore
} bind def
703.08 221.43 o
grestore
gsave
85.212500 216.328437 translate
0.000000 rotate
0.000000 0.000000 m /four glyphshow
grestore
gsave
/o {
gsave
newpath
translate
1.5 setlinewidth
1 setlinejoin
0 setlinecap
0 0 m
7 0 l
gsave
0.000 setgray
fill
grestore
stroke
grestore
} bind def
97.65 301.95 o
grestore
gsave
/o {
gsave
newpath
translate
1.5 setlinewidth
1 setlinejoin
0 setlinecap
0 0 m
-7 0 l
gsave
0.000 setgray
fill
grestore
stroke
grestore
} bind def
703.08 301.95 o
grestore
gsave
85.603125 296.653125 translate
0.000000 rotate
0.000000 0.203125 m /six glyphshow
grestore
gsave
/o {
gsave
newpath
translate
1.5 setlinewidth
1 setlinejoin
0 setlinecap
0 0 m
7 0 l
gsave
0.000 setgray
fill
grestore
stroke
grestore
} bind def
97.65 382.47 o
grestore
gsave
/o {
gsave
newpath
translate
1.5 setlinewidth
1 setlinejoin
0 setlinecap
0 0 m
-7 0 l
gsave
0.000 setgray
fill
grestore
stroke
grestore
} bind def
703.08 382.47 o
grestore
gsave
85.650000 377.173125 translate
0.000000 rotate
0.000000 0.203125 m /eight glyphshow
grestore
gsave
/o {
gsave
newpath
translate
1.5 setlinewidth
1 setlinejoin
0 setlinecap
0 0 m
7 0 l
gsave
0.000 setgray
fill
grestore
stroke
grestore
} bind def
97.65 462.99 o
grestore
gsave
/o {
gsave
newpath
translate
1.5 setlinewidth
1 setlinejoin
0 setlinecap
0 0 m
-7 0 l
gsave
0.000 setgray
fill
grestore
stroke
grestore
} bind def
703.08 462.99 o
grestore
gsave
77.306250 457.693125 translate
0.000000 rotate
0.000000 0.203125 m /one glyphshow
8.907227 0.203125 m /zero glyphshow
grestore
gsave
/o {
gsave
newpath
translate
1.5 setlinewidth
1 setlinejoin
0 setlinecap
0 0 m
7 0 l
gsave
0.000 setgray
fill
grestore
stroke
grestore
} bind def
97.65 543.51 o
grestore
gsave
/o {
gsave
newpath
translate
1.5 setlinewidth
1 setlinejoin
0 setlinecap
0 0 m
-7 0 l
gsave
0.000 setgray
fill
grestore
stroke
grestore
} bind def
703.08 543.51 o
grestore
gsave
77.790625 538.314687 translate
0.000000 rotate
0.000000 0.000000 m /one glyphshow
8.907227 0.000000 m /two glyphshow
grestore
gsave
72.306250 256.028125 translate
90.000000 rotate
0.000000 2.906250 m /S glyphshow
8.886719 2.906250 m /p glyphshow
17.773438 2.906250 m /e glyphshow
26.386719 2.906250 m /e glyphshow
35.000000 2.906250 m /d glyphshow
43.886719 2.906250 m /space glyphshow
48.336914 2.906250 m /bracketleft glyphshow
53.798828 2.906250 m /k glyphshow
61.906250 2.906250 m /m glyphshow
75.543945 2.906250 m /slash glyphshow
80.260742 2.906250 m /s glyphshow
87.554688 2.906250 m /bracketright glyphshow
grestore
1.700 setlinewidth
2 setlinecap
gsave
97.65 543.51 m
703.08 543.51 l
stroke
grestore
gsave
703.08 60.39 m
703.08 543.51 l
stroke
grestore
gsave
97.65 60.39 m
703.08 60.39 l
stroke
grestore
gsave
97.65 60.39 m
97.65 543.51 l
stroke
grestore
1.000 setlinewidth
gsave
308.985 424.47 m
491.745 424.47 l
493.985 424.47 495.105 425.59 495.105 427.83 c
495.105 531.75 l
495.105 533.99 493.985 535.11 491.745 535.11 c
308.985 535.11 l
306.745 535.11 305.625 533.99 305.625 531.75 c
305.625 427.83 l
305.625 425.59 306.745 424.47 308.985 424.47 c
cl
gsave
1.000 setgray
fill
grestore
stroke
grestore
0 setlinecap
[6 6] 0 setdash
0.000 0.000 1.000 setrgbcolor
gsave
317.385 521.27 m
340.905 521.27 l
stroke
grestore
0.000 setgray
gsave
359.385000 510.390000 translate
0.000000 rotate
/Cmmi10 findfont
16.8 scalefont
setfont
0.000000 5.078125 moveto
/V glyphshow

/Cmmi10 findfont
11.76 scalefont
setfont
9.792709 0.792550 moveto
/A glyphshow

/BitstreamVeraSans-Roman findfont
16.8 scalefont
setfont
22.390366 5.078125 moveto
/space glyphshow

27.714706 5.078125 moveto
/B glyphshow

39.205795 5.078125 moveto
/a glyphshow

49.470078 5.078125 moveto
/c glyphshow

58.679306 5.078125 moveto
/k glyphshow

68.379257 5.078125 moveto
/g glyphshow

79.011581 5.078125 moveto
/r glyphshow

85.898056 5.078125 moveto
/o glyphshow

96.145981 5.078125 moveto
/u glyphshow

106.761948 5.078125 moveto
/n glyphshow

117.377914 5.078125 moveto
/d glyphshow


grestore
2 setlinecap
[] 0 setdash
0.000 0.000 1.000 setrgbcolor
gsave
317.385 494.87 m
340.905 494.87 l
stroke
grestore
0.000 setgray
gsave
359.385000 483.990000 translate
0.000000 rotate
/Cmmi10 findfont
16.8 scalefont
setfont
0.000000 5.375000 moveto
/V glyphshow

/Cmmi10 findfont
11.76 scalefont
setfont
9.792709 1.089425 moveto
/A glyphshow

/BitstreamVeraSans-Roman findfont
16.8 scalefont
setfont
22.390366 5.375000 moveto
/space glyphshow

27.714706 5.375000 moveto
/C glyphshow

39.410263 5.375000 moveto
/e glyphshow

49.715439 5.375000 moveto
/n glyphshow

60.331406 5.375000 moveto
/t glyphshow

66.898911 5.375000 moveto
/r glyphshow

73.785385 5.375000 moveto
/e glyphshow


grestore
0 setlinecap
[6 6] 0 setdash
0.000 0.500 0.000 setrgbcolor
gsave
317.385 468.47 m
340.905 468.47 l
stroke
grestore
0.000 setgray
gsave
359.385000 457.590000 translate
0.000000 rotate
/Cmmi10 findfont
16.8 scalefont
setfont
0.000000 5.078125 moveto
/C glyphshow

/Cmmi10 findfont
11.76 scalefont
setfont
11.990738 0.792550 moveto
/s glyphshow

/BitstreamVeraSans-Roman findfont
16.8 scalefont
setfont
19.847870 5.078125 moveto
/space glyphshow

25.172211 5.078125 moveto
/B glyphshow

36.663300 5.078125 moveto
/a glyphshow

46.927582 5.078125 moveto
/c glyphshow

56.136810 5.078125 moveto
/k glyphshow

65.836761 5.078125 moveto
/g glyphshow

76.469086 5.078125 moveto
/r glyphshow

83.355560 5.078125 moveto
/o glyphshow

93.603485 5.078125 moveto
/u glyphshow

104.219452 5.078125 moveto
/n glyphshow

114.835419 5.078125 moveto
/d glyphshow


grestore
2 setlinecap
[] 0 setdash
0.000 0.500 0.000 setrgbcolor
gsave
317.385 442.07 m
340.905 442.07 l
stroke
grestore
0.000 setgray
gsave
359.385000 431.190000 translate
0.000000 rotate
/Cmmi10 findfont
16.8 scalefont
setfont
0.000000 5.375000 moveto
/C glyphshow

/Cmmi10 findfont
11.76 scalefont
setfont
11.990738 1.089425 moveto
/s glyphshow

/BitstreamVeraSans-Roman findfont
16.8 scalefont
setfont
19.847870 5.375000 moveto
/space glyphshow

25.172211 5.375000 moveto
/C glyphshow

36.867767 5.375000 moveto
/e glyphshow

47.172943 5.375000 moveto
/n glyphshow

57.788910 5.375000 moveto
/t glyphshow

64.356415 5.375000 moveto
/r glyphshow

71.242889 5.375000 moveto
/e glyphshow


grestore

end
showpage
