%!PS-Adobe-3.0 EPSF-3.0
%%Title: /home/nabobalis/Dropbox/Shared/emd_nabil_4.eps
%%Creator: matplotlib version 1.1.0, http://matplotlib.sourceforge.net/
%%CreationDate: Fri Jun  8 10:37:52 2012
%%Orientation: portrait
%%BoundingBox: -270 36 882 756
%%EndComments
%%BeginProlog
/mpldict 8 dict def
mpldict begin
/m { moveto } bind def
/l { lineto } bind def
/r { rlineto } bind def
/c { curveto } bind def
/cl { closepath } bind def
/box {
m
1 index 0 r
0 exch r
neg 0 r
cl
} bind def
/clipbox {
box
clip
newpath
} bind def
%!PS-Adobe-3.0 Resource-Font
%%Title: Bitstream Vera Sans
%%Copyright: Copyright (c) 2003 by Bitstream, Inc. All Rights Reserved.
%%Creator: Converted from TrueType to type 3 by PPR
25 dict begin
/_d{bind def}bind def
/_m{moveto}_d
/_l{lineto}_d
/_cl{closepath eofill}_d
/_c{curveto}_d
/_sc{7 -1 roll{setcachedevice}{pop pop pop pop pop pop}ifelse}_d
/_e{exec}_d
/FontName /BitstreamVeraSans-Roman def
/PaintType 0 def
/FontMatrix[.001 0 0 .001 0 0]def
/FontBBox[-183 -236 1287 928]def
/FontType 3 def
/Encoding [ /space /period /zero /one /two /three /four /five /six /seven /eight /nine /A /F /I /M /T /U /bracketleft /bracketright /a /e /i /l /m /n /p /r /s /t /u /x /y /minus ] def
/FontInfo 10 dict dup begin
/FamilyName (Bitstream Vera Sans) def
/FullName (Bitstream Vera Sans) def
/Notice (Copyright (c) 2003 by Bitstream, Inc. All Rights Reserved. Bitstream Vera is a trademark of Bitstream, Inc.) def
/Weight (Roman) def
/Version (Release 1.10) def
/ItalicAngle 0.0 def
/isFixedPitch false def
/UnderlinePosition -213 def
/UnderlineThickness 143 def
end readonly def
/CharStrings 34 dict dup begin
/space{318 0 0 0 0 0 _sc
}_d
/period{318 0 107 0 210 124 _sc
107 124 _m
210 124 _l
210 0 _l
107 0 _l
107 124 _l
_cl}_d
/zero{636 0 66 -13 570 742 _sc
318 664 _m
267 664 229 639 203 589 _c
177 539 165 464 165 364 _c
165 264 177 189 203 139 _c
229 89 267 64 318 64 _c
369 64 407 89 433 139 _c
458 189 471 264 471 364 _c
471 464 458 539 433 589 _c
407 639 369 664 318 664 _c
318 742 _m
399 742 461 709 505 645 _c
548 580 570 486 570 364 _c
570 241 548 147 505 83 _c
461 19 399 -13 318 -13 _c
236 -13 173 19 130 83 _c
87 147 66 241 66 364 _c
66 486 87 580 130 645 _c
173 709 236 742 318 742 _c
_cl}_d
/one{636 0 110 0 544 729 _sc
124 83 _m
285 83 _l
285 639 _l
110 604 _l
110 694 _l
284 729 _l
383 729 _l
383 83 _l
544 83 _l
544 0 _l
124 0 _l
124 83 _l
_cl}_d
/two{{636 0 73 0 536 742 _sc
192 83 _m
536 83 _l
536 0 _l
73 0 _l
73 83 _l
110 121 161 173 226 239 _c
290 304 331 346 348 365 _c
380 400 402 430 414 455 _c
426 479 433 504 433 528 _c
433 566 419 598 392 622 _c
365 646 330 659 286 659 _c
255 659 222 653 188 643 _c
154 632 117 616 78 594 _c
78 694 _l
118 710 155 722 189 730 _c
223 738 255 742 284 742 _c
359 742 419 723 464 685 _c
509 647 532 597 532 534 _c
532 504 526 475 515 449 _c
504 422 484 390 454 354 _c
446 344 420 317 376 272 _c
332 227 271 164 192 83 _c
_cl}_e}_d
/three{{636 0 76 -13 556 742 _sc
406 393 _m
453 383 490 362 516 330 _c
542 298 556 258 556 212 _c
556 140 531 84 482 45 _c
432 6 362 -13 271 -13 _c
240 -13 208 -10 176 -4 _c
144 1 110 10 76 22 _c
76 117 _l
103 101 133 89 166 81 _c
198 73 232 69 268 69 _c
330 69 377 81 409 105 _c
441 129 458 165 458 212 _c
458 254 443 288 413 312 _c
383 336 341 349 287 349 _c
202 349 _l
202 430 _l
291 430 _l
339 430 376 439 402 459 _c
428 478 441 506 441 543 _c
441 580 427 609 401 629 _c
374 649 336 659 287 659 _c
260 659 231 656 200 650 _c
169 644 135 635 98 623 _c
98 711 _l
135 721 170 729 203 734 _c
235 739 266 742 296 742 _c
}_e{370 742 429 725 473 691 _c
517 657 539 611 539 553 _c
539 513 527 479 504 451 _c
481 423 448 403 406 393 _c
_cl}_e}_d
/four{636 0 49 0 580 729 _sc
378 643 _m
129 254 _l
378 254 _l
378 643 _l
352 729 _m
476 729 _l
476 254 _l
580 254 _l
580 172 _l
476 172 _l
476 0 _l
378 0 _l
378 172 _l
49 172 _l
49 267 _l
352 729 _l
_cl}_d
/five{{636 0 77 -13 549 729 _sc
108 729 _m
495 729 _l
495 646 _l
198 646 _l
198 467 _l
212 472 227 476 241 478 _c
255 480 270 482 284 482 _c
365 482 429 459 477 415 _c
525 370 549 310 549 234 _c
549 155 524 94 475 51 _c
426 8 357 -13 269 -13 _c
238 -13 207 -10 175 -6 _c
143 -1 111 6 77 17 _c
77 116 _l
106 100 136 88 168 80 _c
199 72 232 69 267 69 _c
323 69 368 83 401 113 _c
433 143 450 183 450 234 _c
450 284 433 324 401 354 _c
368 384 323 399 267 399 _c
241 399 214 396 188 390 _c
162 384 135 375 108 363 _c
108 729 _l
_cl}_e}_d
/six{{636 0 70 -13 573 742 _sc
330 404 _m
286 404 251 388 225 358 _c
199 328 186 286 186 234 _c
186 181 199 139 225 109 _c
251 79 286 64 330 64 _c
374 64 409 79 435 109 _c
461 139 474 181 474 234 _c
474 286 461 328 435 358 _c
409 388 374 404 330 404 _c
526 713 _m
526 623 _l
501 635 476 644 451 650 _c
425 656 400 659 376 659 _c
310 659 260 637 226 593 _c
192 549 172 482 168 394 _c
187 422 211 444 240 459 _c
269 474 301 482 336 482 _c
409 482 467 459 509 415 _c
551 371 573 310 573 234 _c
573 159 550 99 506 54 _c
462 9 403 -13 330 -13 _c
246 -13 181 19 137 83 _c
92 147 70 241 70 364 _c
70 479 97 571 152 639 _c
206 707 280 742 372 742 _c
}_e{396 742 421 739 447 735 _c
472 730 498 723 526 713 _c
_cl}_e}_d
/seven{636 0 82 0 551 729 _sc
82 729 _m
551 729 _l
551 687 _l
286 0 _l
183 0 _l
432 646 _l
82 646 _l
82 729 _l
_cl}_d
/eight{{636 0 68 -13 568 742 _sc
318 346 _m
271 346 234 333 207 308 _c
180 283 167 249 167 205 _c
167 161 180 126 207 101 _c
234 76 271 64 318 64 _c
364 64 401 76 428 102 _c
455 127 469 161 469 205 _c
469 249 455 283 429 308 _c
402 333 365 346 318 346 _c
219 388 _m
177 398 144 418 120 447 _c
96 476 85 511 85 553 _c
85 611 105 657 147 691 _c
188 725 245 742 318 742 _c
390 742 447 725 489 691 _c
530 657 551 611 551 553 _c
551 511 539 476 515 447 _c
491 418 459 398 417 388 _c
464 377 501 355 528 323 _c
554 291 568 251 568 205 _c
568 134 546 80 503 43 _c
459 5 398 -13 318 -13 _c
237 -13 175 5 132 43 _c
89 80 68 134 68 205 _c
68 251 81 291 108 323 _c
134 355 171 377 219 388 _c
}_e{183 544 _m
183 506 194 476 218 455 _c
242 434 275 424 318 424 _c
360 424 393 434 417 455 _c
441 476 453 506 453 544 _c
453 582 441 611 417 632 _c
393 653 360 664 318 664 _c
275 664 242 653 218 632 _c
194 611 183 582 183 544 _c
_cl}_e}_d
/nine{{636 0 63 -13 566 742 _sc
110 15 _m
110 105 _l
134 93 159 84 185 78 _c
210 72 235 69 260 69 _c
324 69 374 90 408 134 _c
442 178 462 244 468 334 _c
448 306 424 284 396 269 _c
367 254 335 247 300 247 _c
226 247 168 269 126 313 _c
84 357 63 417 63 494 _c
63 568 85 628 129 674 _c
173 719 232 742 306 742 _c
390 742 455 709 499 645 _c
543 580 566 486 566 364 _c
566 248 538 157 484 89 _c
429 21 356 -13 264 -13 _c
239 -13 214 -10 189 -6 _c
163 -2 137 5 110 15 _c
306 324 _m
350 324 385 339 411 369 _c
437 399 450 441 450 494 _c
450 546 437 588 411 618 _c
385 648 350 664 306 664 _c
262 664 227 648 201 618 _c
175 588 162 546 162 494 _c
}_e{162 441 175 399 201 369 _c
227 339 262 324 306 324 _c
_cl}_e}_d
/A{684 0 8 0 676 729 _sc
342 632 _m
208 269 _l
476 269 _l
342 632 _l
286 729 _m
398 729 _l
676 0 _l
573 0 _l
507 187 _l
178 187 _l
112 0 _l
8 0 _l
286 729 _l
_cl}_d
/F{575 0 98 0 517 729 _sc
98 729 _m
517 729 _l
517 646 _l
197 646 _l
197 431 _l
486 431 _l
486 348 _l
197 348 _l
197 0 _l
98 0 _l
98 729 _l
_cl}_d
/I{295 0 98 0 197 729 _sc
98 729 _m
197 729 _l
197 0 _l
98 0 _l
98 729 _l
_cl}_d
/M{863 0 98 0 765 729 _sc
98 729 _m
245 729 _l
431 233 _l
618 729 _l
765 729 _l
765 0 _l
669 0 _l
669 640 _l
481 140 _l
382 140 _l
194 640 _l
194 0 _l
98 0 _l
98 729 _l
_cl}_d
/T{611 0 -2 0 614 729 _sc
-2 729 _m
614 729 _l
614 646 _l
355 646 _l
355 0 _l
256 0 _l
256 646 _l
-2 646 _l
-2 729 _l
_cl}_d
/U{732 0 87 -13 645 729 _sc
87 729 _m
186 729 _l
186 286 _l
186 208 200 151 228 117 _c
256 83 302 66 366 66 _c
429 66 475 83 503 117 _c
531 151 546 208 546 286 _c
546 729 _l
645 729 _l
645 274 _l
645 178 621 107 574 59 _c
527 11 458 -13 366 -13 _c
274 -13 204 11 157 59 _c
110 107 87 178 87 274 _c
87 729 _l
_cl}_d
/bracketleft{390 0 86 -131 293 760 _sc
86 760 _m
293 760 _l
293 690 _l
176 690 _l
176 -61 _l
293 -61 _l
293 -131 _l
86 -131 _l
86 760 _l
_cl}_d
/bracketright{390 0 97 -131 304 760 _sc
304 760 _m
304 -131 _l
97 -131 _l
97 -61 _l
214 -61 _l
214 690 _l
97 690 _l
97 760 _l
304 760 _l
_cl}_d
/a{{613 0 60 -13 522 560 _sc
343 275 _m
270 275 220 266 192 250 _c
164 233 150 205 150 165 _c
150 133 160 107 181 89 _c
202 70 231 61 267 61 _c
317 61 357 78 387 114 _c
417 149 432 196 432 255 _c
432 275 _l
343 275 _l
522 312 _m
522 0 _l
432 0 _l
432 83 _l
411 49 385 25 355 10 _c
325 -5 287 -13 243 -13 _c
187 -13 142 2 109 33 _c
76 64 60 106 60 159 _c
60 220 80 266 122 298 _c
163 329 224 345 306 345 _c
432 345 _l
432 354 _l
432 395 418 427 391 450 _c
364 472 326 484 277 484 _c
245 484 215 480 185 472 _c
155 464 127 453 100 439 _c
100 522 _l
}_e{132 534 164 544 195 550 _c
226 556 256 560 286 560 _c
365 560 424 539 463 498 _c
502 457 522 395 522 312 _c
_cl}_e}_d
/e{{615 0 55 -13 562 560 _sc
562 296 _m
562 252 _l
149 252 _l
153 190 171 142 205 110 _c
238 78 284 62 344 62 _c
378 62 412 66 444 74 _c
476 82 509 95 541 113 _c
541 28 _l
509 14 476 3 442 -3 _c
408 -9 373 -13 339 -13 _c
251 -13 182 12 131 62 _c
80 112 55 181 55 268 _c
55 357 79 428 127 481 _c
175 533 241 560 323 560 _c
397 560 455 536 498 489 _c
540 441 562 377 562 296 _c
472 322 _m
471 371 457 410 431 440 _c
404 469 368 484 324 484 _c
274 484 234 469 204 441 _c
174 413 156 373 152 322 _c
472 322 _l
_cl}_e}_d
/i{278 0 94 0 184 760 _sc
94 547 _m
184 547 _l
184 0 _l
94 0 _l
94 547 _l
94 760 _m
184 760 _l
184 646 _l
94 646 _l
94 760 _l
_cl}_d
/l{278 0 94 0 184 760 _sc
94 760 _m
184 760 _l
184 0 _l
94 0 _l
94 760 _l
_cl}_d
/m{{974 0 91 0 889 560 _sc
520 442 _m
542 482 569 511 600 531 _c
631 550 668 560 711 560 _c
767 560 811 540 842 500 _c
873 460 889 403 889 330 _c
889 0 _l
799 0 _l
799 327 _l
799 379 789 418 771 444 _c
752 469 724 482 686 482 _c
639 482 602 466 575 435 _c
548 404 535 362 535 309 _c
535 0 _l
445 0 _l
445 327 _l
445 379 435 418 417 444 _c
398 469 369 482 331 482 _c
285 482 248 466 221 435 _c
194 404 181 362 181 309 _c
181 0 _l
91 0 _l
91 547 _l
181 547 _l
181 462 _l
201 495 226 520 255 536 _c
283 552 317 560 357 560 _c
397 560 430 550 458 530 _c
486 510 506 480 520 442 _c
}_e{_cl}_e}_d
/n{634 0 91 0 549 560 _sc
549 330 _m
549 0 _l
459 0 _l
459 327 _l
459 379 448 417 428 443 _c
408 469 378 482 338 482 _c
289 482 251 466 223 435 _c
195 404 181 362 181 309 _c
181 0 _l
91 0 _l
91 547 _l
181 547 _l
181 462 _l
202 494 227 519 257 535 _c
286 551 320 560 358 560 _c
420 560 468 540 500 501 _c
532 462 549 405 549 330 _c
_cl}_d
/p{{635 0 91 -207 580 560 _sc
181 82 _m
181 -207 _l
91 -207 _l
91 547 _l
181 547 _l
181 464 _l
199 496 223 520 252 536 _c
281 552 316 560 356 560 _c
422 560 476 533 518 481 _c
559 428 580 359 580 273 _c
580 187 559 117 518 65 _c
476 13 422 -13 356 -13 _c
316 -13 281 -5 252 10 _c
223 25 199 49 181 82 _c
487 273 _m
487 339 473 390 446 428 _c
418 466 381 485 334 485 _c
286 485 249 466 222 428 _c
194 390 181 339 181 273 _c
181 207 194 155 222 117 _c
249 79 286 61 334 61 _c
381 61 418 79 446 117 _c
473 155 487 207 487 273 _c
_cl}_e}_d
/r{411 0 91 0 411 560 _sc
411 463 _m
401 469 390 473 378 476 _c
366 478 353 480 339 480 _c
288 480 249 463 222 430 _c
194 397 181 350 181 288 _c
181 0 _l
91 0 _l
91 547 _l
181 547 _l
181 462 _l
199 495 224 520 254 536 _c
284 552 321 560 365 560 _c
371 560 378 559 386 559 _c
393 558 401 557 411 555 _c
411 463 _l
_cl}_d
/s{{521 0 54 -13 472 560 _sc
443 531 _m
443 446 _l
417 458 391 468 364 475 _c
336 481 308 485 279 485 _c
234 485 200 478 178 464 _c
156 450 145 430 145 403 _c
145 382 153 366 169 354 _c
185 342 217 330 265 320 _c
296 313 _l
360 299 405 279 432 255 _c
458 230 472 195 472 151 _c
472 100 452 60 412 31 _c
372 1 316 -13 246 -13 _c
216 -13 186 -10 154 -5 _c
122 0 89 8 54 20 _c
54 113 _l
87 95 120 82 152 74 _c
184 65 216 61 248 61 _c
290 61 323 68 346 82 _c
368 96 380 117 380 144 _c
380 168 371 187 355 200 _c
339 213 303 226 247 238 _c
216 245 _l
160 257 119 275 95 299 _c
70 323 58 356 58 399 _c
58 450 76 490 112 518 _c
148 546 200 560 268 560 _c
}_e{301 560 332 557 362 552 _c
391 547 418 540 443 531 _c
_cl}_e}_d
/t{392 0 27 0 368 702 _sc
183 702 _m
183 547 _l
368 547 _l
368 477 _l
183 477 _l
183 180 _l
183 135 189 106 201 94 _c
213 81 238 75 276 75 _c
368 75 _l
368 0 _l
276 0 _l
206 0 158 13 132 39 _c
106 65 93 112 93 180 _c
93 477 _l
27 477 _l
27 547 _l
93 547 _l
93 702 _l
183 702 _l
_cl}_d
/u{634 0 85 -13 543 547 _sc
85 216 _m
85 547 _l
175 547 _l
175 219 _l
175 167 185 129 205 103 _c
225 77 255 64 296 64 _c
344 64 383 79 411 110 _c
439 141 453 183 453 237 _c
453 547 _l
543 547 _l
543 0 _l
453 0 _l
453 84 _l
431 50 405 26 377 10 _c
348 -5 315 -13 277 -13 _c
214 -13 166 6 134 45 _c
101 83 85 140 85 216 _c
_cl}_d
/x{592 0 29 0 559 547 _sc
549 547 _m
351 281 _l
559 0 _l
453 0 _l
294 215 _l
135 0 _l
29 0 _l
241 286 _l
47 547 _l
153 547 _l
298 352 _l
443 547 _l
549 547 _l
_cl}_d
/y{592 0 30 -207 562 547 _sc
322 -50 _m
296 -114 271 -157 247 -177 _c
223 -197 191 -207 151 -207 _c
79 -207 _l
79 -132 _l
132 -132 _l
156 -132 175 -126 189 -114 _c
203 -102 218 -75 235 -31 _c
251 9 _l
30 547 _l
125 547 _l
296 119 _l
467 547 _l
562 547 _l
322 -50 _l
_cl}_d
/minus{838 0 106 272 732 355 _sc
106 355 _m
732 355 _l
732 272 _l
106 272 _l
106 355 _l
_cl}_d
end readonly def

/BuildGlyph
 {exch begin
 CharStrings exch
 2 copy known not{pop /.notdef}if
 true 3 1 roll get exec
 end}_d

/BuildChar {
 1 index /Encoding get exch get
 1 index /BuildGlyph get exec
}_d

FontName currentdict end definefont pop
end
%%EndProlog
mpldict begin
-270 36 translate
1152 720 0 0 clipbox
gsave
0 0 m
1152 0 l
1152 720 l
0 720 l
cl
1.000 setgray
fill
grestore
gsave
144 386.182 m
516 386.182 l
516 648 l
144 648 l
cl
1.000 setgray
fill
grestore
1.000 setlinewidth
1 setlinejoin
2 setlinecap
[] 0 setdash
1.000 0.000 0.000 setrgbcolor
gsave
372 261.8 144 386.2 clipbox
144 531.239 m
145.771 510.536 l
147.543 502.508 l
149.314 529.717 l
151.086 506.996 l
152.857 525.118 l
154.629 508.942 l
156.4 527.489 l
158.171 515.745 l
159.943 502.649 l
161.714 507.702 l
163.486 515.541 l
165.257 527.757 l
167.029 508.506 l
168.8 507.304 l
170.571 522.128 l
172.343 512.032 l
174.114 513.363 l
175.886 523.057 l
177.657 506.859 l
179.429 533.137 l
181.2 493.046 l
182.971 548.08 l
184.743 488.031 l
186.514 535.284 l
188.286 507.493 l
190.057 527.201 l
191.829 502.533 l
193.6 531.623 l
195.371 533.954 l
197.143 501.367 l
198.914 525.857 l
200.686 533.882 l
202.457 505.525 l
204.229 494.345 l
206 513.939 l
207.771 535.121 l
209.543 508.39 l
211.314 520.933 l
213.086 507.683 l
214.857 533.086 l
216.629 501.15 l
218.4 508.833 l
220.171 515.606 l
221.943 524.537 l
223.714 519.67 l
225.486 500.151 l
227.257 518.002 l
229.029 541.722 l
230.8 495.263 l
232.571 533.499 l
234.343 504.94 l
236.114 526.07 l
237.886 512.648 l
239.657 518.613 l
241.429 507.215 l
243.2 550.26 l
244.971 502.236 l
246.743 435.989 l
248.514 597.143 l
250.286 568.894 l
252.057 533.92 l
253.829 508.58 l
255.6 517.149 l
257.371 513.186 l
259.143 525.11 l
260.914 513.778 l
262.686 505.815 l
264.457 539.466 l
266.229 511.213 l
268 457.314 l
269.771 463.451 l
271.543 592.188 l
273.314 558.971 l
275.086 530.889 l
276.857 475.325 l
278.629 547.939 l
280.4 499.144 l
282.171 495.699 l
283.943 536.458 l
285.714 499.126 l
287.486 533.174 l
289.257 504.657 l
291.029 527.48 l
292.8 503.435 l
294.571 535.858 l
296.343 493.55 l
298.114 496.249 l
299.886 510.696 l
301.657 536.27 l
303.429 530.649 l
305.2 503.333 l
306.971 520.892 l
308.743 507.945 l
310.514 513.448 l
312.286 550.562 l
314.057 452.285 l
315.829 564.674 l
317.6 576.72 l
319.371 480.867 l
321.143 537.021 l
322.914 526.827 l
324.686 493.674 l
326.457 535.229 l
328.229 550.421 l
330 491.623 l
331.771 530.824 l
333.543 504.162 l
335.314 552.311 l
337.086 578.665 l
338.857 589.221 l
340.629 438.971 l
342.4 561.598 l
344.171 559.724 l
345.943 496.119 l
347.714 521.284 l
349.486 537.427 l
351.257 475.79 l
353.029 579.984 l
354.8 544.515 l
356.571 521.452 l
358.343 488.268 l
360.114 451.09 l
361.886 469.002 l
363.657 558.665 l
365.429 530.113 l
367.2 512.063 l
368.971 502.453 l
370.743 525.264 l
372.514 513.109 l
374.286 524.275 l
376.057 522.66 l
377.829 475.593 l
379.6 477.611 l
381.371 603.779 l
383.143 415.704 l
384.914 567.04 l
386.686 597.191 l
388.457 615.637 l
390.229 429.745 l
392 592.774 l
393.771 451.216 l
395.543 512.583 l
397.314 559.186 l
399.086 564.712 l
400.857 541.906 l
402.629 510.359 l
404.4 472.283 l
406.171 516.059 l
407.943 569.875 l
409.714 473.447 l
411.486 456.65 l
413.257 458.216 l
415.029 475.91 l
416.8 498.756 l
418.571 502.867 l
420.343 548.788 l
422.114 555.544 l
423.886 519.661 l
425.657 481.063 l
427.429 564.899 l
429.2 467.45 l
430.971 419.837 l
432.743 629.809 l
434.514 420.783 l
436.286 568.757 l
438.057 501.327 l
439.829 523.237 l
441.6 527.146 l
443.371 519.379 l
445.143 499.49 l
446.914 527.09 l
448.686 515.705 l
450.457 517.517 l
452.229 509.427 l
454 540.796 l
455.771 547.744 l
457.543 478.845 l
459.314 503.799 l
461.086 560.587 l
462.857 526.382 l
466.4 438.115 l
468.171 432.957 l
469.943 625.363 l
471.714 392.336 l
473.486 635.343 l
475.257 568.733 l
477.029 512.419 l
478.8 486.942 l
480.571 541.723 l
482.343 528.508 l
484.114 463.89 l
485.886 440.511 l
487.657 580.528 l
489.429 579.578 l
491.2 479.83 l
492.971 534.739 l
494.743 504.469 l
496.514 537.385 l
496.514 537.385 l
stroke
grestore
0.500 setlinewidth
0 setlinecap
0.000 setgray
gsave
/o {
gsave
newpath
translate
0 0 m
0 4 l
gsave
0.000 setgray
fill
grestore
stroke
grestore
} bind def
144 386.182 o
grestore
gsave
/o {
gsave
newpath
translate
0 0 m
0 -4 l
gsave
0.000 setgray
fill
grestore
stroke
grestore
} bind def
144 648 o
grestore
/BitstreamVeraSans-Roman findfont
12.000 scalefont
setfont
gsave
140.976562 373.103693 translate
0.000000 rotate
0.000000 0.171875 m /zero glyphshow
grestore
gsave
/o {
gsave
newpath
translate
0 0 m
0 4 l
gsave
0.000 setgray
fill
grestore
stroke
grestore
} bind def
197.143 386.182 o
grestore
gsave
/o {
gsave
newpath
translate
0 0 m
0 -4 l
gsave
0.000 setgray
fill
grestore
stroke
grestore
} bind def
197.143 648 o
grestore
gsave
190.556920 373.103693 translate
0.000000 rotate
0.000000 0.171875 m /one glyphshow
7.634766 0.171875 m /zero glyphshow
grestore
gsave
/o {
gsave
newpath
translate
0 0 m
0 4 l
gsave
0.000 setgray
fill
grestore
stroke
grestore
} bind def
250.286 386.182 o
grestore
gsave
/o {
gsave
newpath
translate
0 0 m
0 -4 l
gsave
0.000 setgray
fill
grestore
stroke
grestore
} bind def
250.286 648 o
grestore
gsave
243.481027 373.103693 translate
0.000000 rotate
0.000000 0.171875 m /two glyphshow
7.634766 0.171875 m /zero glyphshow
grestore
gsave
/o {
gsave
newpath
translate
0 0 m
0 4 l
gsave
0.000 setgray
fill
grestore
stroke
grestore
} bind def
303.429 386.182 o
grestore
gsave
/o {
gsave
newpath
translate
0 0 m
0 -4 l
gsave
0.000 setgray
fill
grestore
stroke
grestore
} bind def
303.429 648 o
grestore
gsave
296.647321 373.103693 translate
0.000000 rotate
0.000000 0.171875 m /three glyphshow
7.634766 0.171875 m /zero glyphshow
grestore
gsave
/o {
gsave
newpath
translate
0 0 m
0 4 l
gsave
0.000 setgray
fill
grestore
stroke
grestore
} bind def
356.571 386.182 o
grestore
gsave
/o {
gsave
newpath
translate
0 0 m
0 -4 l
gsave
0.000 setgray
fill
grestore
stroke
grestore
} bind def
356.571 648 o
grestore
gsave
349.626116 373.103693 translate
0.000000 rotate
0.000000 0.171875 m /four glyphshow
7.634766 0.171875 m /zero glyphshow
grestore
gsave
/o {
gsave
newpath
translate
0 0 m
0 4 l
gsave
0.000 setgray
fill
grestore
stroke
grestore
} bind def
409.714 386.182 o
grestore
gsave
/o {
gsave
newpath
translate
0 0 m
0 -4 l
gsave
0.000 setgray
fill
grestore
stroke
grestore
} bind def
409.714 648 o
grestore
gsave
402.933036 373.103693 translate
0.000000 rotate
0.000000 0.171875 m /five glyphshow
7.634766 0.171875 m /zero glyphshow
grestore
gsave
/o {
gsave
newpath
translate
0 0 m
0 4 l
gsave
0.000 setgray
fill
grestore
stroke
grestore
} bind def
462.857 386.182 o
grestore
gsave
/o {
gsave
newpath
translate
0 0 m
0 -4 l
gsave
0.000 setgray
fill
grestore
stroke
grestore
} bind def
462.857 648 o
grestore
gsave
456.036830 373.103693 translate
0.000000 rotate
0.000000 0.171875 m /six glyphshow
7.634766 0.171875 m /zero glyphshow
grestore
gsave
/o {
gsave
newpath
translate
0 0 m
0 4 l
gsave
0.000 setgray
fill
grestore
stroke
grestore
} bind def
516 386.182 o
grestore
gsave
/o {
gsave
newpath
translate
0 0 m
0 -4 l
gsave
0.000 setgray
fill
grestore
stroke
grestore
} bind def
516 648 o
grestore
gsave
509.250000 373.103693 translate
0.000000 rotate
0.000000 0.171875 m /seven glyphshow
7.634766 0.171875 m /zero glyphshow
grestore
gsave
285.601562 357.400568 translate
0.000000 rotate
0.000000 1.578125 m /T glyphshow
6.955078 1.578125 m /i glyphshow
10.289062 1.578125 m /m glyphshow
21.978516 1.578125 m /e glyphshow
29.361328 1.578125 m /space glyphshow
33.175781 1.578125 m /bracketleft glyphshow
37.857422 1.578125 m /M glyphshow
48.210938 1.578125 m /i glyphshow
51.544922 1.578125 m /n glyphshow
59.150391 1.578125 m /u glyphshow
66.755859 1.578125 m /t glyphshow
71.460938 1.578125 m /e glyphshow
78.843750 1.578125 m /s glyphshow
85.095703 1.578125 m /bracketright glyphshow
grestore
gsave
/o {
gsave
newpath
translate
0 0 m
4 0 l
gsave
0.000 setgray
fill
grestore
stroke
grestore
} bind def
144 386.182 o
grestore
1.000 0.000 0.000 setrgbcolor
gsave
101.437500 381.642756 translate
0.000000 rotate
0.000000 0.171875 m /minus glyphshow
10.054688 0.171875 m /one glyphshow
17.689453 0.171875 m /eight glyphshow
25.324219 0.171875 m /zero glyphshow
32.958984 0.171875 m /zero glyphshow
grestore
0.000 setgray
gsave
/o {
gsave
newpath
translate
0 0 m
4 0 l
gsave
0.000 setgray
fill
grestore
stroke
grestore
} bind def
144 429.818 o
grestore
1.000 0.000 0.000 setrgbcolor
gsave
101.437500 425.279119 translate
0.000000 rotate
0.000000 0.171875 m /minus glyphshow
10.054688 0.171875 m /one glyphshow
17.689453 0.171875 m /two glyphshow
25.324219 0.171875 m /zero glyphshow
32.958984 0.171875 m /zero glyphshow
grestore
0.000 setgray
gsave
/o {
gsave
newpath
translate
0 0 m
4 0 l
gsave
0.000 setgray
fill
grestore
stroke
grestore
} bind def
144 473.455 o
grestore
1.000 0.000 0.000 setrgbcolor
gsave
109.078125 468.915483 translate
0.000000 rotate
0.000000 0.171875 m /minus glyphshow
10.054688 0.171875 m /six glyphshow
17.689453 0.171875 m /zero glyphshow
25.324219 0.171875 m /zero glyphshow
grestore
0.000 setgray
gsave
/o {
gsave
newpath
translate
0 0 m
4 0 l
gsave
0.000 setgray
fill
grestore
stroke
grestore
} bind def
144 517.091 o
grestore
1.000 0.000 0.000 setrgbcolor
gsave
133.953125 512.551847 translate
0.000000 rotate
0.000000 0.171875 m /zero glyphshow
grestore
0.000 setgray
gsave
/o {
gsave
newpath
translate
0 0 m
4 0 l
gsave
0.000 setgray
fill
grestore
stroke
grestore
} bind def
144 560.727 o
grestore
1.000 0.000 0.000 setrgbcolor
gsave
118.718750 556.188210 translate
0.000000 rotate
0.000000 0.171875 m /six glyphshow
7.634766 0.171875 m /zero glyphshow
15.269531 0.171875 m /zero glyphshow
grestore
0.000 setgray
gsave
/o {
gsave
newpath
translate
0 0 m
4 0 l
gsave
0.000 setgray
fill
grestore
stroke
grestore
} bind def
144 604.364 o
grestore
1.000 0.000 0.000 setrgbcolor
gsave
111.546875 599.824574 translate
0.000000 rotate
0.000000 0.171875 m /one glyphshow
7.634766 0.171875 m /two glyphshow
15.269531 0.171875 m /zero glyphshow
22.904297 0.171875 m /zero glyphshow
grestore
0.000 setgray
gsave
/o {
gsave
newpath
translate
0 0 m
4 0 l
gsave
0.000 setgray
fill
grestore
stroke
grestore
} bind def
144 648 o
grestore
1.000 0.000 0.000 setrgbcolor
gsave
111.546875 643.460938 translate
0.000000 rotate
0.000000 0.171875 m /one glyphshow
7.634766 0.171875 m /eight glyphshow
15.269531 0.171875 m /zero glyphshow
22.904297 0.171875 m /zero glyphshow
grestore
gsave
96.437500 479.864347 translate
90.000000 rotate
0.000000 2.500000 m /A glyphshow
8.208984 2.500000 m /r glyphshow
12.892578 2.500000 m /e glyphshow
20.275391 2.500000 m /a glyphshow
27.628906 2.500000 m /space glyphshow
31.443359 2.500000 m /bracketleft glyphshow
36.125000 2.500000 m /p glyphshow
43.742188 2.500000 m /i glyphshow
47.076172 2.500000 m /x glyphshow
53.802734 2.500000 m /e glyphshow
61.185547 2.500000 m /l glyphshow
64.519531 2.500000 m /s glyphshow
70.771484 2.500000 m /bracketright glyphshow
grestore
1.000 setlinewidth
2 setlinecap
0.000 setgray
gsave
144 648 m
516 648 l
stroke
grestore
gsave
516 386.182 m
516 648 l
stroke
grestore
gsave
144 386.182 m
516 386.182 l
stroke
grestore
gsave
144 386.182 m
144 648 l
stroke
grestore
0.000 0.000 1.000 setrgbcolor
gsave
372 261.8 144 386.2 clipbox
144 499.162 m
145.771 535.422 l
147.543 530.139 l
149.314 524.455 l
151.086 530.864 l
152.857 525.703 l
154.629 514.251 l
156.4 501.011 l
158.171 528.605 l
159.943 508.887 l
161.714 525.238 l
163.486 512.444 l
165.257 501.483 l
167.029 513.62 l
168.8 533.63 l
174.114 566.382 l
175.886 567.113 l
177.657 548.416 l
179.429 494.749 l
181.2 485.451 l
182.971 474.831 l
184.743 546.176 l
186.514 500.346 l
188.286 529.062 l
190.057 503.509 l
191.829 532.002 l
193.6 503.765 l
195.371 517.889 l
197.143 523.562 l
198.914 514.012 l
200.686 517.971 l
202.457 516.178 l
204.229 519.377 l
206 514.517 l
207.771 518.761 l
209.543 514.415 l
211.314 517.813 l
213.086 532.671 l
214.857 494.213 l
216.629 541.087 l
218.4 519.381 l
220.171 510.637 l
221.943 517.031 l
223.714 513.268 l
225.486 532.759 l
227.257 492.74 l
229.029 505.695 l
230.8 532.517 l
232.571 521.443 l
234.343 517.585 l
236.114 518.918 l
237.886 511.027 l
239.657 498.791 l
241.429 472.654 l
243.2 472.688 l
244.971 498.199 l
246.743 581.663 l
248.514 461.799 l
250.286 474.413 l
252.057 492.934 l
253.829 526.567 l
255.6 512.999 l
257.371 521.177 l
259.143 513.339 l
260.914 518.34 l
262.686 525.018 l
264.457 494.624 l
266.229 561.543 l
268 585.899 l
269.771 582.194 l
271.543 420.832 l
273.314 456.823 l
275.086 536.591 l
276.857 591.447 l
278.629 569.018 l
280.4 565.516 l
282.171 540.235 l
283.943 494.489 l
285.714 536.521 l
287.486 499.467 l
289.257 531.487 l
291.029 501.579 l
292.8 541.813 l
294.571 483.002 l
296.343 552.405 l
298.114 547.906 l
299.886 531.973 l
301.657 499.569 l
303.429 508.592 l
305.2 532.946 l
306.971 505.485 l
308.743 532.007 l
310.514 520.383 l
312.286 498.869 l
314.057 558.754 l
317.6 462.442 l
319.371 556.929 l
321.143 507.096 l
322.914 501.488 l
324.686 538.435 l
326.457 485.453 l
328.229 504.113 l
330 546.001 l
331.771 498.588 l
333.543 532.105 l
337.086 478.027 l
338.857 496.605 l
340.629 573.381 l
342.4 486.833 l
344.171 482.981 l
345.943 536.593 l
347.714 502.296 l
349.486 515.843 l
351.257 558.435 l
353.029 444.9 l
354.8 435.593 l
356.571 466.28 l
358.343 490.962 l
360.114 566.76 l
361.886 584.152 l
363.657 480.36 l
365.429 525.8 l
367.2 518.8 l
368.971 519.921 l
370.743 510.085 l
372.514 523.222 l
374.286 510.297 l
376.057 496.346 l
377.829 550.25 l
379.6 592.074 l
381.371 420.692 l
383.143 615.736 l
384.914 485.392 l
386.686 455.712 l
388.457 485.03 l
390.229 554.128 l
392 476.597 l
393.771 565.861 l
395.543 502.857 l
397.314 502.357 l
399.086 448.888 l
400.857 493.233 l
402.629 560.016 l
404.4 593.053 l
406.171 532.39 l
407.943 452.322 l
409.714 533.237 l
411.486 549.285 l
413.257 502.723 l
415.029 523.56 l
416.8 502.516 l
418.571 548.979 l
420.343 472.259 l
422.114 482.545 l
425.657 552.635 l
427.429 484.412 l
429.2 546.214 l
430.971 561.198 l
432.743 469.858 l
434.514 555.645 l
436.286 492.384 l
438.057 535.967 l
439.829 542.954 l
441.6 490.782 l
443.371 509.088 l
445.143 541.374 l
446.914 500.112 l
448.686 524.084 l
450.457 516.481 l
452.229 522.674 l
454 496.009 l
455.771 508.667 l
457.543 577.57 l
459.314 534.736 l
461.086 429.996 l
462.857 463.697 l
464.629 537.039 l
466.4 587.84 l
468.171 607.09 l
469.943 429.978 l
471.714 598.691 l
473.486 447.203 l
475.257 503.394 l
477.029 531.349 l
478.8 544.364 l
480.571 489.235 l
482.343 503.248 l
484.114 565.352 l
485.886 566.967 l
487.657 473.704 l
489.429 467.594 l
491.2 551.842 l
492.971 499.835 l
494.743 520.593 l
496.514 498.999 l
496.514 498.999 l
stroke
grestore
0.500 setlinewidth
0 setlinecap
0.000 setgray
gsave
/o {
gsave
newpath
translate
0 0 m
-4 0 l
gsave
0.000 setgray
fill
grestore
stroke
grestore
} bind def
516 386.182 o
grestore
0.000 0.000 1.000 setrgbcolor
gsave
520.000000 381.642756 translate
0.000000 rotate
0.000000 0.171875 m /minus glyphshow
10.054688 0.171875 m /two glyphshow
17.689453 0.171875 m /four glyphshow
25.324219 0.171875 m /zero glyphshow
grestore
0.000 setgray
gsave
/o {
gsave
newpath
translate
0 0 m
-4 0 l
gsave
0.000 setgray
fill
grestore
stroke
grestore
} bind def
516 429.818 o
grestore
0.000 0.000 1.000 setrgbcolor
gsave
520.000000 425.279119 translate
0.000000 rotate
0.000000 0.171875 m /minus glyphshow
10.054688 0.171875 m /one glyphshow
17.689453 0.171875 m /six glyphshow
25.324219 0.171875 m /zero glyphshow
grestore
0.000 setgray
gsave
/o {
gsave
newpath
translate
0 0 m
-4 0 l
gsave
0.000 setgray
fill
grestore
stroke
grestore
} bind def
516 473.455 o
grestore
0.000 0.000 1.000 setrgbcolor
gsave
520.000000 468.915483 translate
0.000000 rotate
0.000000 0.171875 m /minus glyphshow
10.054688 0.171875 m /eight glyphshow
17.689453 0.171875 m /zero glyphshow
grestore
0.000 setgray
gsave
/o {
gsave
newpath
translate
0 0 m
-4 0 l
gsave
0.000 setgray
fill
grestore
stroke
grestore
} bind def
516 517.091 o
grestore
0.000 0.000 1.000 setrgbcolor
gsave
520.000000 512.551847 translate
0.000000 rotate
0.000000 0.171875 m /zero glyphshow
grestore
0.000 setgray
gsave
/o {
gsave
newpath
translate
0 0 m
-4 0 l
gsave
0.000 setgray
fill
grestore
stroke
grestore
} bind def
516 560.727 o
grestore
0.000 0.000 1.000 setrgbcolor
gsave
520.000000 556.188210 translate
0.000000 rotate
0.000000 0.171875 m /eight glyphshow
7.634766 0.171875 m /zero glyphshow
grestore
0.000 setgray
gsave
/o {
gsave
newpath
translate
0 0 m
-4 0 l
gsave
0.000 setgray
fill
grestore
stroke
grestore
} bind def
516 604.364 o
grestore
0.000 0.000 1.000 setrgbcolor
gsave
520.000000 599.824574 translate
0.000000 rotate
0.000000 0.171875 m /one glyphshow
7.634766 0.171875 m /six glyphshow
15.269531 0.171875 m /zero glyphshow
grestore
0.000 setgray
gsave
/o {
gsave
newpath
translate
0 0 m
-4 0 l
gsave
0.000 setgray
fill
grestore
stroke
grestore
} bind def
516 648 o
grestore
0.000 0.000 1.000 setrgbcolor
gsave
520.000000 643.460938 translate
0.000000 rotate
0.000000 0.171875 m /two glyphshow
7.634766 0.171875 m /four glyphshow
15.269531 0.171875 m /zero glyphshow
grestore
gsave
567.546875 472.708097 translate
90.000000 rotate
0.000000 2.500000 m /I glyphshow
3.539062 2.500000 m /n glyphshow
11.144531 2.500000 m /t glyphshow
15.849609 2.500000 m /e glyphshow
23.232422 2.500000 m /n glyphshow
30.837891 2.500000 m /s glyphshow
37.089844 2.500000 m /i glyphshow
40.423828 2.500000 m /t glyphshow
45.128906 2.500000 m /y glyphshow
52.230469 2.500000 m /space glyphshow
56.044922 2.500000 m /bracketleft glyphshow
60.726562 2.500000 m /A glyphshow
68.685547 2.500000 m /period glyphshow
72.500000 2.500000 m /U glyphshow
81.283203 2.500000 m /period glyphshow
85.097656 2.500000 m /bracketright glyphshow
grestore
0.000 setgray
/BitstreamVeraSans-Roman findfont
14.400 scalefont
setfont
gsave
311.351562 653.000000 translate
0.000000 rotate
0.000000 0.000000 m /I glyphshow
4.239502 0.000000 m /M glyphshow
16.642151 0.000000 m /F glyphshow
24.910583 0.000000 m /space glyphshow
29.479980 0.000000 m /one glyphshow
grestore
gsave
664.8 386.182 m
1036.8 386.182 l
1036.8 648 l
664.8 648 l
cl
1.000 setgray
fill
grestore
1.000 setlinewidth
2 setlinecap
1.000 0.000 0.000 setrgbcolor
gsave
372 261.8 664.8 386.2 clipbox
664.8 496.169 m
666.571 496.403 l
668.343 497.408 l
670.114 499.575 l
671.886 504.194 l
675.429 520.942 l
677.2 522.474 l
678.971 517.958 l
680.743 513.018 l
682.514 512.719 l
684.286 516.85 l
686.057 523.802 l
687.829 531.225 l
689.6 533.915 l
691.371 526.923 l
694.914 494.042 l
696.686 488.384 l
698.457 502.85 l
700.229 529.626 l
702 542.852 l
703.771 524.919 l
705.543 498.166 l
707.314 500.535 l
709.086 522.357 l
710.857 528.43 l
712.629 517.75 l
714.4 507.917 l
716.171 504.553 l
717.943 508.441 l
719.714 516.274 l
721.486 525.028 l
723.257 532.178 l
725.029 535.779 l
726.8 534.077 l
728.571 525.503 l
730.343 511.018 l
732.114 501.935 l
733.886 508.991 l
735.657 522.994 l
737.429 528.185 l
739.2 523.392 l
740.971 514.09 l
742.743 506.964 l
744.514 508.549 l
746.286 517.266 l
748.057 528.368 l
749.829 533.04 l
751.6 524.137 l
753.371 506.352 l
755.143 490.57 l
756.914 485.843 l
758.686 501.289 l
760.457 535.271 l
762.229 558.027 l
764 542.806 l
765.771 507.8 l
767.543 482.439 l
769.314 486.511 l
772.857 521.036 l
774.629 525.66 l
776.4 514.693 l
778.171 512.367 l
779.943 523.917 l
781.714 529.009 l
783.486 520.444 l
785.257 499.676 l
787.029 483.322 l
788.8 480.233 l
790.571 492.966 l
792.343 511.272 l
794.114 524.235 l
795.886 531.047 l
797.657 533.431 l
799.429 534.61 l
801.2 541.658 l
802.971 553.468 l
804.743 562.1 l
806.514 557.061 l
808.286 531.702 l
810.057 496.481 l
811.829 480.183 l
813.6 496.473 l
815.371 525.026 l
817.143 545.169 l
818.914 555.744 l
820.686 559.672 l
824.229 561.615 l
826 560.992 l
827.771 555.322 l
829.543 537.742 l
831.314 503.523 l
833.086 456.76 l
834.857 432.38 l
836.629 456.949 l
840.171 564.607 l
841.943 603.342 l
843.714 628.923 l
845.486 637.22 l
847.257 623.564 l
850.8 565.757 l
852.571 559.59 l
854.343 561.514 l
856.114 542.189 l
859.657 473.312 l
861.429 458.901 l
863.2 478.608 l
864.971 511.975 l
866.743 531.502 l
868.514 525.02 l
870.286 513.081 l
872.057 517.738 l
873.829 530.397 l
875.6 531.823 l
877.371 523.132 l
879.143 510.045 l
880.914 497.997 l
882.686 491.8 l
884.457 493.799 l
886.229 504.327 l
888 517.624 l
889.771 526.394 l
891.543 524.526 l
893.314 514.044 l
895.086 510.382 l
896.857 522.361 l
898.629 539.129 l
900.4 544.588 l
902.171 527.464 l
903.943 495.715 l
905.714 468.47 l
907.486 451.408 l
909.257 446.151 l
911.029 453.783 l
912.8 472.963 l
918.114 552.91 l
919.886 570.398 l
921.657 577.459 l
923.429 574.479 l
925.2 562.611 l
926.971 543.495 l
928.743 522.216 l
930.514 504.337 l
932.286 493.791 l
934.057 493.66 l
935.829 504.143 l
939.371 537.077 l
941.143 547.991 l
942.914 548.385 l
944.686 536.546 l
946.457 514.676 l
948.229 487.963 l
950 466.734 l
951.771 449.71 l
953.543 434.415 l
955.314 433.447 l
957.086 474.949 l
958.857 542.761 l
960.629 593.091 l
962.4 612.549 l
964.171 608.195 l
965.943 590.125 l
967.714 566.367 l
969.486 536.625 l
971.257 501.963 l
973.029 471.649 l
974.8 453.356 l
976.571 451.624 l
978.343 469.303 l
980.114 502.984 l
981.886 540.8 l
983.657 570.281 l
985.429 583.919 l
987.2 575.526 l
988.971 539.097 l
990.743 479.353 l
992.514 442.036 l
994.286 461.579 l
997.829 563.862 l
999.6 587.441 l
1001.37 565.629 l
1004.91 480.176 l
1006.69 463.593 l
1008.46 485.017 l
1010.23 520.597 l
1012 541.696 l
1013.77 543.656 l
1015.54 545.974 l
1017.31 552.724 l
1017.31 552.724 l
stroke
grestore
0.500 setlinewidth
0 setlinecap
0.000 setgray
gsave
/o {
gsave
newpath
translate
0 0 m
0 4 l
gsave
0.000 setgray
fill
grestore
stroke
grestore
} bind def
664.8 386.182 o
grestore
gsave
/o {
gsave
newpath
translate
0 0 m
0 -4 l
gsave
0.000 setgray
fill
grestore
stroke
grestore
} bind def
664.8 648 o
grestore
/BitstreamVeraSans-Roman findfont
12.000 scalefont
setfont
gsave
661.776563 373.103693 translate
0.000000 rotate
0.000000 0.171875 m /zero glyphshow
grestore
gsave
/o {
gsave
newpath
translate
0 0 m
0 4 l
gsave
0.000 setgray
fill
grestore
stroke
grestore
} bind def
717.943 386.182 o
grestore
gsave
/o {
gsave
newpath
translate
0 0 m
0 -4 l
gsave
0.000 setgray
fill
grestore
stroke
grestore
} bind def
717.943 648 o
grestore
gsave
711.356920 373.103693 translate
0.000000 rotate
0.000000 0.171875 m /one glyphshow
7.634766 0.171875 m /zero glyphshow
grestore
gsave
/o {
gsave
newpath
translate
0 0 m
0 4 l
gsave
0.000 setgray
fill
grestore
stroke
grestore
} bind def
771.086 386.182 o
grestore
gsave
/o {
gsave
newpath
translate
0 0 m
0 -4 l
gsave
0.000 setgray
fill
grestore
stroke
grestore
} bind def
771.086 648 o
grestore
gsave
764.281027 373.103693 translate
0.000000 rotate
0.000000 0.171875 m /two glyphshow
7.634766 0.171875 m /zero glyphshow
grestore
gsave
/o {
gsave
newpath
translate
0 0 m
0 4 l
gsave
0.000 setgray
fill
grestore
stroke
grestore
} bind def
824.229 386.182 o
grestore
gsave
/o {
gsave
newpath
translate
0 0 m
0 -4 l
gsave
0.000 setgray
fill
grestore
stroke
grestore
} bind def
824.229 648 o
grestore
gsave
817.447321 373.103693 translate
0.000000 rotate
0.000000 0.171875 m /three glyphshow
7.634766 0.171875 m /zero glyphshow
grestore
gsave
/o {
gsave
newpath
translate
0 0 m
0 4 l
gsave
0.000 setgray
fill
grestore
stroke
grestore
} bind def
877.371 386.182 o
grestore
gsave
/o {
gsave
newpath
translate
0 0 m
0 -4 l
gsave
0.000 setgray
fill
grestore
stroke
grestore
} bind def
877.371 648 o
grestore
gsave
870.426116 373.103693 translate
0.000000 rotate
0.000000 0.171875 m /four glyphshow
7.634766 0.171875 m /zero glyphshow
grestore
gsave
/o {
gsave
newpath
translate
0 0 m
0 4 l
gsave
0.000 setgray
fill
grestore
stroke
grestore
} bind def
930.514 386.182 o
grestore
gsave
/o {
gsave
newpath
translate
0 0 m
0 -4 l
gsave
0.000 setgray
fill
grestore
stroke
grestore
} bind def
930.514 648 o
grestore
gsave
923.733036 373.103693 translate
0.000000 rotate
0.000000 0.171875 m /five glyphshow
7.634766 0.171875 m /zero glyphshow
grestore
gsave
/o {
gsave
newpath
translate
0 0 m
0 4 l
gsave
0.000 setgray
fill
grestore
stroke
grestore
} bind def
983.657 386.182 o
grestore
gsave
/o {
gsave
newpath
translate
0 0 m
0 -4 l
gsave
0.000 setgray
fill
grestore
stroke
grestore
} bind def
983.657 648 o
grestore
gsave
976.836830 373.103693 translate
0.000000 rotate
0.000000 0.171875 m /six glyphshow
7.634766 0.171875 m /zero glyphshow
grestore
gsave
/o {
gsave
newpath
translate
0 0 m
0 4 l
gsave
0.000 setgray
fill
grestore
stroke
grestore
} bind def
1036.8 386.182 o
grestore
gsave
/o {
gsave
newpath
translate
0 0 m
0 -4 l
gsave
0.000 setgray
fill
grestore
stroke
grestore
} bind def
1036.8 648 o
grestore
gsave
1030.050000 373.103693 translate
0.000000 rotate
0.000000 0.171875 m /seven glyphshow
7.634766 0.171875 m /zero glyphshow
grestore
gsave
806.401563 357.400568 translate
0.000000 rotate
0.000000 1.578125 m /T glyphshow
6.955078 1.578125 m /i glyphshow
10.289062 1.578125 m /m glyphshow
21.978516 1.578125 m /e glyphshow
29.361328 1.578125 m /space glyphshow
33.175781 1.578125 m /bracketleft glyphshow
37.857422 1.578125 m /M glyphshow
48.210938 1.578125 m /i glyphshow
51.544922 1.578125 m /n glyphshow
59.150391 1.578125 m /u glyphshow
66.755859 1.578125 m /t glyphshow
71.460938 1.578125 m /e glyphshow
78.843750 1.578125 m /s glyphshow
85.095703 1.578125 m /bracketright glyphshow
grestore
gsave
/o {
gsave
newpath
translate
0 0 m
4 0 l
gsave
0.000 setgray
fill
grestore
stroke
grestore
} bind def
664.8 386.182 o
grestore
1.000 0.000 0.000 setrgbcolor
gsave
622.237500 381.642756 translate
0.000000 rotate
0.000000 0.171875 m /minus glyphshow
10.054688 0.171875 m /one glyphshow
17.689453 0.171875 m /five glyphshow
25.324219 0.171875 m /zero glyphshow
32.958984 0.171875 m /zero glyphshow
grestore
0.000 setgray
gsave
/o {
gsave
newpath
translate
0 0 m
4 0 l
gsave
0.000 setgray
fill
grestore
stroke
grestore
} bind def
664.8 429.818 o
grestore
1.000 0.000 0.000 setrgbcolor
gsave
622.237500 425.279119 translate
0.000000 rotate
0.000000 0.171875 m /minus glyphshow
10.054688 0.171875 m /one glyphshow
17.689453 0.171875 m /zero glyphshow
25.324219 0.171875 m /zero glyphshow
32.958984 0.171875 m /zero glyphshow
grestore
0.000 setgray
gsave
/o {
gsave
newpath
translate
0 0 m
4 0 l
gsave
0.000 setgray
fill
grestore
stroke
grestore
} bind def
664.8 473.455 o
grestore
1.000 0.000 0.000 setrgbcolor
gsave
629.878125 468.915483 translate
0.000000 rotate
0.000000 0.171875 m /minus glyphshow
10.054688 0.171875 m /five glyphshow
17.689453 0.171875 m /zero glyphshow
25.324219 0.171875 m /zero glyphshow
grestore
0.000 setgray
gsave
/o {
gsave
newpath
translate
0 0 m
4 0 l
gsave
0.000 setgray
fill
grestore
stroke
grestore
} bind def
664.8 517.091 o
grestore
1.000 0.000 0.000 setrgbcolor
gsave
654.753125 512.551847 translate
0.000000 rotate
0.000000 0.171875 m /zero glyphshow
grestore
0.000 setgray
gsave
/o {
gsave
newpath
translate
0 0 m
4 0 l
gsave
0.000 setgray
fill
grestore
stroke
grestore
} bind def
664.8 560.727 o
grestore
1.000 0.000 0.000 setrgbcolor
gsave
639.596875 556.188210 translate
0.000000 rotate
0.000000 0.171875 m /five glyphshow
7.634766 0.171875 m /zero glyphshow
15.269531 0.171875 m /zero glyphshow
grestore
0.000 setgray
gsave
/o {
gsave
newpath
translate
0 0 m
4 0 l
gsave
0.000 setgray
fill
grestore
stroke
grestore
} bind def
664.8 604.364 o
grestore
1.000 0.000 0.000 setrgbcolor
gsave
632.346875 599.824574 translate
0.000000 rotate
0.000000 0.171875 m /one glyphshow
7.634766 0.171875 m /zero glyphshow
15.269531 0.171875 m /zero glyphshow
22.904297 0.171875 m /zero glyphshow
grestore
0.000 setgray
gsave
/o {
gsave
newpath
translate
0 0 m
4 0 l
gsave
0.000 setgray
fill
grestore
stroke
grestore
} bind def
664.8 648 o
grestore
1.000 0.000 0.000 setrgbcolor
gsave
632.346875 643.460938 translate
0.000000 rotate
0.000000 0.171875 m /one glyphshow
7.634766 0.171875 m /five glyphshow
15.269531 0.171875 m /zero glyphshow
22.904297 0.171875 m /zero glyphshow
grestore
gsave
617.237500 479.864347 translate
90.000000 rotate
0.000000 2.500000 m /A glyphshow
8.208984 2.500000 m /r glyphshow
12.892578 2.500000 m /e glyphshow
20.275391 2.500000 m /a glyphshow
27.628906 2.500000 m /space glyphshow
31.443359 2.500000 m /bracketleft glyphshow
36.125000 2.500000 m /p glyphshow
43.742188 2.500000 m /i glyphshow
47.076172 2.500000 m /x glyphshow
53.802734 2.500000 m /e glyphshow
61.185547 2.500000 m /l glyphshow
64.519531 2.500000 m /s glyphshow
70.771484 2.500000 m /bracketright glyphshow
grestore
1.000 setlinewidth
2 setlinecap
0.000 setgray
gsave
664.8 648 m
1036.8 648 l
stroke
grestore
gsave
1036.8 386.182 m
1036.8 648 l
stroke
grestore
gsave
664.8 386.182 m
1036.8 386.182 l
stroke
grestore
gsave
664.8 386.182 m
664.8 648 l
stroke
grestore
0.000 0.000 1.000 setrgbcolor
gsave
372 261.8 664.8 386.2 clipbox
664.8 556.257 m
666.571 550.83 l
668.343 539.56 l
671.886 510.663 l
673.657 499.078 l
675.429 493.431 l
677.2 496.744 l
678.971 510.225 l
680.743 526.69 l
682.514 534.951 l
684.286 532.468 l
686.057 522.867 l
691.371 485.812 l
693.143 477.837 l
694.914 475.381 l
696.686 480.345 l
698.457 493.722 l
700.229 513.448 l
702 536.151 l
703.771 556.235 l
705.543 565.878 l
707.314 554.667 l
709.086 531.81 l
710.857 523.066 l
712.629 526.635 l
714.4 523.017 l
716.171 512.689 l
717.943 505.781 l
719.714 505.193 l
721.486 510.861 l
723.257 519.147 l
725.029 523.283 l
726.8 520.085 l
728.571 513.3 l
732.114 496.834 l
733.886 496.72 l
737.429 524.108 l
739.2 521.888 l
740.971 513.43 l
742.743 513.646 l
744.514 525.036 l
746.286 523.251 l
749.829 483.905 l
751.6 475.209 l
753.371 474.998 l
755.143 477.222 l
756.914 479.214 l
758.686 486.735 l
760.457 499.719 l
764 532.864 l
765.771 545.177 l
767.543 547.257 l
769.314 536.468 l
771.086 521.827 l
772.857 512.226 l
774.629 512.449 l
776.4 520.91 l
778.171 518.482 l
779.943 503.744 l
781.714 497.605 l
783.486 509.102 l
785.257 537.457 l
787.029 561.564 l
788.8 568.302 l
790.571 552.17 l
794.114 497.199 l
795.886 474.862 l
797.657 458.534 l
799.429 449.116 l
801.2 445.682 l
802.971 446.848 l
804.743 451.231 l
806.514 461.685 l
808.286 495.889 l
810.057 555.644 l
811.829 594.606 l
813.6 572.146 l
815.371 516.048 l
817.143 472.065 l
818.914 446.975 l
820.686 432.504 l
822.457 420.01 l
824.229 404.997 l
826 398.67 l
827.771 415.559 l
829.543 463.583 l
833.086 605.186 l
834.857 643.675 l
836.629 633.251 l
838.4 594.946 l
840.171 553.339 l
843.714 475.792 l
845.486 442.67 l
847.257 446.549 l
850.8 537.878 l
852.571 541.246 l
854.343 515.509 l
856.114 503.98 l
857.886 512.618 l
859.657 532.266 l
861.429 541.406 l
863.2 523.17 l
864.971 491.383 l
866.743 466.226 l
868.514 457.361 l
870.286 455.567 l
872.057 460.23 l
873.829 473.707 l
875.6 496.454 l
877.371 526.727 l
879.143 554.989 l
880.914 569.775 l
882.686 559.494 l
884.457 522.485 l
886.229 498.182 l
888 510.24 l
889.771 520.595 l
891.543 515.495 l
893.314 520.419 l
895.086 533.109 l
896.857 533.922 l
898.629 506.887 l
900.4 478.044 l
902.171 481.346 l
903.943 526.701 l
905.714 577.562 l
907.486 608.254 l
909.257 606.414 l
911.029 589.53 l
912.8 576.322 l
914.571 562.207 l
916.343 535.673 l
918.114 499.308 l
919.886 459.562 l
921.657 423.329 l
923.429 399.293 l
925.2 396.581 l
926.971 422.024 l
928.743 473.25 l
930.514 540.602 l
932.286 594.466 l
934.057 605.866 l
935.829 574.638 l
937.6 525.834 l
939.371 472.094 l
941.143 436.903 l
942.914 444.575 l
944.686 484.318 l
946.457 536.172 l
948.229 580.37 l
950 603.648 l
951.771 615.728 l
953.543 629.138 l
955.314 640.366 l
957.086 624.466 l
958.857 574.781 l
962.4 447.919 l
964.171 404.654 l
965.943 388.675 l
967.714 410.228 l
969.486 467.086 l
971.257 533.431 l
973.029 585.003 l
974.8 611.204 l
976.571 606.094 l
978.343 576.175 l
980.114 532.825 l
981.886 492.77 l
983.657 470.664 l
985.429 467.514 l
987.2 480.495 l
988.971 506.469 l
990.743 538.122 l
992.514 553.641 l
994.286 541.377 l
996.057 515.772 l
997.829 491.878 l
999.6 483.3 l
1001.37 497.982 l
1003.14 522.644 l
1004.91 544.006 l
1006.69 551.743 l
1008.46 543.952 l
1010.23 529.324 l
1013.77 502.391 l
1015.54 488.3 l
1017.31 480.437 l
1017.31 480.437 l
stroke
grestore
0.500 setlinewidth
0 setlinecap
0.000 setgray
gsave
/o {
gsave
newpath
translate
0 0 m
-4 0 l
gsave
0.000 setgray
fill
grestore
stroke
grestore
} bind def
1036.8 386.182 o
grestore
0.000 0.000 1.000 setrgbcolor
gsave
1040.800000 381.642756 translate
0.000000 rotate
0.000000 0.171875 m /minus glyphshow
10.054688 0.171875 m /one glyphshow
17.689453 0.171875 m /five glyphshow
25.324219 0.171875 m /zero glyphshow
grestore
0.000 setgray
gsave
/o {
gsave
newpath
translate
0 0 m
-4 0 l
gsave
0.000 setgray
fill
grestore
stroke
grestore
} bind def
1036.8 429.818 o
grestore
0.000 0.000 1.000 setrgbcolor
gsave
1040.800000 425.279119 translate
0.000000 rotate
0.000000 0.171875 m /minus glyphshow
10.054688 0.171875 m /one glyphshow
17.689453 0.171875 m /zero glyphshow
25.324219 0.171875 m /zero glyphshow
grestore
0.000 setgray
gsave
/o {
gsave
newpath
translate
0 0 m
-4 0 l
gsave
0.000 setgray
fill
grestore
stroke
grestore
} bind def
1036.8 473.455 o
grestore
0.000 0.000 1.000 setrgbcolor
gsave
1040.800000 468.915483 translate
0.000000 rotate
0.000000 0.171875 m /minus glyphshow
10.054688 0.171875 m /five glyphshow
17.689453 0.171875 m /zero glyphshow
grestore
0.000 setgray
gsave
/o {
gsave
newpath
translate
0 0 m
-4 0 l
gsave
0.000 setgray
fill
grestore
stroke
grestore
} bind def
1036.8 517.091 o
grestore
0.000 0.000 1.000 setrgbcolor
gsave
1040.800000 512.551847 translate
0.000000 rotate
0.000000 0.171875 m /zero glyphshow
grestore
0.000 setgray
gsave
/o {
gsave
newpath
translate
0 0 m
-4 0 l
gsave
0.000 setgray
fill
grestore
stroke
grestore
} bind def
1036.8 560.727 o
grestore
0.000 0.000 1.000 setrgbcolor
gsave
1040.800000 556.188210 translate
0.000000 rotate
0.000000 0.171875 m /five glyphshow
7.634766 0.171875 m /zero glyphshow
grestore
0.000 setgray
gsave
/o {
gsave
newpath
translate
0 0 m
-4 0 l
gsave
0.000 setgray
fill
grestore
stroke
grestore
} bind def
1036.8 604.364 o
grestore
0.000 0.000 1.000 setrgbcolor
gsave
1040.800000 599.824574 translate
0.000000 rotate
0.000000 0.171875 m /one glyphshow
7.634766 0.171875 m /zero glyphshow
15.269531 0.171875 m /zero glyphshow
grestore
0.000 setgray
gsave
/o {
gsave
newpath
translate
0 0 m
-4 0 l
gsave
0.000 setgray
fill
grestore
stroke
grestore
} bind def
1036.8 648 o
grestore
0.000 0.000 1.000 setrgbcolor
gsave
1040.800000 643.460938 translate
0.000000 rotate
0.000000 0.171875 m /one glyphshow
7.634766 0.171875 m /five glyphshow
15.269531 0.171875 m /zero glyphshow
grestore
gsave
1088.346875 472.708097 translate
90.000000 rotate
0.000000 2.500000 m /I glyphshow
3.539062 2.500000 m /n glyphshow
11.144531 2.500000 m /t glyphshow
15.849609 2.500000 m /e glyphshow
23.232422 2.500000 m /n glyphshow
30.837891 2.500000 m /s glyphshow
37.089844 2.500000 m /i glyphshow
40.423828 2.500000 m /t glyphshow
45.128906 2.500000 m /y glyphshow
52.230469 2.500000 m /space glyphshow
56.044922 2.500000 m /bracketleft glyphshow
60.726562 2.500000 m /A glyphshow
68.685547 2.500000 m /period glyphshow
72.500000 2.500000 m /U glyphshow
81.283203 2.500000 m /period glyphshow
85.097656 2.500000 m /bracketright glyphshow
grestore
0.000 setgray
/BitstreamVeraSans-Roman findfont
14.400 scalefont
setfont
gsave
832.206250 653.000000 translate
0.000000 rotate
0.000000 0.000000 m /I glyphshow
4.239502 0.000000 m /M glyphshow
16.642151 0.000000 m /F glyphshow
24.910583 0.000000 m /space glyphshow
29.479980 0.000000 m /two glyphshow
grestore
gsave
144 72 m
516 72 l
516 333.818 l
144 333.818 l
cl
1.000 setgray
fill
grestore
1.000 setlinewidth
2 setlinecap
1.000 0.000 0.000 setrgbcolor
gsave
372 261.8 144 72 clipbox
144 190.827 m
145.771 192.74 l
147.543 195.648 l
151.086 202.907 l
152.857 206.487 l
154.629 209.521 l
156.4 211.622 l
158.171 212.44 l
159.943 211.753 l
161.714 209.479 l
163.486 206.09 l
165.257 202.325 l
167.029 198.963 l
168.8 196.779 l
170.571 196.367 l
172.343 197.598 l
174.114 200.171 l
175.886 203.79 l
177.657 207.931 l
179.429 211.162 l
181.2 211.827 l
182.971 208.774 l
184.743 202.881 l
186.514 195.647 l
188.286 189.088 l
190.057 185.562 l
191.829 186.898 l
193.6 192.574 l
195.371 201.433 l
198.914 223.027 l
200.686 232.639 l
202.457 239.36 l
204.229 241.612 l
206 238.284 l
207.771 230.123 l
209.543 218.344 l
211.314 204.16 l
214.857 173.67 l
216.629 160.872 l
218.4 151.709 l
220.171 147.09 l
221.943 147.895 l
223.714 154.662 l
225.486 166.38 l
227.257 181.648 l
232.571 233.999 l
234.343 247.222 l
236.114 254.32 l
237.886 253.404 l
239.657 245.021 l
241.429 230.325 l
244.971 191.031 l
246.743 174.821 l
248.514 166.537 l
250.286 168.135 l
252.057 177.684 l
253.829 192.368 l
255.6 208.679 l
257.371 221.166 l
259.143 227.329 l
260.914 227.016 l
262.686 220.891 l
264.457 211.106 l
266.229 200.177 l
268 190.623 l
269.771 184.47 l
271.543 181.782 l
273.314 182.125 l
275.086 185.035 l
276.857 190.032 l
278.629 196.635 l
280.4 204.363 l
285.714 229.491 l
287.486 236.944 l
289.257 243.177 l
291.029 247.739 l
292.8 250.298 l
294.571 250.996 l
296.343 250.097 l
298.114 247.866 l
299.886 244.57 l
301.657 240.481 l
305.2 231.055 l
306.971 225.888 l
308.743 220.262 l
310.514 214.042 l
312.286 207.094 l
314.057 199.283 l
315.829 190.512 l
317.6 180.843 l
319.371 170.378 l
322.914 147.459 l
328.229 110.628 l
330 99.8802 l
331.771 91.2971 l
333.543 85.7319 l
335.314 84.0388 l
337.086 87.0837 l
338.857 95.7576 l
340.629 110.957 l
342.4 133.098 l
344.171 160.673 l
347.714 224.169 l
349.486 255.691 l
351.257 282.777 l
353.029 303.979 l
354.8 318.466 l
356.571 325.879 l
358.343 327.746 l
360.114 326.057 l
361.886 322.761 l
363.657 319.734 l
365.429 318.149 l
367.2 317.278 l
368.971 315.929 l
370.743 312.808 l
372.514 306.208 l
374.286 294.318 l
376.057 275.705 l
377.829 250.87 l
381.371 192.008 l
383.143 162.7 l
384.914 136.74 l
386.686 116.593 l
388.457 104.723 l
390.229 102.895 l
392 110.065 l
393.771 124.469 l
395.543 144.334 l
397.314 167.889 l
402.629 242.979 l
404.4 263.746 l
406.171 280.354 l
407.943 292.042 l
409.714 298.046 l
411.486 297.613 l
413.257 290.036 l
415.029 275.141 l
416.8 254.684 l
420.343 205.92 l
422.114 181.35 l
423.886 158.332 l
425.657 137.913 l
427.429 121.142 l
429.2 109.068 l
430.971 102.738 l
432.743 103.206 l
434.514 111.096 l
436.286 125.259 l
438.057 144.103 l
439.829 166.034 l
443.371 212.79 l
445.143 234.572 l
446.914 253.932 l
448.686 270.138 l
450.457 282.456 l
452.229 290.156 l
454 292.485 l
455.771 288.61 l
457.543 278.069 l
459.314 262.175 l
461.086 242.683 l
466.4 179.973 l
468.171 162.832 l
469.943 149.709 l
471.714 141.829 l
473.486 140.009 l
475.257 143.436 l
477.029 150.882 l
478.8 161.11 l
482.343 185.489 l
484.114 197.868 l
485.886 209.237 l
487.657 218.898 l
489.429 226.777 l
491.2 232.957 l
492.971 237.521 l
494.743 240.562 l
496.514 242.215 l
496.514 242.215 l
stroke
grestore
0.500 setlinewidth
0 setlinecap
0.000 setgray
gsave
/o {
gsave
newpath
translate
0 0 m
0 4 l
gsave
0.000 setgray
fill
grestore
stroke
grestore
} bind def
144 72 o
grestore
gsave
/o {
gsave
newpath
translate
0 0 m
0 -4 l
gsave
0.000 setgray
fill
grestore
stroke
grestore
} bind def
144 333.818 o
grestore
/BitstreamVeraSans-Roman findfont
12.000 scalefont
setfont
gsave
140.976562 58.921875 translate
0.000000 rotate
0.000000 0.171875 m /zero glyphshow
grestore
gsave
/o {
gsave
newpath
translate
0 0 m
0 4 l
gsave
0.000 setgray
fill
grestore
stroke
grestore
} bind def
197.143 72 o
grestore
gsave
/o {
gsave
newpath
translate
0 0 m
0 -4 l
gsave
0.000 setgray
fill
grestore
stroke
grestore
} bind def
197.143 333.818 o
grestore
gsave
190.556920 58.921875 translate
0.000000 rotate
0.000000 0.171875 m /one glyphshow
7.634766 0.171875 m /zero glyphshow
grestore
gsave
/o {
gsave
newpath
translate
0 0 m
0 4 l
gsave
0.000 setgray
fill
grestore
stroke
grestore
} bind def
250.286 72 o
grestore
gsave
/o {
gsave
newpath
translate
0 0 m
0 -4 l
gsave
0.000 setgray
fill
grestore
stroke
grestore
} bind def
250.286 333.818 o
grestore
gsave
243.481027 58.921875 translate
0.000000 rotate
0.000000 0.171875 m /two glyphshow
7.634766 0.171875 m /zero glyphshow
grestore
gsave
/o {
gsave
newpath
translate
0 0 m
0 4 l
gsave
0.000 setgray
fill
grestore
stroke
grestore
} bind def
303.429 72 o
grestore
gsave
/o {
gsave
newpath
translate
0 0 m
0 -4 l
gsave
0.000 setgray
fill
grestore
stroke
grestore
} bind def
303.429 333.818 o
grestore
gsave
296.647321 58.921875 translate
0.000000 rotate
0.000000 0.171875 m /three glyphshow
7.634766 0.171875 m /zero glyphshow
grestore
gsave
/o {
gsave
newpath
translate
0 0 m
0 4 l
gsave
0.000 setgray
fill
grestore
stroke
grestore
} bind def
356.571 72 o
grestore
gsave
/o {
gsave
newpath
translate
0 0 m
0 -4 l
gsave
0.000 setgray
fill
grestore
stroke
grestore
} bind def
356.571 333.818 o
grestore
gsave
349.626116 58.921875 translate
0.000000 rotate
0.000000 0.171875 m /four glyphshow
7.634766 0.171875 m /zero glyphshow
grestore
gsave
/o {
gsave
newpath
translate
0 0 m
0 4 l
gsave
0.000 setgray
fill
grestore
stroke
grestore
} bind def
409.714 72 o
grestore
gsave
/o {
gsave
newpath
translate
0 0 m
0 -4 l
gsave
0.000 setgray
fill
grestore
stroke
grestore
} bind def
409.714 333.818 o
grestore
gsave
402.933036 58.921875 translate
0.000000 rotate
0.000000 0.171875 m /five glyphshow
7.634766 0.171875 m /zero glyphshow
grestore
gsave
/o {
gsave
newpath
translate
0 0 m
0 4 l
gsave
0.000 setgray
fill
grestore
stroke
grestore
} bind def
462.857 72 o
grestore
gsave
/o {
gsave
newpath
translate
0 0 m
0 -4 l
gsave
0.000 setgray
fill
grestore
stroke
grestore
} bind def
462.857 333.818 o
grestore
gsave
456.036830 58.921875 translate
0.000000 rotate
0.000000 0.171875 m /six glyphshow
7.634766 0.171875 m /zero glyphshow
grestore
gsave
/o {
gsave
newpath
translate
0 0 m
0 4 l
gsave
0.000 setgray
fill
grestore
stroke
grestore
} bind def
516 72 o
grestore
gsave
/o {
gsave
newpath
translate
0 0 m
0 -4 l
gsave
0.000 setgray
fill
grestore
stroke
grestore
} bind def
516 333.818 o
grestore
gsave
509.250000 58.921875 translate
0.000000 rotate
0.000000 0.171875 m /seven glyphshow
7.634766 0.171875 m /zero glyphshow
grestore
gsave
285.601562 43.218750 translate
0.000000 rotate
0.000000 1.578125 m /T glyphshow
6.955078 1.578125 m /i glyphshow
10.289062 1.578125 m /m glyphshow
21.978516 1.578125 m /e glyphshow
29.361328 1.578125 m /space glyphshow
33.175781 1.578125 m /bracketleft glyphshow
37.857422 1.578125 m /M glyphshow
48.210938 1.578125 m /i glyphshow
51.544922 1.578125 m /n glyphshow
59.150391 1.578125 m /u glyphshow
66.755859 1.578125 m /t glyphshow
71.460938 1.578125 m /e glyphshow
78.843750 1.578125 m /s glyphshow
85.095703 1.578125 m /bracketright glyphshow
grestore
gsave
/o {
gsave
newpath
translate
0 0 m
4 0 l
gsave
0.000 setgray
fill
grestore
stroke
grestore
} bind def
144 72 o
grestore
1.000 0.000 0.000 setrgbcolor
gsave
109.078125 67.460937 translate
0.000000 rotate
0.000000 0.171875 m /minus glyphshow
10.054688 0.171875 m /nine glyphshow
17.689453 0.171875 m /zero glyphshow
25.324219 0.171875 m /zero glyphshow
grestore
0.000 setgray
gsave
/o {
gsave
newpath
translate
0 0 m
4 0 l
gsave
0.000 setgray
fill
grestore
stroke
grestore
} bind def
144 115.636 o
grestore
1.000 0.000 0.000 setrgbcolor
gsave
109.078125 111.097301 translate
0.000000 rotate
0.000000 0.171875 m /minus glyphshow
10.054688 0.171875 m /six glyphshow
17.689453 0.171875 m /zero glyphshow
25.324219 0.171875 m /zero glyphshow
grestore
0.000 setgray
gsave
/o {
gsave
newpath
translate
0 0 m
4 0 l
gsave
0.000 setgray
fill
grestore
stroke
grestore
} bind def
144 159.273 o
grestore
1.000 0.000 0.000 setrgbcolor
gsave
109.078125 154.733665 translate
0.000000 rotate
0.000000 0.171875 m /minus glyphshow
10.054688 0.171875 m /three glyphshow
17.689453 0.171875 m /zero glyphshow
25.324219 0.171875 m /zero glyphshow
grestore
0.000 setgray
gsave
/o {
gsave
newpath
translate
0 0 m
4 0 l
gsave
0.000 setgray
fill
grestore
stroke
grestore
} bind def
144 202.909 o
grestore
1.000 0.000 0.000 setrgbcolor
gsave
133.953125 198.370028 translate
0.000000 rotate
0.000000 0.171875 m /zero glyphshow
grestore
0.000 setgray
gsave
/o {
gsave
newpath
translate
0 0 m
4 0 l
gsave
0.000 setgray
fill
grestore
stroke
grestore
} bind def
144 246.545 o
grestore
1.000 0.000 0.000 setrgbcolor
gsave
118.796875 242.006392 translate
0.000000 rotate
0.000000 0.171875 m /three glyphshow
7.634766 0.171875 m /zero glyphshow
15.269531 0.171875 m /zero glyphshow
grestore
0.000 setgray
gsave
/o {
gsave
newpath
translate
0 0 m
4 0 l
gsave
0.000 setgray
fill
grestore
stroke
grestore
} bind def
144 290.182 o
grestore
1.000 0.000 0.000 setrgbcolor
gsave
118.718750 285.642756 translate
0.000000 rotate
0.000000 0.171875 m /six glyphshow
7.634766 0.171875 m /zero glyphshow
15.269531 0.171875 m /zero glyphshow
grestore
0.000 setgray
gsave
/o {
gsave
newpath
translate
0 0 m
4 0 l
gsave
0.000 setgray
fill
grestore
stroke
grestore
} bind def
144 333.818 o
grestore
1.000 0.000 0.000 setrgbcolor
gsave
118.625000 329.279119 translate
0.000000 rotate
0.000000 0.171875 m /nine glyphshow
7.634766 0.171875 m /zero glyphshow
15.269531 0.171875 m /zero glyphshow
grestore
gsave
104.078125 165.682528 translate
90.000000 rotate
0.000000 2.500000 m /A glyphshow
8.208984 2.500000 m /r glyphshow
12.892578 2.500000 m /e glyphshow
20.275391 2.500000 m /a glyphshow
27.628906 2.500000 m /space glyphshow
31.443359 2.500000 m /bracketleft glyphshow
36.125000 2.500000 m /p glyphshow
43.742188 2.500000 m /i glyphshow
47.076172 2.500000 m /x glyphshow
53.802734 2.500000 m /e glyphshow
61.185547 2.500000 m /l glyphshow
64.519531 2.500000 m /s glyphshow
70.771484 2.500000 m /bracketright glyphshow
grestore
1.000 setlinewidth
2 setlinecap
0.000 setgray
gsave
144 333.818 m
516 333.818 l
stroke
grestore
gsave
516 72 m
516 333.818 l
stroke
grestore
gsave
144 72 m
516 72 l
stroke
grestore
gsave
144 72 m
144 333.818 l
stroke
grestore
0.000 0.000 1.000 setrgbcolor
gsave
372 261.8 144 72 clipbox
144 214.094 m
145.771 212.628 l
147.543 210.324 l
149.314 207.424 l
154.629 197.571 l
156.4 194.708 l
158.171 192.451 l
159.943 191.054 l
161.714 190.779 l
163.486 191.798 l
165.257 193.942 l
167.029 196.953 l
168.8 200.574 l
174.114 212.542 l
175.886 216.12 l
177.657 219.121 l
179.429 221.298 l
181.2 222.406 l
182.971 222.201 l
184.743 220.457 l
186.514 217.058 l
188.286 212.292 l
190.057 206.544 l
197.143 181.473 l
198.914 176.618 l
200.686 173.048 l
202.457 170.989 l
204.229 171.034 l
206 173.765 l
207.771 179.241 l
209.543 187.386 l
211.314 197.876 l
214.857 220.267 l
216.629 228.98 l
218.4 233.913 l
220.171 233.738 l
221.943 228.475 l
223.714 219.689 l
227.257 199.72 l
229.029 190.962 l
230.8 184.455 l
232.571 181.274 l
234.343 182.131 l
236.114 186.289 l
237.886 192.643 l
241.429 207.522 l
243.2 213.839 l
244.971 217.934 l
246.743 218.702 l
248.514 215.466 l
250.286 209.246 l
253.829 193.642 l
255.6 187.401 l
257.371 184.872 l
259.143 186.09 l
260.914 190.504 l
262.686 197.418 l
266.229 213.506 l
268 219.844 l
269.771 223.474 l
271.543 224.583 l
273.314 223.659 l
275.086 221.109 l
276.857 217.317 l
278.629 212.672 l
283.943 197.47 l
285.714 193.264 l
287.486 190.092 l
289.257 188.293 l
291.029 188.207 l
292.8 190.03 l
294.571 193.392 l
296.343 197.777 l
299.886 207.563 l
301.657 211.934 l
303.429 215.273 l
305.2 217.065 l
306.971 216.889 l
308.743 214.707 l
310.514 210.617 l
312.286 204.782 l
314.057 197.374 l
317.6 180.058 l
319.371 172.593 l
321.143 167.679 l
322.914 166.625 l
324.686 170.698 l
326.457 180.643 l
328.229 195.216 l
330 212.675 l
333.543 248.987 l
335.314 262.887 l
337.086 271.555 l
338.857 274.896 l
340.629 273.037 l
342.4 266.242 l
344.171 255.575 l
345.943 242.304 l
353.029 184.177 l
356.571 158.324 l
360.114 135.076 l
361.886 124.26 l
363.657 115.019 l
365.429 108.654 l
367.2 106.388 l
368.971 109.138 l
370.743 117.504 l
372.514 130.844 l
374.286 148.14 l
376.057 168.356 l
379.6 212.005 l
381.371 231.635 l
383.143 248.089 l
384.914 260.482 l
386.686 267.932 l
388.457 269.684 l
390.229 265.722 l
392 257.022 l
393.771 244.776 l
395.543 230.175 l
399.086 198.675 l
400.857 184.159 l
402.629 172.055 l
404.4 163.554 l
406.171 159.591 l
407.943 160.055 l
409.714 164.51 l
411.486 172.504 l
413.257 183.586 l
415.029 197.109 l
418.571 225.61 l
420.343 237.365 l
422.114 245.587 l
423.886 250.07 l
425.657 250.887 l
427.429 248.114 l
429.2 241.827 l
430.971 232.203 l
432.743 219.834 l
434.514 205.416 l
439.829 158.174 l
441.6 144.377 l
443.371 133.221 l
445.143 125.704 l
446.914 122.598 l
448.686 123.772 l
450.457 128.882 l
452.229 137.601 l
454 149.609 l
455.771 164.558 l
457.543 181.92 l
464.629 256.465 l
466.4 272.055 l
468.171 285.634 l
469.943 297.113 l
471.714 306.402 l
473.486 313.487 l
475.257 318.66 l
477.029 322.288 l
478.8 324.738 l
480.571 326.344 l
482.343 327.301 l
484.114 327.769 l
485.886 327.909 l
487.657 327.862 l
491.2 327.412 l
496.514 326.348 l
496.514 326.348 l
stroke
grestore
0.500 setlinewidth
0 setlinecap
0.000 setgray
gsave
/o {
gsave
newpath
translate
0 0 m
-4 0 l
gsave
0.000 setgray
fill
grestore
stroke
grestore
} bind def
516 72 o
grestore
0.000 0.000 1.000 setrgbcolor
gsave
520.000000 67.460937 translate
0.000000 rotate
0.000000 0.171875 m /minus glyphshow
10.054688 0.171875 m /one glyphshow
17.689453 0.171875 m /five glyphshow
25.324219 0.171875 m /zero glyphshow
grestore
0.000 setgray
gsave
/o {
gsave
newpath
translate
0 0 m
-4 0 l
gsave
0.000 setgray
fill
grestore
stroke
grestore
} bind def
516 115.636 o
grestore
0.000 0.000 1.000 setrgbcolor
gsave
520.000000 111.097301 translate
0.000000 rotate
0.000000 0.171875 m /minus glyphshow
10.054688 0.171875 m /one glyphshow
17.689453 0.171875 m /zero glyphshow
25.324219 0.171875 m /zero glyphshow
grestore
0.000 setgray
gsave
/o {
gsave
newpath
translate
0 0 m
-4 0 l
gsave
0.000 setgray
fill
grestore
stroke
grestore
} bind def
516 159.273 o
grestore
0.000 0.000 1.000 setrgbcolor
gsave
520.000000 154.733665 translate
0.000000 rotate
0.000000 0.171875 m /minus glyphshow
10.054688 0.171875 m /five glyphshow
17.689453 0.171875 m /zero glyphshow
grestore
0.000 setgray
gsave
/o {
gsave
newpath
translate
0 0 m
-4 0 l
gsave
0.000 setgray
fill
grestore
stroke
grestore
} bind def
516 202.909 o
grestore
0.000 0.000 1.000 setrgbcolor
gsave
520.000000 198.370028 translate
0.000000 rotate
0.000000 0.171875 m /zero glyphshow
grestore
0.000 setgray
gsave
/o {
gsave
newpath
translate
0 0 m
-4 0 l
gsave
0.000 setgray
fill
grestore
stroke
grestore
} bind def
516 246.545 o
grestore
0.000 0.000 1.000 setrgbcolor
gsave
520.000000 242.006392 translate
0.000000 rotate
0.000000 0.171875 m /five glyphshow
7.634766 0.171875 m /zero glyphshow
grestore
0.000 setgray
gsave
/o {
gsave
newpath
translate
0 0 m
-4 0 l
gsave
0.000 setgray
fill
grestore
stroke
grestore
} bind def
516 290.182 o
grestore
0.000 0.000 1.000 setrgbcolor
gsave
520.000000 285.642756 translate
0.000000 rotate
0.000000 0.171875 m /one glyphshow
7.634766 0.171875 m /zero glyphshow
15.269531 0.171875 m /zero glyphshow
grestore
0.000 setgray
gsave
/o {
gsave
newpath
translate
0 0 m
-4 0 l
gsave
0.000 setgray
fill
grestore
stroke
grestore
} bind def
516 333.818 o
grestore
0.000 0.000 1.000 setrgbcolor
gsave
520.000000 329.279119 translate
0.000000 rotate
0.000000 0.171875 m /one glyphshow
7.634766 0.171875 m /five glyphshow
15.269531 0.171875 m /zero glyphshow
grestore
gsave
567.546875 158.526278 translate
90.000000 rotate
0.000000 2.500000 m /I glyphshow
3.539062 2.500000 m /n glyphshow
11.144531 2.500000 m /t glyphshow
15.849609 2.500000 m /e glyphshow
23.232422 2.500000 m /n glyphshow
30.837891 2.500000 m /s glyphshow
37.089844 2.500000 m /i glyphshow
40.423828 2.500000 m /t glyphshow
45.128906 2.500000 m /y glyphshow
52.230469 2.500000 m /space glyphshow
56.044922 2.500000 m /bracketleft glyphshow
60.726562 2.500000 m /A glyphshow
68.685547 2.500000 m /period glyphshow
72.500000 2.500000 m /U glyphshow
81.283203 2.500000 m /period glyphshow
85.097656 2.500000 m /bracketright glyphshow
grestore
0.000 setgray
/BitstreamVeraSans-Roman findfont
14.400 scalefont
setfont
gsave
311.257812 338.615057 translate
0.000000 rotate
0.000000 0.203125 m /I glyphshow
4.239502 0.203125 m /M glyphshow
16.642151 0.203125 m /F glyphshow
24.910583 0.203125 m /space glyphshow
29.479980 0.203125 m /three glyphshow
grestore
gsave
664.8 72 m
1036.8 72 l
1036.8 333.818 l
664.8 333.818 l
cl
1.000 setgray
fill
grestore
1.000 setlinewidth
2 setlinecap
1.000 0.000 0.000 setrgbcolor
gsave
372 261.8 664.8 72 clipbox
664.8 217.819 m
666.571 217.256 l
668.343 216.434 l
670.114 215.352 l
671.886 214.007 l
673.657 212.397 l
675.429 210.519 l
677.2 208.371 l
678.971 205.959 l
682.514 200.547 l
687.829 192.247 l
689.6 189.782 l
691.371 187.616 l
693.143 185.832 l
694.914 184.5 l
696.686 183.684 l
698.457 183.449 l
700.229 183.856 l
702 184.966 l
703.771 186.808 l
705.543 189.274 l
707.314 192.224 l
710.857 199.014 l
717.943 213.112 l
721.486 219.39 l
723.257 222.135 l
725.029 224.541 l
726.8 226.566 l
728.571 228.237 l
730.343 229.595 l
732.114 230.681 l
733.886 231.537 l
735.657 232.204 l
739.2 233.138 l
742.743 233.803 l
744.514 234.048 l
746.286 234.176 l
748.057 234.139 l
749.829 233.889 l
751.6 233.375 l
753.371 232.548 l
755.143 231.357 l
756.914 229.752 l
758.686 227.702 l
760.457 225.255 l
762.229 222.479 l
765.771 216.212 l
774.629 199.536 l
776.4 196.576 l
778.171 193.899 l
779.943 191.571 l
781.714 189.639 l
783.486 188.064 l
785.257 186.788 l
787.029 185.751 l
790.571 184.161 l
801.2 180.226 l
806.514 178.472 l
810.057 177.489 l
813.6 176.712 l
817.143 176.189 l
820.686 175.944 l
824.229 175.982 l
827.771 176.325 l
831.314 177.012 l
834.857 178.083 l
838.4 179.579 l
841.943 181.542 l
845.486 184.013 l
849.029 187.034 l
852.571 190.644 l
856.114 194.885 l
859.657 199.699 l
866.743 209.699 l
870.286 214.124 l
872.057 216.026 l
873.829 217.657 l
875.6 218.971 l
877.371 219.92 l
879.143 220.455 l
880.914 220.542 l
882.686 220.197 l
884.457 219.447 l
886.229 218.323 l
888 216.855 l
889.771 215.073 l
891.543 213.009 l
893.314 210.693 l
896.857 205.426 l
900.4 199.516 l
905.714 189.98 l
911.029 180.371 l
914.571 174.387 l
916.343 171.699 l
918.114 169.309 l
919.886 167.29 l
921.657 165.713 l
923.429 164.648 l
925.2 164.169 l
926.971 164.346 l
928.743 165.247 l
930.514 166.939 l
932.286 169.473 l
934.057 172.841 l
935.829 176.975 l
937.6 181.793 l
939.371 187.213 l
941.143 193.152 l
944.686 206.262 l
948.229 220.468 l
955.314 249.503 l
958.857 262.795 l
960.629 268.754 l
962.4 274.108 l
964.171 278.747 l
965.943 282.561 l
967.714 285.439 l
969.486 287.273 l
971.257 287.953 l
973.029 287.369 l
974.8 285.43 l
976.571 282.149 l
978.343 277.624 l
980.114 271.963 l
981.886 265.279 l
983.657 257.682 l
985.429 249.284 l
988.971 230.526 l
992.514 209.894 l
1003.14 146.123 l
1004.91 136.577 l
1006.69 127.684 l
1008.46 119.573 l
1010.23 112.372 l
1012 106.208 l
1013.77 101.209 l
1015.54 97.4919 l
1017.31 95.1204 l
1017.31 95.1204 l
stroke
grestore
0.500 setlinewidth
0 setlinecap
0.000 setgray
gsave
/o {
gsave
newpath
translate
0 0 m
0 4 l
gsave
0.000 setgray
fill
grestore
stroke
grestore
} bind def
664.8 72 o
grestore
gsave
/o {
gsave
newpath
translate
0 0 m
0 -4 l
gsave
0.000 setgray
fill
grestore
stroke
grestore
} bind def
664.8 333.818 o
grestore
/BitstreamVeraSans-Roman findfont
12.000 scalefont
setfont
gsave
661.776563 58.921875 translate
0.000000 rotate
0.000000 0.171875 m /zero glyphshow
grestore
gsave
/o {
gsave
newpath
translate
0 0 m
0 4 l
gsave
0.000 setgray
fill
grestore
stroke
grestore
} bind def
717.943 72 o
grestore
gsave
/o {
gsave
newpath
translate
0 0 m
0 -4 l
gsave
0.000 setgray
fill
grestore
stroke
grestore
} bind def
717.943 333.818 o
grestore
gsave
711.356920 58.921875 translate
0.000000 rotate
0.000000 0.171875 m /one glyphshow
7.634766 0.171875 m /zero glyphshow
grestore
gsave
/o {
gsave
newpath
translate
0 0 m
0 4 l
gsave
0.000 setgray
fill
grestore
stroke
grestore
} bind def
771.086 72 o
grestore
gsave
/o {
gsave
newpath
translate
0 0 m
0 -4 l
gsave
0.000 setgray
fill
grestore
stroke
grestore
} bind def
771.086 333.818 o
grestore
gsave
764.281027 58.921875 translate
0.000000 rotate
0.000000 0.171875 m /two glyphshow
7.634766 0.171875 m /zero glyphshow
grestore
gsave
/o {
gsave
newpath
translate
0 0 m
0 4 l
gsave
0.000 setgray
fill
grestore
stroke
grestore
} bind def
824.229 72 o
grestore
gsave
/o {
gsave
newpath
translate
0 0 m
0 -4 l
gsave
0.000 setgray
fill
grestore
stroke
grestore
} bind def
824.229 333.818 o
grestore
gsave
817.447321 58.921875 translate
0.000000 rotate
0.000000 0.171875 m /three glyphshow
7.634766 0.171875 m /zero glyphshow
grestore
gsave
/o {
gsave
newpath
translate
0 0 m
0 4 l
gsave
0.000 setgray
fill
grestore
stroke
grestore
} bind def
877.371 72 o
grestore
gsave
/o {
gsave
newpath
translate
0 0 m
0 -4 l
gsave
0.000 setgray
fill
grestore
stroke
grestore
} bind def
877.371 333.818 o
grestore
gsave
870.426116 58.921875 translate
0.000000 rotate
0.000000 0.171875 m /four glyphshow
7.634766 0.171875 m /zero glyphshow
grestore
gsave
/o {
gsave
newpath
translate
0 0 m
0 4 l
gsave
0.000 setgray
fill
grestore
stroke
grestore
} bind def
930.514 72 o
grestore
gsave
/o {
gsave
newpath
translate
0 0 m
0 -4 l
gsave
0.000 setgray
fill
grestore
stroke
grestore
} bind def
930.514 333.818 o
grestore
gsave
923.733036 58.921875 translate
0.000000 rotate
0.000000 0.171875 m /five glyphshow
7.634766 0.171875 m /zero glyphshow
grestore
gsave
/o {
gsave
newpath
translate
0 0 m
0 4 l
gsave
0.000 setgray
fill
grestore
stroke
grestore
} bind def
983.657 72 o
grestore
gsave
/o {
gsave
newpath
translate
0 0 m
0 -4 l
gsave
0.000 setgray
fill
grestore
stroke
grestore
} bind def
983.657 333.818 o
grestore
gsave
976.836830 58.921875 translate
0.000000 rotate
0.000000 0.171875 m /six glyphshow
7.634766 0.171875 m /zero glyphshow
grestore
gsave
/o {
gsave
newpath
translate
0 0 m
0 4 l
gsave
0.000 setgray
fill
grestore
stroke
grestore
} bind def
1036.8 72 o
grestore
gsave
/o {
gsave
newpath
translate
0 0 m
0 -4 l
gsave
0.000 setgray
fill
grestore
stroke
grestore
} bind def
1036.8 333.818 o
grestore
gsave
1030.050000 58.921875 translate
0.000000 rotate
0.000000 0.171875 m /seven glyphshow
7.634766 0.171875 m /zero glyphshow
grestore
gsave
806.401563 43.218750 translate
0.000000 rotate
0.000000 1.578125 m /T glyphshow
6.955078 1.578125 m /i glyphshow
10.289062 1.578125 m /m glyphshow
21.978516 1.578125 m /e glyphshow
29.361328 1.578125 m /space glyphshow
33.175781 1.578125 m /bracketleft glyphshow
37.857422 1.578125 m /M glyphshow
48.210938 1.578125 m /i glyphshow
51.544922 1.578125 m /n glyphshow
59.150391 1.578125 m /u glyphshow
66.755859 1.578125 m /t glyphshow
71.460938 1.578125 m /e glyphshow
78.843750 1.578125 m /s glyphshow
85.095703 1.578125 m /bracketright glyphshow
grestore
gsave
/o {
gsave
newpath
translate
0 0 m
4 0 l
gsave
0.000 setgray
fill
grestore
stroke
grestore
} bind def
664.8 72 o
grestore
1.000 0.000 0.000 setrgbcolor
gsave
629.878125 67.460937 translate
0.000000 rotate
0.000000 0.171875 m /minus glyphshow
10.054688 0.171875 m /seven glyphshow
17.689453 0.171875 m /five glyphshow
25.324219 0.171875 m /zero glyphshow
grestore
0.000 setgray
gsave
/o {
gsave
newpath
translate
0 0 m
4 0 l
gsave
0.000 setgray
fill
grestore
stroke
grestore
} bind def
664.8 115.636 o
grestore
1.000 0.000 0.000 setrgbcolor
gsave
629.878125 111.097301 translate
0.000000 rotate
0.000000 0.171875 m /minus glyphshow
10.054688 0.171875 m /five glyphshow
17.689453 0.171875 m /zero glyphshow
25.324219 0.171875 m /zero glyphshow
grestore
0.000 setgray
gsave
/o {
gsave
newpath
translate
0 0 m
4 0 l
gsave
0.000 setgray
fill
grestore
stroke
grestore
} bind def
664.8 159.273 o
grestore
1.000 0.000 0.000 setrgbcolor
gsave
629.878125 154.733665 translate
0.000000 rotate
0.000000 0.171875 m /minus glyphshow
10.054688 0.171875 m /two glyphshow
17.689453 0.171875 m /five glyphshow
25.324219 0.171875 m /zero glyphshow
grestore
0.000 setgray
gsave
/o {
gsave
newpath
translate
0 0 m
4 0 l
gsave
0.000 setgray
fill
grestore
stroke
grestore
} bind def
664.8 202.909 o
grestore
1.000 0.000 0.000 setrgbcolor
gsave
654.753125 198.370028 translate
0.000000 rotate
0.000000 0.171875 m /zero glyphshow
grestore
0.000 setgray
gsave
/o {
gsave
newpath
translate
0 0 m
4 0 l
gsave
0.000 setgray
fill
grestore
stroke
grestore
} bind def
664.8 246.545 o
grestore
1.000 0.000 0.000 setrgbcolor
gsave
639.550000 242.006392 translate
0.000000 rotate
0.000000 0.171875 m /two glyphshow
7.634766 0.171875 m /five glyphshow
15.269531 0.171875 m /zero glyphshow
grestore
0.000 setgray
gsave
/o {
gsave
newpath
translate
0 0 m
4 0 l
gsave
0.000 setgray
fill
grestore
stroke
grestore
} bind def
664.8 290.182 o
grestore
1.000 0.000 0.000 setrgbcolor
gsave
639.596875 285.642756 translate
0.000000 rotate
0.000000 0.171875 m /five glyphshow
7.634766 0.171875 m /zero glyphshow
15.269531 0.171875 m /zero glyphshow
grestore
0.000 setgray
gsave
/o {
gsave
newpath
translate
0 0 m
4 0 l
gsave
0.000 setgray
fill
grestore
stroke
grestore
} bind def
664.8 333.818 o
grestore
1.000 0.000 0.000 setrgbcolor
gsave
639.659375 329.279119 translate
0.000000 rotate
0.000000 0.171875 m /seven glyphshow
7.634766 0.171875 m /five glyphshow
15.269531 0.171875 m /zero glyphshow
grestore
gsave
624.878125 165.682528 translate
90.000000 rotate
0.000000 2.500000 m /A glyphshow
8.208984 2.500000 m /r glyphshow
12.892578 2.500000 m /e glyphshow
20.275391 2.500000 m /a glyphshow
27.628906 2.500000 m /space glyphshow
31.443359 2.500000 m /bracketleft glyphshow
36.125000 2.500000 m /p glyphshow
43.742188 2.500000 m /i glyphshow
47.076172 2.500000 m /x glyphshow
53.802734 2.500000 m /e glyphshow
61.185547 2.500000 m /l glyphshow
64.519531 2.500000 m /s glyphshow
70.771484 2.500000 m /bracketright glyphshow
grestore
1.000 setlinewidth
2 setlinecap
0.000 setgray
gsave
664.8 333.818 m
1036.8 333.818 l
stroke
grestore
gsave
1036.8 72 m
1036.8 333.818 l
stroke
grestore
gsave
664.8 72 m
1036.8 72 l
stroke
grestore
gsave
664.8 72 m
664.8 333.818 l
stroke
grestore
0.000 0.000 1.000 setrgbcolor
gsave
372 261.8 664.8 72 clipbox
664.8 225.585 m
666.571 225.266 l
668.343 224.499 l
670.114 223.316 l
671.886 221.751 l
673.657 219.839 l
675.429 217.612 l
677.2 215.105 l
678.971 212.35 l
682.514 206.235 l
691.371 189.731 l
693.143 186.76 l
694.914 184.061 l
696.686 181.706 l
698.457 179.767 l
700.229 178.319 l
702 177.438 l
703.771 177.188 l
705.543 177.579 l
707.314 178.568 l
709.086 180.107 l
710.857 182.146 l
712.629 184.634 l
714.4 187.521 l
716.171 190.757 l
717.943 194.293 l
721.486 202.063 l
728.571 218.595 l
730.343 222.28 l
732.114 225.511 l
733.886 228.148 l
735.657 230.053 l
737.429 231.088 l
739.2 231.115 l
740.971 230.041 l
742.743 227.963 l
744.514 225.023 l
746.286 221.359 l
748.057 217.111 l
751.6 207.422 l
756.914 192.07 l
758.686 187.422 l
760.457 183.342 l
762.229 180.035 l
764 177.704 l
765.771 176.552 l
767.543 176.782 l
769.314 178.523 l
771.086 181.594 l
772.857 185.741 l
774.629 190.709 l
778.171 202.084 l
781.714 213.708 l
783.486 219.026 l
785.257 223.706 l
787.029 227.518 l
788.8 230.231 l
790.571 231.615 l
792.343 231.443 l
794.114 229.58 l
795.886 226.197 l
797.657 221.545 l
799.429 215.871 l
801.2 209.424 l
804.743 195.207 l
808.286 180.885 l
810.057 174.306 l
811.829 168.447 l
813.6 163.528 l
815.371 159.658 l
817.143 156.916 l
818.914 155.382 l
820.686 155.139 l
822.457 156.27 l
824.229 158.862 l
826 163.003 l
827.771 168.779 l
829.543 176.244 l
831.314 185.281 l
833.086 195.545 l
836.629 218.187 l
840.171 241.035 l
841.943 251.558 l
843.714 260.989 l
845.486 269.12 l
847.257 275.85 l
849.029 281.097 l
850.8 284.777 l
852.571 286.809 l
854.343 287.109 l
856.114 285.593 l
857.886 282.171 l
859.657 276.753 l
861.429 269.308 l
863.2 260.049 l
864.971 249.253 l
866.743 237.195 l
870.286 210.394 l
877.371 153.764 l
879.143 140.582 l
880.914 128.341 l
882.686 117.317 l
884.457 107.784 l
886.229 100.018 l
888 94.2956 l
889.771 90.8215 l
891.543 89.5253 l
893.314 90.2677 l
895.086 92.9108 l
896.857 97.3141 l
898.629 103.336 l
900.4 110.836 l
902.171 119.672 l
903.943 129.703 l
905.714 140.787 l
907.486 152.784 l
911.029 178.931 l
918.114 233.729 l
919.886 246.496 l
921.657 258.388 l
923.429 269.155 l
925.2 278.546 l
926.971 286.31 l
928.743 292.26 l
930.514 296.461 l
932.286 299.044 l
934.057 300.138 l
935.829 299.865 l
937.6 298.342 l
939.371 295.683 l
941.143 292.004 l
942.914 287.421 l
944.686 282.05 l
946.457 276.003 l
948.229 269.392 l
951.771 254.909 l
962.4 209.176 l
964.171 202.359 l
965.943 196.062 l
967.714 190.392 l
969.486 185.448 l
971.257 181.271 l
973.029 177.837 l
974.8 175.107 l
976.571 173.04 l
978.343 171.597 l
980.114 170.74 l
981.886 170.428 l
983.657 170.623 l
985.429 171.285 l
987.2 172.374 l
988.971 173.848 l
990.743 175.664 l
992.514 177.778 l
994.286 180.149 l
997.829 185.489 l
1003.14 194.348 l
1008.46 203.185 l
1012 208.45 l
1013.77 210.748 l
1015.54 212.786 l
1017.31 214.548 l
1017.31 214.548 l
stroke
grestore
0.500 setlinewidth
0 setlinecap
0.000 setgray
gsave
/o {
gsave
newpath
translate
0 0 m
-4 0 l
gsave
0.000 setgray
fill
grestore
stroke
grestore
} bind def
1036.8 104.727 o
grestore
0.000 0.000 1.000 setrgbcolor
gsave
1040.800000 100.188210 translate
0.000000 rotate
0.000000 0.171875 m /minus glyphshow
10.054688 0.171875 m /three glyphshow
17.689453 0.171875 m /zero glyphshow
grestore
0.000 setgray
gsave
/o {
gsave
newpath
translate
0 0 m
-4 0 l
gsave
0.000 setgray
fill
grestore
stroke
grestore
} bind def
1036.8 153.818 o
grestore
0.000 0.000 1.000 setrgbcolor
gsave
1040.800000 149.357244 translate
0.000000 rotate
0.000000 0.171875 m /minus glyphshow
10.054688 0.171875 m /one glyphshow
17.689453 0.171875 m /five glyphshow
grestore
0.000 setgray
gsave
/o {
gsave
newpath
translate
0 0 m
-4 0 l
gsave
0.000 setgray
fill
grestore
stroke
grestore
} bind def
1036.8 202.909 o
grestore
0.000 0.000 1.000 setrgbcolor
gsave
1040.800000 198.370028 translate
0.000000 rotate
0.000000 0.171875 m /zero glyphshow
grestore
0.000 setgray
gsave
/o {
gsave
newpath
translate
0 0 m
-4 0 l
gsave
0.000 setgray
fill
grestore
stroke
grestore
} bind def
1036.8 252 o
grestore
0.000 0.000 1.000 setrgbcolor
gsave
1040.800000 247.539062 translate
0.000000 rotate
0.000000 0.171875 m /one glyphshow
7.634766 0.171875 m /five glyphshow
grestore
0.000 setgray
gsave
/o {
gsave
newpath
translate
0 0 m
-4 0 l
gsave
0.000 setgray
fill
grestore
stroke
grestore
} bind def
1036.8 301.091 o
grestore
0.000 0.000 1.000 setrgbcolor
gsave
1040.800000 296.551847 translate
0.000000 rotate
0.000000 0.171875 m /three glyphshow
7.634766 0.171875 m /zero glyphshow
grestore
gsave
1080.706250 158.526278 translate
90.000000 rotate
0.000000 2.500000 m /I glyphshow
3.539062 2.500000 m /n glyphshow
11.144531 2.500000 m /t glyphshow
15.849609 2.500000 m /e glyphshow
23.232422 2.500000 m /n glyphshow
30.837891 2.500000 m /s glyphshow
37.089844 2.500000 m /i glyphshow
40.423828 2.500000 m /t glyphshow
45.128906 2.500000 m /y glyphshow
52.230469 2.500000 m /space glyphshow
56.044922 2.500000 m /bracketleft glyphshow
60.726562 2.500000 m /A glyphshow
68.685547 2.500000 m /period glyphshow
72.500000 2.500000 m /U glyphshow
81.283203 2.500000 m /period glyphshow
85.097656 2.500000 m /bracketright glyphshow
grestore
0.000 setgray
/BitstreamVeraSans-Roman findfont
14.400 scalefont
setfont
gsave
831.885938 338.818182 translate
0.000000 rotate
0.000000 0.000000 m /I glyphshow
4.239502 0.000000 m /M glyphshow
16.642151 0.000000 m /F glyphshow
24.910583 0.000000 m /space glyphshow
29.479980 0.000000 m /four glyphshow
grestore

end
showpage
