%!PS-Adobe-3.0 EPSF-3.0
%%Creator: GIMP PostScript file plugin V 1.17 by Peter Kirchgessner
%%Title: Ipython-logo.eps
%%CreationDate: Wed Jun  6 14:04:18 2012
%%DocumentData: Clean7Bit
%%LanguageLevel: 2
%%Pages: 1
%%BoundingBox: 14 14 261 108
%%EndComments
%%BeginProlog
% Use own dictionary to avoid conflicts
10 dict begin
%%EndProlog
%%Page: 1 1
% Translate for offset
14.173228346456694 14.173228346456694 translate
% Translate to begin of first scanline
0 92.985394718304349 translate
246.5521829652009 -92.985394718304349 scale
% Image geometry
175 66 8
% Transformation matrix
[ 175 0 0 66 0 0 ]
% Strings to hold RGB-samples per scanline
/rstr 175 string def
/gstr 175 string def
/bstr 175 string def
{currentfile /ASCII85Decode filter /RunLengthDecode filter rstr readstring pop}
{currentfile /ASCII85Decode filter /RunLengthDecode filter gstr readstring pop}
{currentfile /ASCII85Decode filter /RunLengthDecode filter bstr readstring pop}
true 3
%%BeginData:         8100 ASCII Bytes
colorimage
huN<IjoD"QJ,~>
huN<IjoD"QJ,~>
huN<IjoD"QJ,~>
huN<IirGeQJ,~>
huN<IirGeQJ,~>
huN<IirGeQJ,~>
huN<IiW&tKU]5i~>
huN<IiW&tKU]5i~>
huN<IiW&tKU]5i~>
huN<IhuKSQJ,~>
huN<IhuKSQJ,~>
huN<IhuKSQJ,~>
i;`jenc.JHV>l&~>
i;`jenc.JHV>l&~>
i;`jenc.JHV>l&~>
q#:>;o`+t*kPsB=VZ2/~>
q#:>;o`+t*kPsB=VZ2/~>
q#:>;o`+t*kPsB=VZ2/~>
p&FgfjT##Up\t6Gn,W"Y!+tdF!#FJl!#+oH!"8](J,~>
p&FgfjT##Up\t6Gn,W"Y!,D'h!%d%-!$q,"!#>D2J,~>
p&FgfjT##Up\t6Gn,W"Y!-%LA!(YrH!'Baa!$V7>J,~>
p&FgfjT##Uo)J=^nc&Rsnh^=lhu<Ztnh^=Yqu;0~>
p&FgfjT##Uo)J=^nc&S)nmqejhu<[<nmqeEqu;0~>
p&FgfjT##Uo)J=^nc&S6ntZ8*hu<[`ntZ7Cqu;0~>
p&FgfjT##UnGi.]o)A[tnh^=lhu<Ztnh^=Yqu;0~>
p&FgfjT##UnGi.]o)A\*nmqejhu<[<nmqeEqu;0~>
p&FgfjT##UnGi.]o)A\7ntZ8*hu<[`ntZ7Cqu;0~>
p&FgfjT##Umf3"]o)A[tnh^=lhu<Ztnh^=Yqu;0~>
p&FgfjT##Umf3"]o)A\*nmqejhu<[<nmqeEqu;0~>
p&FgfjT##Umf3"]o)A\7ntZ8*hu<[`ntZ7Cqu;0~>
p&FgfjT##UmJln\oD\dur%nC,pauOghu<ZqpFcA#!"o,.J,~>
p&FgfjT##UmJln\oD\e+r+,k5pfRS[hu<[4pfRT#r+,jOqu;0~>
p&FgfjT##UmJln\oD\e8r1j=XplGJchu<[UplGK>r1j<Mqu;0~>
p&FgfjT##UmJln\oD\dur%nB_bPqQ-r%nBcqu;0~>
p&FgfjT##UmJln\oD\e+r+,jGbPqQ3r+,jOqu;0~>
p&FgfjT##UmJln\oD\e8r1j<AbPqQ:r1j<Mqu;0~>
p&FgfjT##Um/Qh\oD\dur%nB_bPqQ-r%nBcqu;0~>
p&FgfjT##Um/Qh\oD\e+r+,jGbPqQ3r+,jOqu;0~>
p&FgfjT##Um/Qh\oD\e8r1j<AbPqQ:r1j<Mqu;0~>
p&FgfjT##Um/Qh\oD\dur%nB_bPqQ-r%nBcqu;0~>
p&FgfjT##Um/Qh\oD\e+r+,jGbPqQ3r+,jOqu;0~>
p&FgfjT##Um/Qh\oD\e8r1j<AbPqQ:r1j<Mqu;0~>
p&FgfjT##Um/I&pq#L$d!"8]]!"I-O!'pH=!"o,.J,~>
p&FgfjT##Um/I&pq#L$d!#GKD!#`u[!(Qlt!$V7>J,~>
p&FgfjT##Um/I&pq#L$d!$hE;!%H+k!)<Be!&aZRJ,~>
p&FgfjT##Uli6b\oD\dur%nB_bPqQ-r%nBcqu;0~>
p&FgfjT##Uli6b\oD\e+r+,jGbPqQ3r+,jOqu;0~>
p&FgfjT##Uli6b\oD\e8r1j<AbPqQ:r1j<Mqu;0~>
p&FgfjT##Uli6_[o`"n!r%nB_bPqQ-r%nBcqu;0~>
p&FgfjT##Uli6_[o`"n,r+,jGbPqQ3r+,jOqu;0~>
p&FgfjT##Uli6_[o`"n9r1j<AbPqQ:r1j<Mqu;0~>
p&FgfjT##Uli6_[o`"n!r%nB_oDe[fnGi@cpAY+Xr%nBcqu;0~>
p&FgfjT##Uli6_[o`"n,r+,jGoDe[fnGi@cpAY+^r+,jOqu;0~>
p&FgfjT##Uli6_[o`"n9r1j<AoDe[fnGi@cpAY+er1j<Mqu;0~>
p&FgfjT##Uli6b\!3u1r!"8]]!"JQ"qZ--cqZ-?i!'pH=!"o,.J,~>
p&FgfjT##Uli6b\!3u1r!#GKD!#bD.qZ--cqZ-?i!(Qlt!$V7>J,~>
p&FgfjT##Uli6b\!3u1r!$hE;!%IO>qZ--cqZ-?i!)<Be!&aZRJ,~>
p&FgfjT##Uli6b\oD\dur%nB_o)JUf!%7=:quHEi!'pH=!"o,.J,~>
p&FgfjT##Uli6b\oD\e+r+,jGo)JUf!%7=:quHEi!(Qlt!$V7>J,~>
p&FgfjT##Uli6b\oD\e8r1j<Ao)JUf!%7=:quHEi!)<Be!&aZRJ,~>
p&FgfjT##Uli6b\oD\dur%nB_o)JReo)JRep&>"Wr%nBcqu;0~>
p&FgfjT##Uli6b\oD\e+r+,jGo)JReo)JRep&>"]r+,jOqu;0~>
p&FgfjT##Uli6b\oD\e8r1j<Ao)JReo)JRep&>"dr1j<Mqu;0~>
p&FgfjT##Um/Qh\oD\dur%nB_nc/Leo)JRep&>"Wr%nBcqu;0~>
p&FgfjT##Um/Qh\oD\e+r+,jGnc/Leo)JRep&>"]r+,jOqu;0~>
p&FgfjT##Um/Qh\oD\e8r1j<Anc/Leo)JRep&>"dr1j<Mqu;0~>
p&FgfjT##Um/Qh\oD\dur%nB_nc/IdoDe^go`"nVr%nBcqu;0~>
p&FgfjT##Um/Qh\oD\e+r+,jGnc/IdoDe^go`"n\r+,jOqu;0~>
p&FgfjT##Um/Qh\oD\e8r1j<Anc/IdoDe^go`"ncr1j<Mqu;0~>
p&FgfjT##Um/Qh\oD\dur%nB_nc/Ido`+dgo`"nVr%nBcqu;0~>
p&FgfjT##Um/Qh\oD\e+r+,jGnc/Ido`+dgo`"n\r+,jOqu;0~>
p&FgfjT##Um/Qh\oD\e8r1j<Anc/Ido`+dgo`"ncr1j<Mqu;0~>
p&FgfjT##UmJlq]o)A[tr%nB_nGiCd!)E4equ?^lo`"nVr%nBcqu;0~>
p&FgfjT##UmJlq]o)A\*r+,jGnGiCd!)E4equ?^lo`"n\r+,jOqu;0~>
p&FgfjT##UmJlq]o)A\7r1j<AnGiCd!)E4equ?^lo`"ncr1j<Mqu;0~>
p&FgfjT##Umf*9Wp]0mb!"8]]!"JGtqZ-?iqZ-6f!'pH=!"o,.J,~>
p&FgfjT##Umf*9Wp]0mb!#GKD!#b;+qZ-?iqZ-6f!(Qlt!$V7>J,~>
p&FgfjT##Umf*9Wp]0mb!$hE;!%IF;qZ-?iqZ-6f!)<Be!&aZRJ,~>
p&FgfjT##Umf3"]o)A[tr%nB_n,N:cpAb!ioD\eUr%nBcqu;0~>
p&FgfjT##Umf3"]o)A\*r+,jGn,N:cpAb!ioD\e[r+,jOqu;0~>
p&FgfjT##Umf3"]o)A\7r1j<An,N:cpAb!ioD\ebr1j<Mqu;0~>
p&FgfjT##UnGi1^nc&Rsr%nB_n,N7bp](-ko)A\Tr%nBcqu;0~>
p&FgfjT##UnGi1^nc&S)r+,jGn,N7bp](-ko)A\Zr+,jOqu;0~>
p&FgfjT##UnGi1^nc&S6r1j<An,N7bp](-ko)A\ar1j<Mqu;0~>
p&FgfjT##Uo)J@_nG`Irr%nB_n,N7bq#C3ko)A\Tr%nBcqu;0~>
p&FgfjT##Uo)J@_nG`J(r+,jGn,N7bq#C3ko)A\Zr+,jOqu;0~>
p&FgfjT##Uo)J@_nG`J5r1j<An,N7bq#C3ko)A\ar1j<Mqu;0~>
p&FgfjT##Uq>UHImf;kW!"8]]!"JArqu?_+q>^<lo)A\Tr%nBcqu;0~>
p&FgfjT##Uq>UHImf;kW!#GKD!#b5)qu?_+q>^<lo)A\Zr+,jOqu;0~>
p&FgfjT##Uq>UHImf;kW!$hE;!%I@9qu?_+q>^<lo)A\ar1j<Mqu;0~>
p&FgfjT"*;n,E@qr%nB_mf3.aq>^?mnc&SSr%nBcqu;0~>
p&FgfjT"*;n,EA'r+,jGmf3.aq>^?mnc&SYr+,jOqu;0~>
p&FgfjT"*;n,EA4r1j<Amf3.aq>^?mnc&S`r1j<Mqu;0~>
p&FgfjT"-<mf*7pr%nB_mJm(aqZ$Emnc&SSr%nBcqu;0~>
p&FgfjT"-<mf*8&r+,jGmJm(aqZ$Emnc&SYr+,jOqu;0~>
p&FgfjT"-<mf*83r1j<AmJm(aqZ$Emnc&S`r1j<Mqu;0~>
p&FgfjT"3>!%716!"8]]!"J>qqZ-NnquH6d!'pH=!"o,.J,~>
p&FgfjT"3>!%716!#GKD!#b2(qZ-NnquH6d!(Qlt!$V7>J,~>
p&FgfjT"3>!%716!$hE;!%I=8qZ-NnquH6d!)<Be!&aZRJ,~>
p&FgfjT"6?li-qmr%nB_mJd/qquHZp!3uG%nG`JRr%nBcqu;0~>
p&FgfjT"6?li-r#r+,jGmJd/qquHZp!3uG%nG`JXr+,jOqu;0~>
p&FgfjT"6?li-r0r1j<AmJd/qquHZp!3uG%nG`J_r1j<Mqu;0~>
p&FgfjT"<Al2L_kr%nB_m/Qt`!/^[SqZ--c!'pH=!"o,.J,~>
p&FgfjT"<Al2L`!r+,jGm/Qt`!/^[SqZ--c!(Qlt!$V7>J,~>
p&FgfjT"<Al2L`.r1j<Am/Qt`!/^[SqZ--c!)<Be!&aZRJ,~>
p&FgfjT"BCkPkMir%nB_m/Qq_rVucqn,EAQr%nBcqu;0~>
p&FgfjT"BCkPkMtr+,jGm/Qq_rVucqn,EAWr+,jOqu;0~>
p&FgfjT"BCkPkN,r1j<Am/Qq_rVucqn,EA^r1j<Mqu;0~>
p&FgfjT"QHir8udr%nB_li6k_rr;iqn,EAQr%nBcqu;0~>
p&FgfjT"QHir8uor+,jGli6k_rr;iqn,EAWr+,jOqu;0~>
p&FgfjT"QHir9!'r1j<Ali6k_rr;iqn,EA^r1j<Mqu;0~>
p&FgfjT##Uec,UWr%nB_li6h^s8Vrrn,EAQr%nBcqu;0~>
p&FgfjT##Uec,Ubr+,jGli6h^s8Vrrn,EAWr+,jOqu;0~>
p&FgfjT##Uec,Uor1j<Ali6h^s8Vrrn,EA^r1j<Mqu;0~>
p&FgfjT##Uec,UWr%nB_lMpb^s8Vusmf*8Pr%nBcqu;0~>
p&FgfjT##Uec,Ubr+,jGlMpb^s8Vusmf*8Vr+,jOqu;0~>
p&FgfjT##Uec,Uor1j<AlMpb^s8Vusmf*8]r1j<Mqu;0~>
p&FgfjT##Uec,UWr%nB_lMpb^!<;ormf*8Pr%nBcqu;0~>
p&FgfjT##Uec,Ubr+,jGlMpb^!<;ormf*8Vr+,jOqu;0~>
p&FgfjT##Uec,Uor1j<AlMpb^!<;ormf*8]r1j<Mqu;0~>
p&FgfjT##Uec,UWr%nB_lMpPXmJd/Or%nBcqu;0~>
p&FgfjT##Uec,Ubr+,jGlMpPXmJd/Ur+,jOqu;0~>
p&FgfjT##Uec,Uor1j<AlMpPXmJd/\r1j<Mqu;0~>
p&FgfjT##Uec,UWr%nB_l2UJXmJd/Or%nBcqu;0~>
p&FgfjT##Uec,Ubr+,jGl2UJXmJd/Ur+,jOqu;0~>
p&FgfjT##Uec,Uor1j<Al2UJXmJd/\r1j<Mqu;0~>
p&FgfjT##Uec,UWr%nB_l2UJXmJd/Or%nBcqu;0~>
p&FgfjT##Uec,Ubr+,jGl2UJXmJd/Ur+,jOqu;0~>
p&FgfjT##Uec,Uor1j<Al2UJXmJd/\r1j<Mqu;0~>
p&FgfjT##Uec,UWr%nB_kl:GYm/I&Nr%nBcqu;0~>
p&FgfjT##Uec,Ubr+,jGkl:GYm/I&Tr+,jOqu;0~>
p&FgfjT##Uec,Uor1j<Akl:GYm/I&[r1j<Mqu;0~>
p&FgfjT##Uec,UWr%nB_kl:GYm/I&Nr%nBcqu;0~>
p&FgfjT##Uec,Ubr+,jGkl:GYm/I&Tr+,jOqu;0~>
p&FgfjT##Uec,Uor1j<Akl:GYm/I&[r1j<Mqu;0~>
p&FgfjT##Uec,UWr%nB_kl:JZ!1`EU!'pH=!"o,.J,~>
p&FgfjT##Uec,Ubr+,jGkl:JZ!1`EU!(Qlt!$V7>J,~>
p&FgfjT##Uec,Uor1j<Akl:JZ!1`EU!)<Be!&aZRJ,~>
p&FgfjT##Uec,UWr%nB_kPtDZli-rMr%nBcqu;0~>
p&FgfjT##Uec,Ubr+,jGkPtDZli-rSr+,jOqu;0~>
p&FgfjT##Uec,Uor1j<AkPtDZli-rZr1j<Mqu;0~>
p&FgfjT##Uec,UWr%nB_kPtDZli-rMr%nBcqu;0~>
p&FgfjT##Uec,Ubr+,jGkPtDZli-rSr+,jOqu;0~>
p&FgfjT##Uec,Uor1j<AkPtDZli-rZr1j<Mqu;0~>
p&FgfjT##Uec,UWr%nB_kPtG[lMgiLr%nBcqu;0~>
p&FgfjT##Uec,Ubr+,jGkPtG[lMgiRr+,jOqu;0~>
p&FgfjT##Uec,Uor1j<AkPtG[lMgiYr1j<Mqu;0~>
p&FgfjT##Uec,UWr%nB_kl:M[lMgiLr%nBcqu;0~>
p&FgfjT##Uec,Ubr+,jGkl:M[lMgiRr+,jOqu;0~>
p&FgfjT##Uec,Uor1j<Akl:M[lMgiYr1j<Mqu;0~>
p&FgfjT##Uec,UWr%nB_kl:M[lMgiLr%nBcqu;0~>
p&FgfjT##Uec,Ubr+,jGkl:M[lMgiRr+,jOqu;0~>
p&FgfjT##Uec,Uor1j<Akl:M[lMgiYr1j<Mqu;0~>
p&FgfjT##Uec,UWr%nB_l2La?quH!]!'pH=!"o,.J,~>
p&FgfjT##Uec,Ubr+,jGl2La?quH!]!(Qlt!$V7>J,~>
p&FgfjT##Uec,Uor1j<Al2La?quH!]!)<Be!&aZRJ,~>
p&FgfjT##Uec,UWr%nB_l2UV\l2L`Kr%nBcqu;0~>
p&FgfjT##Uec,Ubr+,jGl2UV\l2L`Qr+,jOqu;0~>
p&FgfjT##Uec,Uor1j<Al2UV\l2L`Xr1j<Mqu;0~>
p&FgfjT##Uec,UWr%nB_lMp_]kl1WJr%nBcqu;0~>
p&FgfjT##Uec,Ubr+,jGlMp_]kl1WPr+,jOqu;0~>
p&FgfjT##Uec,Uor1j<AlMp_]kl1WWr1j<Mqu;0~>
rr2u:kl:]mmJlt^ec,UWr%nB_li-r4qZ,j[!'pH=!"o,.J,~>
rr2u:kl:]mmJlt^ec,Ubr+,jGli-r4qZ,j[!(Qlt!$V7>J,~>
rr2u:kl:]mmJlt^ec,Uor1j<Ali-r4qZ,j[!)<Be!&aZRJ,~>
huN<Iq#JtF!"8]]!#PD>!"&B!q>g'c!&"$U!#,8e!"o,.J,~>
huN<Iq#JtF!#GKD!%dm_!"nr)q>g'c!&OBf!$qJR!$V7>J,~>
huN<Iq#JtF!$hE;!(cl6!$(_4q>g'c!'Bs)!'C+S!&aZRJ,~>
huN<Iq#JtF!"8?S!$qOCoDnC\!$:\f!"o,.J,~>
huN<Iq#JtF!#G-:!(QqeoDnC\!'Ba_!$V7>J,~>
huN<Iq#JtF!$h'1!-.u;oDnC\!+5;m!&aZRJ,~>
huN<Iq#JtF!"8?S!$qOCoDnC\!$:\f!"o,.J,~>
huN<Iq#JtF!#G-:!(QqeoDnC\!'Ba_!$V7>J,~>
huN<Iq#JtF!$h'1!-.u;oDnC\!+5;m!&aZRJ,~>
huN<Iq#JtF!"8?S!$qOCo`4I\!$:\f!"o,.J,~>
huN<Iq#JtF!#G-:!(Qqeo`4I\!'Ba_!$V7>J,~>
huN<Iq#JtF!$h'1!-.u;o`4I\!+5;m!&aZRJ,~>
huN<Iq#JtF!"8?S!$qOCpAjU\!$:\f!"o,.J,~>
huN<Iq#JtF!#G-:!(QqepAjU\!'Ba_!$V7>J,~>
huN<Iq#JtF!$h'1!-.u;pAjU\!+5;m!&aZRJ,~>
i;iBIq#JqEndb^-qYpZ9!!([:rr<>q&,Q<V~>
i;iBIq#JqEnf7]DqYpZ9!!([:rr<W$*W#ed~>
i;iBIq#JqEnh'nbqYpZ9!!([:rr<u.0)GTu~>
JcF0uJ,~>
JcF0uJ,~>
JcF0uJ,~>
JcF0uJ,~>
JcF0uJ,~>
JcF0uJ,~>
JcF0uJ,~>
JcF0uJ,~>
JcF0uJ,~>
JcF0uJ,~>
JcF0uJ,~>
JcF0uJ,~>
JcF0uJ,~>
JcF0uJ,~>
JcF0uJ,~>
%%EndData
showpage
%%Trailer
end
%%EOF
