%!PS-Adobe-3.0
%%BoundingBox: 54 360 558 720
%%Title: Graphics produced by IDL
%%For: ap1vf@acml23.shef.ac.uk, /home/ap1vf/VAC/Idl
%%Creator: IDL Version 6.2 (linux x86 m32)
%%CreationDate: Sun Sep 18 16:51:51 2005
%%DocumentData: Clean7bit
%%Requirements: color
%%LanguageLevel: 1
%%PageOrder: Ascend
%%Pages: (atend)
%%DocumentNeededResources: (atend)
%%EndComments
%%BeginProlog
save
%+ prolog.ps -- Prolog for IDL generated PostScript files
%+ Copyright (c) 1988-2005 Research Systems, Inc. All Rights Reserved.
%v 5
/$IDL_DICT 40 dict def $IDL_DICT begin /bdef { bind def } bind def /C
{currentpoint newpath moveto} bdef /CP {currentpoint} bdef /D {currentpoint
stroke moveto} bdef /F {closepath fill} bdef /K { setgray } bdef /M {moveto}
bdef /N {rmoveto} bdef /P {lineto} bdef /R {rlineto} bdef /S {gsave show
grestore} bdef /X {currentpoint pop} bdef /Z {gsave currentpoint lineto 20
setlinewidth 1 setlinecap stroke grestore} bdef /L0 {[] 0 setdash} bdef /L1
{[40 100] 0 setdash} bdef /L2 {[200 200] 0 setdash} bdef /L3 {[200 100 50
100] 0 setdash} bdef /L4 {[300 100 50 100 50 100 50 100] 0 setdash} bdef /L5
{[400 200] 0 setdash} bdef /STDFONT { findfont exch scalefont setfont } bdef
/ISOFONT { findfont dup length dict begin { 1 index /FID ne {def} {pop pop}
ifelse } forall /Encoding ISOLatin1Encoding def currentdict end /idltmpfont
exch definefont exch scalefont setfont } bdef /ISOBULLET { gsave /Helvetica
findfont exch scalefont setfont (\267) show currentpoint grestore moveto}
bdef /MITERLIMIT { 2.5 setmiterlimit } bdef end
%%EndProlog
%%Page: 0 1
%%PageRequirements: color
%%PageResources: (atend)
%%PageOrientation: Portrait
%%PageBoundingBox: 54 360 558 720
%%BeginPageSetup
save
$IDL_DICT begin 54 360 translate 0.0283465 dup scale MITERLIMIT
%%IncludeResource: font Helvetica
423.333 /Helvetica STDFONT
%%EndPageSetup
10 setlinewidth L0 0.000 0.000 0.000 setrgbcolor 2664 1690 M 14317 0 R D
2664 1690 M 0 203 R D 2426 1280 M 0 14 R 14 28 R 14 14 R 28 15 R 56 0 R
28 -15 R 14 -14 R 14 -28 R 0 -28 R -14 -28 R -28 -42 R -140 -140 R 196 0 R D
2776 1351 M -42 -15 R -28 -42 R -14 -70 R 0 -42 R 14 -70 R 28 -42 R 42 -14 R
28 0 R 42 14 R 28 42 R 14 70 R 0 42 R -14 70 R -28 42 R -42 15 R -28 0 R D
5050 1690 M 0 203 R D 4812 1280 M 0 14 R 14 28 R 14 14 R 28 15 R 56 0 R
28 -15 R 14 -14 R 14 -28 R 0 -28 R -14 -28 R -28 -42 R -140 -140 R 196 0 R D
5247 1351 M -141 0 R -14 -127 R 14 14 R 42 14 R 42 0 R 42 -14 R 29 -28 R
14 -42 R 0 -28 R -14 -42 R -29 -28 R -42 -14 R -42 0 R -42 14 R -14 14 R
-14 28 R D 7436 1690 M 0 203 R D 7212 1351 M 154 0 R -84 -113 R 42 0 R
28 -14 R 14 -14 R 14 -42 R 0 -28 R -14 -42 R -28 -28 R -42 -14 R -42 0 R
-42 14 R -14 14 R -14 28 R D 7549 1351 M -43 -15 R -28 -42 R -14 -70 R
0 -42 R 14 -70 R 28 -42 R 43 -14 R 28 0 R 42 14 R 28 42 R 14 70 R 0 42 R
-14 70 R -28 42 R -42 15 R -28 0 R D 9822 1690 M 0 203 R D 9598 1351 M
154 0 R -84 -113 R 42 0 R 28 -14 R 14 -14 R 14 -42 R 0 -28 R -14 -42 R
-28 -28 R -42 -14 R -42 0 R -42 14 R -14 14 R -14 28 R D 10019 1351 M
-140 0 R -14 -127 R 14 14 R 42 14 R 42 0 R 42 -14 R 28 -28 R 14 -42 R
0 -28 R -14 -42 R -28 -28 R -42 -14 R -42 0 R -42 14 R -14 14 R -14 28 R D
12209 1690 M 0 203 R D 12096 1351 M -140 -197 R 211 0 R D 12096 1351 M
0 -295 R D 12321 1351 M -42 -15 R -28 -42 R -14 -70 R 0 -42 R 14 -70 R
28 -42 R 42 -14 R 28 0 R 42 14 R 28 42 R 14 70 R 0 42 R -14 70 R -28 42 R
-42 15 R -28 0 R D 14595 1690 M 0 203 R D 14483 1351 M -141 -197 R 211 0 R D
14483 1351 M 0 -295 R D 14791 1351 M -140 0 R -14 -127 R 14 14 R 42 14 R
42 0 R 42 -14 R 28 -28 R 14 -42 R 0 -28 R -14 -42 R -28 -28 R -42 -14 R
-42 0 R -42 14 R -14 14 R -14 28 R D 16981 1690 M 0 203 R D 16897 1351 M
-140 0 R -14 -127 R 14 14 R 42 14 R 42 0 R 42 -14 R 28 -28 R 14 -42 R
0 -28 R -14 -42 R -28 -28 R -42 -14 R -42 0 R -42 14 R -14 14 R -14 28 R D
17093 1351 M -42 -15 R -28 -42 R -14 -70 R 0 -42 R 14 -70 R 28 -42 R
42 -14 R 28 0 R 42 14 R 28 42 R 14 70 R 0 42 R -14 70 R -28 42 R -42 15 R
-28 0 R D 3141 1690 M 0 101 R D 3619 1690 M 0 101 R D 4096 1690 M 0 101 R D
4573 1690 M 0 101 R D 5527 1690 M 0 101 R D 6005 1690 M 0 101 R D
6482 1690 M 0 101 R D 6959 1690 M 0 101 R D 7914 1690 M 0 101 R D
8391 1690 M 0 101 R D 8868 1690 M 0 101 R D 9345 1690 M 0 101 R D
10300 1690 M 0 101 R D 10777 1690 M 0 101 R D 11254 1690 M 0 101 R D
11731 1690 M 0 101 R D 12686 1690 M 0 101 R D 13163 1690 M 0 101 R D
13640 1690 M 0 101 R D 14118 1690 M 0 101 R D 15072 1690 M 0 101 R D
15549 1690 M 0 101 R D 16026 1690 M 0 101 R D 16504 1690 M 0 101 R D
9558 703 M -154 -196 R D 9404 703 M 154 0 R D 9404 507 M 154 0 R D
9880 857 M -252 -462 R D 9964 703 M 0 -196 R D 9964 619 M 14 42 R 28 28 R
28 14 R 43 0 R D 10165 517 M -17 -9 R -17 -17 R -9 -26 R 0 -18 R 9 -26 R
17 -17 R 17 -9 R 26 0 R 18 9 R 17 17 R 9 26 R 0 18 R -9 26 R -17 17 R
-18 9 R -26 0 R D 2664 11855 M 14317 0 R D 2664 11855 M 0 -203 R D
5050 11855 M 0 -203 R D 7436 11855 M 0 -203 R D 9822 11855 M 0 -203 R D
12209 11855 M 0 -203 R D 14595 11855 M 0 -203 R D 16981 11855 M 0 -203 R D
3141 11855 M 0 -101 R D 3619 11855 M 0 -101 R D 4096 11855 M 0 -101 R D
4573 11855 M 0 -101 R D 5527 11855 M 0 -101 R D 6005 11855 M 0 -101 R D
6482 11855 M 0 -101 R D 6959 11855 M 0 -101 R D 7914 11855 M 0 -101 R D
8391 11855 M 0 -101 R D 8868 11855 M 0 -101 R D 9345 11855 M 0 -101 R D
10300 11855 M 0 -101 R D 10777 11855 M 0 -101 R D 11254 11855 M 0 -101 R D
11731 11855 M 0 -101 R D 12686 11855 M 0 -101 R D 13163 11855 M 0 -101 R D
13640 11855 M 0 -101 R D 14118 11855 M 0 -101 R D 15072 11855 M 0 -101 R D
15549 11855 M 0 -101 R D 16026 11855 M 0 -101 R D 16504 11855 M 0 -101 R D
2664 1690 M 0 10165 R D 2664 1690 M 286 0 R D 1662 1984 M -42 -14 R
-29 -42 R -14 -70 R 0 -42 R 14 -70 R 29 -42 R 42 -14 R 28 0 R 42 14 R
28 42 R 14 70 R 0 42 R -14 70 R -28 42 R -42 14 R -28 0 R D 1886 1718 M
-14 -14 R 14 -14 R 14 14 R -14 14 R D 2180 1886 M -14 -42 R -28 -28 R
-42 -14 R -14 0 R -42 14 R -28 28 R -14 42 R 0 14 R 14 42 R 28 28 R 42 14 R
14 0 R 42 -14 R 28 -28 R 14 -56 R 0 -70 R -14 -70 R -28 -42 R -42 -14 R
-28 0 R -42 14 R -14 28 R D 2363 1984 M -42 -14 R -28 -42 R -14 -70 R
0 -42 R 14 -70 R 28 -42 R 42 -14 R 28 0 R 42 14 R 28 42 R 14 70 R 0 42 R
-14 70 R -28 42 R -42 14 R -28 0 R D 2664 4866 M 286 0 R D 1662 4992 M
-42 -14 R -29 -42 R -14 -70 R 0 -42 R 14 -70 R 29 -43 R 42 -14 R 28 0 R
42 14 R 28 43 R 14 70 R 0 42 R -14 70 R -28 42 R -42 14 R -28 0 R D
1886 4725 M -14 -14 R 14 -14 R 14 14 R -14 14 R D 2180 4894 M -14 -42 R
-28 -28 R -42 -14 R -14 0 R -42 14 R -28 28 R -14 42 R 0 14 R 14 42 R
28 28 R 42 14 R 14 0 R 42 -14 R 28 -28 R 14 -56 R 0 -70 R -14 -70 R
-28 -43 R -42 -14 R -28 0 R -42 14 R -14 29 R D 2447 4992 M -140 0 R
-14 -126 R 14 14 R 42 14 R 42 0 R 42 -14 R 28 -28 R 14 -42 R 0 -28 R
-14 -42 R -28 -29 R -42 -14 R -42 0 R -42 14 R -14 14 R -14 29 R D
2664 8043 M 286 0 R D 1620 8113 M 28 14 R 42 42 R 0 -295 R D 1886 7902 M
-14 -14 R 14 -14 R 14 14 R -14 14 R D 2082 8169 M -42 -14 R -28 -42 R
-14 -71 R 0 -42 R 14 -70 R 28 -42 R 42 -14 R 28 0 R 42 14 R 28 42 R 14 70 R
0 42 R -14 71 R -28 42 R -42 14 R -28 0 R D 2363 8169 M -42 -14 R -28 -42 R
-14 -71 R 0 -42 R 14 -70 R 28 -42 R 42 -14 R 28 0 R 42 14 R 28 42 R 14 70 R
0 42 R -14 71 R -28 42 R -42 14 R -28 0 R D 2664 11220 M 286 0 R D
1620 11289 M 28 14 R 42 42 R 0 -294 R D 1886 11079 M -14 -14 R 14 -14 R
14 14 R -14 14 R D 2082 11345 M -42 -14 R -28 -42 R -14 -70 R 0 -42 R
14 -70 R 28 -42 R 42 -14 R 28 0 R 42 14 R 28 42 R 14 70 R 0 42 R -14 70 R
-28 42 R -42 14 R -28 0 R D 2447 11345 M -140 0 R -14 -126 R 14 14 R 42 14 R
42 0 R 42 -14 R 28 -28 R 14 -42 R 0 -28 R -14 -42 R -28 -28 R -42 -14 R
-42 0 R -42 14 R -14 14 R -14 28 R D 2664 2325 M 143 0 R D 2664 2960 M
143 0 R D 2664 3596 M 143 0 R D 2664 4231 M 143 0 R D 2664 5502 M 143 0 R D
2664 6137 M 143 0 R D 2664 6772 M 143 0 R D 2664 7408 M 143 0 R D
2664 8679 M 143 0 R D 2664 9314 M 143 0 R D 2664 9949 M 143 0 R D
2664 10585 M 143 0 R D 2664 11855 M 143 0 R D 954 6396 M 196 0 R D
1038 6396 M -42 14 R -28 28 R -14 28 R 0 42 R D 799 6802 M 463 -252 R D
954 6886 M 196 0 R D 1038 6886 M -42 14 R -28 28 R -14 28 R 0 42 R D
1140 7087 M 9 -17 R 17 -17 R 26 -9 R 17 0 R 26 9 R 18 17 R 8 17 R 0 26 R
-8 18 R -18 17 R -26 9 R -17 0 R -26 -9 R -17 -17 R -9 -18 R 0 -26 R D
16981 1690 M 0 10165 R D 16981 1690 M -286 0 R D 16981 4866 M -286 0 R D
16981 8043 M -286 0 R D 16981 11220 M -286 0 R D 16981 2325 M -143 0 R D
16981 2960 M -143 0 R D 16981 3596 M -143 0 R D 16981 4231 M -143 0 R D
16981 5502 M -143 0 R D 16981 6137 M -143 0 R D 16981 6772 M -143 0 R D
16981 7408 M -143 0 R D 16981 8679 M -143 0 R D 16981 9314 M -143 0 R D
16981 9949 M -143 0 R D 16981 10585 M -143 0 R D 16981 11855 M -143 0 R D
30 setlinewidth 0.000 0.000 1.000 setrgbcolor 2664 8037 M 27 0 R 28 1 R
27 0 R 27 0 R 27 1 R 28 0 R 27 1 R 27 0 R 28 1 R 27 0 R 27 1 R 27 0 R 28 1 R
27 0 R 27 1 R 27 0 R 28 1 R 27 0 R 27 1 R 27 0 R 28 1 R 27 0 R 27 1 R 28 0 R
27 1 R 27 0 R 27 1 R 28 0 R 27 1 R 27 0 R 27 1 R 28 0 R 27 1 R 27 0 R 28 1 R
27 0 R 27 1 R 27 0 R 28 1 R 27 0 R 27 1 R 27 0 R 28 1 R 27 0 R 27 1 R 28 0 R
27 1 R 27 0 R 27 1 R 28 0 R 27 1 R 27 0 R 27 1 R 28 0 R 27 1 R 27 0 R 27 1 R
28 0 R 27 0 R 27 1 R 28 0 R 27 1 R 27 0 R 27 1 R 28 0 R 27 0 R 27 1 R 27 0 R
28 1 R 27 0 R 27 0 R 28 1 R 27 0 R 27 0 R 27 1 R 28 0 R 27 0 R 27 1 R 27 0 R
28 0 R 27 0 R 27 1 R 28 0 R 27 0 R 27 0 R 27 1 R 28 0 R 27 0 R 27 0 R 27 0 R
28 1 R 27 0 R 27 0 R 27 0 R 28 0 R 27 0 R 27 0 R 28 0 R 27 1 R 27 0 R 27 0 R
28 0 R 27 0 R 27 0 R 27 0 R 28 0 R 27 0 R 27 0 R 28 0 R 27 0 R 27 0 R 27 0 R
28 -1 R 27 0 R 27 0 R 27 0 R 28 0 R 27 0 R 27 0 R 28 0 R 27 -1 R 27 0 R
27 0 R 28 0 R 27 0 R 27 -1 R 27 0 R 28 0 R 27 0 R 27 -1 R 27 0 R 28 0 R
27 0 R 27 -1 R 28 0 R 27 0 R 27 -1 R 27 0 R 28 0 R 27 -1 R 27 0 R 27 -1 R
28 0 R 27 0 R 27 -1 R 28 0 R 27 0 R 27 -1 R 27 0 R 28 -1 R 27 0 R 27 -1 R
27 0 R 28 -1 R 27 0 R 27 0 R 27 -1 R 28 0 R 27 -1 R 27 0 R 28 -1 R 27 0 R
27 -1 R 27 0 R 28 -1 R 27 0 R 27 -1 R 27 0 R 28 -1 R 27 0 R 27 -1 R 28 0 R
27 -1 R 27 0 R 27 -1 R 28 0 R 27 -1 R 27 0 R 27 -1 R 28 0 R 27 -1 R 27 0 R
28 -1 R 27 -1 R 27 0 R 27 -1 R 28 0 R 27 -1 R 27 0 R 27 -1 R 28 0 R 27 -1 R
27 0 R 27 -1 R 28 0 R 27 -1 R 27 0 R 28 -1 R 27 0 R 27 0 R 27 -1 R 28 0 R
27 -1 R 27 0 R 27 -1 R 28 0 R 27 -1 R 27 0 R 28 0 R 27 -1 R 27 0 R 27 -1 R
28 0 R 27 -1 R 27 0 R 27 0 R 28 -1 R 27 0 R 27 -1 R 28 0 R 27 0 R 27 -1 R
27 0 R 28 0 R 27 -1 R 27 0 R 27 0 R 28 -1 R 27 0 R 27 0 R 27 -1 R 28 0 R
27 0 R 27 -1 R 28 0 R 27 0 R 27 0 R 27 -1 R 28 0 R 27 0 R 27 0 R 27 -1 R
28 0 R 27 0 R 27 0 R 28 -1 R 27 0 R 27 0 R 27 0 R 28 -1 R 27 0 R 27 0 R
27 0 R 28 0 R 27 0 R 27 -1 R 28 0 R 27 0 R 27 0 R 27 0 R 28 0 R 27 -1 R
27 0 R 27 0 R 28 0 R 27 0 R 27 0 R 27 0 R 28 0 R 27 0 R 27 -1 R 28 0 R
27 0 R 27 0 R 27 0 R 28 0 R 27 0 R 27 0 R 27 0 R 28 0 R 27 0 R 27 0 R 28 0 R
27 0 R 27 0 R 27 0 R 28 0 R 27 0 R 27 0 R 27 0 R 28 0 R 27 0 R 27 0 R 27 0 R
28 0 R 27 0 R 27 0 R 28 0 R 27 0 R 27 0 R 27 0 R 28 0 R 27 0 R 27 0 R 27 1 R
28 0 R 27 0 R 27 0 R 28 0 R 27 0 R 27 0 R 27 0 R 28 0 R 27 1 R 27 0 R 27 0 R
28 0 R 27 0 R 27 0 R 28 0 R 27 1 R 27 0 R 27 0 R 28 0 R 27 0 R 27 1 R 27 0 R
28 0 R 27 0 R 27 0 R 27 1 R 28 0 R 27 0 R 27 0 R 28 1 R 27 0 R 27 0 R 27 0 R
28 1 R 27 0 R 27 0 R 27 1 R 28 0 R 27 0 R 27 1 R 28 0 R 27 0 R 27 0 R 27 1 R
28 0 R 27 0 R 27 1 R 27 0 R 28 1 R 27 0 R 27 0 R 28 1 R 27 0 R 27 0 R 27 1 R
28 0 R 27 1 R 27 0 R 27 0 R 28 1 R 27 0 R 27 1 R 27 0 R 28 1 R 27 0 R 27 0 R
28 1 R 27 0 R 27 1 R 27 0 R 28 1 R 27 0 R 27 1 R 27 0 R 28 1 R 27 0 R 27 1 R
28 0 R 27 1 R 27 0 R 27 1 R 28 0 R 27 1 R 27 0 R 27 1 R 28 0 R 27 1 R 27 0 R
28 1 R 27 0 R 27 1 R 27 0 R 28 1 R 27 0 R 27 1 R 27 0 R 28 1 R 27 0 R 27 1 R
27 0 R 28 1 R 27 0 R 27 1 R 28 0 R 27 1 R 27 0 R 27 1 R 28 0 R 27 1 R 27 0 R
27 1 R 28 0 R 27 1 R 27 0 R 28 1 R 27 0 R 27 1 R 27 0 R 28 1 R 27 0 R 27 0 R
27 1 R 28 0 R 27 1 R 27 0 R 27 1 R 28 0 R 27 0 R 27 1 R 28 0 R 27 0 R 27 1 R
27 0 R 28 0 R 27 1 R 27 0 R 27 0 R 28 1 R 27 0 R 27 0 R 28 1 R 27 0 R 27 0 R
27 0 R 28 1 R 27 0 R 27 0 R 27 0 R 28 0 R 27 0 R 27 1 R 28 0 R 27 0 R 27 0 R
27 0 R 28 0 R 27 0 R 27 1 R 27 0 R 28 0 R 27 0 R 27 0 R 27 0 R 28 0 R 27 0 R
27 0 R 28 0 R 27 0 R 27 0 R 27 0 R 28 0 R 27 0 R 27 -1 R 27 0 R 28 0 R
27 0 R 27 0 R 28 0 R 27 0 R 27 0 R 27 -1 R 28 0 R 27 0 R 27 0 R 27 0 R
28 -1 R 27 0 R 27 0 R 28 0 R 27 -1 R 27 0 R 27 0 R 28 -1 R 27 0 R 27 0 R
27 0 R 28 -1 R 27 0 R 27 -1 R 27 0 R 28 0 R 27 -1 R 27 0 R 28 0 R 27 -1 R
27 0 R 27 -1 R 28 0 R 27 0 R 27 -1 R 27 0 R 28 -1 R 27 0 R 27 -1 R 28 0 R
27 -1 R 27 0 R 27 -1 R 28 0 R 26 0 R D 10 setlinewidth 3556 5794 M 0 -238 R
14 -42 R 28 -14 R 28 0 R D 3514 5696 M 98 0 R D 3696 5794 M 14 -14 R 14 14 R
-14 14 R -14 -14 R D 3710 5696 M 0 -196 R D 3822 5696 M 0 -196 R D
3822 5640 M 43 42 R 28 14 R 42 0 R 28 -14 R 14 -42 R 0 -140 R D 3977 5640 M
42 42 R 28 14 R 42 0 R 28 -14 R 14 -42 R 0 -140 R D 4229 5612 M 168 0 R
0 28 R -14 28 R -14 14 R -28 14 R -42 0 R -28 -14 R -28 -28 R -14 -42 R
0 -28 R 14 -42 R 28 -28 R 28 -14 R 42 0 R 28 14 R 28 28 R D 4720 5668 M
252 0 R D 4720 5584 M 252 0 R D 5379 5794 M -42 -14 R -28 -42 R -14 -70 R
0 -42 R 14 -70 R 28 -42 R 42 -14 R 28 0 R 42 14 R 28 42 R 14 70 R 0 42 R
-14 70 R -28 42 R -42 14 R -28 0 R D 5603 5528 M -14 -14 R 14 -14 R 14 14 R
-14 14 R D 5757 5738 M 28 14 R 42 42 R 0 -294 R D 30 setlinewidth
1.000 0.647 0.000 setrgbcolor 2664 7711 M 27 24 R 28 24 R 27 24 R 27 24 R
27 25 R 28 25 R 27 25 R 27 24 R 28 25 R 27 25 R 27 26 R 27 25 R 28 26 R
27 25 R 27 26 R 27 26 R 28 25 R 27 26 R 27 26 R 27 26 R 28 26 R 27 26 R
27 26 R 28 26 R 27 26 R 27 25 R 27 26 R 28 26 R 27 26 R 27 26 R 27 25 R
28 26 R 27 25 R 27 26 R 28 25 R 27 25 R 27 25 R 27 24 R 28 24 R 27 23 R
27 23 R 27 23 R 28 23 R 27 23 R 27 22 R 28 23 R 27 22 R 27 23 R 27 22 R
28 22 R 27 21 R 27 22 R 27 21 R 28 21 R 27 21 R 27 20 R 27 20 R 28 21 R
27 19 R 27 20 R 28 19 R 27 19 R 27 18 R 27 18 R 28 18 R 27 18 R 27 17 R
27 16 R 28 17 R 27 16 R 27 15 R 28 16 R 27 15 R 27 15 R 27 14 R 28 14 R
27 13 R 27 13 R 27 13 R 28 11 R 27 12 R 27 11 R 28 11 R 27 11 R 27 10 R
27 10 R 28 8 R 27 8 R 27 8 R 27 8 R 28 7 R 27 7 R 27 7 R 27 5 R 28 6 R
27 5 R 27 4 R 28 4 R 27 2 R 27 3 R 27 2 R 28 2 R 27 2 R 27 1 R 27 0 R 28 0 R
27 0 R 27 -1 R 28 -2 R 27 -2 R 27 -2 R 27 -2 R 28 -3 R 27 -4 R 27 -5 R
27 -5 R 28 -5 R 27 -6 R 27 -7 R 28 -6 R 27 -8 R 27 -7 R 27 -9 R 28 -9 R
27 -7 R 27 -10 R 27 -10 R 28 -11 R 27 -11 R 27 -11 R 27 -12 R 28 -12 R
27 -12 R 27 -14 R 28 -13 R 27 -14 R 27 -14 R 27 -15 R 28 -15 R 27 -16 R
27 -15 R 27 -16 R 28 -17 R 27 -16 R 27 -18 R 28 -18 R 27 -17 R 27 -19 R
27 -18 R 28 -19 R 27 -19 R 27 -20 R 27 -19 R 28 -20 R 27 -21 R 27 -20 R
27 -21 R 28 -22 R 27 -21 R 27 -21 R 28 -22 R 27 -22 R 27 -22 R 27 -22 R
28 -22 R 27 -23 R 27 -23 R 27 -23 R 28 -22 R 27 -23 R 27 -24 R 28 -23 R
27 -24 R 27 -24 R 27 -25 R 28 -26 R 27 -25 R 27 -25 R 27 -26 R 28 -25 R
27 -26 R 27 -26 R 28 -26 R 27 -26 R 27 -26 R 27 -26 R 28 -26 R 27 -26 R
27 -26 R 27 -26 R 28 -26 R 27 -25 R 27 -26 R 27 -26 R 28 -26 R 27 -26 R
27 -25 R 28 -26 R 27 -26 R 27 -25 R 27 -25 R 28 -25 R 27 -25 R 27 -25 R
27 -25 R 28 -25 R 27 -24 R 27 -25 R 28 -24 R 27 -24 R 27 -24 R 27 -23 R
28 -24 R 27 -23 R 27 -23 R 27 -23 R 28 -22 R 27 -22 R 27 -23 R 28 -21 R
27 -22 R 27 -21 R 27 -22 R 28 -20 R 27 -21 R 27 -20 R 27 -19 R 28 -20 R
27 -19 R 27 -18 R 27 -19 R 28 -19 R 27 -18 R 27 -17 R 28 -18 R 27 -17 R
27 -17 R 27 -17 R 28 -16 R 27 -16 R 27 -16 R 27 -15 R 28 -15 R 27 -15 R
27 -15 R 28 -14 R 27 -14 R 27 -13 R 27 -13 R 28 -13 R 27 -13 R 27 -12 R
27 -12 R 28 -11 R 27 -12 R 27 -11 R 28 -11 R 27 -10 R 27 -10 R 27 -9 R
28 -10 R 27 -8 R 27 -9 R 27 -8 R 28 -8 R 27 -8 R 27 -7 R 27 -7 R 28 -6 R
27 -6 R 27 -6 R 28 -6 R 27 -5 R 27 -5 R 27 -5 R 28 -4 R 27 -4 R 27 -3 R
27 -3 R 28 -3 R 27 -2 R 27 -2 R 28 -2 R 27 -2 R 27 -1 R 27 0 R 28 -1 R
27 0 R 27 0 R 27 1 R 28 1 R 27 1 R 27 2 R 27 2 R 28 2 R 27 3 R 27 3 R 28 3 R
27 4 R 27 4 R 27 4 R 28 5 R 27 5 R 27 5 R 27 6 R 28 6 R 27 7 R 27 6 R 28 7 R
27 8 R 27 8 R 27 8 R 28 8 R 27 9 R 27 9 R 27 10 R 28 9 R 27 10 R 27 11 R
28 11 R 27 11 R 27 11 R 27 12 R 28 12 R 27 12 R 27 13 R 27 13 R 28 14 R
27 14 R 27 13 R 27 15 R 28 14 R 27 16 R 27 15 R 28 15 R 27 16 R 27 16 R
27 17 R 28 17 R 27 17 R 27 17 R 27 18 R 28 18 R 27 18 R 27 18 R 28 19 R
27 19 R 27 19 R 27 19 R 28 20 R 27 20 R 27 21 R 27 21 R 28 21 R 27 22 R
27 21 R 28 22 R 27 23 R 27 22 R 27 23 R 28 22 R 27 24 R 27 23 R 27 23 R
28 24 R 27 24 R 27 24 R 27 24 R 28 24 R 27 25 R 27 25 R 28 25 R 27 25 R
27 25 R 27 25 R 28 25 R 27 25 R 27 26 R 27 26 R 28 25 R 27 26 R 27 26 R
28 26 R 27 25 R 27 26 R 27 26 R 28 26 R 27 26 R 27 26 R 27 26 R 28 26 R
27 26 R 27 26 R 28 25 R 27 26 R 27 26 R 27 25 R 28 26 R 27 25 R 27 25 R
27 25 R 28 25 R 27 25 R 27 22 R 27 24 R 28 23 R 27 23 R 27 23 R 28 22 R
27 23 R 27 22 R 27 23 R 28 22 R 27 22 R 27 22 R 27 22 R 28 21 R 27 21 R
27 21 R 28 21 R 27 20 R 27 20 R 27 21 R 28 19 R 27 20 R 27 18 R 27 19 R
28 18 R 27 19 R 27 17 R 27 18 R 28 17 R 27 16 R 27 17 R 28 16 R 27 15 R
27 16 R 27 15 R 28 14 R 27 14 R 27 13 R 27 14 R 28 13 R 27 12 R 27 12 R
28 11 R 27 12 R 27 11 R 27 10 R 28 10 R 27 8 R 27 9 R 27 9 R 28 8 R 27 7 R
27 7 R 28 7 R 27 6 R 27 6 R 27 5 R 28 5 R 27 4 R 27 4 R 27 2 R 28 3 R 27 2 R
27 2 R 27 1 R 28 1 R 27 0 R 27 0 R 28 -1 R 27 -1 R 27 -1 R 27 -3 R 28 -2 R
27 -2 R 27 -4 R 27 -4 R 28 -4 R 27 -5 R 27 -6 R 28 -6 R 27 -6 R 27 -7 R
27 -8 R 28 -8 R 27 -8 R 27 -9 R 27 -8 R 28 -10 R 27 -10 R 27 -11 R 28 -11 R
27 -12 R 27 -12 R 27 -11 R 28 -13 R 27 -13 R 27 -14 R 27 -14 R 28 -14 R
27 -15 R 27 -15 R 27 -15 R 28 -17 R 27 -16 R 27 -17 R 28 -16 R 27 -18 R
27 -17 R 27 -18 R 28 -19 R 27 -18 R 27 -20 R 27 -19 R 28 -20 R 27 -19 R
27 -20 R 28 -21 R 27 -20 R 27 -21 R 27 -21 R 28 -21 R 26 -23 R D
10 setlinewidth 3556 5194 M 0 -238 R 14 -42 R 28 -14 R 28 0 R D 3514 5096 M
98 0 R D 3696 5194 M 14 -14 R 14 14 R -14 14 R -14 -14 R D 3710 5096 M
0 -196 R D 3822 5096 M 0 -196 R D 3822 5040 M 43 42 R 28 14 R 42 0 R
28 -14 R 14 -42 R 0 -140 R D 3977 5040 M 42 42 R 28 14 R 42 0 R 28 -14 R
14 -42 R 0 -140 R D 4229 5012 M 168 0 R 0 28 R -14 28 R -14 14 R -28 14 R
-42 0 R -28 -14 R -28 -28 R -14 -42 R 0 -28 R 14 -42 R 28 -28 R 28 -14 R
42 0 R 28 14 R 28 28 R D 4720 5068 M 252 0 R D 4720 4984 M 252 0 R D
5323 5194 M 154 0 R -84 -112 R 42 0 R 28 -14 R 14 -14 R 14 -42 R 0 -28 R
-14 -42 R -28 -28 R -42 -14 R -42 0 R -42 14 R -14 14 R -14 28 R D
5603 4928 M -14 -14 R 14 -14 R 14 14 R -14 14 R D 5743 5194 M 155 0 R
-85 -112 R 43 0 R 28 -14 R 14 -14 R 14 -42 R 0 -28 R -14 -42 R -28 -28 R
-43 -14 R -42 0 R -42 14 R -14 14 R -14 28 R D 30 setlinewidth
1.000 0.000 0.000 setrgbcolor 2664 7434 M 27 40 R 28 41 R 27 40 R 27 41 R
27 41 R 28 42 R 27 42 R 27 42 R 28 43 R 27 42 R 27 43 R 27 42 R 28 43 R
27 43 R 27 43 R 27 43 R 28 43 R 27 44 R 27 43 R 27 43 R 28 44 R 27 44 R
27 43 R 28 44 R 27 44 R 27 43 R 27 43 R 28 44 R 27 43 R 27 39 R 27 38 R
28 39 R 27 39 R 27 39 R 28 40 R 27 39 R 27 39 R 27 40 R 28 39 R 27 39 R
27 39 R 27 39 R 28 39 R 27 39 R 27 38 R 28 38 R 27 37 R 27 38 R 27 37 R
28 36 R 27 36 R 27 36 R 27 35 R 28 35 R 27 35 R 27 34 R 27 33 R 28 33 R
27 33 R 27 32 R 28 31 R 27 31 R 27 30 R 27 30 R 28 28 R 27 29 R 27 27 R
27 26 R 28 27 R 27 26 R 27 24 R 28 25 R 27 23 R 27 23 R 27 22 R 28 23 R
27 21 R 27 20 R 27 20 R 28 19 R 27 19 R 27 18 R 28 17 R 27 16 R 27 16 R
27 15 R 28 13 R 27 14 R 27 13 R 27 12 R 28 12 R 27 10 R 27 10 R 27 9 R
28 9 R 27 7 R 27 7 R 28 7 R 27 4 R 27 4 R 27 4 R 28 3 R 27 3 R 27 1 R 27 1 R
28 0 R 27 -1 R 27 -1 R 28 -3 R 27 -3 R 27 -4 R 27 -3 R 28 -5 R 27 -6 R
27 -8 R 27 -7 R 28 -9 R 27 -9 R 27 -10 R 28 -11 R 27 -11 R 27 -12 R 27 -13 R
28 -14 R 27 -13 R 27 -15 R 27 -16 R 28 -17 R 27 -17 R 27 -18 R 27 -18 R
28 -19 R 27 -20 R 27 -21 R 28 -21 R 27 -22 R 27 -22 R 27 -24 R 28 -23 R
27 -25 R 27 -24 R 27 -26 R 28 -27 R 27 -26 R 27 -27 R 28 -29 R 27 -28 R
27 -30 R 27 -30 R 28 -32 R 27 -31 R 27 -32 R 27 -33 R 28 -33 R 27 -34 R
27 -34 R 27 -34 R 28 -36 R 27 -36 R 27 -35 R 28 -37 R 27 -36 R 27 -38 R
27 -37 R 28 -38 R 27 -38 R 27 -38 R 27 -39 R 28 -39 R 27 -39 R 27 -39 R
28 -39 R 27 -40 R 27 -39 R 27 -40 R 28 -39 R 27 -40 R 27 -39 R 27 -39 R
28 -39 R 27 -39 R 27 -39 R 28 -44 R 27 -43 R 27 -44 R 27 -43 R 28 -44 R
27 -44 R 27 -44 R 27 -44 R 28 -43 R 27 -44 R 27 -44 R 27 -43 R 28 -44 R
27 -43 R 27 -43 R 28 -43 R 27 -43 R 27 -43 R 27 -42 R 28 -43 R 27 -42 R
27 -42 R 27 -43 R 28 -41 R 27 -41 R 27 -41 R 28 -41 R 27 -41 R 27 -40 R
27 -38 R 28 -38 R 27 -37 R 27 -38 R 27 -37 R 28 -37 R 27 -37 R 27 -37 R
28 -36 R 27 -37 R 27 -35 R 27 -36 R 28 -35 R 27 -35 R 27 -34 R 27 -34 R
28 -33 R 27 -33 R 27 -32 R 27 -33 R 28 -31 R 27 -32 R 27 -30 R 28 -30 R
27 -30 R 27 -29 R 27 -28 R 28 -28 R 27 -28 R 27 -27 R 27 -26 R 28 -26 R
27 -26 R 27 -24 R 28 -25 R 27 -23 R 27 -24 R 27 -22 R 28 -22 R 27 -21 R
27 -21 R 27 -21 R 28 -19 R 27 -19 R 27 -19 R 28 -18 R 27 -17 R 27 -17 R
27 -16 R 28 -16 R 27 -15 R 27 -14 R 27 -14 R 28 -14 R 27 -13 R 27 -12 R
27 -11 R 28 -11 R 27 -11 R 27 -10 R 28 -10 R 27 -8 R 27 -9 R 27 -7 R 28 -7 R
27 -7 R 27 -5 R 27 -6 R 28 -4 R 27 -5 R 27 -3 R 28 -3 R 27 -3 R 27 -2 R
27 -1 R 28 0 R 27 0 R 27 0 R 27 1 R 28 2 R 27 2 R 27 3 R 27 3 R 28 4 R
27 5 R 27 5 R 28 5 R 27 7 R 27 6 R 27 8 R 28 8 R 27 9 R 27 9 R 27 10 R
28 10 R 27 11 R 27 11 R 28 12 R 27 13 R 27 13 R 27 14 R 28 15 R 27 14 R
27 16 R 27 16 R 28 17 R 27 17 R 27 17 R 28 19 R 27 19 R 27 19 R 27 20 R
28 21 R 27 21 R 27 22 R 27 22 R 28 23 R 27 23 R 27 24 R 27 25 R 28 25 R
27 26 R 27 26 R 28 27 R 27 27 R 27 28 R 27 28 R 28 29 R 27 29 R 27 30 R
27 31 R 28 30 R 27 31 R 27 32 R 28 33 R 27 33 R 27 33 R 27 33 R 28 34 R
27 35 R 27 35 R 27 35 R 28 36 R 27 35 R 27 37 R 28 36 R 27 37 R 27 36 R
27 38 R 28 37 R 27 37 R 27 37 R 27 38 R 28 40 R 27 40 R 27 40 R 27 41 R
28 41 R 27 41 R 27 42 R 28 42 R 27 43 R 27 42 R 27 42 R 28 43 R 27 42 R
27 43 R 27 43 R 28 43 R 27 43 R 27 44 R 28 43 R 27 44 R 27 43 R 27 44 R
28 43 R 27 44 R 27 44 R 27 43 R 28 44 R 27 43 R 27 43 R 28 43 R 27 37 R
27 39 R 27 39 R 28 39 R 27 39 R 27 40 R 27 40 R 28 39 R 27 39 R 27 39 R
27 40 R 28 39 R 27 39 R 27 38 R 28 38 R 27 39 R 27 37 R 27 38 R 28 37 R
27 37 R 27 37 R 27 36 R 28 35 R 27 35 R 27 35 R 28 35 R 27 33 R 27 34 R
27 33 R 28 32 R 27 32 R 27 31 R 27 31 R 28 30 R 27 30 R 27 28 R 27 28 R
28 27 R 27 26 R 27 26 R 28 26 R 27 24 R 27 24 R 27 24 R 28 23 R 27 22 R
27 21 R 27 22 R 28 20 R 27 20 R 27 18 R 28 19 R 27 18 R 27 17 R 27 16 R
28 15 R 27 14 R 27 14 R 27 14 R 28 13 R 27 11 R 27 12 R 28 10 R 27 10 R
27 9 R 27 8 R 28 8 R 27 6 R 27 6 R 27 4 R 28 4 R 27 4 R 27 3 R 27 2 R 28 2 R
27 0 R 27 0 R 28 -1 R 27 -2 R 27 -3 R 27 -3 R 28 -4 R 27 -3 R 27 -6 R
27 -6 R 28 -8 R 27 -7 R 27 -9 R 28 -10 R 27 -10 R 27 -11 R 27 -11 R 28 -13 R
27 -13 R 27 -14 R 27 -13 R 28 -16 R 27 -15 R 27 -18 R 28 -17 R 27 -18 R
27 -19 R 27 -19 R 28 -20 R 27 -21 R 27 -21 R 27 -23 R 28 -22 R 27 -23 R
27 -24 R 27 -24 R 28 -26 R 27 -26 R 27 -26 R 28 -27 R 27 -28 R 27 -27 R
27 -30 R 28 -30 R 27 -30 R 27 -32 R 27 -31 R 28 -33 R 27 -33 R 27 -33 R
28 -34 R 27 -34 R 27 -35 R 27 -35 R 28 -35 R 26 -36 R D 10 setlinewidth
3556 4594 M 0 -238 R 14 -42 R 28 -14 R 28 0 R D 3514 4496 M 98 0 R D
3696 4594 M 14 -14 R 14 14 R -14 14 R -14 -14 R D 3710 4496 M 0 -196 R D
3822 4496 M 0 -196 R D 3822 4440 M 43 42 R 28 14 R 42 0 R 28 -14 R 14 -42 R
0 -140 R D 3977 4440 M 42 42 R 28 14 R 42 0 R 28 -14 R 14 -42 R 0 -140 R D
4229 4412 M 168 0 R 0 28 R -14 28 R -14 14 R -28 14 R -42 0 R -28 -14 R
-28 -28 R -14 -42 R 0 -28 R 14 -42 R 28 -28 R 28 -14 R 42 0 R 28 14 R
28 28 R D 4720 4468 M 252 0 R D 4720 4384 M 252 0 R D 5477 4552 M -14 28 R
-42 14 R -28 0 R -42 -14 R -28 -42 R -14 -70 R 0 -70 R 14 -56 R 28 -28 R
42 -14 R 14 0 R 42 14 R 28 28 R 14 42 R 0 14 R -14 42 R -28 28 R -42 14 R
-14 0 R -42 -14 R -28 -28 R -14 -42 R D 5603 4328 M -14 -14 R 14 -14 R
14 14 R -14 14 R D 5898 4552 M -14 28 R -42 14 R -29 0 R -42 -14 R -28 -42 R
-14 -70 R 0 -70 R 14 -56 R 28 -28 R 42 -14 R 14 0 R 43 14 R 28 28 R 14 42 R
0 14 R -14 42 R -28 28 R -43 14 R -14 0 R -42 -14 R -28 -28 R -14 -42 R D
30 setlinewidth 0.000 1.000 0.000 setrgbcolor 2664 7374 M 27 37 R 28 35 R
27 22 R 27 46 R 27 44 R 28 44 R 27 44 R 27 45 R 28 45 R 27 44 R 27 44 R
27 44 R 28 44 R 27 44 R 27 45 R 27 44 R 28 45 R 27 45 R 27 44 R 27 45 R
28 44 R 27 44 R 27 45 R 28 44 R 27 44 R 27 44 R 27 42 R 28 40 R 27 42 R
27 33 R 27 22 R 28 36 R 27 39 R 27 38 R 28 38 R 27 39 R 27 38 R 27 38 R
28 37 R 27 38 R 27 37 R 27 37 R 28 36 R 27 37 R 27 35 R 28 35 R 27 35 R
27 34 R 27 34 R 28 33 R 27 33 R 27 32 R 27 31 R 28 31 R 27 31 R 27 29 R
27 30 R 28 31 R 27 49 R 27 32 R 28 31 R 27 29 R 27 27 R 27 26 R 28 24 R
27 23 R 27 20 R 27 15 R 28 15 R 27 14 R 27 13 R 28 21 R 27 20 R 27 19 R
27 18 R 28 18 R 27 18 R 27 16 R 27 16 R 28 15 R 27 15 R 27 15 R 28 13 R
27 13 R 27 13 R 27 12 R 28 10 R 27 11 R 27 10 R 27 9 R 28 9 R 27 9 R 27 7 R
27 7 R 28 7 R 27 6 R 27 5 R 28 5 R 27 3 R 27 3 R 27 3 R 28 2 R 27 2 R 27 1 R
27 0 R 28 0 R 27 0 R 27 -1 R 28 -2 R 27 -2 R 27 -4 R 27 -1 R 28 -4 R 27 -5 R
27 -6 R 27 -6 R 28 -6 R 27 -8 R 27 -7 R 28 -9 R 27 -8 R 27 -10 R 27 -10 R
28 -11 R 27 -10 R 27 -12 R 27 -13 R 28 -13 R 27 -14 R 27 -14 R 27 -15 R
28 -15 R 27 -16 R 27 -17 R 28 -17 R 27 -19 R 27 -18 R 27 -19 R 28 -20 R
27 -21 R 27 -13 R 27 -14 R 28 -15 R 27 -16 R 27 -19 R 28 -23 R 27 -24 R
27 -27 R 27 -27 R 28 -28 R 27 -32 R 27 -32 R 27 -49 R 28 -31 R 27 -30 R
27 -30 R 27 -30 R 28 -32 R 27 -32 R 27 -32 R 28 -33 R 27 -33 R 27 -34 R
27 -34 R 28 -35 R 27 -36 R 27 -35 R 27 -36 R 28 -37 R 27 -37 R 27 -38 R
28 -37 R 27 -38 R 27 -38 R 27 -38 R 28 -38 R 27 -38 R 27 -39 R 27 -39 R
28 -30 R 27 -28 R 27 -34 R 28 -40 R 27 -42 R 27 -43 R 27 -44 R 28 -44 R
27 -44 R 27 -45 R 27 -44 R 28 -45 R 27 -45 R 27 -44 R 27 -45 R 28 -45 R
27 -45 R 27 -44 R 28 -45 R 27 -44 R 27 -44 R 27 -44 R 28 -45 R 27 -44 R
27 -45 R 27 -45 R 28 -44 R 27 -44 R 27 -46 R 28 -19 R 27 -35 R 27 -39 R
27 -39 R 28 -40 R 27 -40 R 27 -40 R 27 -40 R 28 -41 R 27 -40 R 27 -40 R
28 -39 R 27 -40 R 27 -39 R 27 -39 R 28 -38 R 27 -39 R 27 -37 R 27 -38 R
28 -36 R 27 -37 R 27 -36 R 27 -35 R 28 -36 R 27 -34 R 27 -35 R 28 -34 R
27 -33 R 27 -32 R 27 -31 R 28 -33 R 27 -7 R 27 -13 R 27 -25 R 28 -27 R
27 -29 R 27 -33 R 28 -29 R 27 -26 R 27 -25 R 27 -25 R 28 -24 R 27 -23 R
27 -23 R 27 -23 R 28 -21 R 27 -22 R 27 -20 R 28 -20 R 27 -19 R 27 -19 R
27 -18 R 28 -18 R 27 -16 R 27 -16 R 27 -16 R 28 -15 R 27 -14 R 27 -14 R
27 -13 R 28 -12 R 27 -12 R 27 -11 R 28 -10 R 27 -10 R 27 -9 R 27 -9 R
28 -8 R 27 -7 R 27 -6 R 27 -6 R 28 -5 R 27 -5 R 27 -4 R 28 -3 R 27 -3 R
27 -2 R 27 -1 R 28 0 R 27 0 R 27 -1 R 27 2 R 28 2 R 27 2 R 27 3 R 27 4 R
28 5 R 27 5 R 27 5 R 28 6 R 27 7 R 27 8 R 27 8 R 28 9 R 27 10 R 27 10 R
27 11 R 28 11 R 27 13 R 27 12 R 28 14 R 27 14 R 27 15 R 27 15 R 28 16 R
27 16 R 27 17 R 27 18 R 28 19 R 27 18 R 27 20 R 28 21 R 27 21 R 27 21 R
27 22 R 28 23 R 27 23 R 27 24 R 27 25 R 28 24 R 27 26 R 27 27 R 27 32 R
28 32 R 27 27 R 27 25 R 28 14 R 27 4 R 27 33 R 27 31 R 28 32 R 27 33 R
27 33 R 27 34 R 28 35 R 27 35 R 27 35 R 28 36 R 27 36 R 27 37 R 27 37 R
28 37 R 27 38 R 27 38 R 27 39 R 28 39 R 27 39 R 27 39 R 28 40 R 27 40 R
27 40 R 27 40 R 28 40 R 27 40 R 27 40 R 27 39 R 28 39 R 27 36 R 27 31 R
27 29 R 28 45 R 27 44 R 27 45 R 28 44 R 27 45 R 27 45 R 27 44 R 28 44 R
27 44 R 27 44 R 27 44 R 28 45 R 27 44 R 27 45 R 28 45 R 27 44 R 27 44 R
27 45 R 28 44 R 27 45 R 27 44 R 27 44 R 28 43 R 27 42 R 27 41 R 28 39 R
27 31 R 27 23 R 27 38 R 28 39 R 27 38 R 27 39 R 27 38 R 28 37 R 27 38 R
27 38 R 27 38 R 28 37 R 27 37 R 27 36 R 28 36 R 27 35 R 27 35 R 27 35 R
28 34 R 27 34 R 27 33 R 27 32 R 28 32 R 27 31 R 27 31 R 28 31 R 27 29 R
27 31 R 27 41 R 28 39 R 27 32 R 27 29 R 27 30 R 28 26 R 27 25 R 27 22 R
27 21 R 28 23 R 27 16 R 27 14 R 28 14 R 27 13 R 27 21 R 27 20 R 28 19 R
27 17 R 27 18 R 27 17 R 28 17 R 27 16 R 27 14 R 28 15 R 27 15 R 27 13 R
27 13 R 28 12 R 27 11 R 27 11 R 27 10 R 28 11 R 27 9 R 27 9 R 28 8 R 27 7 R
27 7 R 27 6 R 28 6 R 27 6 R 27 4 R 27 3 R 28 3 R 27 3 R 27 2 R 27 1 R 28 1 R
27 1 R 27 -1 R 28 0 R 27 -2 R 27 -2 R 27 -2 R 28 -4 R 27 -2 R 27 -4 R
27 -5 R 28 -6 R 27 -5 R 27 -7 R 28 -8 R 27 -8 R 27 -8 R 27 -9 R 28 -10 R
27 -10 R 27 -12 R 27 -10 R 28 -12 R 27 -12 R 27 -14 R 28 -14 R 27 -14 R
27 -16 R 27 -15 R 28 -16 R 27 -17 R 27 -17 R 27 -19 R 28 -18 R 27 -19 R
27 -21 R 27 -18 R 28 -16 R 27 -14 R 27 -15 R 28 -16 R 27 -21 R 27 -22 R
27 -24 R 28 -27 R 27 -27 R 27 -32 R 27 -29 R 28 -35 R 27 -47 R 27 -31 R
28 -30 R 27 -30 R 27 -30 R 27 -32 R 28 -31 R 26 -32 R D 10 setlinewidth
3556 3994 M 0 -238 R 14 -42 R 28 -14 R 28 0 R D 3514 3896 M 98 0 R D
3696 3994 M 14 -14 R 14 14 R -14 14 R -14 -14 R D 3710 3896 M 0 -196 R D
3822 3896 M 0 -196 R D 3822 3840 M 43 42 R 28 14 R 42 0 R 28 -14 R 14 -42 R
0 -140 R D 3977 3840 M 42 42 R 28 14 R 42 0 R 28 -14 R 14 -42 R 0 -140 R D
4229 3812 M 168 0 R 0 28 R -14 28 R -14 14 R -28 14 R -42 0 R -28 -14 R
-28 -28 R -14 -42 R 0 -28 R 14 -42 R 28 -28 R 28 -14 R 42 0 R 28 14 R
28 28 R D 4720 3868 M 252 0 R D 4720 3784 M 252 0 R D 5112 3938 M 28 14 R
43 42 R 0 -294 R D 5435 3994 M -42 -14 R -28 -42 R -14 -70 R 0 -42 R
14 -70 R 28 -42 R 42 -14 R 28 0 R 42 14 R 28 42 R 14 70 R 0 42 R -14 70 R
-28 42 R -42 14 R -28 0 R D 5659 3728 M -14 -14 R 14 -14 R 14 14 R -14 14 R
D 5856 3994 M -43 -14 R -28 -42 R -14 -70 R 0 -42 R 14 -70 R 28 -42 R
43 -14 R 28 0 R 42 14 R 28 42 R 14 70 R 0 42 R -14 70 R -28 42 R -42 14 R
-28 0 R D 30 setlinewidth 0.647 0.165 0.165 setrgbcolor 2664 7316 M 27 29 R
28 28 R 27 27 R 27 55 R 27 47 R 28 49 R 27 49 R 27 49 R 28 49 R 27 48 R
27 47 R 27 48 R 28 48 R 27 48 R 27 48 R 27 48 R 28 49 R 27 48 R 27 48 R
27 48 R 28 48 R 27 47 R 27 48 R 28 48 R 27 47 R 27 47 R 27 45 R 28 43 R
27 41 R 27 28 R 27 18 R 28 27 R 27 46 R 27 41 R 28 42 R 27 41 R 27 41 R
27 41 R 28 41 R 27 40 R 27 40 R 27 40 R 28 39 R 27 38 R 27 37 R 28 37 R
27 36 R 27 37 R 27 35 R 28 35 R 27 34 R 27 33 R 27 33 R 28 33 R 27 31 R
27 32 R 27 33 R 28 40 R 27 48 R 27 26 R 28 32 R 27 27 R 27 26 R 27 25 R
28 22 R 27 21 R 27 17 R 27 15 R 28 15 R 27 14 R 27 15 R 28 21 R 27 15 R
27 17 R 27 19 R 28 18 R 27 18 R 27 16 R 27 16 R 28 15 R 27 15 R 27 14 R
28 13 R 27 13 R 27 12 R 27 12 R 28 10 R 27 11 R 27 9 R 27 10 R 28 8 R 27 8 R
27 7 R 27 7 R 28 7 R 27 5 R 27 6 R 28 4 R 27 3 R 27 3 R 27 3 R 28 2 R 27 2 R
27 1 R 27 0 R 28 0 R 27 0 R 27 -1 R 28 -2 R 27 -2 R 27 -3 R 27 -2 R 28 -4 R
27 -5 R 27 -5 R 27 -5 R 28 -7 R 27 -7 R 27 -7 R 28 -9 R 27 -8 R 27 -9 R
27 -10 R 28 -11 R 27 -10 R 27 -11 R 27 -12 R 28 -13 R 27 -14 R 27 -14 R
27 -15 R 28 -14 R 27 -16 R 27 -17 R 28 -17 R 27 -19 R 27 -19 R 27 -16 R
28 -16 R 27 -22 R 27 -14 R 27 -15 R 28 -14 R 27 -15 R 27 -17 R 28 -21 R
27 -22 R 27 -25 R 27 -26 R 28 -28 R 27 -31 R 27 -27 R 27 -49 R 28 -39 R
27 -34 R 27 -32 R 27 -31 R 28 -33 R 27 -33 R 27 -34 R 28 -35 R 27 -34 R
27 -36 R 27 -36 R 28 -36 R 27 -38 R 27 -38 R 27 -38 R 28 -39 R 27 -40 R
27 -40 R 28 -41 R 27 -40 R 27 -41 R 27 -42 R 28 -41 R 27 -42 R 27 -41 R
27 -49 R 28 -19 R 27 -20 R 27 -32 R 28 -39 R 27 -44 R 27 -46 R 27 -48 R
28 -47 R 27 -48 R 27 -48 R 27 -48 R 28 -49 R 27 -48 R 27 -48 R 27 -48 R
28 -49 R 27 -48 R 27 -49 R 28 -48 R 27 -48 R 27 -48 R 27 -48 R 28 -48 R
27 -49 R 27 -49 R 27 -49 R 28 -50 R 27 -47 R 27 -53 R 28 -27 R 27 -20 R
27 -35 R 27 -41 R 28 -42 R 27 -44 R 27 -43 R 27 -43 R 28 -44 R 27 -43 R
27 -44 R 28 -44 R 27 -43 R 27 -42 R 27 -43 R 28 -41 R 27 -42 R 27 -41 R
27 -41 R 28 -40 R 27 -40 R 27 -39 R 27 -38 R 28 -38 R 27 -38 R 27 -37 R
28 -37 R 27 -36 R 27 -36 R 27 -33 R 28 -41 R 27 -16 R 27 -12 R 27 -22 R
28 -26 R 27 -27 R 27 -31 R 28 -30 R 27 -26 R 27 -25 R 27 -26 R 28 -26 R
27 -25 R 27 -24 R 27 -24 R 28 -23 R 27 -22 R 27 -22 R 28 -22 R 27 -20 R
27 -20 R 27 -19 R 28 -18 R 27 -18 R 27 -16 R 27 -17 R 28 -15 R 27 -15 R
27 -15 R 27 -13 R 28 -13 R 27 -12 R 27 -12 R 28 -10 R 27 -11 R 27 -9 R
27 -9 R 28 -8 R 27 -7 R 27 -7 R 27 -6 R 28 -5 R 27 -5 R 27 -4 R 28 -3 R
27 -3 R 27 -2 R 27 -2 R 28 1 R 27 0 R 27 -1 R 27 1 R 28 2 R 27 3 R 27 3 R
27 4 R 28 5 R 27 5 R 27 6 R 28 6 R 27 7 R 27 8 R 27 9 R 28 9 R 27 10 R
27 11 R 27 11 R 28 12 R 27 13 R 27 13 R 28 14 R 27 15 R 27 15 R 27 16 R
28 17 R 27 17 R 27 18 R 27 19 R 28 20 R 27 20 R 27 21 R 28 22 R 27 22 R
27 22 R 27 24 R 28 24 R 27 25 R 27 26 R 27 26 R 28 25 R 27 26 R 27 27 R
27 32 R 28 29 R 27 25 R 27 22 R 28 13 R 27 11 R 27 41 R 27 34 R 28 36 R
27 36 R 27 36 R 27 37 R 28 37 R 27 38 R 27 38 R 28 39 R 27 40 R 27 39 R
27 41 R 28 41 R 27 41 R 27 41 R 27 42 R 28 43 R 27 42 R 27 44 R 28 43 R
27 43 R 27 44 R 27 43 R 28 43 R 27 43 R 27 43 R 27 41 R 28 37 R 27 25 R
27 30 R 27 33 R 28 54 R 27 48 R 27 49 R 28 50 R 27 48 R 27 49 R 27 47 R
28 48 R 27 48 R 27 48 R 27 48 R 28 48 R 27 48 R 27 49 R 28 48 R 27 48 R
27 48 R 27 47 R 28 48 R 27 48 R 27 48 R 27 47 R 28 46 R 27 45 R 27 42 R
28 38 R 27 27 R 27 14 R 27 36 R 28 45 R 27 41 R 27 42 R 27 41 R 28 41 R
27 41 R 27 41 R 27 40 R 28 40 R 27 39 R 27 39 R 28 38 R 27 37 R 27 37 R
27 36 R 28 36 R 27 35 R 27 35 R 27 34 R 28 33 R 27 33 R 27 32 R 28 32 R
27 32 R 27 37 R 27 45 R 28 36 R 27 30 R 27 28 R 27 29 R 28 24 R 27 24 R
27 21 R 27 20 R 28 21 R 27 13 R 27 15 R 28 13 R 27 15 R 27 21 R 27 14 R
28 19 R 27 18 R 27 18 R 27 18 R 28 16 R 27 16 R 27 14 R 28 15 R 27 14 R
27 13 R 27 13 R 28 11 R 27 11 R 27 11 R 27 10 R 28 10 R 27 9 R 27 8 R 28 8 R
27 7 R 27 7 R 27 6 R 28 6 R 27 5 R 27 4 R 27 3 R 28 3 R 27 2 R 27 3 R 27 1 R
28 1 R 27 0 R 27 0 R 28 0 R 27 -2 R 27 -2 R 27 -2 R 28 -3 R 27 -2 R 27 -4 R
27 -5 R 28 -6 R 27 -5 R 27 -7 R 28 -7 R 27 -8 R 27 -8 R 27 -9 R 28 -9 R
27 -10 R 27 -11 R 27 -10 R 28 -11 R 27 -13 R 27 -13 R 28 -14 R 27 -14 R
27 -15 R 27 -15 R 28 -16 R 27 -17 R 27 -18 R 27 -19 R 28 -19 R 27 -14 R
27 -19 R 27 -18 R 28 -16 R 27 -15 R 27 -15 R 28 -15 R 27 -18 R 27 -21 R
27 -22 R 28 -26 R 27 -25 R 27 -31 R 27 -29 R 28 -30 R 27 -48 R 27 -39 R
28 -33 R 27 -32 R 27 -32 R 27 -33 R 28 -33 R 26 -33 R D 10 setlinewidth
3556 3394 M 0 -238 R 14 -42 R 28 -14 R 28 0 R D 3514 3296 M 98 0 R D
3696 3394 M 14 -14 R 14 14 R -14 14 R -14 -14 R D 3710 3296 M 0 -196 R D
3822 3296 M 0 -196 R D 3822 3240 M 43 42 R 28 14 R 42 0 R 28 -14 R 14 -42 R
0 -140 R D 3977 3240 M 42 42 R 28 14 R 42 0 R 28 -14 R 14 -42 R 0 -140 R D
4229 3212 M 168 0 R 0 28 R -14 28 R -14 14 R -28 14 R -42 0 R -28 -14 R
-28 -28 R -14 -42 R 0 -28 R 14 -42 R 28 -28 R 28 -14 R 42 0 R 28 14 R
28 28 R D 4720 3268 M 252 0 R D 4720 3184 M 252 0 R D 5112 3338 M 28 14 R
43 42 R 0 -294 R D 5379 3394 M 154 0 R -84 -112 R 42 0 R 28 -14 R 14 -14 R
14 -42 R 0 -28 R -14 -42 R -28 -28 R -42 -14 R -42 0 R -42 14 R -14 14 R
-14 28 R D 5659 3128 M -14 -14 R 14 -14 R 14 14 R -14 14 R D 5912 3394 M
-141 -196 R 211 0 R D 5912 3394 M 0 -294 R D 30 setlinewidth
1.000 0.000 1.000 setrgbcolor 2664 7145 M 27 37 R 28 40 R 27 48 R 27 57 R
27 44 R 28 52 R 27 59 R 27 59 R 28 58 R 27 57 R 27 58 R 27 57 R 28 57 R
27 57 R 27 57 R 27 57 R 28 57 R 27 56 R 27 57 R 27 57 R 28 57 R 27 57 R
27 57 R 28 57 R 27 56 R 27 54 R 27 52 R 28 46 R 27 26 R 27 15 R 27 30 R
28 50 R 27 59 R 27 48 R 28 51 R 27 50 R 27 49 R 27 49 R 28 48 R 27 47 R
27 46 R 27 47 R 28 45 R 27 44 R 27 44 R 28 44 R 27 42 R 27 43 R 27 41 R
28 42 R 27 40 R 27 39 R 27 39 R 28 38 R 27 37 R 27 38 R 27 44 R 28 48 R
27 42 R 27 24 R 28 35 R 27 27 R 27 29 R 27 27 R 28 24 R 27 23 R 27 18 R
27 17 R 28 17 R 27 17 R 27 18 R 28 23 R 27 16 R 27 20 R 27 21 R 28 20 R
27 20 R 27 19 R 27 18 R 28 18 R 27 17 R 27 16 R 28 15 R 27 15 R 27 13 R
27 13 R 28 11 R 27 12 R 27 10 R 27 10 R 28 9 R 27 9 R 27 8 R 27 7 R 28 7 R
27 6 R 27 5 R 28 5 R 27 3 R 27 3 R 27 4 R 28 2 R 27 2 R 27 1 R 27 0 R 28 0 R
27 1 R 27 -1 R 28 -3 R 27 -2 R 27 -3 R 27 -2 R 28 -4 R 27 -5 R 27 -6 R
27 -5 R 28 -7 R 27 -7 R 27 -8 R 28 -9 R 27 -8 R 27 -10 R 27 -11 R 28 -12 R
27 -11 R 27 -12 R 27 -13 R 28 -15 R 27 -15 R 27 -16 R 27 -18 R 28 -17 R
27 -18 R 27 -19 R 28 -20 R 27 -21 R 27 -21 R 27 -19 R 28 -16 R 27 -23 R
27 -19 R 27 -16 R 28 -17 R 27 -17 R 27 -19 R 28 -22 R 27 -25 R 27 -27 R
27 -28 R 28 -28 R 27 -35 R 27 -23 R 27 -42 R 28 -49 R 27 -43 R 27 -40 R
27 -37 R 28 -38 R 27 -39 R 27 -40 R 28 -41 R 27 -41 R 27 -43 R 27 -42 R
28 -43 R 27 -44 R 27 -44 R 27 -45 R 28 -46 R 27 -46 R 27 -47 R 28 -48 R
27 -48 R 27 -49 R 27 -50 R 28 -50 R 27 -52 R 27 -47 R 27 -64 R 28 -44 R
27 -26 R 27 -16 R 28 -30 R 27 -46 R 27 -53 R 27 -55 R 28 -57 R 27 -57 R
27 -58 R 27 -58 R 28 -57 R 27 -57 R 27 -57 R 27 -58 R 28 -57 R 27 -57 R
27 -57 R 28 -57 R 27 -58 R 27 -58 R 27 -58 R 28 -58 R 27 -58 R 27 -59 R
27 -60 R 28 -49 R 27 -45 R 27 -56 R 28 -54 R 27 -33 R 27 -35 R 27 -45 R
28 -51 R 27 -52 R 27 -53 R 27 -52 R 28 -53 R 27 -52 R 27 -53 R 28 -52 R
27 -52 R 27 -51 R 27 -51 R 28 -51 R 27 -50 R 27 -49 R 27 -50 R 28 -48 R
27 -47 R 27 -47 R 27 -46 R 28 -42 R 27 -42 R 27 -41 R 28 -42 R 27 -41 R
27 -42 R 27 -37 R 28 -50 R 27 -32 R 27 -19 R 27 -24 R 28 -30 R 27 -31 R
27 -36 R 28 -36 R 27 -32 R 27 -31 R 27 -30 R 28 -31 R 27 -30 R 27 -30 R
27 -29 R 28 -28 R 27 -27 R 27 -26 R 28 -25 R 27 -25 R 27 -23 R 27 -23 R
28 -22 R 27 -20 R 27 -20 R 27 -19 R 28 -18 R 27 -18 R 27 -17 R 27 -15 R
28 -16 R 27 -14 R 27 -14 R 28 -13 R 27 -12 R 27 -11 R 27 -11 R 28 -9 R
27 -9 R 27 -7 R 27 -7 R 28 -6 R 27 -6 R 27 -4 R 28 -4 R 27 -4 R 27 -2 R
27 -2 R 28 1 R 27 0 R 27 -1 R 27 2 R 28 2 R 27 3 R 27 4 R 27 5 R 28 5 R
27 6 R 27 7 R 28 7 R 27 9 R 27 10 R 27 10 R 28 11 R 27 12 R 27 13 R 27 13 R
28 15 R 27 15 R 27 15 R 28 17 R 27 18 R 27 18 R 27 19 R 28 20 R 27 20 R
27 22 R 27 22 R 28 23 R 27 24 R 27 26 R 28 26 R 27 26 R 27 28 R 27 29 R
28 29 R 27 30 R 27 31 R 27 31 R 28 30 R 27 32 R 27 34 R 27 37 R 28 33 R
27 28 R 27 25 R 28 17 R 27 30 R 27 51 R 27 36 R 28 42 R 27 41 R 27 40 R
27 42 R 28 42 R 27 41 R 27 45 R 28 46 R 27 47 R 27 48 R 27 49 R 28 49 R
27 50 R 27 50 R 27 50 R 28 51 R 27 51 R 27 53 R 28 52 R 27 52 R 27 52 R
27 52 R 28 52 R 27 53 R 27 50 R 27 47 R 28 39 R 27 36 R 27 46 R 27 49 R
28 53 R 27 47 R 27 54 R 28 59 R 27 58 R 27 58 R 27 58 R 28 57 R 27 58 R
27 57 R 27 57 R 28 57 R 27 56 R 27 57 R 28 57 R 27 56 R 27 57 R 27 58 R
28 57 R 27 57 R 27 56 R 27 56 R 28 54 R 27 50 R 27 43 R 28 19 R 27 18 R
27 35 R 27 56 R 28 54 R 27 50 R 27 51 R 27 49 R 28 49 R 27 49 R 27 48 R
27 47 R 28 46 R 27 46 R 27 45 R 28 44 R 27 44 R 27 43 R 27 43 R 28 42 R
27 42 R 27 41 R 27 39 R 28 39 R 27 39 R 27 38 R 28 38 R 27 41 R 27 47 R
27 45 R 28 32 R 27 31 R 27 30 R 27 30 R 28 25 R 27 26 R 27 24 R 27 24 R
28 21 R 27 15 R 27 17 R 28 15 R 27 19 R 27 22 R 27 16 R 28 21 R 27 20 R
27 21 R 27 20 R 28 18 R 27 18 R 27 18 R 28 17 R 27 16 R 27 15 R 27 14 R
28 13 R 27 12 R 27 12 R 27 10 R 28 11 R 27 10 R 27 9 R 28 8 R 27 8 R 27 7 R
27 6 R 28 6 R 27 6 R 27 4 R 27 3 R 28 3 R 27 3 R 27 3 R 27 1 R 28 2 R 27 0 R
27 0 R 28 -1 R 27 -1 R 27 -2 R 27 -3 R 28 -3 R 27 -2 R 27 -4 R 27 -5 R
28 -6 R 27 -6 R 27 -7 R 28 -8 R 27 -7 R 27 -9 R 27 -9 R 28 -11 R 27 -10 R
27 -12 R 27 -11 R 28 -13 R 27 -13 R 27 -15 R 28 -16 R 27 -16 R 27 -18 R
27 -17 R 28 -19 R 27 -19 R 27 -20 R 27 -20 R 28 -23 R 27 -17 R 27 -19 R
27 -19 R 28 -20 R 27 -17 R 27 -18 R 28 -17 R 27 -20 R 27 -22 R 27 -24 R
28 -28 R 27 -27 R 27 -31 R 27 -33 R 28 -26 R 27 -43 R 27 -48 R 28 -43 R
27 -39 R 27 -38 R 27 -39 R 28 -38 R 26 -39 R D 10 setlinewidth 3556 2794 M
0 -238 R 14 -42 R 28 -14 R 28 0 R D 3514 2696 M 98 0 R D 3696 2794 M
14 -14 R 14 14 R -14 14 R -14 -14 R D 3710 2696 M 0 -196 R D 3822 2696 M
0 -196 R D 3822 2640 M 43 42 R 28 14 R 42 0 R 28 -14 R 14 -42 R 0 -140 R D
3977 2640 M 42 42 R 28 14 R 42 0 R 28 -14 R 14 -42 R 0 -140 R D 4229 2612 M
168 0 R 0 28 R -14 28 R -14 14 R -28 14 R -42 0 R -28 -14 R -28 -28 R
-14 -42 R 0 -28 R 14 -42 R 28 -28 R 28 -14 R 42 0 R 28 14 R 28 28 R D
4720 2668 M 252 0 R D 4720 2584 M 252 0 R D 5112 2738 M 28 14 R 43 42 R
0 -294 R D 5533 2752 M -14 28 R -42 14 R -28 0 R -42 -14 R -28 -42 R
-14 -70 R 0 -70 R 14 -56 R 28 -28 R 42 -14 R 14 0 R 42 14 R 28 28 R 14 42 R
0 14 R -14 42 R -28 28 R -42 14 R -14 0 R -42 -14 R -28 -28 R -14 -42 R D
5659 2528 M -14 -14 R 14 -14 R 14 14 R -14 14 R D 5842 2794 M -43 -14 R
-14 -28 R 0 -28 R 14 -28 R 28 -14 R 57 -14 R 42 -14 R 28 -28 R 14 -28 R
0 -42 R -14 -28 R -14 -14 R -42 -14 R -56 0 R -43 14 R -14 14 R -14 28 R
0 42 R 14 28 R 28 28 R 43 14 R 56 14 R 28 14 R 14 28 R 0 28 R -14 28 R
-42 14 R -56 0 R D
%%PageTrailer
end
restore
showpage
%%PageResources: font Helvetica
%%Trailer
restore
%%Pages: 1
%%DocumentNeededResources: font Helvetica
%%EOF
