\relax 
\citation{Roberts1978}
\citation{Wilson1980}
\citation{Molotovshchikov1987}
\citation{Molotovshchikov1987}
\citation{Weisshaar1989}
\citation{Roberts1982}
\citation{Molotovshchikov1987}
\citation{Toth1996}
\citation{Ruderman1986}
\citation{Weisshaar1989}
\bibstyle{development}
\bibdata{poster.bib}
\bibcite{Molotovshchikov1987}{{1}{1987}{{A.L.~Molotovshchikov}}{{}}}
\bibcite{Roberts1982}{{2}{1982}{{B.~Roberts}}{{}}}
\bibcite{Roberts1978}{{3}{1978}{{B.~Roberts}}{{}}}
\bibcite{Ruderman1986}{{4}{1986}{{E.G.~Merzljakov}}{{}}}
\bibcite{Toth1996}{{5}{1996}{{T\'{o}th}}{{}}}
\bibcite{Weisshaar1989}{{6}{1989}{{Weisshaar}}{{}}}
\bibcite{Wilson1980}{{7}{1980}{{Wilson}}{{}}}
\@writefile{toc}{\contentsline {section}{\numberline {1}The basic equations}{1}}
\newlabel{eq.3}{{1}{1}}
\newlabel{eq.4}{{4}{1}}
\newlabel{eq.9}{{5}{1}}
\@writefile{toc}{\contentsline {section}{\numberline {2}Numerical calculations}{1}}
\@writefile{toc}{\contentsline {section}{\numberline {3}Conclusion}{1}}
