\relax 
\citation{Roberts1978}
\citation{Wilson1980}
\citation{Molotovshchikov1987}
\citation{Molotovshchikov1987}
\citation{Weisshaar1989}
\citation{Roberts1982}
\citation{Molotovshchikov1987}
\citation{Toth1996}
\citation{Ruderman1986}
\citation{Weisshaar1989}
\bibcite{Roberts1978}{1}
\bibcite{Weisshaar1989}{2}
\bibcite{Wilson1980}{3}
\bibcite{Molotovshchikov1987}{4}
\bibcite{Roberts1982}{5}
\bibcite{Toth1996}{6}
\bibcite{Ruderman1986}{7}
\@writefile{toc}{\contentsline {section}{\numberline {1}The basic equations}{1}}
\@writefile{toc}{\contentsline {section}{\numberline {2}Numerical calculations}{1}}
\@writefile{toc}{\contentsline {section}{\numberline {3}Conclusion}{1}}
