%!PS-Adobe-3.0
%%BoundingBox: 54 360 558 720
%%Title: Graphics produced by IDL
%%For: ap1vf@acml23.shef.ac.uk, /home/ap1vf/IDL_Examp
%%Creator: IDL Version 6.1 (linux x86 m32)
%%CreationDate: Thu May 12 15:55:50 2005
%%DocumentData: Clean7bit
%%Requirements: color
%%LanguageLevel: 1
%%PageOrder: Ascend
%%Pages: (atend)
%%DocumentNeededResources: (atend)
%%EndComments
%%BeginProlog
save
%+ prolog.ps -- Prolog for IDL generated PostScript files
%+ Copyright (c) 1988-2004 Research Systems, Inc. All Rights Reserved.
%v 5
/$IDL_DICT 40 dict def $IDL_DICT begin /bdef { bind def } bind def /C
{currentpoint newpath moveto} bdef /CP {currentpoint} bdef /D {currentpoint
stroke moveto} bdef /F {closepath fill} bdef /K { setgray } bdef /M {moveto}
bdef /N {rmoveto} bdef /P {lineto} bdef /R {rlineto} bdef /S {gsave show
grestore} bdef /X {currentpoint pop} bdef /Z {gsave currentpoint lineto 20
setlinewidth 1 setlinecap stroke grestore} bdef /L0 {[] 0 setdash} bdef /L1
{[40 100] 0 setdash} bdef /L2 {[200 200] 0 setdash} bdef /L3 {[200 100 50
100] 0 setdash} bdef /L4 {[300 100 50 100 50 100 50 100] 0 setdash} bdef /L5
{[400 200] 0 setdash} bdef /STDFONT { findfont exch scalefont setfont } bdef
/ISOFONT { findfont dup length dict begin { 1 index /FID ne {def} {pop pop}
ifelse } forall /Encoding ISOLatin1Encoding def currentdict end /idltmpfont
exch definefont exch scalefont setfont } bdef /ISOBULLET { gsave /Helvetica
findfont exch scalefont setfont (\267) show currentpoint grestore moveto}
bdef /MITERLIMIT { 2.5 setmiterlimit } bdef end
%%EndProlog
%%Page: 0 1
%%PageRequirements: color
%%PageResources: (atend)
%%PageOrientation: Portrait
%%PageBoundingBox: 54 360 558 720
%%BeginPageSetup
save
$IDL_DICT begin 54 360 translate 0.0283465 dup scale MITERLIMIT
%%IncludeResource: font Helvetica
423.333 /Helvetica STDFONT
%%EndPageSetup
10 setlinewidth L0 0.000 0.000 0.000 setrgbcolor 1665 7406 M 3762 0 R D
1665 7406 M 0 95 R D 1516 7194 M -26 -9 R -18 -26 R -8 -44 R 0 -26 R 8 -44 R
18 -26 R 26 -9 R 18 0 R 26 9 R 17 26 R 9 44 R 0 26 R -9 44 R -17 26 R
-26 9 R -18 0 R D 1656 7028 M -8 -9 R 8 -9 R 9 9 R -9 9 R D 1779 7194 M
-26 -9 R -18 -26 R -9 -44 R 0 -26 R 9 -44 R 18 -26 R 26 -9 R 18 0 R 26 9 R
17 26 R 9 44 R 0 26 R -9 44 R -17 26 R -26 9 R -18 0 R D 2606 7406 M 0 95 R
D 2457 7194 M -27 -9 R -17 -26 R -9 -44 R 0 -26 R 9 -44 R 17 -26 R 27 -9 R
17 0 R 26 9 R 18 26 R 9 44 R 0 26 R -9 44 R -18 26 R -26 9 R -17 0 R D
2597 7028 M -9 -9 R 9 -9 R 9 9 R -9 9 R D 2772 7194 M -88 0 R -8 -79 R 8 9 R
27 9 R 26 0 R 26 -9 R 18 -18 R 9 -26 R 0 -17 R -9 -27 R -18 -17 R -26 -9 R
-26 0 R -27 9 R -8 9 R -9 17 R D 3546 7406 M 0 95 R D 3371 7159 M 17 9 R
27 26 R 0 -184 R D 3537 7028 M -8 -9 R 8 -9 R 9 9 R -9 9 R D 3660 7194 M
-26 -9 R -18 -26 R -8 -44 R 0 -26 R 8 -44 R 18 -26 R 26 -9 R 18 0 R 26 9 R
17 26 R 9 44 R 0 26 R -9 44 R -17 26 R -26 9 R -18 0 R D 4487 7406 M 0 95 R
D 4311 7159 M 18 9 R 26 26 R 0 -184 R D 4478 7028 M -9 -9 R 9 -9 R 9 9 R
-9 9 R D 4653 7194 M -87 0 R -9 -79 R 9 9 R 26 9 R 26 0 R 26 -9 R 18 -18 R
9 -26 R 0 -17 R -9 -27 R -18 -17 R -26 -9 R -26 0 R -26 9 R -9 9 R -9 17 R D
5427 7406 M 0 95 R D 5234 7150 M 0 9 R 9 18 R 9 8 R 18 9 R 35 0 R 17 -9 R
9 -8 R 9 -18 R 0 -17 R -9 -18 R -18 -26 R -87 -88 R 122 0 R D 5418 7028 M
-8 -9 R 8 -9 R 9 9 R -9 9 R D 5541 7194 M -26 -9 R -18 -26 R -8 -44 R
0 -26 R 8 -44 R 18 -26 R 26 -9 R 18 0 R 26 9 R 18 26 R 8 44 R 0 26 R -8 44 R
-18 26 R -26 9 R -18 0 R D 1853 7406 M 0 48 R D 2041 7406 M 0 48 R D
2229 7406 M 0 48 R D 2418 7406 M 0 48 R D 2794 7406 M 0 48 R D 2982 7406 M
0 48 R D 3170 7406 M 0 48 R D 3358 7406 M 0 48 R D 3734 7406 M 0 48 R D
3922 7406 M 0 48 R D 4110 7406 M 0 48 R D 4299 7406 M 0 48 R D 4675 7406 M
0 48 R D 4863 7406 M 0 48 R D 5051 7406 M 0 48 R D 5239 7406 M 0 48 R D
3311 6790 M 0 -123 R D 3311 6737 M 8 26 R 18 18 R 17 9 R 27 0 R D
3565 6886 M -158 -289 R D 3617 6790 M 0 -123 R D 3617 6737 M 9 26 R 18 18 R
17 9 R 26 0 R D 3743 6673 M -11 -5 R -11 -11 R -5 -17 R 0 -10 R 5 -17 R
11 -10 R 11 -6 R 16 0 R 11 6 R 11 10 R 5 17 R 0 10 R -5 17 R -11 11 R
-11 5 R -16 0 R D 1665 12172 M 3762 0 R D 1665 12172 M 0 -95 R D
2606 12172 M 0 -95 R D 3546 12172 M 0 -95 R D 4487 12172 M 0 -95 R D
5427 12172 M 0 -95 R D 1853 12172 M 0 -48 R D 2041 12172 M 0 -48 R D
2229 12172 M 0 -48 R D 2418 12172 M 0 -48 R D 2794 12172 M 0 -48 R D
2982 12172 M 0 -48 R D 3170 12172 M 0 -48 R D 3358 12172 M 0 -48 R D
3734 12172 M 0 -48 R D 3922 12172 M 0 -48 R D 4110 12172 M 0 -48 R D
4299 12172 M 0 -48 R D 4675 12172 M 0 -48 R D 4863 12172 M 0 -48 R D
5051 12172 M 0 -48 R D 5239 12172 M 0 -48 R D 1665 7406 M 0 4766 R D
1665 7406 M 75 0 R D 1477 7590 M -27 -9 R -17 -26 R -9 -44 R 0 -26 R 9 -44 R
17 -26 R 27 -9 R 17 0 R 26 9 R 18 26 R 9 44 R 0 26 R -9 44 R -18 26 R
-26 9 R -17 0 R D 1665 8359 M 75 0 R D 1275 8403 M 18 8 R 26 27 R 0 -184 R D
1477 8438 M -27 -9 R -17 -26 R -9 -44 R 0 -26 R 9 -44 R 17 -27 R 27 -8 R
17 0 R 26 8 R 18 27 R 9 44 R 0 26 R -9 44 R -18 26 R -26 9 R -17 0 R D
1665 9312 M 75 0 R D 1258 9347 M 0 9 R 8 17 R 9 9 R 18 9 R 35 0 R 17 -9 R
9 -9 R 9 -17 R 0 -18 R -9 -17 R -18 -27 R -87 -87 R 123 0 R D 1477 9391 M
-27 -9 R -17 -26 R -9 -44 R 0 -26 R 9 -44 R 17 -26 R 27 -9 R 17 0 R 26 9 R
18 26 R 9 44 R 0 26 R -9 44 R -18 26 R -26 9 R -17 0 R D 1665 10266 M 75 0 R
D 1266 10344 M 97 0 R -53 -70 R 26 0 R 18 -9 R 9 -9 R 9 -26 R 0 -17 R
-9 -27 R -18 -17 R -26 -9 R -26 0 R -27 9 R -8 9 R -9 17 R D 1477 10344 M
-27 -9 R -17 -26 R -9 -44 R 0 -26 R 9 -44 R 17 -26 R 27 -9 R 17 0 R 26 9 R
18 26 R 9 44 R 0 26 R -9 44 R -18 26 R -26 9 R -17 0 R D 1665 11219 M 75 0 R
D 1336 11297 M -87 -122 R 131 0 R D 1336 11297 M 0 -184 R D 1477 11297 M
-27 -8 R -17 -27 R -9 -44 R 0 -26 R 9 -44 R 17 -26 R 27 -9 R 17 0 R 26 9 R
18 26 R 9 44 R 0 26 R -9 44 R -18 27 R -26 8 R -17 0 R D 1665 12172 M 75 0 R
D 1354 12171 M -88 0 R -8 -79 R 8 9 R 27 9 R 26 0 R 26 -9 R 18 -17 R 9 -27 R
0 -17 R -9 -26 R -18 -18 R -26 -9 R -26 0 R -27 9 R -8 9 R -9 17 R D
1477 12171 M -27 -8 R -17 -27 R -9 -44 R 0 -26 R 9 -44 R 17 -26 R 27 -9 R
17 0 R 26 9 R 18 26 R 9 44 R 0 26 R -9 44 R -18 27 R -26 8 R -17 0 R D
1665 7501 M 38 0 R D 1665 7597 M 38 0 R D 1665 7692 M 38 0 R D 1665 7787 M
38 0 R D 1665 7883 M 38 0 R D 1665 7978 M 38 0 R D 1665 8073 M 38 0 R D
1665 8169 M 38 0 R D 1665 8264 M 38 0 R D 1665 8455 M 38 0 R D 1665 8550 M
38 0 R D 1665 8645 M 38 0 R D 1665 8741 M 38 0 R D 1665 8836 M 38 0 R D
1665 8931 M 38 0 R D 1665 9027 M 38 0 R D 1665 9122 M 38 0 R D 1665 9217 M
38 0 R D 1665 9408 M 38 0 R D 1665 9503 M 38 0 R D 1665 9598 M 38 0 R D
1665 9694 M 38 0 R D 1665 9789 M 38 0 R D 1665 9884 M 38 0 R D 1665 9980 M
38 0 R D 1665 10075 M 38 0 R D 1665 10170 M 38 0 R D 1665 10361 M 38 0 R D
1665 10456 M 38 0 R D 1665 10552 M 38 0 R D 1665 10647 M 38 0 R D
1665 10742 M 38 0 R D 1665 10838 M 38 0 R D 1665 10933 M 38 0 R D
1665 11028 M 38 0 R D 1665 11124 M 38 0 R D 1665 11314 M 38 0 R D
1665 11410 M 38 0 R D 1665 11505 M 38 0 R D 1665 11600 M 38 0 R D
1665 11695 M 38 0 R D 1665 11791 M 38 0 R D 1665 11886 M 38 0 R D
1665 11981 M 38 0 R D 1665 12077 M 38 0 R D 859 9237 M 88 0 R 26 9 R 9 17 R
0 27 R -9 17 R -26 26 R D 859 9333 M 123 0 R D 762 9605 M 18 -17 R 26 -18 R
35 -18 R 44 -8 R 35 0 R 44 8 R 44 18 R 26 18 R 18 17 R D 859 9666 M 123 0 R
D 894 9666 M -26 27 R -9 17 R 0 26 R 9 18 R 26 9 R 88 0 R D 894 9763 M
-26 26 R -9 18 R 0 26 R 9 17 R 26 9 R 88 0 R D 762 10069 M 290 -157 R D
885 10210 M -17 -9 R -9 -26 R 0 -27 R 9 -26 R 17 -9 R 18 9 R 8 18 R 9 43 R
9 18 R 18 9 R 8 0 R 18 -9 R 9 -26 R 0 -27 R -9 -26 R -18 -9 R D 762 10262 M
18 18 R 26 17 R 35 18 R 44 9 R 35 0 R 44 -9 R 44 -18 R 26 -17 R 18 -18 R D
5427 7406 M 0 4766 R D 5427 7406 M -75 0 R D 5427 8359 M -75 0 R D
5427 9312 M -75 0 R D 5427 10266 M -75 0 R D 5427 11219 M -75 0 R D
5427 12172 M -75 0 R D 5427 7501 M -37 0 R D 5427 7597 M -37 0 R D
5427 7692 M -37 0 R D 5427 7787 M -37 0 R D 5427 7883 M -37 0 R D
5427 7978 M -37 0 R D 5427 8073 M -37 0 R D 5427 8169 M -37 0 R D
5427 8264 M -37 0 R D 5427 8455 M -37 0 R D 5427 8550 M -37 0 R D
5427 8645 M -37 0 R D 5427 8741 M -37 0 R D 5427 8836 M -37 0 R D
5427 8931 M -37 0 R D 5427 9027 M -37 0 R D 5427 9122 M -37 0 R D
5427 9217 M -37 0 R D 5427 9408 M -37 0 R D 5427 9503 M -37 0 R D
5427 9598 M -37 0 R D 5427 9694 M -37 0 R D 5427 9789 M -37 0 R D
5427 9884 M -37 0 R D 5427 9980 M -37 0 R D 5427 10075 M -37 0 R D
5427 10170 M -37 0 R D 5427 10361 M -37 0 R D 5427 10456 M -37 0 R D
5427 10552 M -37 0 R D 5427 10647 M -37 0 R D 5427 10742 M -37 0 R D
5427 10838 M -37 0 R D 5427 10933 M -37 0 R D 5427 11028 M -37 0 R D
5427 11124 M -37 0 R D 5427 11314 M -37 0 R D 5427 11410 M -37 0 R D
5427 11505 M -37 0 R D 5427 11600 M -37 0 R D 5427 11695 M -37 0 R D
5427 11791 M -37 0 R D 5427 11886 M -37 0 R D 5427 11981 M -37 0 R D
5427 12077 M -37 0 R D 1665 7406 M 4 5 R 4 6 R 3 5 R 4 5 R 4 5 R 4 6 R 3 5 R
4 5 R 4 5 R 4 6 R 3 5 R 4 5 R 4 6 R 4 5 R 4 5 R 3 5 R 4 6 R 4 5 R 4 5 R
3 6 R 4 5 R 4 5 R 4 5 R 3 6 R 4 5 R 4 5 R 4 6 R 3 5 R 4 5 R 4 5 R 4 6 R
3 5 R 4 5 R 4 6 R 4 5 R 4 5 R 3 6 R 4 5 R 4 5 R 4 6 R 3 5 R 4 5 R 4 6 R
4 5 R 3 5 R 4 6 R 4 5 R 4 5 R 3 6 R 4 5 R 4 5 R 4 6 R 3 5 R 4 5 R 4 6 R
4 5 R 4 5 R 3 6 R 4 5 R 4 6 R 4 5 R 3 5 R 4 6 R 4 5 R 4 6 R 3 5 R 4 5 R
4 6 R 4 5 R 3 6 R 4 5 R 4 6 R 4 5 R 3 5 R 4 6 R 4 5 R 4 6 R 4 5 R 3 6 R
4 5 R 4 6 R 4 5 R 3 6 R 4 5 R 4 6 R 4 5 R 3 6 R 4 5 R 4 6 R 4 5 R 3 6 R
4 5 R 4 6 R 4 5 R 3 6 R 4 6 R 4 5 R 4 6 R 4 5 R 3 6 R 4 6 R 4 5 R 4 6 R
3 5 R 4 6 R 4 6 R 4 5 R 3 6 R 4 6 R 4 5 R 4 6 R 3 6 R 4 5 R 4 6 R 4 6 R
4 5 R 3 6 R 4 6 R 4 6 R 4 5 R 3 6 R 4 6 R 4 6 R 4 5 R 3 6 R 4 6 R 4 6 R
4 5 R 3 6 R 4 6 R 4 6 R 4 6 R 3 6 R 4 6 R 4 5 R 4 6 R 4 6 R 3 6 R 4 6 R
4 6 R 4 6 R 3 6 R 4 6 R 4 6 R 4 6 R 3 6 R 4 6 R 4 6 R 4 6 R 3 6 R 4 6 R
4 6 R 4 6 R 3 6 R 4 6 R 4 6 R 4 6 R 4 6 R 3 6 R 4 6 R 4 6 R 4 7 R 3 6 R
4 6 R 4 6 R 4 6 R 3 6 R 4 7 R 4 6 R 4 6 R 3 6 R 4 7 R 4 6 R 4 6 R 3 6 R
4 7 R 4 6 R 4 6 R 4 7 R 3 6 R 4 6 R 4 7 R 4 6 R 3 7 R 4 6 R 4 6 R 4 7 R
3 6 R 4 7 R 4 6 R 4 7 R 3 6 R 4 7 R 4 6 R 4 7 R 3 6 R 4 7 R 4 7 R 4 6 R
4 7 R 3 7 R 4 6 R 4 7 R 4 6 R 3 7 R 4 7 R 4 7 R 4 6 R 3 7 R 4 7 R 4 7 R
4 6 R 3 7 R 4 7 R 4 7 R 4 7 R 3 7 R 4 7 R 4 6 R 4 7 R 4 7 R 3 7 R 4 7 R
4 7 R 4 7 R 3 7 R 4 7 R 4 7 R 4 7 R 3 7 R 4 8 R 4 7 R 4 7 R 3 7 R 4 7 R
4 7 R 4 8 R 3 7 R 4 7 R 4 7 R 4 8 R 4 7 R 3 7 R 4 7 R 4 8 R 4 7 R 3 8 R
4 7 R 4 7 R 4 8 R 3 7 R 4 8 R 4 7 R 4 8 R 3 7 R 4 8 R 4 7 R 4 8 R 3 8 R
4 7 R 4 8 R 4 7 R 4 8 R 3 8 R 4 8 R 4 7 R 4 8 R 3 8 R 4 8 R 4 8 R 4 7 R
3 8 R 4 8 R 4 8 R 4 8 R 3 8 R 4 8 R 4 8 R 4 8 R 3 8 R 4 8 R 4 8 R 4 8 R
4 8 R 3 8 R 4 9 R 4 8 R 4 8 R 3 8 R 4 9 R 4 8 R 4 8 R 3 8 R 4 9 R 4 8 R
4 9 R 3 8 R 4 8 R 4 9 R 4 8 R 4 9 R 3 8 R 4 9 R 4 9 R 4 8 R 3 9 R 4 9 R
4 8 R 4 9 R 3 9 R 4 8 R 4 9 R 4 9 R 3 9 R 4 9 R 4 9 R 4 8 R 3 9 R 4 9 R
4 9 R 4 9 R 4 9 R 3 9 R 4 10 R 4 9 R 4 9 R 3 9 R 4 9 R 4 9 R 4 10 R 3 9 R
4 9 R 4 10 R 4 9 R 3 9 R 4 10 R 4 9 R 4 10 R 3 9 R 4 10 R 4 9 R 4 10 R 4 9 R
3 10 R 4 10 R 4 9 R 4 10 R 3 10 R 4 10 R 4 10 R 4 9 R 3 10 R 4 10 R 4 10 R
4 10 R 3 10 R 4 10 R 4 10 R 4 10 R 3 10 R 4 10 R 4 11 R 4 10 R 4 10 R 3 10 R
4 11 R 4 10 R 4 10 R 3 11 R 4 10 R 4 11 R 4 10 R 3 11 R 4 10 R 4 11 R 4 11 R
3 10 R 4 11 R 4 11 R 4 10 R 3 11 R 4 11 R 4 11 R 4 11 R 4 11 R 3 11 R 4 11 R
4 11 R 4 11 R 3 11 R 4 11 R 4 11 R 4 11 R 3 12 R 4 11 R 4 11 R 4 12 R 3 11 R
4 11 R 4 12 R 4 11 R 3 12 R 4 12 R 4 11 R 4 12 R 4 11 R 3 12 R 4 12 R 4 12 R
4 12 R 3 11 R 4 12 R 4 12 R 4 12 R 3 12 R 4 12 R 4 13 R 4 12 R 3 12 R 4 12 R
4 12 R 4 13 R 3 12 R 4 12 R 4 13 R 4 12 R 4 13 R 3 12 R 4 13 R 4 13 R 4 12 R
3 13 R 4 13 R 4 12 R 4 13 R 3 13 R 4 13 R 4 13 R 4 13 R 3 13 R 4 13 R 4 13 R
4 14 R 3 13 R 4 13 R 4 13 R 4 14 R 4 13 R 3 14 R 4 13 R 4 14 R 4 13 R 3 14 R
4 13 R 4 14 R 4 14 R 3 14 R 4 14 R 4 13 R 4 14 R 3 14 R 4 14 R 4 15 R 4 14 R
3 14 R 4 14 R 4 14 R 4 15 R 4 14 R 3 14 R 4 15 R 4 14 R 4 15 R 3 15 R 4 14 R
4 15 R 4 15 R 3 15 R 4 14 R 4 15 R 4 15 R 3 15 R 4 15 R 4 15 R 4 16 R 4 15 R
3 15 R 4 15 R 4 16 R 4 15 R 3 16 R 4 15 R 4 16 R 4 15 R 3 16 R 4 16 R 4 16 R
4 16 R 3 15 R 4 16 R 4 -9 R 4 -10 R 3 -9 R 4 -9 R 4 -10 R 4 -9 R 4 -9 R
3 -9 R 4 -9 R 4 -9 R 4 -9 R 3 -9 R 4 -9 R 4 -9 R 4 -9 R 3 -9 R 4 -9 R 4 -9 R
4 -9 R 3 -8 R 4 -9 R 4 -9 R 4 -8 R 3 -9 R 4 -9 R 4 -8 R 4 -9 R 4 -8 R 3 -9 R
4 -8 R 4 -8 R 4 -9 R 3 -8 R 4 -8 R 4 -9 R 4 -8 R 3 -8 R 4 -8 R 4 -9 R 4 -8 R
3 -8 R 4 -8 R 4 -8 R 4 -8 R 3 -8 R 4 -8 R 4 -8 R 4 -8 R 4 -8 R 3 -7 R 4 -8 R
4 -8 R 4 -8 R 3 -7 R 4 -8 R 4 -8 R 4 -7 R 3 -8 R 4 -8 R 4 -7 R 4 -8 R 3 -7 R
4 -8 R 4 -7 R 4 -8 R 3 -7 R 4 -7 R 4 -8 R 4 -7 R 4 -7 R 3 -8 R 4 -7 R 4 -7 R
4 -7 R 3 -8 R 4 -7 R 4 -7 R 4 -7 R 3 -7 R 4 -7 R 4 -7 R 4 -7 R 3 -7 R 4 -7 R
4 -7 R 4 -7 R 3 -7 R 4 -7 R 4 -7 R 4 -7 R 4 -6 R 3 -7 R 4 -7 R 4 -7 R 4 -6 R
3 -7 R 4 -7 R 4 -6 R 4 -7 R 3 -7 R 4 -6 R 4 -7 R 4 -6 R 3 -7 R 4 -6 R 4 -7 R
4 -6 R 3 -7 R 4 -6 R 4 -7 R 4 -6 R 4 -6 R 3 -7 R 4 -6 R 4 -6 R 4 -6 R 3 -7 R
4 -6 R 4 -6 R 4 -6 R 3 -7 R 4 -6 R 4 -6 R 4 -6 R 3 -6 R 4 -6 R 4 -6 R 4 -6 R
3 -6 R 4 -6 R 4 -6 R 4 -6 R 4 -6 R 3 -6 R 4 -6 R 4 -6 R 4 -6 R 3 -6 R 4 -5 R
4 -6 R 4 -6 R 3 -6 R 4 -6 R 4 -5 R 4 -6 R 3 -6 R 4 -6 R 4 -5 R 4 -6 R 3 -6 R
4 -5 R 4 -6 R 4 -5 R 4 -6 R 3 -6 R 4 -5 R 4 -6 R 4 -5 R 3 -6 R 4 -5 R 4 -6 R
4 -5 R 3 -5 R 4 -6 R 4 -5 R 4 -6 R 3 -5 R 4 -5 R 4 -6 R 4 -5 R 4 -5 R 3 -6 R
4 -5 R 4 -5 R 4 -5 R 3 -6 R 4 -5 R 4 -5 R 4 -5 R 3 -5 R 4 -6 R 4 -5 R 4 -5 R
3 -5 R 4 -5 R 4 -5 R 4 -5 R 3 -5 R 4 -5 R 4 -5 R 4 -5 R 4 -5 R 3 -5 R 4 -5 R
4 -5 R 4 -5 R 3 -5 R 4 -5 R 4 -5 R 4 -5 R 3 -5 R 4 -4 R 4 -5 R 4 -5 R 3 -5 R
4 -5 R 4 -5 R 4 -4 R 3 -5 R 4 -5 R 4 -5 R 4 -4 R 4 -5 R 3 -5 R 4 -4 R 4 -5 R
4 -5 R 3 -4 R 4 -5 R 4 -5 R 4 -4 R 3 -5 R 4 -4 R 4 -5 R 4 -5 R 3 -4 R 4 -5 R
4 -4 R 4 -5 R 3 -4 R 4 -5 R 4 -4 R 4 -5 R 4 -4 R 3 -4 R 4 -5 R 4 -4 R 4 -5 R
3 -4 R 4 -4 R 4 -5 R 4 -4 R 3 -5 R 4 -4 R 4 -4 R 4 -5 R 3 -4 R 4 -4 R 4 -4 R
4 -5 R D 4487 10060 M 3 -4 R 4 -4 R 4 -4 R 4 -5 R 4 -4 R 3 -4 R 4 -4 R
4 -4 R 4 -5 R 3 -4 R 4 -4 R 4 -4 R 4 -4 R 3 -4 R 4 -4 R 4 -4 R 4 -4 R 3 -5 R
4 -4 R 4 -4 R 4 -4 R 3 -4 R 4 -4 R 4 -4 R 4 -4 R 4 -4 R 3 -4 R 4 -4 R 4 -4 R
4 -4 R 3 -4 R 4 -3 R 4 -4 R 4 -4 R 3 -4 R 4 -4 R 4 -4 R 4 -4 R 3 -4 R 4 -4 R
4 -3 R 4 -4 R 3 -4 R 4 -4 R 4 -4 R 4 -3 R 4 -4 R 3 -4 R 4 -4 R 4 -4 R 4 -3 R
3 -4 R 4 -4 R 4 -3 R 4 -4 R 3 -4 R 4 -4 R 4 -3 R 4 -4 R 3 -4 R 4 -3 R 4 -4 R
4 -4 R 3 -3 R 4 -4 R 4 -3 R 4 -4 R 4 -4 R 3 -3 R 4 -4 R 4 -3 R 4 -4 R 3 -3 R
4 -4 R 4 -4 R 4 -3 R 3 -4 R 4 -3 R 4 -4 R 4 -3 R 3 -4 R 4 -3 R 4 -3 R 4 -4 R
3 -3 R 4 -4 R 4 -3 R 4 -4 R 4 -3 R 3 -4 R 4 -3 R 4 -3 R 4 -4 R 3 -3 R 4 -3 R
4 -4 R 4 -3 R 3 -4 R 4 -3 R 4 -3 R 4 -4 R 3 -3 R 4 -3 R 4 -4 R 4 -3 R 4 -3 R
3 -3 R 4 -4 R 4 -3 R 4 -3 R 3 -3 R 4 -4 R 4 -3 R 4 -3 R 3 -3 R 4 -4 R 4 -3 R
4 -3 R 3 -3 R 4 -3 R 4 -4 R 4 -3 R 3 -3 R 4 -3 R 4 -3 R 4 -3 R 4 -3 R 3 -4 R
4 -3 R 4 -3 R 4 -3 R 3 -3 R 4 -3 R 4 -3 R 4 -3 R 3 -3 R 4 -3 R 4 -3 R 4 -3 R
3 -4 R 4 -3 R 4 -3 R 4 -3 R 3 -3 R 4 -3 R 4 -3 R 4 -3 R 4 -3 R 3 -3 R 4 -3 R
4 -3 R 4 -3 R 3 -3 R 4 -2 R 4 -3 R 4 -3 R 3 -3 R 4 -3 R 4 -3 R 4 -3 R 3 -3 R
4 -3 R 4 -3 R 4 -3 R 3 -3 R 4 -2 R 4 -3 R 4 -3 R 4 -3 R 3 -3 R 4 -3 R 4 -3 R
4 -2 R 3 -3 R 4 -3 R 4 -3 R 4 -3 R 3 -2 R 4 -3 R 4 -3 R 4 -3 R 3 -3 R 4 -2 R
4 -3 R 4 -3 R 3 -3 R 4 -2 R 4 -3 R 4 -3 R 4 -3 R 3 -2 R 4 -3 R 4 -3 R 4 -3 R
3 -2 R 4 -3 R 4 -3 R 4 -2 R 3 -3 R 4 -3 R 4 -2 R 4 -3 R 3 -3 R 4 -2 R 4 -3 R
4 -3 R 3 -2 R 4 -3 R 4 -2 R 4 -3 R 4 -3 R 3 -2 R 4 -3 R 4 -3 R 4 -2 R 3 -3 R
4 -2 R 4 -3 R 4 -2 R 3 -3 R 4 -3 R 4 -2 R 4 -3 R 3 -2 R 4 -3 R 4 -2 R 4 -3 R
3 -2 R 4 -3 R 4 -2 R 4 -3 R 4 -2 R 3 -3 R 4 -2 R 4 -3 R 4 -2 R 3 -3 R 4 -2 R
4 -3 R 4 -2 R 3 -3 R 4 -2 R 4 -3 R 4 -2 R 3 -3 R 4 -2 R 4 -2 R 4 -3 R 3 -2 R
D 1665 1056 M 3762 0 R D 1665 1056 M 0 95 R D 1516 844 M -26 -9 R -18 -26 R
-8 -44 R 0 -26 R 8 -44 R 18 -26 R 26 -9 R 18 0 R 26 9 R 17 26 R 9 44 R
0 26 R -9 44 R -17 26 R -26 9 R -18 0 R D 1656 678 M -8 -9 R 8 -9 R 9 9 R
-9 9 R D 1779 844 M -26 -9 R -18 -26 R -9 -44 R 0 -26 R 9 -44 R 18 -26 R
26 -9 R 18 0 R 26 9 R 17 26 R 9 44 R 0 26 R -9 44 R -17 26 R -26 9 R -18 0 R
D 2606 1056 M 0 95 R D 2457 844 M -27 -9 R -17 -26 R -9 -44 R 0 -26 R
9 -44 R 17 -26 R 27 -9 R 17 0 R 26 9 R 18 26 R 9 44 R 0 26 R -9 44 R
-18 26 R -26 9 R -17 0 R D 2597 678 M -9 -9 R 9 -9 R 9 9 R -9 9 R D
2772 844 M -88 0 R -8 -79 R 8 9 R 27 9 R 26 0 R 26 -9 R 18 -18 R 9 -26 R
0 -17 R -9 -27 R -18 -17 R -26 -9 R -26 0 R -27 9 R -8 9 R -9 17 R D
3546 1056 M 0 95 R D 3371 809 M 17 9 R 27 26 R 0 -184 R D 3537 678 M -8 -9 R
8 -9 R 9 9 R -9 9 R D 3660 844 M -26 -9 R -18 -26 R -8 -44 R 0 -26 R 8 -44 R
18 -26 R 26 -9 R 18 0 R 26 9 R 17 26 R 9 44 R 0 26 R -9 44 R -17 26 R
-26 9 R -18 0 R D 4487 1056 M 0 95 R D 4311 809 M 18 9 R 26 26 R 0 -184 R D
4478 678 M -9 -9 R 9 -9 R 9 9 R -9 9 R D 4653 844 M -87 0 R -9 -79 R 9 9 R
26 9 R 26 0 R 26 -9 R 18 -18 R 9 -26 R 0 -17 R -9 -27 R -18 -17 R -26 -9 R
-26 0 R -26 9 R -9 9 R -9 17 R D 5427 1056 M 0 95 R D 5234 800 M 0 9 R
9 18 R 9 8 R 18 9 R 35 0 R 17 -9 R 9 -8 R 9 -18 R 0 -17 R -9 -18 R -18 -26 R
-87 -88 R 122 0 R D 5418 678 M -8 -9 R 8 -9 R 9 9 R -9 9 R D 5541 844 M
-26 -9 R -18 -26 R -8 -44 R 0 -26 R 8 -44 R 18 -26 R 26 -9 R 18 0 R 26 9 R
18 26 R 8 44 R 0 26 R -8 44 R -18 26 R -26 9 R -18 0 R D 1853 1056 M 0 48 R
D 2041 1056 M 0 48 R D 2229 1056 M 0 48 R D 2418 1056 M 0 48 R D 2794 1056 M
0 48 R D 2982 1056 M 0 48 R D 3170 1056 M 0 48 R D 3358 1056 M 0 48 R D
3734 1056 M 0 48 R D 3922 1056 M 0 48 R D 4110 1056 M 0 48 R D 4299 1056 M
0 48 R D 4675 1056 M 0 48 R D 4863 1056 M 0 48 R D 5051 1056 M 0 48 R D
5239 1056 M 0 48 R D 3311 440 M 0 -123 R D 3311 387 M 8 26 R 18 18 R 17 9 R
27 0 R D 3565 536 M -158 -289 R D 3617 440 M 0 -123 R D 3617 387 M 9 26 R
18 18 R 17 9 R 26 0 R D 3743 323 M -11 -5 R -11 -11 R -5 -17 R 0 -10 R
5 -17 R 11 -10 R 11 -6 R 16 0 R 11 6 R 11 10 R 5 17 R 0 10 R -5 17 R
-11 11 R -11 5 R -16 0 R D 1665 5822 M 3762 0 R D 1665 5822 M 0 -95 R D
2606 5822 M 0 -95 R D 3546 5822 M 0 -95 R D 4487 5822 M 0 -95 R D
5427 5822 M 0 -95 R D 1853 5822 M 0 -48 R D 2041 5822 M 0 -48 R D
2229 5822 M 0 -48 R D 2418 5822 M 0 -48 R D 2794 5822 M 0 -48 R D
2982 5822 M 0 -48 R D 3170 5822 M 0 -48 R D 3358 5822 M 0 -48 R D
3734 5822 M 0 -48 R D 3922 5822 M 0 -48 R D 4110 5822 M 0 -48 R D
4299 5822 M 0 -48 R D 4675 5822 M 0 -48 R D 4863 5822 M 0 -48 R D
5051 5822 M 0 -48 R D 5239 5822 M 0 -48 R D 1665 1056 M 0 4766 R D
1665 1056 M 75 0 R D 854 1135 M 158 0 R D 1082 1196 M 0 9 R 9 18 R 9 8 R
17 9 R 35 0 R 18 -9 R 9 -8 R 8 -18 R 0 -17 R -8 -18 R -18 -26 R -87 -88 R
122 0 R D 1301 1240 M -26 -9 R -17 -26 R -9 -44 R 0 -26 R 9 -44 R 17 -26 R
26 -9 R 18 0 R 26 9 R 18 26 R 9 44 R 0 26 R -9 44 R -18 26 R -26 9 R -18 0 R
D 1477 1240 M -27 -9 R -17 -26 R -9 -44 R 0 -26 R 9 -44 R 17 -26 R 27 -9 R
17 0 R 26 9 R 18 26 R 9 44 R 0 26 R -9 44 R -18 26 R -26 9 R -17 0 R D
1665 1850 M 75 0 R D 1477 1929 M -27 -9 R -17 -26 R -9 -44 R 0 -26 R 9 -44 R
17 -26 R 27 -9 R 17 0 R 26 9 R 18 26 R 9 44 R 0 26 R -9 44 R -18 26 R
-26 9 R -17 0 R D 1665 2645 M 75 0 R D 1082 2679 M 0 9 R 9 18 R 9 8 R 17 9 R
35 0 R 18 -9 R 9 -8 R 8 -18 R 0 -17 R -8 -18 R -18 -26 R -87 -88 R 122 0 R D
1301 2723 M -26 -9 R -17 -26 R -9 -44 R 0 -26 R 9 -44 R 17 -26 R 26 -9 R
18 0 R 26 9 R 18 26 R 9 44 R 0 26 R -9 44 R -18 26 R -26 9 R -18 0 R D
1477 2723 M -27 -9 R -17 -26 R -9 -44 R 0 -26 R 9 -44 R 17 -26 R 27 -9 R
17 0 R 26 9 R 18 26 R 9 44 R 0 26 R -9 44 R -18 26 R -26 9 R -17 0 R D
1665 3439 M 75 0 R D 1161 3517 M -87 -122 R 131 0 R D 1161 3517 M 0 -184 R D
1301 3517 M -26 -8 R -17 -27 R -9 -43 R 0 -27 R 9 -43 R 17 -27 R 26 -9 R
18 0 R 26 9 R 18 27 R 9 43 R 0 27 R -9 43 R -18 27 R -26 8 R -18 0 R D
1477 3517 M -27 -8 R -17 -27 R -9 -43 R 0 -27 R 9 -43 R 17 -27 R 27 -9 R
17 0 R 26 9 R 18 27 R 9 43 R 0 27 R -9 43 R -18 27 R -26 8 R -17 0 R D
1665 4233 M 75 0 R D 1187 4286 M -8 17 R -27 9 R -17 0 R -26 -9 R -18 -26 R
-9 -44 R 0 -44 R 9 -35 R 18 -17 R 26 -9 R 9 0 R 26 9 R 17 17 R 9 26 R 0 9 R
-9 26 R -17 18 R -26 9 R -9 0 R -26 -9 R -18 -18 R -9 -26 R D 1301 4312 M
-26 -9 R -17 -26 R -9 -44 R 0 -26 R 9 -44 R 17 -26 R 26 -9 R 18 0 R 26 9 R
18 26 R 9 44 R 0 26 R -9 44 R -18 26 R -26 9 R -18 0 R D 1477 4312 M
-27 -9 R -17 -26 R -9 -44 R 0 -26 R 9 -44 R 17 -26 R 27 -9 R 17 0 R 26 9 R
18 26 R 9 44 R 0 26 R -9 44 R -18 26 R -26 9 R -17 0 R D 1665 5028 M 75 0 R
D 1117 5106 M -26 -9 R -9 -17 R 0 -18 R 9 -17 R 18 -9 R 35 -9 R 26 -8 R
17 -18 R 9 -18 R 0 -26 R -9 -17 R -8 -9 R -27 -9 R -35 0 R -26 9 R -9 9 R
-8 17 R 0 26 R 8 18 R 18 18 R 26 8 R 35 9 R 18 9 R 8 17 R 0 18 R -8 17 R
-27 9 R -35 0 R D 1301 5106 M -26 -9 R -17 -26 R -9 -44 R 0 -26 R 9 -44 R
17 -26 R 26 -9 R 18 0 R 26 9 R 18 26 R 9 44 R 0 26 R -9 44 R -18 26 R
-26 9 R -18 0 R D 1477 5106 M -27 -9 R -17 -26 R -9 -44 R 0 -26 R 9 -44 R
17 -26 R 27 -9 R 17 0 R 26 9 R 18 26 R 9 44 R 0 26 R -9 44 R -18 26 R
-26 9 R -17 0 R D 1665 5822 M 75 0 R D 925 5786 M 17 9 R 26 26 R 0 -184 R D
1126 5821 M -26 -8 R -18 -27 R -8 -44 R 0 -26 R 8 -44 R 18 -26 R 26 -9 R
18 0 R 26 9 R 17 26 R 9 44 R 0 26 R -9 44 R -17 27 R -26 8 R -18 0 R D
1301 5821 M -26 -8 R -17 -27 R -9 -44 R 0 -26 R 9 -44 R 17 -26 R 26 -9 R
18 0 R 26 9 R 18 26 R 9 44 R 0 26 R -9 44 R -18 27 R -26 8 R -18 0 R D
1477 5821 M -27 -8 R -17 -27 R -9 -44 R 0 -26 R 9 -44 R 17 -26 R 27 -9 R
17 0 R 26 9 R 18 26 R 9 44 R 0 26 R -9 44 R -18 27 R -26 8 R -17 0 R D
1665 1255 M 38 0 R D 1665 1453 M 38 0 R D 1665 1652 M 38 0 R D 1665 2049 M
38 0 R D 1665 2248 M 38 0 R D 1665 2446 M 38 0 R D 1665 2843 M 38 0 R D
1665 3042 M 38 0 R D 1665 3240 M 38 0 R D 1665 3638 M 38 0 R D 1665 3836 M
38 0 R D 1665 4035 M 38 0 R D 1665 4432 M 38 0 R D 1665 4631 M 38 0 R D
1665 4829 M 38 0 R D 1665 5226 M 38 0 R D 1665 5425 M 38 0 R D 1665 5623 M
38 0 R D 456 2865 M 122 35 R -122 35 R 122 35 R -122 35 R D 359 3268 M
18 -17 R 26 -18 R 35 -17 R 44 -9 R 35 0 R 44 9 R 44 17 R 26 18 R 18 17 R D
456 3330 M 122 0 R D 491 3330 M -26 26 R -9 17 R 0 27 R 9 17 R 26 9 R 87 0 R
D 491 3426 M -26 26 R -9 18 R 0 26 R 9 18 R 26 8 R 87 0 R D 359 3733 M
290 -158 R D 482 3873 M -17 -9 R -9 -26 R 0 -27 R 9 -26 R 17 -9 R 18 9 R
8 18 R 9 44 R 9 17 R 17 9 R 9 0 R 18 -9 R 8 -26 R 0 -27 R -8 -26 R -18 -9 R
D 359 3925 M 18 18 R 26 17 R 35 18 R 44 9 R 35 0 R 44 -9 R 44 -18 R 26 -17 R
18 -18 R D 5427 1056 M 0 4766 R D 5427 1056 M -75 0 R D 5427 1850 M -75 0 R
D 5427 2645 M -75 0 R D 5427 3439 M -75 0 R D 5427 4233 M -75 0 R D
5427 5028 M -75 0 R D 5427 5822 M -75 0 R D 5427 1255 M -37 0 R D
5427 1453 M -37 0 R D 5427 1652 M -37 0 R D 5427 2049 M -37 0 R D
5427 2248 M -37 0 R D 5427 2446 M -37 0 R D 5427 2843 M -37 0 R D
5427 3042 M -37 0 R D 5427 3240 M -37 0 R D 5427 3638 M -37 0 R D
5427 3836 M -37 0 R D 5427 4035 M -37 0 R D 5427 4432 M -37 0 R D
5427 4631 M -37 0 R D 5427 4829 M -37 0 R D 5427 5226 M -37 0 R D
5427 5425 M -37 0 R D 5427 5623 M -37 0 R D 1665 3422 M 4 0 R 4 0 R 3 0 R
4 0 R 4 0 R 4 0 R 3 0 R 4 0 R 4 1 R 4 0 R 3 0 R 4 0 R 4 0 R 4 0 R 4 1 R
3 0 R 4 0 R 4 0 R 4 0 R 3 1 R 4 0 R 4 0 R 4 0 R 3 1 R 4 0 R 4 0 R 4 1 R
3 0 R 4 1 R 4 0 R 4 0 R 3 1 R 4 0 R 4 1 R 4 0 R 4 0 R 3 1 R 4 0 R 4 1 R
4 0 R 3 1 R 4 0 R 4 1 R 4 1 R 3 0 R 4 1 R 4 0 R 4 1 R 3 1 R 4 0 R 4 1 R
4 1 R 3 0 R 4 1 R 4 1 R 4 0 R 4 1 R 3 1 R 4 1 R 4 0 R 4 1 R 3 1 R 4 1 R
4 1 R 4 0 R 3 1 R 4 1 R 4 1 R 4 1 R 3 1 R 4 1 R 4 1 R 4 1 R 3 1 R 4 1 R
4 1 R 4 1 R 4 1 R 3 1 R 4 1 R 4 1 R 4 1 R 3 1 R 4 1 R 4 1 R 4 1 R 3 1 R
4 1 R 4 2 R 4 1 R 3 1 R 4 1 R 4 1 R 4 2 R 3 1 R 4 1 R 4 1 R 4 2 R 4 1 R
3 1 R 4 2 R 4 1 R 4 1 R 3 2 R 4 1 R 4 1 R 4 2 R 3 1 R 4 2 R 4 1 R 4 2 R
3 1 R 4 2 R 4 1 R 4 2 R 4 1 R 3 2 R 4 1 R 4 2 R 4 1 R 3 2 R 4 2 R 4 1 R
4 2 R 3 1 R 4 2 R 4 2 R 4 2 R 3 1 R 4 2 R 4 2 R 4 1 R 3 2 R 4 2 R 4 2 R
4 2 R 4 1 R 3 2 R 4 2 R 4 2 R 4 2 R 3 2 R 4 2 R 4 2 R 4 2 R 3 2 R 4 2 R
4 2 R 4 2 R 3 2 R 4 2 R 4 2 R 4 2 R 3 2 R 4 2 R 4 2 R 4 2 R 4 2 R 3 2 R
4 3 R 4 2 R 4 2 R 3 2 R 4 2 R 4 3 R 4 2 R 3 2 R 4 2 R 4 3 R 4 2 R 3 2 R
4 3 R 4 2 R 4 3 R 3 2 R 4 2 R 4 3 R 4 2 R 4 3 R 3 2 R 4 3 R 4 2 R 4 3 R
3 2 R 4 3 R 4 2 R 4 3 R 3 2 R 4 3 R 4 3 R 4 2 R 3 3 R 4 3 R 4 2 R 4 3 R
3 3 R 4 3 R 4 2 R 4 3 R 4 3 R 3 3 R 4 3 R 4 2 R 4 3 R 3 3 R 4 3 R 4 3 R
4 3 R 3 3 R 4 3 R 4 3 R 4 3 R 3 3 R 4 3 R 4 3 R 4 3 R 3 3 R 4 3 R 4 3 R
4 3 R 4 3 R 3 3 R 4 4 R 4 3 R 4 3 R 3 3 R 4 3 R 4 4 R 4 3 R 3 3 R 4 4 R
4 3 R 4 3 R 3 4 R 4 3 R 4 3 R 4 4 R 3 3 R 4 4 R 4 3 R 4 4 R 4 3 R 3 4 R
4 3 R 4 4 R 4 3 R 3 4 R 4 4 R 4 3 R 4 4 R 3 3 R 4 4 R 4 4 R 4 4 R 3 3 R
4 4 R 4 4 R 4 4 R 3 3 R 4 4 R 4 4 R 4 4 R 4 4 R 3 4 R 4 4 R 4 4 R 4 4 R
3 4 R 4 4 R 4 4 R 4 4 R 3 4 R 4 4 R 4 4 R 4 4 R 3 4 R 4 4 R 4 5 R 4 4 R
3 4 R 4 4 R 4 4 R 4 5 R 4 4 R 3 4 R 4 5 R 4 4 R 4 4 R 3 5 R 4 4 R 4 5 R
4 4 R 3 5 R 4 4 R 4 5 R 4 4 R 3 5 R 4 4 R 4 5 R 4 4 R 4 5 R 3 5 R 4 4 R
4 5 R 4 5 R 3 5 R 4 4 R 4 5 R 4 5 R 3 5 R 4 5 R 4 5 R 4 4 R 3 5 R 4 5 R
4 5 R 4 5 R 3 5 R 4 5 R 4 5 R 4 5 R 4 5 R 3 6 R 4 5 R 4 5 R 4 5 R 3 5 R
4 5 R 4 6 R 4 5 R 3 5 R 4 6 R 4 5 R 4 5 R 3 6 R 4 5 R 4 6 R 4 5 R 3 5 R
4 6 R 4 6 R 4 5 R 4 6 R 3 5 R 4 6 R 4 5 R 4 6 R 3 6 R 4 6 R 4 5 R 4 6 R
3 6 R 4 6 R 4 5 R 4 6 R 3 6 R 4 6 R 4 6 R 4 6 R 3 6 R 4 6 R 4 6 R 4 6 R
4 6 R 3 6 R 4 6 R 4 7 R 4 6 R 3 6 R 4 6 R 4 6 R 4 7 R 3 6 R 4 6 R 4 7 R
4 6 R 3 7 R 4 6 R 4 6 R 4 7 R 3 6 R 4 7 R 4 7 R 4 6 R 4 7 R 3 6 R 4 7 R
4 7 R 4 7 R 3 6 R 4 7 R 4 7 R 4 7 R 3 7 R 4 7 R 4 6 R 4 7 R 3 7 R 4 7 R
4 7 R 4 8 R 3 7 R 4 7 R 4 7 R 4 7 R 4 7 R 3 7 R 4 8 R 4 7 R 4 7 R 3 8 R
4 7 R 4 8 R 4 7 R 3 7 R 4 8 R 4 7 R 4 8 R 3 8 R 4 7 R 4 8 R 4 8 R 3 7 R
4 8 R 4 8 R 4 8 R 4 7 R 3 8 R 4 8 R 4 8 R 4 8 R 3 8 R 4 8 R 4 8 R 4 8 R
3 8 R 4 8 R 4 9 R 4 8 R 3 8 R 4 8 R 4 9 R 4 8 R 3 8 R 4 9 R 4 8 R 4 8 R
4 9 R 3 9 R 4 8 R 4 9 R 4 8 R 3 9 R 4 9 R 4 8 R 4 9 R 3 9 R 4 9 R 4 9 R
4 8 R 3 9 R 4 9 R 4 9 R 4 9 R 3 9 R 4 10 R 4 9 R 4 9 R 4 9 R 3 9 R 4 10 R
4 9 R 4 9 R 3 10 R 4 9 R 4 10 R 4 9 R 3 10 R 4 9 R 4 10 R 4 9 R 3 10 R
4 10 R 4 10 R 4 9 R 4 10 R 3 10 R 4 10 R 4 10 R 4 10 R 3 10 R 4 10 R 4 10 R
4 10 R 3 10 R 4 10 R 4 11 R 4 10 R 3 10 R 4 -3699 R 4 0 R 4 0 R 3 0 R 4 0 R
4 0 R 4 0 R 4 0 R 3 0 R 4 0 R 4 1 R 4 0 R 3 0 R 4 0 R 4 0 R 4 0 R 3 0 R
4 0 R 4 0 R 4 0 R 3 0 R 4 0 R 4 0 R 4 0 R 3 1 R 4 0 R 4 0 R 4 0 R 4 0 R
3 0 R 4 0 R 4 0 R 4 0 R 3 0 R 4 0 R 4 0 R 4 0 R 3 0 R 4 1 R 4 0 R 4 0 R
3 0 R 4 0 R 4 0 R 4 0 R 3 0 R 4 0 R 4 0 R 4 0 R 4 0 R 3 0 R 4 0 R 4 1 R
4 0 R 3 0 R 4 0 R 4 0 R 4 0 R 3 0 R 4 0 R 4 0 R 4 0 R 3 0 R 4 0 R 4 0 R
4 0 R 3 0 R 4 1 R 4 0 R 4 0 R 4 0 R 3 0 R 4 0 R 4 0 R 4 0 R 3 0 R 4 0 R
4 0 R 4 0 R 3 0 R 4 0 R 4 0 R 4 1 R 3 0 R 4 0 R 4 0 R 4 0 R 3 0 R 4 0 R
4 0 R 4 0 R 4 0 R 3 0 R 4 0 R 4 0 R 4 0 R 3 0 R 4 1 R 4 0 R 4 0 R 3 0 R
4 0 R 4 0 R 4 0 R 3 0 R 4 0 R 4 0 R 4 0 R 3 0 R 4 0 R 4 0 R 4 0 R 4 0 R
3 1 R 4 0 R 4 0 R 4 0 R 3 0 R 4 0 R 4 0 R 4 0 R 3 0 R 4 0 R 4 0 R 4 0 R
3 0 R 4 0 R 4 0 R 4 0 R 3 0 R 4 1 R 4 0 R 4 0 R 4 0 R 3 0 R 4 0 R 4 0 R
4 0 R 3 0 R 4 0 R 4 0 R 4 0 R 3 0 R 4 0 R 4 0 R 4 0 R 3 0 R 4 1 R 4 0 R
4 0 R 3 0 R 4 0 R 4 0 R 4 0 R 4 0 R 3 0 R 4 0 R 4 0 R 4 0 R 3 0 R 4 0 R
4 0 R 4 0 R 3 0 R 4 1 R 4 0 R 4 0 R 3 0 R 4 0 R 4 0 R 4 0 R 4 0 R 3 0 R
4 0 R 4 0 R 4 0 R 3 0 R 4 0 R 4 0 R 4 0 R 3 0 R 4 0 R 4 0 R 4 1 R 3 0 R
4 0 R 4 0 R 4 0 R 3 0 R 4 0 R 4 0 R 4 0 R 4 0 R 3 0 R 4 0 R 4 0 R 4 0 R
3 0 R 4 0 R 4 0 R 4 0 R 3 1 R 4 0 R 4 0 R 4 0 R 3 0 R 4 0 R 4 0 R 4 0 R
3 0 R 4 0 R 4 0 R 4 0 R 4 0 R 3 0 R 4 0 R 4 0 R 4 0 R 3 0 R 4 0 R 4 0 R
4 1 R 3 0 R 4 0 R 4 0 R 4 0 R 3 0 R 4 0 R 4 0 R 4 0 R 3 0 R 4 0 R 4 0 R
4 0 R 4 0 R 3 0 R 4 0 R 4 0 R 4 0 R 3 0 R 4 0 R 4 1 R 4 0 R 3 0 R 4 0 R
4 0 R 4 0 R 3 0 R 4 0 R 4 0 R 4 0 R D 4487 1804 M 3 0 R 4 0 R 4 0 R 4 0 R
4 0 R 3 0 R 4 0 R 4 0 R 4 0 R 3 0 R 4 1 R 4 0 R 4 0 R 3 0 R 4 0 R 4 0 R
4 0 R 3 0 R 4 0 R 4 0 R 4 0 R 3 0 R 4 0 R 4 0 R 4 0 R 4 0 R 3 0 R 4 0 R
4 0 R 4 0 R 3 0 R 4 0 R 4 1 R 4 0 R 3 0 R 4 0 R 4 0 R 4 0 R 3 0 R 4 0 R
4 0 R 4 0 R 3 0 R 4 0 R 4 0 R 4 0 R 4 0 R 3 0 R 4 0 R 4 0 R 4 0 R 3 0 R
4 0 R 4 0 R 4 1 R 3 0 R 4 0 R 4 0 R 4 0 R 3 0 R 4 0 R 4 0 R 4 0 R 3 0 R
4 0 R 4 0 R 4 0 R 4 0 R 3 0 R 4 0 R 4 0 R 4 0 R 3 0 R 4 0 R 4 0 R 4 0 R
3 0 R 4 1 R 4 0 R 4 0 R 3 0 R 4 0 R 4 0 R 4 0 R 3 0 R 4 0 R 4 0 R 4 0 R
4 0 R 3 0 R 4 0 R 4 0 R 4 0 R 3 0 R 4 0 R 4 0 R 4 0 R 3 0 R 4 0 R 4 0 R
4 1 R 3 0 R 4 0 R 4 0 R 4 0 R 4 0 R 3 0 R 4 0 R 4 0 R 4 0 R 3 0 R 4 0 R
4 0 R 4 0 R 3 0 R 4 0 R 4 0 R 4 0 R 3 0 R 4 0 R 4 0 R 4 0 R 3 0 R 4 0 R
4 0 R 4 1 R 4 0 R 3 0 R 4 0 R 4 0 R 4 0 R 3 0 R 4 0 R 4 0 R 4 0 R 3 0 R
4 0 R 4 0 R 4 0 R 3 0 R 4 0 R 4 0 R 4 0 R 3 0 R 4 0 R 4 0 R 4 0 R 4 0 R
3 0 R 4 0 R 4 1 R 4 0 R 3 0 R 4 0 R 4 0 R 4 0 R 3 0 R 4 0 R 4 0 R 4 0 R
3 0 R 4 0 R 4 0 R 4 0 R 3 0 R 4 0 R 4 0 R 4 0 R 4 0 R 3 0 R 4 0 R 4 0 R
4 0 R 3 0 R 4 0 R 4 0 R 4 1 R 3 0 R 4 0 R 4 0 R 4 0 R 3 0 R 4 0 R 4 0 R
4 0 R 3 0 R 4 0 R 4 0 R 4 0 R 4 0 R 3 0 R 4 0 R 4 0 R 4 0 R 3 0 R 4 0 R
4 0 R 4 0 R 3 0 R 4 0 R 4 0 R 4 0 R 3 0 R 4 0 R 4 1 R 4 0 R 3 0 R 4 0 R
4 0 R 4 0 R 4 0 R 3 0 R 4 0 R 4 0 R 4 0 R 3 0 R 4 0 R 4 0 R 4 0 R 3 0 R
4 0 R 4 0 R 4 0 R 3 0 R 4 0 R 4 0 R 4 0 R 3 0 R 4 0 R 4 0 R 4 0 R 4 0 R
3 1 R 4 0 R 4 0 R 4 0 R 3 0 R 4 0 R 4 0 R 4 0 R 3 0 R 4 0 R 4 0 R 4 0 R
3 0 R 4 0 R 4 0 R 4 0 R 3 0 R D 7592 7406 M 3762 0 R D 7592 7406 M 0 95 R D
7443 7194 M -27 -9 R -17 -26 R -9 -44 R 0 -26 R 9 -44 R 17 -26 R 27 -9 R
17 0 R 27 9 R 17 26 R 9 44 R 0 26 R -9 44 R -17 26 R -27 9 R -17 0 R D
7583 7028 M -9 -9 R 9 -9 R 9 9 R -9 9 R D 7706 7194 M -27 -9 R -17 -26 R
-9 -44 R 0 -26 R 9 -44 R 17 -26 R 27 -9 R 17 0 R 26 9 R 18 26 R 9 44 R
0 26 R -9 44 R -18 26 R -26 9 R -17 0 R D 8532 7406 M 0 95 R D 8383 7194 M
-26 -9 R -17 -26 R -9 -44 R 0 -26 R 9 -44 R 17 -26 R 26 -9 R 18 0 R 26 9 R
18 26 R 8 44 R 0 26 R -8 44 R -18 26 R -26 9 R -18 0 R D 8524 7028 M -9 -9 R
9 -9 R 8 9 R -8 9 R D 8699 7194 M -88 0 R -9 -79 R 9 9 R 26 9 R 27 0 R
26 -9 R 18 -18 R 8 -26 R 0 -17 R -8 -27 R -18 -17 R -26 -9 R -27 0 R -26 9 R
-9 9 R -8 17 R D 9473 7406 M 0 95 R D 9298 7159 M 17 9 R 26 26 R 0 -184 R D
9464 7028 M -9 -9 R 9 -9 R 9 9 R -9 9 R D 9587 7194 M -27 -9 R -17 -26 R
-9 -44 R 0 -26 R 9 -44 R 17 -26 R 27 -9 R 17 0 R 27 9 R 17 26 R 9 44 R
0 26 R -9 44 R -17 26 R -27 9 R -17 0 R D 10413 7406 M 0 95 R D 10238 7159 M
18 9 R 26 26 R 0 -184 R D 10405 7028 M -9 -9 R 9 -9 R 8 9 R -8 9 R D
10580 7194 M -88 0 R -9 -79 R 9 9 R 27 9 R 26 0 R 26 -9 R 18 -18 R 8 -26 R
0 -17 R -8 -27 R -18 -17 R -26 -9 R -26 0 R -27 9 R -9 9 R -8 17 R D
11354 7406 M 0 95 R D 11161 7150 M 0 9 R 9 18 R 9 8 R 17 9 R 35 0 R 18 -9 R
9 -8 R 8 -18 R 0 -17 R -8 -18 R -18 -26 R -88 -88 R 123 0 R D 11345 7028 M
-9 -9 R 9 -9 R 9 9 R -9 9 R D 11468 7194 M -26 -9 R -18 -26 R -9 -44 R
0 -26 R 9 -44 R 18 -26 R 26 -9 R 17 0 R 27 9 R 17 26 R 9 44 R 0 26 R -9 44 R
-17 26 R -27 9 R -17 0 R D 7780 7406 M 0 48 R D 7968 7406 M 0 48 R D
8156 7406 M 0 48 R D 8344 7406 M 0 48 R D 8720 7406 M 0 48 R D 8909 7406 M
0 48 R D 9097 7406 M 0 48 R D 9285 7406 M 0 48 R D 9661 7406 M 0 48 R D
9849 7406 M 0 48 R D 10037 7406 M 0 48 R D 10225 7406 M 0 48 R D
10601 7406 M 0 48 R D 10790 7406 M 0 48 R D 10978 7406 M 0 48 R D
11166 7406 M 0 48 R D 9237 6790 M 0 -123 R D 9237 6737 M 9 26 R 18 18 R
17 9 R 26 0 R D 9491 6886 M -157 -289 R D 9544 6790 M 0 -123 R D 9544 6737 M
9 26 R 17 18 R 18 9 R 26 0 R D 9670 6673 M -11 -5 R -11 -11 R -6 -17 R
0 -10 R 6 -17 R 11 -10 R 11 -6 R 16 0 R 11 6 R 11 10 R 5 17 R 0 10 R -5 17 R
-11 11 R -11 5 R -16 0 R D 7592 12172 M 3762 0 R D 7592 12172 M 0 -95 R D
8532 12172 M 0 -95 R D 9473 12172 M 0 -95 R D 10413 12172 M 0 -95 R D
11354 12172 M 0 -95 R D 7780 12172 M 0 -48 R D 7968 12172 M 0 -48 R D
8156 12172 M 0 -48 R D 8344 12172 M 0 -48 R D 8720 12172 M 0 -48 R D
8909 12172 M 0 -48 R D 9097 12172 M 0 -48 R D 9285 12172 M 0 -48 R D
9661 12172 M 0 -48 R D 9849 12172 M 0 -48 R D 10037 12172 M 0 -48 R D
10225 12172 M 0 -48 R D 10601 12172 M 0 -48 R D 10790 12172 M 0 -48 R D
10978 12172 M 0 -48 R D 11166 12172 M 0 -48 R D 7592 7406 M 0 4766 R D
7592 7406 M 75 0 R D 7403 7590 M -26 -9 R -17 -26 R -9 -44 R 0 -26 R 9 -44 R
17 -26 R 26 -9 R 18 0 R 26 9 R 18 26 R 8 44 R 0 26 R -8 44 R -18 26 R
-26 9 R -18 0 R D 7592 8359 M 75 0 R D 7360 8394 M 0 9 R 8 17 R 9 9 R 18 9 R
35 0 R 17 -9 R 9 -9 R 9 -17 R 0 -18 R -9 -17 R -18 -27 R -87 -87 R 122 0 R D
7592 9312 M 75 0 R D 7438 9391 M -87 -123 R 131 0 R D 7438 9391 M 0 -184 R D
7592 10266 M 75 0 R D 7465 10318 M -9 17 R -26 9 R -18 0 R -26 -9 R
-18 -26 R -8 -44 R 0 -44 R 8 -35 R 18 -17 R 26 -9 R 9 0 R 26 9 R 18 17 R
8 27 R 0 8 R -8 27 R -18 17 R -26 9 R -9 0 R -26 -9 R -18 -17 R -8 -27 R D
7592 11219 M 75 0 R D 7395 11297 M -27 -8 R -8 -18 R 0 -18 R 8 -17 R 18 -9 R
35 -9 R 26 -8 R 18 -18 R 8 -17 R 0 -27 R -8 -17 R -9 -9 R -26 -9 R -35 0 R
-27 9 R -8 9 R -9 17 R 0 27 R 9 17 R 17 18 R 26 8 R 35 9 R 18 9 R 9 17 R
0 18 R -9 18 R -26 8 R -35 0 R D 7592 12172 M 75 0 R D 7202 12136 M 17 9 R
27 26 R 0 -184 R D 7403 12171 M -26 -8 R -17 -27 R -9 -44 R 0 -26 R 9 -44 R
17 -26 R 26 -9 R 18 0 R 26 9 R 18 26 R 8 44 R 0 26 R -8 44 R -18 27 R
-26 8 R -18 0 R D 7592 7644 M 37 0 R D 7592 7883 M 37 0 R D 7592 8121 M
37 0 R D 7592 8598 M 37 0 R D 7592 8836 M 37 0 R D 7592 9074 M 37 0 R D
7592 9551 M 37 0 R D 7592 9789 M 37 0 R D 7592 10027 M 37 0 R D 7592 10504 M
37 0 R D 7592 10742 M 37 0 R D 7592 10981 M 37 0 R D 7592 11457 M 37 0 R D
7592 11695 M 37 0 R D 7592 11934 M 37 0 R D 6724 9412 M 184 0 R D
6812 9412 M -18 18 R -8 17 R 0 26 R 8 18 R 18 17 R 26 9 R 18 0 R 26 -9 R
17 -17 R 9 -18 R 0 -26 R -9 -17 R -17 -18 R D 6902 9569 M 76 0 R D
6935 9569 M -17 5 R -11 11 R -5 11 R 0 16 R D 6689 9851 M 18 -18 R 26 -17 R
35 -18 R 44 -9 R 35 0 R 44 9 R 44 18 R 26 17 R 17 18 R D 6768 10035 M
-18 -9 R -17 -18 R -9 -17 R 0 -35 R 9 -18 R 17 -17 R 18 -9 R 26 -9 R 44 0 R
26 9 R 18 9 R 17 17 R 9 18 R 0 35 R -9 17 R -17 18 R -18 9 R -26 0 R 0 -44 R
D 6689 10087 M 18 18 R 26 17 R 35 18 R 44 9 R 35 0 R 44 -9 R 44 -18 R
26 -17 R 17 -18 R D 11354 7406 M 0 4766 R D 11354 7406 M -75 0 R D
11354 8359 M -75 0 R D 11354 9312 M -75 0 R D 11354 10266 M -75 0 R D
11354 11219 M -75 0 R D 11354 12172 M -75 0 R D 11354 7644 M -38 0 R D
11354 7883 M -38 0 R D 11354 8121 M -38 0 R D 11354 8598 M -38 0 R D
11354 8836 M -38 0 R D 11354 9074 M -38 0 R D 11354 9551 M -38 0 R D
11354 9789 M -38 0 R D 11354 10027 M -38 0 R D 11354 10504 M -38 0 R D
11354 10742 M -38 0 R D 11354 10981 M -38 0 R D 11354 11457 M -38 0 R D
11354 11695 M -38 0 R D 11354 11934 M -38 0 R D 7592 7406 M 4 5 R 3 5 R
4 5 R 4 5 R 4 5 R 3 6 R 4 5 R 4 5 R 4 5 R 3 5 R 4 5 R 4 5 R 4 5 R 3 5 R
4 5 R 4 5 R 4 6 R 3 5 R 4 5 R 4 5 R 4 5 R 4 5 R 3 5 R 4 5 R 4 5 R 4 5 R
3 6 R 4 5 R 4 5 R 4 5 R 3 5 R 4 5 R 4 5 R 4 5 R 3 5 R 4 6 R 4 5 R 4 5 R
3 5 R 4 5 R 4 5 R 4 5 R 4 5 R 3 6 R 4 5 R 4 5 R 4 5 R 3 5 R 4 5 R 4 6 R
4 5 R 3 5 R 4 5 R 4 5 R 4 5 R 3 6 R 4 5 R 4 5 R 4 5 R 3 5 R 4 6 R 4 5 R
4 5 R 4 5 R 3 5 R 4 6 R 4 5 R 4 5 R 3 5 R 4 5 R 4 6 R 4 5 R 3 5 R 4 5 R
4 6 R 4 5 R 3 5 R 4 6 R 4 5 R 4 5 R 3 5 R 4 6 R 4 5 R 4 5 R 4 6 R 3 5 R
4 5 R 4 6 R 4 5 R 3 5 R 4 6 R 4 5 R 4 5 R 3 6 R 4 5 R 4 5 R 4 6 R 3 5 R
4 5 R 4 6 R 4 5 R 3 6 R 4 5 R 4 6 R 4 5 R 4 5 R 3 6 R 4 5 R 4 6 R 4 5 R
3 6 R 4 5 R 4 6 R 4 5 R 3 6 R 4 5 R 4 6 R 4 5 R 3 6 R 4 5 R 4 6 R 4 5 R
4 6 R 3 5 R 4 6 R 4 6 R 4 5 R 3 6 R 4 5 R 4 6 R 4 6 R 3 5 R 4 6 R 4 6 R
4 5 R 3 6 R 4 6 R 4 5 R 4 6 R 3 6 R 4 5 R 4 6 R 4 6 R 4 6 R 3 5 R 4 6 R
4 6 R 4 6 R 3 6 R 4 5 R 4 6 R 4 6 R 3 6 R 4 6 R 4 5 R 4 6 R 3 6 R 4 6 R
4 6 R 4 6 R 3 6 R 4 6 R 4 6 R 4 6 R 4 6 R 3 6 R 4 5 R 4 6 R 4 6 R 3 6 R
4 7 R 4 6 R 4 6 R 3 6 R 4 6 R 4 6 R 4 6 R 3 6 R 4 6 R 4 6 R 4 6 R 3 7 R
4 6 R 4 6 R 4 6 R 4 6 R 3 6 R 4 7 R 4 6 R 4 6 R 3 6 R 4 7 R 4 6 R 4 6 R
3 7 R 4 6 R 4 6 R 4 7 R 3 6 R 4 6 R 4 7 R 4 6 R 3 7 R 4 6 R 4 7 R 4 6 R
4 7 R 3 6 R 4 7 R 4 6 R 4 7 R 3 6 R 4 7 R 4 6 R 4 7 R 3 7 R 4 6 R 4 7 R
4 7 R 3 6 R 4 7 R 4 7 R 4 6 R 3 7 R 4 7 R 4 7 R 4 6 R 4 7 R 3 7 R 4 7 R
4 7 R 4 7 R 3 6 R 4 7 R 4 7 R 4 7 R 3 7 R 4 7 R 4 7 R 4 7 R 3 7 R 4 7 R
4 7 R 4 7 R 3 7 R 4 7 R 4 8 R 4 7 R 4 7 R 3 7 R 4 7 R 4 7 R 4 8 R 3 7 R
4 7 R 4 7 R 4 8 R 3 7 R 4 7 R 4 8 R 4 7 R 3 7 R 4 8 R 4 7 R 4 8 R 3 7 R
4 8 R 4 7 R 4 8 R 4 7 R 3 8 R 4 8 R 4 7 R 4 8 R 3 7 R 4 8 R 4 8 R 4 7 R
3 8 R 4 8 R 4 8 R 4 8 R 3 7 R 4 8 R 4 8 R 4 8 R 3 8 R 4 8 R 4 8 R 4 8 R
4 8 R 3 8 R 4 8 R 4 8 R 4 8 R 3 8 R 4 8 R 4 8 R 4 8 R 3 9 R 4 8 R 4 8 R
4 8 R 3 9 R 4 8 R 4 8 R 4 9 R 4 8 R 3 8 R 4 9 R 4 8 R 4 9 R 3 8 R 4 9 R
4 8 R 4 9 R 3 8 R 4 9 R 4 9 R 4 8 R 3 9 R 4 9 R 4 8 R 4 9 R 3 9 R 4 9 R
4 9 R 4 9 R 4 8 R 3 9 R 4 9 R 4 9 R 4 9 R 3 9 R 4 9 R 4 9 R 4 10 R 3 9 R
4 9 R 4 9 R 4 9 R 3 10 R 4 9 R 4 9 R 4 9 R 3 10 R 4 9 R 4 10 R 4 9 R 4 10 R
3 9 R 4 10 R 4 9 R 4 10 R 3 9 R 4 10 R 4 10 R 4 9 R 3 10 R 4 10 R 4 10 R
4 9 R 3 10 R 4 10 R 4 10 R 4 10 R 3 10 R 4 10 R 4 10 R 4 10 R 4 10 R 3 10 R
4 10 R 4 11 R 4 10 R 3 10 R 4 10 R 4 11 R 4 10 R 3 10 R 4 11 R 4 10 R 4 11 R
3 10 R 4 11 R 4 10 R 4 11 R 3 11 R 4 10 R 4 11 R 4 11 R 4 11 R 3 10 R 4 11 R
4 11 R 4 11 R 3 11 R 4 11 R 4 11 R 4 11 R 3 11 R 4 11 R 4 12 R 4 11 R 3 11 R
4 11 R 4 12 R 4 11 R 3 11 R 4 12 R 4 11 R 4 12 R 4 11 R 3 12 R 4 11 R 4 12 R
4 12 R 3 11 R 4 12 R 4 12 R 4 12 R 3 12 R 4 12 R 4 11 R 4 12 R 3 12 R 4 13 R
4 12 R 4 12 R 3 12 R 4 12 R 4 12 R 4 13 R 4 12 R 3 12 R 4 13 R 4 12 R 4 13 R
3 12 R 4 13 R 4 13 R 4 12 R 3 13 R 4 13 R 4 13 R 4 12 R 3 13 R 4 13 R 4 13 R
4 13 R 3 13 R 4 13 R 4 14 R 4 13 R 4 13 R 3 13 R 4 14 R 4 13 R 4 13 R 3 14 R
4 13 R 4 14 R 4 13 R 3 14 R 4 14 R 4 13 R 4 14 R 3 14 R 4 14 R 4 14 R 4 14 R
3 14 R 4 14 R 4 14 R 4 14 R 4 14 R 3 14 R 4 15 R 4 14 R 4 14 R 3 15 R 4 14 R
4 15 R 4 14 R 3 15 R 4 15 R 4 15 R 4 14 R 3 15 R 4 15 R 4 15 R 4 15 R 4 15 R
3 15 R 4 15 R 4 15 R 4 16 R 3 15 R 4 15 R 4 -4073 R 4 0 R 3 0 R 4 0 R 4 0 R
4 0 R 3 0 R 4 0 R 4 0 R 4 0 R 3 0 R 4 0 R 4 0 R 4 0 R 4 0 R 3 0 R 4 0 R
4 0 R 4 0 R 3 0 R 4 0 R 4 0 R 4 0 R 3 0 R 4 0 R 4 0 R 4 0 R 3 0 R 4 0 R
4 0 R 4 0 R 3 0 R 4 0 R 4 0 R 4 0 R 4 0 R 3 0 R 4 0 R 4 0 R 4 0 R 3 0 R
4 0 R 4 0 R 4 0 R 3 0 R 4 0 R 4 0 R 4 0 R 3 0 R 4 0 R 4 0 R 4 0 R 3 0 R
4 0 R 4 0 R 4 0 R 4 0 R 3 0 R 4 0 R 4 0 R 4 0 R 3 0 R 4 0 R 4 0 R 4 0 R
3 0 R 4 0 R 4 0 R 4 0 R 3 0 R 4 0 R 4 0 R 4 0 R 3 0 R 4 0 R 4 0 R 4 0 R
4 0 R 3 0 R 4 0 R 4 0 R 4 0 R 3 0 R 4 0 R 4 0 R 4 0 R 3 0 R 4 0 R 4 0 R
4 0 R 3 0 R 4 0 R 4 0 R 4 0 R 3 0 R 4 0 R 4 0 R 4 0 R 4 0 R 3 0 R 4 0 R
4 0 R 4 0 R 3 0 R 4 0 R 4 0 R 4 0 R 3 0 R 4 0 R 4 0 R 4 0 R 3 0 R 4 0 R
4 0 R 4 0 R 3 0 R 4 0 R 4 0 R 4 0 R 4 0 R 3 0 R 4 0 R 4 0 R 4 0 R 3 0 R
4 0 R 4 0 R 4 0 R 3 0 R 4 0 R 4 0 R 4 0 R 3 0 R 4 0 R 4 0 R 4 0 R 3 0 R
4 0 R 4 0 R 4 0 R 4 0 R 3 0 R 4 0 R 4 0 R 4 0 R 3 0 R 4 0 R 4 0 R 4 0 R
3 0 R 4 0 R 4 0 R 4 0 R 3 0 R 4 0 R 4 0 R 4 0 R 3 0 R 4 0 R 4 0 R 4 0 R
4 0 R 3 0 R 4 0 R 4 0 R 4 0 R 3 0 R 4 0 R 4 0 R 4 0 R 3 0 R 4 0 R 4 0 R
4 0 R 3 0 R 4 0 R 4 0 R 4 0 R 4 0 R 3 0 R 4 0 R 4 0 R 4 0 R 3 0 R 4 0 R
4 0 R 4 0 R 3 0 R 4 0 R 4 0 R 4 0 R 3 0 R 4 0 R 4 0 R 4 0 R 3 0 R 4 0 R
4 0 R 4 0 R 4 0 R 3 0 R 4 0 R 4 0 R 4 0 R 3 0 R 4 0 R 4 0 R 4 0 R 3 0 R
4 0 R 4 0 R 4 0 R 3 0 R 4 0 R 4 0 R 4 0 R 3 0 R 4 0 R 4 0 R 4 0 R 4 0 R
3 0 R 4 0 R 4 0 R 4 0 R 3 0 R 4 0 R 4 0 R 4 0 R 3 0 R 4 0 R 4 0 R 4 0 R
3 0 R 4 0 R 4 0 R 4 0 R 3 0 R 4 0 R 4 0 R 4 0 R 4 0 R 3 0 R 4 0 R 4 0 R
4 0 R 3 0 R 4 0 R 4 0 R 4 0 R 3 0 R D 10413 7406 M 4 0 R 4 0 R 4 0 R 3 0 R
4 0 R 4 0 R 4 0 R 3 0 R 4 0 R 4 0 R 4 0 R 4 0 R 3 0 R 4 0 R 4 0 R 4 0 R
3 0 R 4 0 R 4 0 R 4 0 R 3 0 R 4 0 R 4 0 R 4 0 R 3 0 R 4 0 R 4 0 R 4 0 R
3 0 R 4 0 R 4 0 R 4 0 R 4 0 R 3 0 R 4 0 R 4 0 R 4 0 R 3 0 R 4 0 R 4 0 R
4 0 R 3 0 R 4 0 R 4 0 R 4 0 R 3 0 R 4 0 R 4 0 R 4 0 R 3 0 R 4 0 R 4 0 R
4 0 R 4 0 R 3 0 R 4 0 R 4 0 R 4 0 R 3 0 R 4 0 R 4 0 R 4 0 R 3 0 R 4 0 R
4 0 R 4 0 R 3 0 R 4 0 R 4 0 R 4 0 R 3 0 R 4 0 R 4 0 R 4 0 R 4 0 R 3 0 R
4 0 R 4 0 R 4 0 R 3 0 R 4 0 R 4 0 R 4 0 R 3 0 R 4 0 R 4 0 R 4 0 R 3 0 R
4 0 R 4 0 R 4 0 R 4 0 R 3 0 R 4 0 R 4 0 R 4 0 R 3 0 R 4 0 R 4 0 R 4 0 R
3 0 R 4 0 R 4 0 R 4 0 R 3 0 R 4 0 R 4 0 R 4 0 R 3 0 R 4 0 R 4 0 R 4 0 R
4 0 R 3 0 R 4 0 R 4 0 R 4 0 R 3 0 R 4 0 R 4 0 R 4 0 R 3 0 R 4 0 R 4 0 R
4 0 R 3 0 R 4 0 R 4 0 R 4 0 R 3 0 R 4 0 R 4 0 R 4 0 R 4 0 R 3 0 R 4 0 R
4 0 R 4 0 R 3 0 R 4 0 R 4 0 R 4 0 R 3 0 R 4 0 R 4 0 R 4 0 R 3 0 R 4 0 R
4 0 R 4 0 R 3 0 R 4 0 R 4 0 R 4 0 R 4 0 R 3 0 R 4 0 R 4 0 R 4 0 R 3 0 R
4 0 R 4 0 R 4 0 R 3 0 R 4 0 R 4 0 R 4 0 R 3 0 R 4 0 R 4 0 R 4 0 R 3 0 R
4 0 R 4 0 R 4 0 R 4 0 R 3 0 R 4 0 R 4 0 R 4 0 R 3 0 R 4 0 R 4 0 R 4 0 R
3 0 R 4 0 R 4 0 R 4 0 R 3 0 R 4 0 R 4 0 R 4 0 R 3 0 R 4 0 R 4 0 R 4 0 R
4 0 R 3 0 R 4 0 R 4 0 R 4 0 R 3 0 R 4 0 R 4 0 R 4 0 R 3 0 R 4 0 R 4 0 R
4 0 R 3 0 R 4 0 R 4 0 R 4 0 R 3 0 R 4 0 R 4 0 R 4 0 R 4 0 R 3 0 R 4 0 R
4 0 R 4 0 R 3 0 R 4 0 R 4 0 R 4 0 R 3 0 R 4 0 R 4 0 R 4 0 R 3 0 R 4 0 R
4 0 R 4 0 R 3 0 R 4 0 R 4 0 R 4 0 R 4 0 R 3 0 R 4 0 R 4 0 R 4 0 R 3 0 R
4 0 R 4 0 R 4 0 R 3 0 R 4 0 R D 7592 1056 M 3762 0 R D 7592 1056 M 0 95 R D
7443 844 M -27 -9 R -17 -26 R -9 -44 R 0 -26 R 9 -44 R 17 -26 R 27 -9 R
17 0 R 27 9 R 17 26 R 9 44 R 0 26 R -9 44 R -17 26 R -27 9 R -17 0 R D
7583 678 M -9 -9 R 9 -9 R 9 9 R -9 9 R D 7706 844 M -27 -9 R -17 -26 R
-9 -44 R 0 -26 R 9 -44 R 17 -26 R 27 -9 R 17 0 R 26 9 R 18 26 R 9 44 R
0 26 R -9 44 R -18 26 R -26 9 R -17 0 R D 8532 1056 M 0 95 R D 8383 844 M
-26 -9 R -17 -26 R -9 -44 R 0 -26 R 9 -44 R 17 -26 R 26 -9 R 18 0 R 26 9 R
18 26 R 8 44 R 0 26 R -8 44 R -18 26 R -26 9 R -18 0 R D 8524 678 M -9 -9 R
9 -9 R 8 9 R -8 9 R D 8699 844 M -88 0 R -9 -79 R 9 9 R 26 9 R 27 0 R
26 -9 R 18 -18 R 8 -26 R 0 -17 R -8 -27 R -18 -17 R -26 -9 R -27 0 R -26 9 R
-9 9 R -8 17 R D 9473 1056 M 0 95 R D 9298 809 M 17 9 R 26 26 R 0 -184 R D
9464 678 M -9 -9 R 9 -9 R 9 9 R -9 9 R D 9587 844 M -27 -9 R -17 -26 R
-9 -44 R 0 -26 R 9 -44 R 17 -26 R 27 -9 R 17 0 R 27 9 R 17 26 R 9 44 R
0 26 R -9 44 R -17 26 R -27 9 R -17 0 R D 10413 1056 M 0 95 R D 10238 809 M
18 9 R 26 26 R 0 -184 R D 10405 678 M -9 -9 R 9 -9 R 8 9 R -8 9 R D
10580 844 M -88 0 R -9 -79 R 9 9 R 27 9 R 26 0 R 26 -9 R 18 -18 R 8 -26 R
0 -17 R -8 -27 R -18 -17 R -26 -9 R -26 0 R -27 9 R -9 9 R -8 17 R D
11354 1056 M 0 95 R D 11161 800 M 0 9 R 9 18 R 9 8 R 17 9 R 35 0 R 18 -9 R
9 -8 R 8 -18 R 0 -17 R -8 -18 R -18 -26 R -88 -88 R 123 0 R D 11345 678 M
-9 -9 R 9 -9 R 9 9 R -9 9 R D 11468 844 M -26 -9 R -18 -26 R -9 -44 R
0 -26 R 9 -44 R 18 -26 R 26 -9 R 17 0 R 27 9 R 17 26 R 9 44 R 0 26 R -9 44 R
-17 26 R -27 9 R -17 0 R D 7780 1056 M 0 48 R D 7968 1056 M 0 48 R D
8156 1056 M 0 48 R D 8344 1056 M 0 48 R D 8720 1056 M 0 48 R D 8909 1056 M
0 48 R D 9097 1056 M 0 48 R D 9285 1056 M 0 48 R D 9661 1056 M 0 48 R D
9849 1056 M 0 48 R D 10037 1056 M 0 48 R D 10225 1056 M 0 48 R D
10601 1056 M 0 48 R D 10790 1056 M 0 48 R D 10978 1056 M 0 48 R D
11166 1056 M 0 48 R D 9237 440 M 0 -123 R D 9237 387 M 9 26 R 18 18 R 17 9 R
26 0 R D 9491 536 M -157 -289 R D 9544 440 M 0 -123 R D 9544 387 M 9 26 R
17 18 R 18 9 R 26 0 R D 9670 323 M -11 -5 R -11 -11 R -6 -17 R 0 -10 R
6 -17 R 11 -10 R 11 -6 R 16 0 R 11 6 R 11 10 R 5 17 R 0 10 R -5 17 R
-11 11 R -11 5 R -16 0 R D 7592 5822 M 3762 0 R D 7592 5822 M 0 -95 R D
8532 5822 M 0 -95 R D 9473 5822 M 0 -95 R D 10413 5822 M 0 -95 R D
11354 5822 M 0 -95 R D 7780 5822 M 0 -48 R D 7968 5822 M 0 -48 R D
8156 5822 M 0 -48 R D 8344 5822 M 0 -48 R D 8720 5822 M 0 -48 R D
8909 5822 M 0 -48 R D 9097 5822 M 0 -48 R D 9285 5822 M 0 -48 R D
9661 5822 M 0 -48 R D 9849 5822 M 0 -48 R D 10037 5822 M 0 -48 R D
10225 5822 M 0 -48 R D 10601 5822 M 0 -48 R D 10790 5822 M 0 -48 R D
10978 5822 M 0 -48 R D 11166 5822 M 0 -48 R D 7592 1056 M 0 4766 R D
7592 1056 M 75 0 R D 7403 1240 M -26 -9 R -17 -26 R -9 -44 R 0 -26 R 9 -44 R
17 -26 R 26 -9 R 18 0 R 26 9 R 18 26 R 8 44 R 0 26 R -8 44 R -18 26 R
-26 9 R -18 0 R D 7592 1850 M 75 0 R D 7009 1885 M 0 9 R 9 17 R 9 9 R 17 9 R
35 0 R 18 -9 R 8 -9 R 9 -17 R 0 -18 R -9 -17 R -17 -27 R -88 -87 R 123 0 R D
7228 1929 M -26 -9 R -18 -26 R -8 -44 R 0 -26 R 8 -44 R 18 -26 R 26 -9 R
18 0 R 26 9 R 17 26 R 9 44 R 0 26 R -9 44 R -17 26 R -26 9 R -18 0 R D
7403 1929 M -26 -9 R -17 -26 R -9 -44 R 0 -26 R 9 -44 R 17 -26 R 26 -9 R
18 0 R 26 9 R 18 26 R 8 44 R 0 26 R -8 44 R -18 26 R -26 9 R -18 0 R D
7592 2645 M 75 0 R D 7088 2723 M -88 -123 R 132 0 R D 7088 2723 M 0 -184 R D
7228 2723 M -26 -9 R -18 -26 R -8 -44 R 0 -26 R 8 -44 R 18 -26 R 26 -9 R
18 0 R 26 9 R 17 26 R 9 44 R 0 26 R -9 44 R -17 26 R -26 9 R -18 0 R D
7403 2723 M -26 -9 R -17 -26 R -9 -44 R 0 -26 R 9 -44 R 17 -26 R 26 -9 R
18 0 R 26 9 R 18 26 R 8 44 R 0 26 R -8 44 R -18 26 R -26 9 R -18 0 R D
7592 3439 M 75 0 R D 7114 3491 M -9 18 R -26 8 R -17 0 R -27 -8 R -17 -27 R
-9 -43 R 0 -44 R 9 -35 R 17 -18 R 27 -9 R 8 0 R 27 9 R 17 18 R 9 26 R 0 9 R
-9 26 R -17 18 R -27 8 R -8 0 R -27 -8 R -17 -18 R -9 -26 R D 7228 3517 M
-26 -8 R -18 -27 R -8 -43 R 0 -27 R 8 -43 R 18 -27 R 26 -9 R 18 0 R 26 9 R
17 27 R 9 43 R 0 27 R -9 43 R -17 27 R -26 8 R -18 0 R D 7403 3517 M
-26 -8 R -17 -27 R -9 -43 R 0 -27 R 9 -43 R 17 -27 R 26 -9 R 18 0 R 26 9 R
18 27 R 8 43 R 0 27 R -8 43 R -18 27 R -26 8 R -18 0 R D 7592 4233 M 75 0 R
D 7044 4312 M -26 -9 R -9 -17 R 0 -18 R 9 -18 R 17 -8 R 35 -9 R 27 -9 R
17 -17 R 9 -18 R 0 -26 R -9 -18 R -9 -8 R -26 -9 R -35 0 R -26 9 R -9 8 R
-9 18 R 0 26 R 9 18 R 18 17 R 26 9 R 35 9 R 17 8 R 9 18 R 0 18 R -9 17 R
-26 9 R -35 0 R D 7228 4312 M -26 -9 R -18 -26 R -8 -44 R 0 -26 R 8 -44 R
18 -26 R 26 -9 R 18 0 R 26 9 R 17 26 R 9 44 R 0 26 R -9 44 R -17 26 R
-26 9 R -18 0 R D 7403 4312 M -26 -9 R -17 -26 R -9 -44 R 0 -26 R 9 -44 R
17 -26 R 26 -9 R 18 0 R 26 9 R 18 26 R 8 44 R 0 26 R -8 44 R -18 26 R
-26 9 R -18 0 R D 7592 5028 M 75 0 R D 6851 5071 M 18 9 R 26 26 R 0 -184 R D
7053 5106 M -26 -9 R -18 -26 R -9 -44 R 0 -26 R 9 -44 R 18 -26 R 26 -9 R
17 0 R 27 9 R 17 26 R 9 44 R 0 26 R -9 44 R -17 26 R -27 9 R -17 0 R D
7228 5106 M -26 -9 R -18 -26 R -8 -44 R 0 -26 R 8 -44 R 18 -26 R 26 -9 R
18 0 R 26 9 R 17 26 R 9 44 R 0 26 R -9 44 R -17 26 R -26 9 R -18 0 R D
7403 5106 M -26 -9 R -17 -26 R -9 -44 R 0 -26 R 9 -44 R 17 -26 R 26 -9 R
18 0 R 26 9 R 18 26 R 8 44 R 0 26 R -8 44 R -18 26 R -26 9 R -18 0 R D
7592 5822 M 75 0 R D 6851 5786 M 18 9 R 26 26 R 0 -184 R D 7009 5777 M 0 9 R
9 18 R 9 9 R 17 8 R 35 0 R 18 -8 R 8 -9 R 9 -18 R 0 -17 R -9 -18 R -17 -26 R
-88 -88 R 123 0 R D 7228 5821 M -26 -8 R -18 -27 R -8 -44 R 0 -26 R 8 -44 R
18 -26 R 26 -9 R 18 0 R 26 9 R 17 26 R 9 44 R 0 26 R -9 44 R -17 27 R
-26 8 R -18 0 R D 7403 5821 M -26 -8 R -17 -27 R -9 -44 R 0 -26 R 9 -44 R
17 -26 R 26 -9 R 18 0 R 26 9 R 18 26 R 8 44 R 0 26 R -8 44 R -18 27 R
-26 8 R -18 0 R D 7592 1255 M 37 0 R D 7592 1453 M 37 0 R D 7592 1652 M
37 0 R D 7592 2049 M 37 0 R D 7592 2248 M 37 0 R D 7592 2446 M 37 0 R D
7592 2843 M 37 0 R D 7592 3042 M 37 0 R D 7592 3240 M 37 0 R D 7592 3638 M
37 0 R D 7592 3836 M 37 0 R D 7592 4035 M 37 0 R D 7592 4432 M 37 0 R D
7592 4631 M 37 0 R D 7592 4829 M 37 0 R D 7592 5226 M 37 0 R D 7592 5425 M
37 0 R D 7592 5623 M 37 0 R D 6374 3051 M 184 0 R D 6461 3051 M -17 18 R
-9 17 R 0 27 R 9 17 R 17 18 R 27 8 R 17 0 R 26 -8 R 18 -18 R 9 -17 R 0 -27 R
-9 -17 R -18 -18 R D 6552 3262 M 75 -60 R D 6552 3202 M 0 60 R D 6627 3202 M
0 60 R D 6339 3511 M 17 -17 R 26 -18 R 35 -17 R 44 -9 R 35 0 R 44 9 R
44 17 R 26 18 R 18 17 R D 6417 3695 M -17 -8 R -18 -18 R -8 -17 R 0 -35 R
8 -18 R 18 -17 R 17 -9 R 27 -9 R 44 0 R 26 9 R 17 9 R 18 17 R 9 18 R 0 35 R
-9 17 R -18 18 R -17 8 R -26 0 R 0 -43 R D 6339 3748 M 17 18 R 26 17 R
35 18 R 44 8 R 35 0 R 44 -8 R 44 -18 R 26 -17 R 18 -18 R D 11354 1056 M
0 4766 R D 11354 1056 M -75 0 R D 11354 1850 M -75 0 R D 11354 2645 M
-75 0 R D 11354 3439 M -75 0 R D 11354 4233 M -75 0 R D 11354 5028 M -75 0 R
D 11354 5822 M -75 0 R D 11354 1255 M -38 0 R D 11354 1453 M -38 0 R D
11354 1652 M -38 0 R D 11354 2049 M -38 0 R D 11354 2248 M -38 0 R D
11354 2446 M -38 0 R D 11354 2843 M -38 0 R D 11354 3042 M -38 0 R D
11354 3240 M -38 0 R D 11354 3638 M -38 0 R D 11354 3836 M -38 0 R D
11354 4035 M -38 0 R D 11354 4432 M -38 0 R D 11354 4631 M -38 0 R D
11354 4829 M -38 0 R D 11354 5226 M -38 0 R D 11354 5425 M -38 0 R D
11354 5623 M -38 0 R D 7592 5130 M 4 0 R 3 0 R 4 0 R 4 0 R 4 0 R 3 0 R 4 0 R
4 0 R 4 0 R 3 0 R 4 0 R 4 0 R 4 0 R 3 0 R 4 0 R 4 0 R 4 0 R 3 0 R 4 0 R
4 0 R 4 0 R 4 0 R 3 0 R 4 0 R 4 0 R 4 0 R 3 0 R 4 0 R 4 0 R 4 0 R 3 0 R
4 0 R 4 0 R 4 0 R 3 0 R 4 0 R 4 0 R 4 0 R 3 0 R 4 0 R 4 1 R 4 0 R 4 0 R
3 0 R 4 0 R 4 0 R 4 0 R 3 0 R 4 0 R 4 0 R 4 0 R 3 0 R 4 0 R 4 0 R 4 0 R
3 0 R 4 0 R 4 0 R 4 0 R 3 0 R 4 0 R 4 0 R 4 0 R 4 1 R 3 0 R 4 0 R 4 0 R
4 0 R 3 0 R 4 0 R 4 0 R 4 0 R 3 0 R 4 0 R 4 0 R 4 0 R 3 0 R 4 0 R 4 0 R
4 1 R 3 0 R 4 0 R 4 0 R 4 0 R 4 0 R 3 0 R 4 0 R 4 0 R 4 0 R 3 0 R 4 0 R
4 0 R 4 0 R 3 1 R 4 0 R 4 0 R 4 0 R 3 0 R 4 0 R 4 0 R 4 0 R 3 0 R 4 0 R
4 0 R 4 0 R 4 1 R 3 0 R 4 0 R 4 0 R 4 0 R 3 0 R 4 0 R 4 0 R 4 0 R 3 0 R
4 1 R 4 0 R 4 0 R 3 0 R 4 0 R 4 0 R 4 0 R 4 0 R 3 0 R 4 0 R 4 1 R 4 0 R
3 0 R 4 0 R 4 0 R 4 0 R 3 0 R 4 0 R 4 0 R 4 1 R 3 0 R 4 0 R 4 0 R 4 0 R
3 0 R 4 0 R 4 0 R 4 1 R 4 0 R 3 0 R 4 0 R 4 0 R 4 0 R 3 0 R 4 0 R 4 1 R
4 0 R 3 0 R 4 0 R 4 0 R 4 0 R 3 0 R 4 1 R 4 0 R 4 0 R 3 0 R 4 0 R 4 0 R
4 0 R 4 1 R 3 0 R 4 0 R 4 0 R 4 0 R 3 0 R 4 0 R 4 1 R 4 0 R 3 0 R 4 0 R
4 0 R 4 0 R 3 1 R 4 0 R 4 0 R 4 0 R 3 0 R 4 0 R 4 0 R 4 1 R 4 0 R 3 0 R
4 0 R 4 0 R 4 1 R 3 0 R 4 0 R 4 0 R 4 0 R 3 0 R 4 1 R 4 0 R 4 0 R 3 0 R
4 0 R 4 0 R 4 1 R 3 0 R 4 0 R 4 0 R 4 0 R 4 1 R 3 0 R 4 0 R 4 0 R 4 0 R
3 1 R 4 0 R 4 0 R 4 0 R 3 0 R 4 1 R 4 0 R 4 0 R 3 0 R 4 0 R 4 1 R 4 0 R
3 0 R 4 0 R 4 0 R 4 1 R 4 0 R 3 0 R 4 0 R 4 0 R 4 1 R 3 0 R 4 0 R 4 0 R
4 1 R 3 0 R 4 0 R 4 0 R 4 0 R 3 1 R 4 0 R 4 0 R 4 0 R 3 1 R 4 0 R 4 0 R
4 0 R 4 0 R 3 1 R 4 0 R 4 0 R 4 0 R 3 1 R 4 0 R 4 0 R 4 0 R 3 1 R 4 0 R
4 0 R 4 0 R 3 1 R 4 0 R 4 0 R 4 0 R 3 1 R 4 0 R 4 0 R 4 0 R 4 1 R 3 0 R
4 0 R 4 1 R 4 0 R 3 0 R 4 0 R 4 1 R 4 0 R 3 0 R 4 0 R 4 1 R 4 0 R 3 0 R
4 1 R 4 0 R 4 0 R 3 0 R 4 1 R 4 0 R 4 0 R 4 0 R 3 1 R 4 0 R 4 0 R 4 1 R
3 0 R 4 0 R 4 1 R 4 0 R 3 0 R 4 0 R 4 1 R 4 0 R 3 0 R 4 1 R 4 0 R 4 0 R
4 1 R 3 0 R 4 0 R 4 1 R 4 0 R 3 0 R 4 0 R 4 1 R 4 0 R 3 0 R 4 1 R 4 0 R
4 0 R 3 1 R 4 0 R 4 0 R 4 1 R 3 0 R 4 0 R 4 1 R 4 0 R 4 0 R 3 1 R 4 0 R
4 0 R 4 1 R 3 0 R 4 1 R 4 0 R 4 0 R 3 1 R 4 0 R 4 0 R 4 1 R 3 0 R 4 0 R
4 1 R 4 0 R 3 0 R 4 1 R 4 0 R 4 1 R 4 0 R 3 0 R 4 1 R 4 0 R 4 0 R 3 1 R
4 0 R 4 1 R 4 0 R 3 0 R 4 1 R 4 0 R 4 1 R 3 0 R 4 0 R 4 1 R 4 0 R 3 1 R
4 0 R 4 0 R 4 1 R 4 0 R 3 1 R 4 0 R 4 0 R 4 1 R 3 0 R 4 1 R 4 0 R 4 0 R
3 1 R 4 0 R 4 1 R 4 0 R 3 1 R 4 0 R 4 0 R 4 1 R 3 0 R 4 1 R 4 0 R 4 1 R
4 0 R 3 1 R 4 0 R 4 0 R 4 1 R 3 0 R 4 1 R 4 0 R 4 1 R 3 0 R 4 1 R 4 0 R
4 1 R 3 0 R 4 0 R 4 1 R 4 0 R 3 1 R 4 0 R 4 1 R 4 0 R 4 1 R 3 0 R 4 1 R
4 0 R 4 1 R 3 0 R 4 1 R 4 0 R 4 1 R 3 0 R 4 1 R 4 0 R 4 1 R 3 0 R 4 1 R
4 0 R 4 1 R 3 0 R 4 1 R 4 0 R 4 1 R 4 0 R 3 1 R 4 0 R 4 1 R 4 0 R 3 1 R
4 1 R 4 0 R 4 1 R 3 0 R 4 1 R 4 0 R 4 1 R 3 0 R 4 1 R 4 0 R 4 1 R 3 1 R
4 0 R 4 1 R 4 0 R 4 1 R 3 0 R 4 1 R 4 1 R 4 0 R 3 1 R 4 0 R 4 1 R 4 0 R
3 1 R 4 1 R 4 0 R 4 1 R 3 0 R 4 1 R 4 1 R 4 0 R 3 1 R 4 0 R 4 1 R 4 1 R
4 0 R 3 1 R 4 0 R 4 1 R 4 1 R 3 0 R 4 1 R 4 1 R 4 0 R 3 1 R 4 0 R 4 1 R
4 1 R 3 0 R 4 1 R 4 1 R 4 0 R 4 1 R 3 1 R 4 0 R 4 1 R 4 1 R 3 0 R 4 1 R
4 -4208 R 4 0 R 3 0 R 4 0 R 4 0 R 4 0 R 3 0 R 4 0 R 4 0 R 4 0 R 3 0 R 4 0 R
4 0 R 4 0 R 4 0 R 3 0 R 4 0 R 4 0 R 4 0 R 3 0 R 4 0 R 4 0 R 4 0 R 3 0 R
4 0 R 4 0 R 4 0 R 3 0 R 4 0 R 4 0 R 4 0 R 3 0 R 4 0 R 4 0 R 4 0 R 4 0 R
3 0 R 4 0 R 4 0 R 4 0 R 3 0 R 4 0 R 4 0 R 4 0 R 3 0 R 4 0 R 4 0 R 4 0 R
3 0 R 4 0 R 4 0 R 4 0 R 3 0 R 4 0 R 4 0 R 4 0 R 4 0 R 3 0 R 4 0 R 4 0 R
4 0 R 3 0 R 4 0 R 4 0 R 4 0 R 3 0 R 4 0 R 4 0 R 4 0 R 3 0 R 4 0 R 4 0 R
4 0 R 3 0 R 4 0 R 4 0 R 4 0 R 4 0 R 3 0 R 4 0 R 4 0 R 4 0 R 3 0 R 4 0 R
4 0 R 4 0 R 3 0 R 4 0 R 4 0 R 4 0 R 3 0 R 4 0 R 4 0 R 4 0 R 3 0 R 4 0 R
4 0 R 4 0 R 4 0 R 3 0 R 4 0 R 4 0 R 4 0 R 3 0 R 4 0 R 4 0 R 4 0 R 3 0 R
4 0 R 4 0 R 4 0 R 3 0 R 4 0 R 4 0 R 4 0 R 3 0 R 4 0 R 4 0 R 4 0 R 4 0 R
3 0 R 4 0 R 4 0 R 4 0 R 3 0 R 4 0 R 4 0 R 4 0 R 3 0 R 4 0 R 4 0 R 4 0 R
3 0 R 4 0 R 4 0 R 4 0 R 3 0 R 4 0 R 4 0 R 4 0 R 4 0 R 3 0 R 4 0 R 4 0 R
4 0 R 3 0 R 4 0 R 4 0 R 4 0 R 3 0 R 4 0 R 4 0 R 4 0 R 3 0 R 4 0 R 4 0 R
4 0 R 3 0 R 4 0 R 4 0 R 4 0 R 4 0 R 3 0 R 4 0 R 4 0 R 4 0 R 3 0 R 4 0 R
4 0 R 4 0 R 3 0 R 4 0 R 4 0 R 4 0 R 3 0 R 4 0 R 4 0 R 4 0 R 4 0 R 3 0 R
4 0 R 4 0 R 4 0 R 3 0 R 4 0 R 4 0 R 4 0 R 3 0 R 4 0 R 4 0 R 4 0 R 3 0 R
4 0 R 4 0 R 4 0 R 3 0 R 4 0 R 4 0 R 4 0 R 4 0 R 3 0 R 4 0 R 4 0 R 4 0 R
3 0 R 4 0 R 4 0 R 4 0 R 3 0 R 4 0 R 4 0 R 4 0 R 3 0 R 4 0 R 4 0 R 4 0 R
3 0 R 4 0 R 4 0 R 4 0 R 4 0 R 3 0 R 4 0 R 4 0 R 4 0 R 3 0 R 4 0 R 4 0 R
4 0 R 3 0 R 4 0 R 4 0 R 4 0 R 3 0 R 4 0 R 4 0 R 4 0 R 3 0 R 4 0 R 4 0 R
4 0 R 4 0 R 3 0 R 4 0 R 4 0 R 4 0 R 3 0 R 4 0 R 4 0 R 4 0 R 3 0 R D
10413 1056 M 4 0 R 4 0 R 4 0 R 3 0 R 4 0 R 4 0 R 4 0 R 3 0 R 4 0 R 4 0 R
4 0 R 4 0 R 3 0 R 4 0 R 4 0 R 4 0 R 3 0 R 4 0 R 4 0 R 4 0 R 3 0 R 4 0 R
4 0 R 4 0 R 3 0 R 4 0 R 4 0 R 4 0 R 3 0 R 4 0 R 4 0 R 4 0 R 4 0 R 3 0 R
4 0 R 4 0 R 4 0 R 3 0 R 4 0 R 4 0 R 4 0 R 3 0 R 4 0 R 4 0 R 4 0 R 3 0 R
4 0 R 4 0 R 4 0 R 3 0 R 4 0 R 4 0 R 4 0 R 4 0 R 3 0 R 4 0 R 4 0 R 4 0 R
3 0 R 4 0 R 4 0 R 4 0 R 3 0 R 4 0 R 4 0 R 4 0 R 3 0 R 4 0 R 4 0 R 4 0 R
3 0 R 4 0 R 4 0 R 4 0 R 4 0 R 3 0 R 4 0 R 4 0 R 4 0 R 3 0 R 4 0 R 4 0 R
4 0 R 3 0 R 4 0 R 4 0 R 4 0 R 3 0 R 4 0 R 4 0 R 4 0 R 4 0 R 3 0 R 4 0 R
4 0 R 4 0 R 3 0 R 4 0 R 4 0 R 4 0 R 3 0 R 4 0 R 4 0 R 4 0 R 3 0 R 4 0 R
4 0 R 4 0 R 3 0 R 4 0 R 4 0 R 4 0 R 4 0 R 3 0 R 4 0 R 4 0 R 4 0 R 3 0 R
4 0 R 4 0 R 4 0 R 3 0 R 4 0 R 4 0 R 4 0 R 3 0 R 4 0 R 4 0 R 4 0 R 3 0 R
4 0 R 4 0 R 4 0 R 4 0 R 3 0 R 4 0 R 4 0 R 4 0 R 3 0 R 4 0 R 4 0 R 4 0 R
3 0 R 4 0 R 4 0 R 4 0 R 3 0 R 4 0 R 4 0 R 4 0 R 3 0 R 4 0 R 4 0 R 4 0 R
4 0 R 3 0 R 4 0 R 4 0 R 4 0 R 3 0 R 4 0 R 4 0 R 4 0 R 3 0 R 4 0 R 4 0 R
4 0 R 3 0 R 4 0 R 4 0 R 4 0 R 3 0 R 4 0 R 4 0 R 4 0 R 4 0 R 3 0 R 4 0 R
4 0 R 4 0 R 3 0 R 4 0 R 4 0 R 4 0 R 3 0 R 4 0 R 4 0 R 4 0 R 3 0 R 4 0 R
4 0 R 4 0 R 3 0 R 4 0 R 4 0 R 4 0 R 4 0 R 3 0 R 4 0 R 4 0 R 4 0 R 3 0 R
4 0 R 4 0 R 4 0 R 3 0 R 4 0 R 4 0 R 4 0 R 3 0 R 4 0 R 4 0 R 4 0 R 3 0 R
4 0 R 4 0 R 4 0 R 4 0 R 3 0 R 4 0 R 4 0 R 4 0 R 3 0 R 4 0 R 4 0 R 4 0 R
3 0 R 4 0 R 4 0 R 4 0 R 3 0 R 4 0 R 4 0 R 4 0 R 3 0 R 4 0 R 4 0 R 4 0 R
4 0 R 3 0 R 4 0 R 4 0 R 4 0 R 3 0 R 4 0 R 4 0 R 4 0 R 3 0 R 4 0 R D
13518 7406 M 3763 0 R D 13518 7406 M 0 95 R D 13369 7194 M -26 -9 R
-17 -26 R -9 -44 R 0 -26 R 9 -44 R 17 -26 R 26 -9 R 18 0 R 26 9 R 18 26 R
9 44 R 0 26 R -9 44 R -18 26 R -26 9 R -18 0 R D 13510 7028 M -9 -9 R 9 -9 R
8 9 R -8 9 R D 13632 7194 M -26 -9 R -17 -26 R -9 -44 R 0 -26 R 9 -44 R
17 -26 R 26 -9 R 18 0 R 26 9 R 18 26 R 8 44 R 0 26 R -8 44 R -18 26 R
-26 9 R -18 0 R D 14459 7406 M 0 95 R D 14310 7194 M -26 -9 R -18 -26 R
-9 -44 R 0 -26 R 9 -44 R 18 -26 R 26 -9 R 18 0 R 26 9 R 17 26 R 9 44 R
0 26 R -9 44 R -17 26 R -26 9 R -18 0 R D 14450 7028 M -9 -9 R 9 -9 R 9 9 R
-9 9 R D 14625 7194 M -87 0 R -9 -79 R 9 9 R 26 9 R 26 0 R 27 -9 R 17 -18 R
9 -26 R 0 -17 R -9 -27 R -17 -17 R -27 -9 R -26 0 R -26 9 R -9 9 R -9 17 R D
15400 7406 M 0 95 R D 15224 7159 M 18 9 R 26 26 R 0 -184 R D 15391 7028 M
-9 -9 R 9 -9 R 9 9 R -9 9 R D 15513 7194 M -26 -9 R -17 -26 R -9 -44 R
0 -26 R 9 -44 R 17 -26 R 26 -9 R 18 0 R 26 9 R 18 26 R 9 44 R 0 26 R -9 44 R
-18 26 R -26 9 R -18 0 R D 16340 7406 M 0 95 R D 16165 7159 M 17 9 R 27 26 R
0 -184 R D 16331 7028 M -8 -9 R 8 -9 R 9 9 R -9 9 R D 16507 7194 M -88 0 R
-9 -79 R 9 9 R 26 9 R 26 0 R 27 -9 R 17 -18 R 9 -26 R 0 -17 R -9 -27 R
-17 -17 R -27 -9 R -26 0 R -26 9 R -9 9 R -9 17 R D 17281 7406 M 0 95 R D
17088 7150 M 0 9 R 9 18 R 8 8 R 18 9 R 35 0 R 17 -9 R 9 -8 R 9 -18 R 0 -17 R
-9 -18 R -17 -26 R -88 -88 R 123 0 R D 17272 7028 M -9 -9 R 9 -9 R 9 9 R
-9 9 R D 17395 7194 M -27 -9 R -17 -26 R -9 -44 R 0 -26 R 9 -44 R 17 -26 R
27 -9 R 17 0 R 26 9 R 18 26 R 9 44 R 0 26 R -9 44 R -18 26 R -26 9 R -17 0 R
D 13707 7406 M 0 48 R D 13895 7406 M 0 48 R D 14083 7406 M 0 48 R D
14271 7406 M 0 48 R D 14647 7406 M 0 48 R D 14835 7406 M 0 48 R D
15023 7406 M 0 48 R D 15211 7406 M 0 48 R D 15588 7406 M 0 48 R D
15776 7406 M 0 48 R D 15964 7406 M 0 48 R D 16152 7406 M 0 48 R D
16528 7406 M 0 48 R D 16716 7406 M 0 48 R D 16904 7406 M 0 48 R D
17092 7406 M 0 48 R D 15164 6790 M 0 -123 R D 15164 6737 M 9 26 R 17 18 R
18 9 R 26 0 R D 15418 6886 M -158 -289 R D 15471 6790 M 0 -123 R D
15471 6737 M 8 26 R 18 18 R 17 9 R 27 0 R D 15596 6673 M -11 -5 R -10 -11 R
-6 -17 R 0 -10 R 6 -17 R 10 -10 R 11 -6 R 17 0 R 10 6 R 11 10 R 6 17 R
0 10 R -6 17 R -11 11 R -10 5 R -17 0 R D 13518 12172 M 3763 0 R D
13518 12172 M 0 -95 R D 14459 12172 M 0 -95 R D 15400 12172 M 0 -95 R D
16340 12172 M 0 -95 R D 17281 12172 M 0 -95 R D 13707 12172 M 0 -48 R D
13895 12172 M 0 -48 R D 14083 12172 M 0 -48 R D 14271 12172 M 0 -48 R D
14647 12172 M 0 -48 R D 14835 12172 M 0 -48 R D 15023 12172 M 0 -48 R D
15211 12172 M 0 -48 R D 15588 12172 M 0 -48 R D 15776 12172 M 0 -48 R D
15964 12172 M 0 -48 R D 16152 12172 M 0 -48 R D 16528 12172 M 0 -48 R D
16716 12172 M 0 -48 R D 16904 12172 M 0 -48 R D 17092 12172 M 0 -48 R D
13518 7406 M 0 4766 R D 13518 7406 M 76 0 R D 13330 7590 M -26 -9 R
-18 -26 R -9 -44 R 0 -26 R 9 -44 R 18 -26 R 26 -9 R 18 0 R 26 9 R 17 26 R
9 44 R 0 26 R -9 44 R -17 26 R -26 9 R -18 0 R D 13518 8598 M 76 0 R D
12760 8632 M 0 9 R 9 17 R 9 9 R 17 9 R 36 0 R 17 -9 R 9 -9 R 9 -17 R 0 -18 R
-9 -17 R -18 -26 R -87 -88 R 122 0 R D 12979 8676 M -26 -9 R -17 -26 R
-9 -44 R 0 -26 R 9 -44 R 17 -26 R 26 -9 R 18 0 R 26 9 R 18 26 R 9 44 R
0 26 R -9 44 R -18 26 R -26 9 R -18 0 R D 13155 8676 M -27 -9 R -17 -26 R
-9 -44 R 0 -26 R 9 -44 R 17 -26 R 27 -9 R 17 0 R 27 9 R 17 26 R 9 44 R
0 26 R -9 44 R -17 26 R -27 9 R -17 0 R D 13330 8676 M -26 -9 R -18 -26 R
-9 -44 R 0 -26 R 9 -44 R 18 -26 R 26 -9 R 18 0 R 26 9 R 17 26 R 9 44 R
0 26 R -9 44 R -17 26 R -26 9 R -18 0 R D 13518 9789 M 76 0 R D 12839 9867 M
-87 -122 R 131 0 R D 12839 9867 M 0 -184 R D 12979 9867 M -26 -8 R -17 -27 R
-9 -43 R 0 -27 R 9 -43 R 17 -27 R 26 -9 R 18 0 R 26 9 R 18 27 R 9 43 R
0 27 R -9 43 R -18 27 R -26 8 R -18 0 R D 13155 9867 M -27 -8 R -17 -27 R
-9 -43 R 0 -27 R 9 -43 R 17 -27 R 27 -9 R 17 0 R 27 9 R 17 27 R 9 43 R
0 27 R -9 43 R -17 27 R -27 8 R -17 0 R D 13330 9867 M -26 -8 R -18 -27 R
-9 -43 R 0 -27 R 9 -43 R 18 -27 R 26 -9 R 18 0 R 26 9 R 17 27 R 9 43 R
0 27 R -9 43 R -17 27 R -26 8 R -18 0 R D 13518 10981 M 76 0 R D
12866 11033 M -9 17 R -26 9 R -18 0 R -26 -9 R -18 -26 R -9 -44 R 0 -44 R
9 -35 R 18 -17 R 26 -9 R 9 0 R 26 9 R 18 17 R 8 27 R 0 8 R -8 27 R -18 17 R
-26 9 R -9 0 R -26 -9 R -18 -17 R -9 -27 R D 12979 11059 M -26 -9 R
-17 -26 R -9 -44 R 0 -26 R 9 -44 R 17 -26 R 26 -9 R 18 0 R 26 9 R 18 26 R
9 44 R 0 26 R -9 44 R -18 26 R -26 9 R -18 0 R D 13155 11059 M -27 -9 R
-17 -26 R -9 -44 R 0 -26 R 9 -44 R 17 -26 R 27 -9 R 17 0 R 27 9 R 17 26 R
9 44 R 0 26 R -9 44 R -17 26 R -27 9 R -17 0 R D 13330 11059 M -26 -9 R
-18 -26 R -9 -44 R 0 -26 R 9 -44 R 18 -26 R 26 -9 R 18 0 R 26 9 R 17 26 R
9 44 R 0 26 R -9 44 R -17 26 R -26 9 R -18 0 R D 13518 12172 M 76 0 R D
12795 12171 M -26 -8 R -9 -18 R 0 -18 R 9 -17 R 18 -9 R 35 -9 R 26 -8 R
18 -18 R 8 -17 R 0 -27 R -8 -17 R -9 -9 R -26 -9 R -36 0 R -26 9 R -9 9 R
-8 17 R 0 27 R 8 17 R 18 18 R 26 8 R 35 9 R 18 9 R 9 17 R 0 18 R -9 18 R
-26 8 R -36 0 R D 12979 12171 M -26 -8 R -17 -27 R -9 -44 R 0 -26 R 9 -44 R
17 -26 R 26 -9 R 18 0 R 26 9 R 18 26 R 9 44 R 0 26 R -9 44 R -18 27 R
-26 8 R -18 0 R D 13155 12171 M -27 -8 R -17 -27 R -9 -44 R 0 -26 R 9 -44 R
17 -26 R 27 -9 R 17 0 R 27 9 R 17 26 R 9 44 R 0 26 R -9 44 R -17 27 R
-27 8 R -17 0 R D 13330 12171 M -26 -8 R -18 -27 R -9 -44 R 0 -26 R 9 -44 R
18 -26 R 26 -9 R 18 0 R 26 9 R 17 26 R 9 44 R 0 26 R -9 44 R -17 27 R
-26 8 R -18 0 R D 13518 7704 M 38 0 R D 13518 8002 M 38 0 R D 13518 8300 M
38 0 R D 13518 8895 M 38 0 R D 13518 9193 M 38 0 R D 13518 9491 M 38 0 R D
13518 10087 M 38 0 R D 13518 10385 M 38 0 R D 13518 10683 M 38 0 R D
13518 11278 M 38 0 R D 13518 11576 M 38 0 R D 13518 11874 M 38 0 R D
12362 8944 M 192 0 R D 12388 8944 M -18 17 R -8 18 R 0 26 R 8 18 R 18 17 R
26 9 R 18 0 R 26 -9 R 18 -17 R 8 -18 R 0 -26 R -8 -18 R -18 -17 R D
12265 9312 M 18 -18 R 26 -17 R 35 -18 R 44 -9 R 35 0 R 44 9 R 44 18 R
26 17 R 17 18 R D 12300 9373 M 184 0 R D 12362 9461 M 87 -88 R D
12414 9408 M 70 61 R D 12362 9618 M 149 0 R 26 -8 R 9 -9 R 8 -18 R 0 -26 R
-8 -17 R D 12388 9618 M -18 -17 R -8 -18 R 0 -26 R 8 -17 R 18 -18 R 26 -9 R
18 0 R 26 9 R 18 18 R 8 17 R 0 26 R -8 18 R -18 17 R D 12340 9684 M 6 -6 R
5 6 R -5 5 R -6 -5 R D 12362 9743 M 122 0 R D 12397 9743 M -27 26 R -8 18 R
0 26 R 8 17 R 27 9 R 87 0 R D 12397 9839 M -27 26 R -8 18 R 0 26 R 8 18 R
27 9 R 87 0 R D 12264 9996 M -5 0 R -11 5 R -5 5 R -6 11 R 0 22 R 6 11 R
5 5 R 11 6 R 11 0 R 11 -6 R 16 -11 R 54 -54 R 0 76 R D 12265 10254 M
289 -157 R D 12388 10395 M -18 -9 R -8 -26 R 0 -27 R 8 -26 R 18 -9 R 18 9 R
8 17 R 9 44 R 9 18 R 17 9 R 9 0 R 18 -9 R 8 -26 R 0 -27 R -8 -26 R -18 -9 R
D 12264 10446 M -5 0 R -11 5 R -5 6 R -6 11 R 0 21 R 6 11 R 5 6 R 11 5 R
11 0 R 11 -5 R 16 -11 R 54 -55 R 0 76 R D 12265 10556 M 18 17 R 26 18 R
35 17 R 44 9 R 35 0 R 44 -9 R 44 -17 R 26 -18 R 17 -17 R D 17281 7406 M
0 4766 R D 17281 7406 M -76 0 R D 17281 8598 M -76 0 R D 17281 9789 M
-76 0 R D 17281 10981 M -76 0 R D 17281 12172 M -76 0 R D 17281 7704 M
-38 0 R D 17281 8002 M -38 0 R D 17281 8300 M -38 0 R D 17281 8895 M -38 0 R
D 17281 9193 M -38 0 R D 17281 9491 M -38 0 R D 17281 10087 M -38 0 R D
17281 10385 M -38 0 R D 17281 10683 M -38 0 R D 17281 11278 M -38 0 R D
17281 11576 M -38 0 R D 17281 11874 M -38 0 R D 13518 11202 M 4 0 R 4 0 R
4 0 R 3 0 R 4 0 R 4 0 R 4 0 R 4 0 R 3 0 R 4 0 R 4 0 R 4 0 R 3 0 R 4 0 R
4 0 R 4 0 R 3 0 R 4 0 R 4 0 R 4 0 R 3 0 R 4 0 R 4 0 R 4 0 R 3 0 R 4 0 R
4 0 R 4 0 R 4 0 R 3 0 R 4 0 R 4 0 R 4 0 R 3 0 R 4 0 R 4 0 R 4 0 R 3 0 R
4 0 R 4 0 R 4 0 R 3 0 R 4 0 R 4 0 R 4 0 R 3 0 R 4 0 R 4 0 R 4 0 R 4 0 R
3 0 R 4 0 R 4 0 R 4 0 R 3 0 R 4 0 R 4 0 R 4 0 R 3 0 R 4 0 R 4 0 R 4 0 R
3 0 R 4 0 R 4 0 R 4 0 R 3 0 R 4 0 R 4 0 R 4 0 R 4 0 R 3 0 R 4 0 R 4 0 R
4 0 R 3 0 R 4 0 R 4 0 R 4 0 R 3 0 R 4 0 R 4 0 R 4 0 R 3 0 R 4 0 R 4 0 R
4 0 R 3 0 R 4 0 R 4 0 R 4 0 R 4 0 R 3 0 R 4 0 R 4 0 R 4 0 R 3 0 R 4 0 R
4 0 R 4 0 R 3 0 R 4 0 R 4 0 R 4 0 R 3 0 R 4 0 R 4 0 R 4 0 R 3 0 R 4 0 R
4 0 R 4 0 R 4 0 R 3 0 R 4 0 R 4 0 R 4 0 R 3 0 R 4 0 R 4 0 R 4 0 R 3 0 R
4 0 R 4 0 R 4 0 R 3 0 R 4 0 R 4 0 R 4 0 R 4 0 R 3 0 R 4 0 R 4 0 R 4 0 R
3 0 R 4 0 R 4 0 R 4 1 R 3 0 R 4 0 R 4 0 R 4 0 R 3 0 R 4 0 R 4 0 R 4 0 R
3 0 R 4 0 R 4 0 R 4 0 R 4 0 R 3 0 R 4 0 R 4 0 R 4 0 R 3 0 R 4 0 R 4 0 R
4 0 R 3 0 R 4 0 R 4 0 R 4 0 R 3 0 R 4 0 R 4 0 R 4 0 R 3 0 R 4 0 R 4 0 R
4 0 R 4 0 R 3 0 R 4 0 R 4 0 R 4 0 R 3 0 R 4 0 R 4 0 R 4 0 R 3 0 R 4 0 R
4 0 R 4 0 R 3 0 R 4 0 R 4 0 R 4 0 R 3 0 R 4 0 R 4 0 R 4 0 R 4 0 R 3 0 R
4 0 R 4 0 R 4 0 R 3 0 R 4 0 R 4 0 R 4 0 R 3 0 R 4 0 R 4 0 R 4 0 R 3 0 R
4 0 R 4 0 R 4 0 R 3 0 R 4 0 R 4 0 R 4 0 R 4 0 R 3 0 R 4 0 R 4 0 R 4 0 R
3 0 R 4 0 R 4 0 R 4 0 R 3 0 R 4 0 R 4 0 R 4 0 R 3 0 R 4 0 R 4 0 R 4 0 R
3 0 R 4 0 R 4 0 R 4 0 R 4 0 R 3 0 R 4 0 R 4 0 R 4 0 R 3 0 R 4 0 R 4 0 R
4 0 R 3 1 R 4 0 R 4 0 R 4 0 R 3 0 R 4 0 R 4 0 R 4 0 R 3 0 R 4 0 R 4 0 R
4 0 R 4 0 R 3 0 R 4 0 R 4 0 R 4 0 R 3 0 R 4 0 R 4 0 R 4 0 R 3 0 R 4 0 R
4 0 R 4 0 R 3 0 R 4 0 R 4 0 R 4 0 R 3 0 R 4 0 R 4 0 R 4 0 R 4 0 R 3 0 R
4 0 R 4 0 R 4 0 R 3 0 R 4 0 R 4 0 R 4 0 R 3 0 R 4 0 R 4 0 R 4 0 R 3 0 R
4 0 R 4 0 R 4 0 R 3 0 R 4 0 R 4 0 R 4 0 R 4 0 R 3 0 R 4 0 R 4 0 R 4 0 R
3 0 R 4 0 R 4 0 R 4 0 R 3 1 R 4 0 R 4 0 R 4 0 R 3 0 R 4 0 R 4 0 R 4 0 R
4 0 R 3 0 R 4 0 R 4 0 R 4 0 R 3 0 R 4 0 R 4 0 R 4 0 R 3 0 R 4 0 R 4 0 R
4 0 R 3 0 R 4 0 R 4 0 R 4 0 R 3 0 R 4 0 R 4 0 R 4 0 R 4 0 R 3 0 R 4 0 R
4 0 R 4 0 R 3 0 R 4 0 R 4 0 R 4 0 R 3 0 R 4 0 R 4 0 R 4 0 R 3 0 R 4 0 R
4 0 R 4 1 R 3 0 R 4 0 R 4 0 R 4 0 R 4 0 R 3 0 R 4 0 R 4 0 R 4 0 R 3 0 R
4 0 R 4 0 R 4 0 R 3 0 R 4 0 R 4 0 R 4 0 R 3 0 R 4 0 R 4 0 R 4 0 R 3 0 R
4 0 R 4 0 R 4 0 R 4 0 R 3 0 R 4 0 R 4 0 R 4 0 R 3 0 R 4 0 R 4 0 R 4 0 R
3 1 R 4 0 R 4 0 R 4 0 R 3 0 R 4 0 R 4 0 R 4 0 R 3 0 R 4 0 R 4 0 R 4 0 R
4 0 R 3 0 R 4 0 R 4 0 R 4 0 R 3 0 R 4 0 R 4 0 R 4 0 R 3 0 R 4 0 R 4 0 R
4 0 R 3 0 R 4 0 R 4 0 R 4 0 R 3 0 R 4 1 R 4 0 R 4 0 R 4 0 R 3 0 R 4 0 R
4 0 R 4 0 R 3 0 R 4 0 R 4 0 R 4 0 R 3 0 R 4 0 R 4 0 R 4 0 R 3 0 R 4 0 R
4 0 R 4 0 R 3 0 R 4 0 R 4 0 R 4 0 R 4 0 R 3 1 R 4 0 R 4 0 R 4 0 R 3 0 R
4 0 R 4 0 R 4 0 R 3 0 R 4 0 R 4 0 R 4 0 R 3 0 R 4 0 R 4 0 R 4 0 R 3 0 R
4 0 R 4 0 R 4 0 R 4 0 R 3 0 R 4 1 R 4 0 R 4 0 R 3 0 R 4 0 R 4 0 R 4 0 R
3 0 R 4 0 R 4 0 R 4 0 R 3 0 R 4 0 R 4 0 R 4 0 R 4 0 R 3 0 R 4 0 R 4 0 R
4 1 R 3 0 R 4 0 R 4 0 R 4 0 R 3 0 R 4 0 R 4 0 R 4 0 R 3 0 R 4 0 R 4 0 R
4 0 R 3 0 R 4 0 R 4 0 R 4 0 R 4 -8 R 3 0 R 4 0 R 4 0 R 4 0 R 3 0 R 4 0 R
4 0 R 4 0 R 3 0 R 4 0 R 4 0 R 4 0 R 3 0 R 4 0 R 4 0 R 4 0 R 3 0 R 4 0 R
4 0 R 4 0 R 4 0 R 3 0 R 4 0 R 4 0 R 4 0 R 3 0 R 4 0 R 4 0 R 4 0 R 3 0 R
4 0 R 4 0 R 4 0 R 3 0 R 4 0 R 4 0 R 4 0 R 3 0 R 4 0 R 4 0 R 4 0 R 4 0 R
3 0 R 4 0 R 4 0 R 4 0 R 3 0 R 4 0 R 4 0 R 4 0 R 3 0 R 4 0 R 4 0 R 4 0 R
3 0 R 4 0 R 4 0 R 4 0 R 3 0 R 4 0 R 4 0 R 4 0 R 4 0 R 3 0 R 4 0 R 4 0 R
4 0 R 3 0 R 4 0 R 4 0 R 4 0 R 3 0 R 4 0 R 4 0 R 4 0 R 3 0 R 4 0 R 4 0 R
4 0 R 3 0 R 4 0 R 4 0 R 4 0 R 4 0 R 3 0 R 4 0 R 4 -1 R 4 0 R 3 0 R 4 0 R
4 0 R 4 0 R 3 0 R 4 0 R 4 0 R 4 0 R 3 0 R 4 0 R 4 0 R 4 0 R 3 0 R 4 0 R
4 0 R 4 0 R 4 0 R 3 0 R 4 0 R 4 0 R 4 0 R 3 0 R 4 0 R 4 0 R 4 0 R 3 0 R
4 0 R 4 0 R 4 0 R 3 0 R 4 0 R 4 0 R 4 0 R 3 0 R 4 0 R 4 0 R 4 0 R 4 0 R
3 0 R 4 0 R 4 0 R 4 0 R 3 0 R 4 0 R 4 0 R 4 0 R 3 0 R 4 0 R 4 0 R 4 0 R
3 0 R 4 0 R 4 0 R 4 0 R 3 0 R 4 0 R 4 0 R 4 0 R 4 0 R 3 0 R 4 0 R 4 0 R
4 0 R 3 0 R 4 0 R 4 0 R 4 0 R 3 0 R 4 0 R 4 0 R 4 0 R 3 0 R 4 0 R 4 0 R
4 0 R 4 0 R 3 0 R 4 0 R 4 0 R 4 0 R 3 0 R 4 0 R 4 0 R 4 0 R 3 0 R 4 0 R
4 0 R 4 0 R 3 0 R 4 0 R 4 0 R 4 0 R 3 0 R 4 0 R 4 0 R 4 0 R 4 0 R 3 0 R
4 0 R 4 0 R 4 0 R 3 0 R 4 0 R 4 0 R 4 0 R 3 0 R 4 0 R 4 0 R 4 0 R 3 0 R
4 0 R 4 0 R 4 0 R 3 0 R 4 0 R 4 0 R 4 0 R 4 0 R 3 0 R 4 0 R 4 0 R 4 0 R
3 0 R 4 0 R 4 0 R 4 0 R 3 0 R 4 0 R 4 0 R 4 0 R 3 0 R 4 0 R 4 0 R 4 0 R
3 0 R 4 0 R 4 0 R 4 0 R 4 0 R 3 0 R 4 0 R 4 0 R 4 0 R 3 0 R 4 0 R 4 0 R
4 0 R 3 0 R 4 0 R 4 0 R 4 0 R 3 0 R 4 0 R 4 0 R 4 0 R 3 0 R 4 0 R 4 0 R
4 0 R 4 0 R 3 0 R 4 0 R D 16340 11202 M 4 0 R 4 0 R 3 0 R 4 0 R 4 0 R 4 0 R
3 0 R 4 0 R 4 0 R 4 0 R 3 0 R 4 0 R 4 0 R 4 0 R 3 0 R 4 0 R 4 0 R 4 0 R
4 0 R 3 0 R 4 0 R 4 0 R 4 0 R 3 0 R 4 0 R 4 0 R 4 0 R 3 0 R 4 0 R 4 0 R
4 0 R 3 0 R 4 0 R 4 0 R 4 0 R 3 0 R 4 0 R 4 0 R 4 0 R 4 0 R 3 0 R 4 0 R
4 0 R 4 0 R 3 0 R 4 0 R 4 0 R 4 0 R 3 0 R 4 0 R 4 0 R 4 0 R 3 0 R 4 0 R
4 0 R 4 0 R 3 0 R 4 0 R 4 0 R 4 0 R 4 0 R 3 0 R 4 0 R 4 0 R 4 0 R 3 0 R
4 0 R 4 0 R 4 0 R 3 0 R 4 0 R 4 0 R 4 0 R 3 0 R 4 0 R 4 0 R 4 0 R 3 0 R
4 0 R 4 0 R 4 0 R 4 0 R 3 0 R 4 0 R 4 0 R 4 0 R 3 0 R 4 0 R 4 0 R 4 0 R
3 0 R 4 0 R 4 0 R 4 0 R 3 0 R 4 0 R 4 0 R 4 0 R 4 0 R 3 0 R 4 0 R 4 0 R
4 0 R 3 0 R 4 0 R 4 0 R 4 0 R 3 0 R 4 0 R 4 0 R 4 0 R 3 0 R 4 0 R 4 0 R
4 0 R 3 0 R 4 0 R 4 0 R 4 0 R 4 0 R 3 0 R 4 0 R 4 0 R 4 0 R 3 0 R 4 0 R
4 -1 R 4 0 R 3 0 R 4 0 R 4 0 R 4 0 R 3 0 R 4 0 R 4 0 R 4 0 R 3 0 R 4 0 R
4 0 R 4 0 R 4 0 R 3 0 R 4 0 R 4 0 R 4 0 R 3 0 R 4 0 R 4 0 R 4 0 R 3 0 R
4 0 R 4 0 R 4 0 R 3 0 R 4 0 R 4 0 R 4 0 R 3 0 R 4 0 R 4 0 R 4 0 R 4 0 R
3 0 R 4 0 R 4 0 R 4 0 R 3 0 R 4 0 R 4 0 R 4 0 R 3 0 R 4 0 R 4 0 R 4 0 R
3 0 R 4 0 R 4 0 R 4 0 R 3 0 R 4 0 R 4 0 R 4 0 R 4 0 R 3 0 R 4 0 R 4 0 R
4 0 R 3 0 R 4 0 R 4 0 R 4 0 R 3 0 R 4 0 R 4 0 R 4 0 R 3 0 R 4 0 R 4 0 R
4 0 R 3 0 R 4 0 R 4 0 R 4 0 R 4 0 R 3 0 R 4 0 R 4 0 R 4 0 R 3 0 R 4 0 R
4 0 R 4 0 R 3 0 R 4 0 R 4 0 R 4 0 R 3 0 R 4 0 R 4 0 R 4 0 R 3 0 R 4 0 R
4 0 R 4 0 R 4 0 R 3 0 R 4 0 R 4 0 R 4 0 R 3 0 R 4 0 R 4 0 R 4 0 R 3 0 R
4 0 R 4 0 R 4 0 R 3 0 R 4 0 R 4 0 R 4 0 R 3 0 R 4 0 R 4 0 R 4 0 R 4 0 R
3 0 R 4 0 R 4 0 R D 13518 1056 M 3763 0 R D 13518 1056 M 0 95 R D
13369 844 M -26 -9 R -17 -26 R -9 -44 R 0 -26 R 9 -44 R 17 -26 R 26 -9 R
18 0 R 26 9 R 18 26 R 9 44 R 0 26 R -9 44 R -18 26 R -26 9 R -18 0 R D
13510 678 M -9 -9 R 9 -9 R 8 9 R -8 9 R D 13632 844 M -26 -9 R -17 -26 R
-9 -44 R 0 -26 R 9 -44 R 17 -26 R 26 -9 R 18 0 R 26 9 R 18 26 R 8 44 R
0 26 R -8 44 R -18 26 R -26 9 R -18 0 R D 14459 1056 M 0 95 R D 14310 844 M
-26 -9 R -18 -26 R -9 -44 R 0 -26 R 9 -44 R 18 -26 R 26 -9 R 18 0 R 26 9 R
17 26 R 9 44 R 0 26 R -9 44 R -17 26 R -26 9 R -18 0 R D 14450 678 M -9 -9 R
9 -9 R 9 9 R -9 9 R D 14625 844 M -87 0 R -9 -79 R 9 9 R 26 9 R 26 0 R
27 -9 R 17 -18 R 9 -26 R 0 -17 R -9 -27 R -17 -17 R -27 -9 R -26 0 R -26 9 R
-9 9 R -9 17 R D 15400 1056 M 0 95 R D 15224 809 M 18 9 R 26 26 R 0 -184 R D
15391 678 M -9 -9 R 9 -9 R 9 9 R -9 9 R D 15513 844 M -26 -9 R -17 -26 R
-9 -44 R 0 -26 R 9 -44 R 17 -26 R 26 -9 R 18 0 R 26 9 R 18 26 R 9 44 R
0 26 R -9 44 R -18 26 R -26 9 R -18 0 R D 16340 1056 M 0 95 R D 16165 809 M
17 9 R 27 26 R 0 -184 R D 16331 678 M -8 -9 R 8 -9 R 9 9 R -9 9 R D
16507 844 M -88 0 R -9 -79 R 9 9 R 26 9 R 26 0 R 27 -9 R 17 -18 R 9 -26 R
0 -17 R -9 -27 R -17 -17 R -27 -9 R -26 0 R -26 9 R -9 9 R -9 17 R D
17281 1056 M 0 95 R D 17088 800 M 0 9 R 9 18 R 8 8 R 18 9 R 35 0 R 17 -9 R
9 -8 R 9 -18 R 0 -17 R -9 -18 R -17 -26 R -88 -88 R 123 0 R D 17272 678 M
-9 -9 R 9 -9 R 9 9 R -9 9 R D 17395 844 M -27 -9 R -17 -26 R -9 -44 R
0 -26 R 9 -44 R 17 -26 R 27 -9 R 17 0 R 26 9 R 18 26 R 9 44 R 0 26 R -9 44 R
-18 26 R -26 9 R -17 0 R D 13707 1056 M 0 48 R D 13895 1056 M 0 48 R D
14083 1056 M 0 48 R D 14271 1056 M 0 48 R D 14647 1056 M 0 48 R D
14835 1056 M 0 48 R D 15023 1056 M 0 48 R D 15211 1056 M 0 48 R D
15588 1056 M 0 48 R D 15776 1056 M 0 48 R D 15964 1056 M 0 48 R D
16152 1056 M 0 48 R D 16528 1056 M 0 48 R D 16716 1056 M 0 48 R D
16904 1056 M 0 48 R D 17092 1056 M 0 48 R D 15164 440 M 0 -123 R D
15164 387 M 9 26 R 17 18 R 18 9 R 26 0 R D 15418 536 M -158 -289 R D
15471 440 M 0 -123 R D 15471 387 M 8 26 R 18 18 R 17 9 R 27 0 R D
15596 323 M -11 -5 R -10 -11 R -6 -17 R 0 -10 R 6 -17 R 10 -10 R 11 -6 R
17 0 R 10 6 R 11 10 R 6 17 R 0 10 R -6 17 R -11 11 R -10 5 R -17 0 R D
13518 5822 M 3763 0 R D 13518 5822 M 0 -95 R D 14459 5822 M 0 -95 R D
15400 5822 M 0 -95 R D 16340 5822 M 0 -95 R D 17281 5822 M 0 -95 R D
13707 5822 M 0 -48 R D 13895 5822 M 0 -48 R D 14083 5822 M 0 -48 R D
14271 5822 M 0 -48 R D 14647 5822 M 0 -48 R D 14835 5822 M 0 -48 R D
15023 5822 M 0 -48 R D 15211 5822 M 0 -48 R D 15588 5822 M 0 -48 R D
15776 5822 M 0 -48 R D 15964 5822 M 0 -48 R D 16152 5822 M 0 -48 R D
16528 5822 M 0 -48 R D 16716 5822 M 0 -48 R D 16904 5822 M 0 -48 R D
17092 5822 M 0 -48 R D 13518 1056 M 0 4766 R D 13518 1056 M 76 0 R D
13330 1240 M -26 -9 R -18 -26 R -9 -44 R 0 -26 R 9 -44 R 18 -26 R 26 -9 R
18 0 R 26 9 R 17 26 R 9 44 R 0 26 R -9 44 R -17 26 R -26 9 R -18 0 R D
13518 1850 M 76 0 R D 12230 1885 M 0 9 R 9 17 R 9 9 R 18 9 R 35 0 R 17 -9 R
9 -9 R 9 -17 R 0 -18 R -9 -17 R -18 -27 R -87 -87 R 122 0 R D 12414 1762 M
-8 -8 R 8 -9 R 9 9 R -9 8 R D 12537 1929 M -26 -9 R -18 -26 R -8 -44 R
0 -26 R 8 -44 R 18 -26 R 26 -9 R 18 0 R 26 9 R 18 26 R 8 44 R 0 26 R -8 44 R
-18 26 R -26 9 R -18 0 R D 12677 1894 M 123 -123 R D 12800 1894 M
-123 -123 R D 12879 1894 M 17 9 R 27 26 R 0 -184 R D 13080 1929 M -26 -9 R
-17 -26 R -9 -44 R 0 -26 R 9 -44 R 17 -26 R 26 -9 R 18 0 R 26 9 R 18 26 R
9 44 R 0 26 R -9 44 R -18 26 R -26 9 R -18 0 R D 13202 1927 M 98 0 R D
13403 1992 M -55 0 R -5 -49 R 5 6 R 17 5 R 16 0 R 16 -5 R 11 -11 R 5 -17 R
0 -10 R -5 -17 R -11 -11 R -16 -5 R -16 0 R -17 5 R -5 6 R -5 11 R D
13518 2645 M 76 0 R D 12309 2723 M -87 -123 R 131 0 R D 12309 2723 M
0 -184 R D 12414 2557 M -8 -9 R 8 -9 R 9 9 R -9 9 R D 12537 2723 M -26 -9 R
-18 -26 R -8 -44 R 0 -26 R 8 -44 R 18 -26 R 26 -9 R 18 0 R 26 9 R 18 26 R
8 44 R 0 26 R -8 44 R -18 26 R -26 9 R -18 0 R D 12677 2688 M 123 -123 R D
12800 2688 M -123 -123 R D 12879 2688 M 17 9 R 27 26 R 0 -184 R D
13080 2723 M -26 -9 R -17 -26 R -9 -44 R 0 -26 R 9 -44 R 17 -26 R 26 -9 R
18 0 R 26 9 R 18 26 R 9 44 R 0 26 R -9 44 R -18 26 R -26 9 R -18 0 R D
13202 2721 M 98 0 R D 13403 2786 M -55 0 R -5 -49 R 5 6 R 17 5 R 16 0 R
16 -5 R 11 -11 R 5 -16 R 0 -11 R -5 -16 R -11 -11 R -16 -6 R -16 0 R -17 6 R
-5 5 R -5 11 R D 13518 3439 M 76 0 R D 12336 3491 M -9 18 R -26 8 R -18 0 R
-26 -8 R -18 -27 R -9 -43 R 0 -44 R 9 -35 R 18 -18 R 26 -9 R 9 0 R 26 9 R
18 18 R 8 26 R 0 9 R -8 26 R -18 18 R -26 8 R -9 0 R -26 -8 R -18 -18 R
-9 -26 R D 12414 3351 M -8 -9 R 8 -9 R 9 9 R -9 9 R D 12537 3517 M -26 -8 R
-18 -27 R -8 -43 R 0 -27 R 8 -43 R 18 -27 R 26 -9 R 18 0 R 26 9 R 18 27 R
8 43 R 0 27 R -8 43 R -18 27 R -26 8 R -18 0 R D 12677 3482 M 123 -122 R D
12800 3482 M -123 -122 R D 12879 3482 M 17 9 R 27 26 R 0 -184 R D
13080 3517 M -26 -8 R -17 -27 R -9 -43 R 0 -27 R 9 -43 R 17 -27 R 26 -9 R
18 0 R 26 9 R 18 27 R 9 43 R 0 27 R -9 43 R -18 27 R -26 8 R -18 0 R D
13202 3515 M 98 0 R D 13403 3581 M -55 0 R -5 -49 R 5 5 R 17 6 R 16 0 R
16 -6 R 11 -11 R 5 -16 R 0 -11 R -5 -16 R -11 -11 R -16 -5 R -16 0 R -17 5 R
-5 6 R -5 10 R D 13518 4233 M 76 0 R D 12266 4312 M -27 -9 R -9 -17 R
0 -18 R 9 -18 R 18 -8 R 35 -9 R 26 -9 R 18 -17 R 8 -18 R 0 -26 R -8 -18 R
-9 -8 R -26 -9 R -35 0 R -27 9 R -9 8 R -8 18 R 0 26 R 8 18 R 18 17 R 26 9 R
35 9 R 18 8 R 9 18 R 0 18 R -9 17 R -26 9 R -35 0 R D 12414 4145 M -8 -8 R
8 -9 R 9 9 R -9 8 R D 12537 4312 M -26 -9 R -18 -26 R -8 -44 R 0 -26 R
8 -44 R 18 -26 R 26 -9 R 18 0 R 26 9 R 18 26 R 8 44 R 0 26 R -8 44 R
-18 26 R -26 9 R -18 0 R D 12677 4277 M 123 -123 R D 12800 4277 M
-123 -123 R D 12879 4277 M 17 9 R 27 26 R 0 -184 R D 13080 4312 M -26 -9 R
-17 -26 R -9 -44 R 0 -26 R 9 -44 R 17 -26 R 26 -9 R 18 0 R 26 9 R 18 26 R
9 44 R 0 26 R -9 44 R -18 26 R -26 9 R -18 0 R D 13202 4310 M 98 0 R D
13403 4375 M -55 0 R -5 -49 R 5 6 R 17 5 R 16 0 R 16 -5 R 11 -11 R 5 -17 R
0 -10 R -5 -17 R -11 -11 R -16 -5 R -16 0 R -17 5 R -5 6 R -5 11 R D
13518 5028 M 76 0 R D 12248 5071 M 18 9 R 26 26 R 0 -184 R D 12414 4940 M
-8 -9 R 8 -9 R 9 9 R -9 9 R D 12537 5106 M -26 -9 R -18 -26 R -8 -44 R
0 -26 R 8 -44 R 18 -26 R 26 -9 R 18 0 R 26 9 R 18 26 R 8 44 R 0 26 R -8 44 R
-18 26 R -26 9 R -18 0 R D 12677 5071 M 123 -123 R D 12800 5071 M
-123 -123 R D 12879 5071 M 17 9 R 27 26 R 0 -184 R D 13080 5106 M -26 -9 R
-17 -26 R -9 -44 R 0 -26 R 9 -44 R 17 -26 R 26 -9 R 18 0 R 26 9 R 18 26 R
9 44 R 0 26 R -9 44 R -18 26 R -26 9 R -18 0 R D 13202 5104 M 98 0 R D
13392 5169 M -54 -76 R 81 0 R D 13392 5169 M 0 -114 R D 13518 5822 M 76 0 R
D 12248 5786 M 18 9 R 26 26 R 0 -184 R D 12414 5655 M -8 -9 R 8 -9 R 9 9 R
-9 9 R D 12493 5777 M 0 9 R 9 18 R 9 9 R 17 8 R 35 0 R 18 -8 R 9 -9 R
9 -18 R 0 -17 R -9 -18 R -18 -26 R -87 -88 R 122 0 R D 12677 5786 M
123 -122 R D 12800 5786 M -123 -122 R D 12879 5786 M 17 9 R 27 26 R 0 -184 R
D 13080 5821 M -26 -8 R -17 -27 R -9 -44 R 0 -26 R 9 -44 R 17 -26 R 26 -9 R
18 0 R 26 9 R 18 26 R 9 44 R 0 26 R -9 44 R -18 27 R -26 8 R -18 0 R D
13202 5819 M 98 0 R D 13392 5884 M -54 -76 R 81 0 R D 13392 5884 M 0 -114 R
D 13518 1255 M 38 0 R D 13518 1453 M 38 0 R D 13518 1652 M 38 0 R D
13518 2049 M 38 0 R D 13518 2248 M 38 0 R D 13518 2446 M 38 0 R D
13518 2843 M 38 0 R D 13518 3042 M 38 0 R D 13518 3240 M 38 0 R D
13518 3638 M 38 0 R D 13518 3836 M 38 0 R D 13518 4035 M 38 0 R D
13518 4432 M 38 0 R D 13518 4631 M 38 0 R D 13518 4829 M 38 0 R D
13518 5226 M 38 0 R D 13518 5425 M 38 0 R D 13518 5623 M 38 0 R D
11911 2749 M 26 9 R 9 9 R 8 18 R 0 17 R -8 26 R -27 18 R -26 9 R -26 0 R
-18 -9 R -8 -9 R -9 -17 R 0 -18 R 9 -26 R 26 -18 R 26 -9 R 132 -43 R D
11954 2802 M -8 18 R -27 17 R -26 9 R -35 0 R -17 -9 R D 11832 2802 M
9 -17 R 26 -18 R 26 -9 R 132 -35 R D 11735 3118 M 18 -18 R 26 -18 R 35 -17 R
44 -9 R 35 0 R 44 9 R 44 17 R 26 18 R 18 18 R D 11770 3179 M 184 0 R D
11832 3267 M 87 -88 R D 11884 3214 M 70 61 R D 11832 3424 M 149 0 R 26 -9 R
9 -8 R 9 -18 R 0 -26 R -9 -18 R D 11858 3424 M -17 -17 R -9 -18 R 0 -26 R
9 -18 R 17 -17 R 26 -9 R 18 0 R 26 9 R 18 17 R 8 18 R 0 26 R -8 18 R
-18 17 R D 11735 3635 M 290 -158 R D 11832 3687 M 122 0 R D 11867 3687 M
-26 26 R -9 18 R 0 26 R 9 18 R 26 9 R 87 0 R D 11867 3784 M -26 26 R -9 17 R
0 27 R 9 17 R 26 9 R 87 0 R D 11707 3945 M 0 60 R 44 -32 R 0 16 R 5 11 R
6 5 R 16 6 R 11 0 R 16 -6 R 11 -11 R 5 -16 R 0 -16 R -5 -17 R -6 -5 R
-10 -5 R D 11735 4050 M 18 17 R 26 18 R 35 17 R 44 9 R 35 0 R 44 -9 R
44 -17 R 26 -18 R 18 -17 R D 17281 1056 M 0 4766 R D 17281 1056 M -76 0 R D
17281 1850 M -76 0 R D 17281 2645 M -76 0 R D 17281 3439 M -76 0 R D
17281 4233 M -76 0 R D 17281 5028 M -76 0 R D 17281 5822 M -76 0 R D
17281 1255 M -38 0 R D 17281 1453 M -38 0 R D 17281 1652 M -38 0 R D
17281 2049 M -38 0 R D 17281 2248 M -38 0 R D 17281 2446 M -38 0 R D
17281 2843 M -38 0 R D 17281 3042 M -38 0 R D 17281 3240 M -38 0 R D
17281 3638 M -38 0 R D 17281 3836 M -38 0 R D 17281 4035 M -38 0 R D
17281 4432 M -38 0 R D 17281 4631 M -38 0 R D 17281 4829 M -38 0 R D
17281 5226 M -38 0 R D 17281 5425 M -38 0 R D 17281 5623 M -38 0 R D
13518 5156 M 4 0 R 4 0 R 4 0 R 3 0 R 4 0 R 4 0 R 4 0 R 4 0 R 3 0 R 4 0 R
4 0 R 4 0 R 3 0 R 4 0 R 4 0 R 4 0 R 3 0 R 4 0 R 4 0 R 4 0 R 3 0 R 4 0 R
4 0 R 4 0 R 3 0 R 4 0 R 4 0 R 4 0 R 4 0 R 3 0 R 4 0 R 4 0 R 4 0 R 3 1 R
4 0 R 4 0 R 4 0 R 3 0 R 4 0 R 4 0 R 4 0 R 3 0 R 4 0 R 4 0 R 4 0 R 3 0 R
4 0 R 4 0 R 4 1 R 4 0 R 3 0 R 4 0 R 4 0 R 4 0 R 3 0 R 4 0 R 4 0 R 4 0 R
3 0 R 4 1 R 4 0 R 4 0 R 3 0 R 4 0 R 4 0 R 4 0 R 3 0 R 4 0 R 4 0 R 4 1 R
4 0 R 3 0 R 4 0 R 4 0 R 4 0 R 3 0 R 4 0 R 4 1 R 4 0 R 3 0 R 4 0 R 4 0 R
4 0 R 3 0 R 4 0 R 4 1 R 4 0 R 3 0 R 4 0 R 4 0 R 4 0 R 4 1 R 3 0 R 4 0 R
4 0 R 4 0 R 3 0 R 4 0 R 4 1 R 4 0 R 3 0 R 4 0 R 4 0 R 4 0 R 3 1 R 4 0 R
4 0 R 4 0 R 3 0 R 4 1 R 4 0 R 4 0 R 4 0 R 3 0 R 4 0 R 4 1 R 4 0 R 3 0 R
4 0 R 4 0 R 4 1 R 3 0 R 4 0 R 4 0 R 4 0 R 3 1 R 4 0 R 4 0 R 4 0 R 4 1 R
3 0 R 4 0 R 4 0 R 4 0 R 3 1 R 4 0 R 4 0 R 4 0 R 3 1 R 4 0 R 4 0 R 4 0 R
3 1 R 4 0 R 4 0 R 4 0 R 3 1 R 4 0 R 4 0 R 4 0 R 4 1 R 3 0 R 4 0 R 4 0 R
4 1 R 3 0 R 4 0 R 4 0 R 4 1 R 3 0 R 4 0 R 4 0 R 4 1 R 3 0 R 4 0 R 4 1 R
4 0 R 3 0 R 4 0 R 4 1 R 4 0 R 4 0 R 3 1 R 4 0 R 4 0 R 4 1 R 3 0 R 4 0 R
4 0 R 4 1 R 3 0 R 4 0 R 4 1 R 4 0 R 3 0 R 4 1 R 4 0 R 4 0 R 3 1 R 4 0 R
4 0 R 4 1 R 4 0 R 3 0 R 4 1 R 4 0 R 4 0 R 3 1 R 4 0 R 4 0 R 4 1 R 3 0 R
4 0 R 4 1 R 4 0 R 3 1 R 4 0 R 4 0 R 4 1 R 3 0 R 4 0 R 4 1 R 4 0 R 4 1 R
3 0 R 4 0 R 4 1 R 4 0 R 3 0 R 4 1 R 4 0 R 4 1 R 3 0 R 4 0 R 4 1 R 4 0 R
3 1 R 4 0 R 4 0 R 4 1 R 3 0 R 4 1 R 4 0 R 4 1 R 4 0 R 3 0 R 4 1 R 4 0 R
4 1 R 3 0 R 4 1 R 4 0 R 4 0 R 3 1 R 4 0 R 4 1 R 4 0 R 3 1 R 4 0 R 4 1 R
4 0 R 3 1 R 4 0 R 4 0 R 4 1 R 4 0 R 3 1 R 4 0 R 4 1 R 4 0 R 3 1 R 4 0 R
4 1 R 4 0 R 3 1 R 4 0 R 4 1 R 4 0 R 3 1 R 4 0 R 4 1 R 4 0 R 3 1 R 4 0 R
4 1 R 4 0 R 4 1 R 3 0 R 4 1 R 4 0 R 4 1 R 3 1 R 4 0 R 4 1 R 4 0 R 3 1 R
4 0 R 4 1 R 4 0 R 3 1 R 4 0 R 4 1 R 4 1 R 3 0 R 4 1 R 4 0 R 4 1 R 4 0 R
3 1 R 4 1 R 4 0 R 4 1 R 3 0 R 4 1 R 4 1 R 4 0 R 3 1 R 4 0 R 4 1 R 4 1 R
3 0 R 4 1 R 4 0 R 4 1 R 4 1 R 3 0 R 4 1 R 4 1 R 4 0 R 3 1 R 4 0 R 4 1 R
4 1 R 3 0 R 4 1 R 4 1 R 4 0 R 3 1 R 4 1 R 4 0 R 4 1 R 3 1 R 4 0 R 4 1 R
4 1 R 4 0 R 3 1 R 4 1 R 4 0 R 4 1 R 3 1 R 4 0 R 4 1 R 4 1 R 3 1 R 4 0 R
4 1 R 4 1 R 3 0 R 4 1 R 4 1 R 4 1 R 3 0 R 4 1 R 4 1 R 4 1 R 4 0 R 3 1 R
4 1 R 4 1 R 4 0 R 3 1 R 4 1 R 4 1 R 4 0 R 3 1 R 4 1 R 4 1 R 4 0 R 3 1 R
4 1 R 4 1 R 4 1 R 3 0 R 4 1 R 4 1 R 4 1 R 4 1 R 3 0 R 4 1 R 4 1 R 4 1 R
3 1 R 4 1 R 4 0 R 4 1 R 3 1 R 4 1 R 4 1 R 4 1 R 3 0 R 4 1 R 4 1 R 4 1 R
3 1 R 4 1 R 4 1 R 4 1 R 4 0 R 3 1 R 4 1 R 4 1 R 4 1 R 3 1 R 4 1 R 4 1 R
4 1 R 3 0 R 4 1 R 4 1 R 4 1 R 3 1 R 4 1 R 4 1 R 4 1 R 3 1 R 4 1 R 4 1 R
4 1 R 4 1 R 3 1 R 4 1 R 4 1 R 4 1 R 3 1 R 4 1 R 4 1 R 4 1 R 3 1 R 4 1 R
4 1 R 4 1 R 3 1 R 4 1 R 4 1 R 4 1 R 3 1 R 4 1 R 4 1 R 4 1 R 4 1 R 3 1 R
4 1 R 4 1 R 4 1 R 3 1 R 4 1 R 4 1 R 4 1 R 3 1 R 4 1 R 4 1 R 4 2 R 3 1 R
4 1 R 4 1 R 4 1 R 3 1 R 4 1 R 4 1 R 4 1 R 4 2 R 3 1 R 4 1 R 4 1 R 4 1 R
3 1 R 4 1 R 4 2 R 4 1 R 3 1 R 4 1 R 4 1 R 4 1 R 3 2 R 4 1 R 4 1 R 4 1 R
4 1 R 3 2 R 4 1 R 4 1 R 4 1 R 3 1 R 4 2 R 4 1 R 4 1 R 3 1 R 4 2 R 4 1 R
4 1 R 3 1 R 4 2 R 4 1 R 4 1 R 3 1 R 4 2 R 4 1 R 4 1 R 4 -893 R 3 0 R 4 0 R
4 0 R 4 0 R 3 0 R 4 0 R 4 0 R 4 0 R 3 0 R 4 0 R 4 0 R 4 0 R 3 0 R 4 0 R
4 0 R 4 0 R 3 0 R 4 0 R 4 0 R 4 0 R 4 0 R 3 0 R 4 0 R 4 0 R 4 0 R 3 0 R
4 0 R 4 0 R 4 0 R 3 0 R 4 0 R 4 0 R 4 0 R 3 0 R 4 0 R 4 0 R 4 0 R 3 0 R
4 0 R 4 0 R 4 0 R 4 0 R 3 0 R 4 0 R 4 0 R 4 0 R 3 0 R 4 0 R 4 0 R 4 0 R
3 0 R 4 0 R 4 0 R 4 0 R 3 0 R 4 0 R 4 0 R 4 0 R 3 0 R 4 0 R 4 0 R 4 0 R
4 0 R 3 0 R 4 0 R 4 0 R 4 0 R 3 0 R 4 0 R 4 0 R 4 0 R 3 0 R 4 0 R 4 0 R
4 0 R 3 0 R 4 0 R 4 0 R 4 0 R 3 0 R 4 0 R 4 0 R 4 0 R 4 0 R 3 0 R 4 0 R
4 0 R 4 0 R 3 0 R 4 0 R 4 0 R 4 0 R 3 0 R 4 0 R 4 0 R 4 0 R 3 0 R 4 0 R
4 0 R 4 0 R 3 0 R 4 0 R 4 0 R 4 0 R 4 0 R 3 0 R 4 0 R 4 0 R 4 0 R 3 0 R
4 0 R 4 0 R 4 0 R 3 0 R 4 0 R 4 0 R 4 0 R 3 0 R 4 0 R 4 0 R 4 0 R 3 0 R
4 0 R 4 0 R 4 0 R 4 0 R 3 0 R 4 0 R 4 0 R 4 0 R 3 0 R 4 0 R 4 0 R 4 0 R
3 0 R 4 0 R 4 0 R 4 0 R 3 0 R 4 0 R 4 0 R 4 0 R 3 0 R 4 0 R 4 0 R 4 0 R
4 1 R 3 0 R 4 0 R 4 0 R 4 0 R 3 0 R 4 0 R 4 0 R 4 0 R 3 0 R 4 0 R 4 0 R
4 0 R 3 0 R 4 0 R 4 0 R 4 0 R 4 0 R 3 0 R 4 0 R 4 0 R 4 0 R 3 0 R 4 0 R
4 0 R 4 0 R 3 0 R 4 0 R 4 0 R 4 0 R 3 0 R 4 0 R 4 0 R 4 0 R 3 0 R 4 0 R
4 0 R 4 0 R 4 0 R 3 0 R 4 0 R 4 0 R 4 0 R 3 0 R 4 0 R 4 0 R 4 0 R 3 0 R
4 0 R 4 0 R 4 0 R 3 0 R 4 0 R 4 0 R 4 0 R 3 0 R 4 0 R 4 0 R 4 0 R 4 0 R
3 0 R 4 0 R 4 0 R 4 0 R 3 0 R 4 0 R 4 0 R 4 0 R 3 0 R 4 0 R 4 0 R 4 0 R
3 0 R 4 0 R 4 0 R 4 0 R 3 0 R 4 0 R 4 0 R 4 0 R 4 0 R 3 0 R 4 0 R 4 0 R
4 0 R 3 0 R 4 0 R 4 0 R 4 0 R 3 0 R 4 0 R 4 0 R 4 0 R 3 0 R 4 0 R 4 0 R
4 0 R 3 0 R 4 0 R 4 0 R 4 0 R 4 0 R 3 0 R 4 0 R D 16340 4523 M 4 0 R 4 0 R
3 0 R 4 0 R 4 0 R 4 0 R 3 0 R 4 0 R 4 0 R 4 0 R 3 0 R 4 0 R 4 0 R 4 0 R
3 0 R 4 0 R 4 0 R 4 0 R 4 0 R 3 0 R 4 0 R 4 0 R 4 0 R 3 0 R 4 0 R 4 0 R
4 0 R 3 0 R 4 0 R 4 0 R 4 0 R 3 0 R 4 0 R 4 0 R 4 0 R 3 0 R 4 0 R 4 0 R
4 0 R 4 0 R 3 0 R 4 0 R 4 0 R 4 0 R 3 0 R 4 0 R 4 0 R 4 0 R 3 0 R 4 0 R
4 0 R 4 0 R 3 0 R 4 0 R 4 0 R 4 0 R 3 0 R 4 0 R 4 0 R 4 0 R 4 0 R 3 0 R
4 0 R 4 0 R 4 0 R 3 0 R 4 0 R 4 0 R 4 0 R 3 0 R 4 0 R 4 0 R 4 0 R 3 0 R
4 0 R 4 0 R 4 0 R 3 0 R 4 0 R 4 0 R 4 0 R 4 0 R 3 0 R 4 0 R 4 0 R 4 0 R
3 0 R 4 0 R 4 0 R 4 0 R 3 0 R 4 0 R 4 0 R 4 0 R 3 0 R 4 0 R 4 0 R 4 0 R
4 0 R 3 0 R 4 0 R 4 0 R 4 0 R 3 0 R 4 0 R 4 0 R 4 0 R 3 0 R 4 0 R 4 0 R
4 0 R 3 0 R 4 0 R 4 0 R 4 0 R 3 0 R 4 0 R 4 0 R 4 0 R 4 0 R 3 0 R 4 0 R
4 0 R 4 0 R 3 0 R 4 0 R 4 0 R 4 0 R 3 0 R 4 0 R 4 0 R 4 0 R 3 0 R 4 0 R
4 0 R 4 0 R 3 0 R 4 0 R 4 0 R 4 0 R 4 0 R 3 0 R 4 0 R 4 0 R 4 0 R 3 0 R
4 0 R 4 0 R 4 0 R 3 0 R 4 0 R 4 0 R 4 0 R 3 0 R 4 0 R 4 0 R 4 0 R 3 0 R
4 0 R 4 0 R 4 0 R 4 0 R 3 0 R 4 0 R 4 0 R 4 0 R 3 0 R 4 0 R 4 0 R 4 0 R
3 0 R 4 0 R 4 0 R 4 0 R 3 0 R 4 0 R 4 0 R 4 0 R 3 0 R 4 0 R 4 0 R 4 0 R
4 0 R 3 0 R 4 0 R 4 0 R 4 0 R 3 0 R 4 0 R 4 0 R 4 0 R 3 0 R 4 0 R 4 0 R
4 0 R 3 0 R 4 0 R 4 0 R 4 0 R 3 0 R 4 0 R 4 0 R 4 0 R 4 0 R 3 0 R 4 0 R
4 0 R 4 0 R 3 0 R 4 0 R 4 0 R 4 0 R 3 0 R 4 0 R 4 0 R 4 0 R 3 0 R 4 0 R
4 0 R 4 0 R 3 0 R 4 0 R 4 0 R 4 0 R 4 0 R 3 0 R 4 0 R 4 0 R 4 0 R 3 0 R
4 0 R 4 0 R 4 0 R 3 0 R 4 0 R 4 0 R 4 0 R 3 0 R 4 0 R 4 0 R 4 0 R 3 0 R
4 0 R 4 0 R 4 0 R 4 0 R 3 0 R 4 0 R 4 0 R D
%%PageTrailer
end
restore
showpage
%%PageResources: font Helvetica
%%Trailer
restore
%%Pages: 1
%%DocumentNeededResources: font Helvetica
%%EOF
