%!PS-Adobe-3.0
%%BoundingBox: 54 360 479 785
%%Title: Graphics produced by IDL
%%For: ap1vf@titania, /scratch/ap1vf/Idl
%%Creator: IDL Version 6.0, Solaris (sunos sparc m64)
%%CreationDate: Mon May 16 20:52:21 2005
%%DocumentData: Clean7bit
%%Requirements: color
%%LanguageLevel: 1
%%PageOrder: Ascend
%%Pages: (atend)
%%DocumentNeededResources: (atend)
%%EndComments
%%BeginProlog
save
%+ prolog.ps -- Prolog for IDL generated PostScript files
%+ Copyright (c) 1988-2003 Research Systems, Inc. All Rights Reserved.
%v 4
/$IDL_DICT 40 dict def $IDL_DICT begin /bdef { bind def } bind def /C
{currentpoint newpath moveto} bdef /CP {currentpoint} bdef /D {currentpoint
stroke moveto} bdef /F {closepath fill} bdef /K { setgray } bdef /M {moveto}
bdef /N {rmoveto} bdef /P {lineto} bdef /R {rlineto} bdef /S {gsave show
grestore} bdef /X {currentpoint pop} bdef /Z {gsave currentpoint lineto 20
setlinewidth 1 setlinecap stroke grestore} bdef /L0 {[] 0 setdash} bdef /L1
{[40 100] 0 setdash} bdef /L2 {[200 200] 0 setdash} bdef /L3 {[200 100 50
100] 0 setdash} bdef /L4 {[300 100 50 100 50 100 50 100] 0 setdash} bdef /L5
{[400 200] 0 setdash} bdef /STDFONT { findfont exch scalefont setfont } bdef
/ISOFONT { findfont dup length dict begin { 1 index /FID ne {def} {pop pop}
ifelse } forall /Encoding ISOLatin1Encoding def currentdict end /idltmpfont
exch definefont exch scalefont setfont } bdef /ISOBULLET { gsave /Helvetica
findfont exch scalefont setfont (\267) show currentpoint grestore moveto}
bdef end 2.5 setmiterlimit
%%EndProlog
%%Page: 0 1
%%PageRequirements: color
%%PageResources: (atend)
%%PageOrientation: Portrait
%%PageBoundingBox: 54 360 479 785
%%BeginPageSetup
save
$IDL_DICT begin 54 360 translate 0.0283465 dup scale
%%IncludeResource: font Helvetica
423.333 /Helvetica STDFONT
%%EndPageSetup
10 setlinewidth L0 0.000 0.000 0.000 setrgbcolor 1665 11056 M 12836 0 R D
1665 11056 M 0 68 R D 1648 10844 M -27 -9 R -17 -26 R -9 -44 R 0 -26 R
9 -44 R 17 -26 R 27 -9 R 17 0 R 26 9 R 18 26 R 9 44 R 0 26 R -9 44 R
-18 26 R -26 9 R -17 0 R D 4874 11056 M 0 68 R D 4821 10844 M -87 0 R
-9 -79 R 9 9 R 26 9 R 26 0 R 27 -9 R 17 -18 R 9 -26 R 0 -17 R -9 -27 R
-17 -17 R -27 -9 R -26 0 R -26 9 R -9 9 R -9 17 R D 4944 10844 M -26 -9 R
-18 -26 R -9 -44 R 0 -26 R 9 -44 R 18 -26 R 26 -9 R 18 0 R 26 9 R 17 26 R
9 44 R 0 26 R -9 44 R -17 26 R -26 9 R -18 0 R D 8083 11056 M 0 68 R D
7864 10809 M 17 9 R 27 26 R 0 -184 R D 8065 10844 M -26 -9 R -18 -26 R
-8 -44 R 0 -26 R 8 -44 R 18 -26 R 26 -9 R 18 0 R 26 9 R 18 26 R 8 44 R
0 26 R -8 44 R -18 26 R -26 9 R -18 0 R D 8241 10844 M -27 -9 R -17 -26 R
-9 -44 R 0 -26 R 9 -44 R 17 -26 R 27 -9 R 17 0 R 26 9 R 18 26 R 9 44 R
0 26 R -9 44 R -18 26 R -26 9 R -17 0 R D 11292 11056 M 0 68 R D
11073 10809 M 17 9 R 26 26 R 0 -184 R D 11327 10844 M -88 0 R -9 -79 R 9 9 R
26 9 R 27 0 R 26 -9 R 18 -18 R 8 -26 R 0 -17 R -8 -27 R -18 -17 R -26 -9 R
-27 0 R -26 9 R -9 9 R -8 17 R D 11449 10844 M -26 -9 R -17 -26 R -9 -44 R
0 -26 R 9 -44 R 17 -26 R 26 -9 R 18 0 R 26 9 R 18 26 R 9 44 R 0 26 R -9 44 R
-18 26 R -26 9 R -18 0 R D 14501 11056 M 0 68 R D 14264 10800 M 0 9 R 9 18 R
8 8 R 18 9 R 35 0 R 18 -9 R 8 -8 R 9 -18 R 0 -17 R -9 -18 R -17 -26 R
-88 -88 R 123 0 R D 14483 10844 M -26 -9 R -18 -26 R -9 -44 R 0 -26 R
9 -44 R 18 -26 R 26 -9 R 18 0 R 26 9 R 17 26 R 9 44 R 0 26 R -9 44 R
-17 26 R -26 9 R -18 0 R D 14658 10844 M -26 -9 R -18 -26 R -8 -44 R 0 -26 R
8 -44 R 18 -26 R 26 -9 R 18 0 R 26 9 R 18 26 R 8 44 R 0 26 R -8 44 R
-18 26 R -26 9 R -18 0 R D 2307 11056 M 0 34 R D 2949 11056 M 0 34 R D
3590 11056 M 0 34 R D 4232 11056 M 0 34 R D 5516 11056 M 0 34 R D
6158 11056 M 0 34 R D 6799 11056 M 0 34 R D 7441 11056 M 0 34 R D
8725 11056 M 0 34 R D 9366 11056 M 0 34 R D 10008 11056 M 0 34 R D
10650 11056 M 0 34 R D 11933 11056 M 0 34 R D 12575 11056 M 0 34 R D
13217 11056 M 0 34 R D 13859 11056 M 0 34 R D 6418 10440 M -97 -123 R D
6321 10440 M 97 0 R D 6321 10317 M 97 0 R D 6681 10536 M -18 -18 R -17 -26 R
-18 -35 R -9 -44 R 0 -35 R 9 -44 R 18 -43 R 17 -27 R 18 -17 R D 6742 10440 M
0 -123 R D 6742 10387 M 9 26 R 17 18 R 18 9 R 26 0 R D 6996 10536 M
-158 -289 R D 7049 10440 M 0 -123 R D 7049 10387 M 9 26 R 17 18 R 18 9 R
26 0 R D 7179 10361 M -12 -6 R -12 -12 R -6 -19 R 0 -12 R 6 -18 R 12 -13 R
12 -6 R 19 0 R 12 6 R 12 13 R 6 18 R 0 12 R -6 19 R -12 12 R -12 6 R -19 0 R
D 7270 10536 M 18 -18 R 18 -26 R 17 -35 R 9 -44 R 0 -35 R -9 -44 R -17 -43 R
-18 -27 R -18 -17 R D 7603 10536 M -17 -18 R -18 -26 R -17 -35 R -9 -44 R
0 -35 R 9 -44 R 17 -43 R 18 -27 R 17 -17 R D 7665 10440 M 0 -123 R D
7665 10387 M 9 26 R 17 18 R 18 9 R 26 0 R D 7777 10404 M 0 -104 R 6 -19 R
12 -6 R 13 0 R D 7759 10361 M 43 0 R D 7852 10422 M 158 0 R D 7852 10369 M
158 0 R D 8124 10501 M -26 -9 R -18 -26 R -9 -44 R 0 -26 R 9 -44 R 18 -26 R
26 -9 R 18 0 R 26 9 R 17 26 R 9 44 R 0 26 R -9 44 R -17 26 R -26 9 R -18 0 R
D 8264 10334 M -9 -8 R 9 -9 R 9 9 R -9 8 R D 8448 10440 M -9 -27 R -17 -17 R
-26 -9 R -9 0 R -26 9 R -18 17 R -9 27 R 0 8 R 9 27 R 18 17 R 26 9 R 9 0 R
26 -9 R 17 -17 R 9 -35 R 0 -44 R -9 -44 R -17 -26 R -26 -9 R -18 0 R -26 9 R
-9 17 R D 8518 10457 M 0 9 R 9 17 R 9 9 R 17 9 R 35 0 R 18 -9 R 9 -9 R
9 -17 R 0 -18 R -9 -17 R -18 -26 R -87 -88 R 122 0 R D 8729 10501 M -27 -9 R
-8 -17 R 0 -18 R 8 -17 R 18 -9 R 35 -9 R 26 -9 R 18 -17 R 9 -18 R 0 -26 R
-9 -18 R -9 -8 R -26 -9 R -35 0 R -27 9 R -8 8 R -9 18 R 0 26 R 9 18 R
17 17 R 26 9 R 35 9 R 18 9 R 9 17 R 0 18 R -9 17 R -26 9 R -35 0 R D
8965 10501 M -87 0 R -9 -79 R 9 9 R 26 9 R 26 0 R 27 -9 R 17 -18 R 9 -26 R
0 -18 R -9 -26 R -17 -17 R -27 -9 R -26 0 R -26 9 R -9 8 R -9 18 R D
9158 10501 M -88 -184 R D 9035 10501 M 123 0 R D 9237 10466 M 17 9 R 27 26 R
0 -184 R D 9395 10440 M 0 -123 R D 9395 10387 M 8 26 R 18 18 R 17 9 R 27 0 R
D 9525 10361 M -12 -6 R -12 -12 R -6 -19 R 0 -12 R 6 -18 R 12 -13 R 12 -6 R
19 0 R 12 6 R 12 13 R 6 18 R 0 12 R -6 19 R -12 12 R -12 6 R -19 0 R D
9616 10536 M 18 -18 R 17 -26 R 18 -35 R 9 -44 R 0 -35 R -9 -44 R -18 -43 R
-17 -27 R -18 -17 R D 1665 14472 M 12836 0 R D 1665 14472 M 0 -68 R D
4874 14472 M 0 -68 R D 8083 14472 M 0 -68 R D 11292 14472 M 0 -68 R D
14501 14472 M 0 -68 R D 2307 14472 M 0 -34 R D 2949 14472 M 0 -34 R D
3590 14472 M 0 -34 R D 4232 14472 M 0 -34 R D 5516 14472 M 0 -34 R D
6158 14472 M 0 -34 R D 6799 14472 M 0 -34 R D 7441 14472 M 0 -34 R D
8725 14472 M 0 -34 R D 9366 14472 M 0 -34 R D 10008 14472 M 0 -34 R D
10650 14472 M 0 -34 R D 11933 14472 M 0 -34 R D 12575 14472 M 0 -34 R D
13217 14472 M 0 -34 R D 13859 14472 M 0 -34 R D 1665 11056 M 0 3416 R D L1
1665 11056 M 12836 0 R D L0 1477 11240 M -27 -9 R -17 -26 R -9 -44 R 0 -26 R
9 -44 R 17 -26 R 27 -9 R 17 0 R 26 9 R 18 26 R 9 44 R 0 26 R -9 44 R
-18 26 R -26 9 R -17 0 R D L1 1665 11910 M 12836 0 R D L0 1275 11953 M
18 9 R 26 27 R 0 -185 R D 1477 11989 M -27 -9 R -17 -27 R -9 -43 R 0 -27 R
9 -43 R 17 -27 R 27 -9 R 17 0 R 26 9 R 18 27 R 9 43 R 0 27 R -9 43 R
-18 27 R -26 9 R -17 0 R D L1 1665 12764 M 12836 0 R D L0 1258 12799 M 0 8 R
8 18 R 9 9 R 18 9 R 35 0 R 17 -9 R 9 -9 R 9 -18 R 0 -17 R -9 -18 R -18 -26 R
-87 -88 R 123 0 R D 1477 12843 M -27 -9 R -17 -27 R -9 -43 R 0 -27 R 9 -43 R
17 -27 R 27 -9 R 17 0 R 26 9 R 18 27 R 9 43 R 0 27 R -9 43 R -18 27 R
-26 9 R -17 0 R D L1 1665 13618 M 12836 0 R D L0 1266 13697 M 97 0 R
-53 -71 R 26 0 R 18 -8 R 9 -9 R 9 -26 R 0 -18 R -9 -26 R -18 -18 R -26 -9 R
-26 0 R -27 9 R -8 9 R -9 18 R D 1477 13697 M -27 -9 R -17 -27 R -9 -43 R
0 -27 R 9 -43 R 17 -27 R 27 -9 R 17 0 R 26 9 R 18 27 R 9 43 R 0 27 R -9 43 R
-18 27 R -26 9 R -17 0 R D L1 1665 14472 M 12836 0 R D L0 1336 14471 M
-87 -122 R 131 0 R D 1336 14471 M 0 -184 R D 1477 14471 M -27 -8 R -17 -27 R
-9 -44 R 0 -26 R 9 -44 R 17 -26 R 27 -9 R 17 0 R 26 9 R 18 26 R 9 44 R
0 26 R -9 44 R -18 27 R -26 8 R -17 0 R D 1665 11141 M 193 0 R D
1665 11227 M 193 0 R D 1665 11312 M 193 0 R D 1665 11398 M 193 0 R D
1665 11483 M 193 0 R D 1665 11568 M 193 0 R D 1665 11654 M 193 0 R D
1665 11739 M 193 0 R D 1665 11825 M 193 0 R D 1665 11995 M 193 0 R D
1665 12081 M 193 0 R D 1665 12166 M 193 0 R D 1665 12252 M 193 0 R D
1665 12337 M 193 0 R D 1665 12422 M 193 0 R D 1665 12508 M 193 0 R D
1665 12593 M 193 0 R D 1665 12679 M 193 0 R D 1665 12849 M 193 0 R D
1665 12935 M 193 0 R D 1665 13020 M 193 0 R D 1665 13106 M 193 0 R D
1665 13191 M 193 0 R D 1665 13276 M 193 0 R D 1665 13362 M 193 0 R D
1665 13447 M 193 0 R D 1665 13533 M 193 0 R D 1665 13703 M 193 0 R D
1665 13789 M 193 0 R D 1665 13874 M 193 0 R D 1665 13960 M 193 0 R D
1665 14045 M 193 0 R D 1665 14130 M 193 0 R D 1665 14216 M 193 0 R D
1665 14301 M 193 0 R D 1665 14387 M 193 0 R D 859 12212 M 87 0 R 27 9 R
9 17 R 0 27 R -9 17 R -27 26 R D 859 12308 M 123 0 R D 762 12580 M 18 -17 R
26 -18 R 35 -18 R 44 -8 R 35 0 R 44 8 R 44 18 R 26 18 R 18 17 R D
859 12641 M 123 0 R D 894 12641 M -26 27 R -9 17 R 0 26 R 9 18 R 26 9 R
88 0 R D 894 12738 M -26 26 R -9 18 R 0 26 R 9 17 R 26 9 R 88 0 R D
762 13044 M 290 -157 R D 885 13185 M -17 -9 R -9 -26 R 0 -27 R 9 -26 R
17 -9 R 18 9 R 8 18 R 9 43 R 9 18 R 17 9 R 9 0 R 18 -9 R 9 -26 R 0 -27 R
-9 -26 R -18 -9 R D 762 13237 M 18 18 R 26 17 R 35 18 R 44 9 R 35 0 R
44 -9 R 44 -18 R 26 -17 R 18 -18 R D 14501 11056 M 0 3416 R D L1
14501 11056 M -12836 0 R D 14501 11910 M -12836 0 R D 14501 12764 M
-12836 0 R D 14501 13618 M -12836 0 R D 14501 14472 M -12836 0 R D L0
14501 11141 M -193 0 R D 14501 11227 M -193 0 R D 14501 11312 M -193 0 R D
14501 11398 M -193 0 R D 14501 11483 M -193 0 R D 14501 11568 M -193 0 R D
14501 11654 M -193 0 R D 14501 11739 M -193 0 R D 14501 11825 M -193 0 R D
14501 11995 M -193 0 R D 14501 12081 M -193 0 R D 14501 12166 M -193 0 R D
14501 12252 M -193 0 R D 14501 12337 M -193 0 R D 14501 12422 M -193 0 R D
14501 12508 M -193 0 R D 14501 12593 M -193 0 R D 14501 12679 M -193 0 R D
14501 12849 M -193 0 R D 14501 12935 M -193 0 R D 14501 13020 M -193 0 R D
14501 13106 M -193 0 R D 14501 13191 M -193 0 R D 14501 13276 M -193 0 R D
14501 13362 M -193 0 R D 14501 13447 M -193 0 R D 14501 13533 M -193 0 R D
14501 13703 M -193 0 R D 14501 13789 M -193 0 R D 14501 13874 M -193 0 R D
14501 13960 M -193 0 R D 14501 14045 M -193 0 R D 14501 14130 M -193 0 R D
14501 14216 M -193 0 R D 14501 14301 M -193 0 R D 14501 14387 M -193 0 R D
1665 11676 M 13 0 R 13 0 R 13 0 R 12 0 R 13 0 R 13 0 R 13 0 R 13 0 R 13 0 R
12 0 R 13 0 R 13 0 R 13 0 R 13 0 R 13 0 R 12 0 R 13 0 R 13 0 R 13 0 R 13 0 R
13 0 R 12 0 R 13 1 R 13 0 R 13 0 R 13 1 R 13 1 R 12 1 R 13 1 R 13 2 R 13 2 R
13 3 R 13 4 R 12 6 R 13 7 R 13 8 R 13 11 R 13 14 R 13 17 R 12 21 R 13 25 R
13 31 R 13 36 R 13 43 R 13 49 R 13 56 R 12 65 R 13 73 R 13 82 R 13 92 R
13 100 R 13 108 R 12 115 R 13 121 R 13 125 R 13 128 R 13 128 R 13 125 R
12 120 R 13 109 R 13 96 R 13 81 R 13 63 R 13 45 R 12 28 R 13 14 R 13 -16 R
13 -13 R 13 -59 R 13 -64 R 12 -80 R 13 -86 R 13 -82 R 13 -76 R 13 -74 R
13 -69 R 12 -67 R 13 -49 R 13 -2 R 13 0 R 13 2 R 13 49 R 12 67 R 13 69 R
13 74 R 13 76 R 13 82 R 13 86 R 12 80 R 13 64 R 13 59 R 13 13 R 13 16 R
13 -14 R 12 -28 R 13 -45 R 13 -63 R 13 -81 R 13 -96 R 13 -109 R 12 -120 R
13 -125 R 13 -128 R 13 -128 R 13 -125 R 13 -121 R 12 -115 R 13 -108 R
13 -100 R 13 -92 R 13 -82 R 13 -73 R 12 -65 R 13 -56 R 13 -49 R 13 -43 R
13 -36 R 13 -31 R 12 -25 R 13 -21 R 13 -17 R 13 -14 R 13 -11 R 13 -8 R
13 -7 R 12 -6 R 13 -4 R 13 -3 R 13 -2 R 13 -2 R 13 -1 R 12 -1 R 13 -1 R
13 -1 R 13 0 R 13 0 R 13 -1 R 12 0 R 13 0 R 13 0 R 13 0 R 13 0 R 13 0 R
12 0 R 13 0 R 13 0 R 13 0 R 13 0 R 13 0 R 12 0 R 13 0 R 13 0 R 13 0 R 13 0 R
13 0 R 12 0 R 13 0 R 13 0 R 13 0 R 13 0 R 13 0 R 12 0 R 13 0 R 13 0 R 13 0 R
13 0 R 13 0 R 12 0 R 13 0 R 13 0 R 13 0 R 13 0 R 13 0 R 12 0 R 13 0 R 13 0 R
13 0 R 13 0 R 13 0 R 12 0 R 13 0 R 13 0 R 13 0 R 13 0 R 13 0 R 12 0 R 13 0 R
13 0 R 13 0 R 13 0 R 13 0 R 12 0 R 13 0 R 13 0 R 13 0 R 13 0 R 13 0 R 13 0 R
12 0 R 13 0 R 13 0 R 13 0 R 13 0 R 13 0 R 12 0 R 13 0 R 13 0 R 13 0 R 13 0 R
13 0 R 12 0 R 13 0 R 13 0 R 13 0 R 13 0 R 13 0 R 12 0 R 13 0 R 13 0 R 13 0 R
13 0 R 13 0 R 12 0 R 13 0 R 13 0 R 13 0 R 13 0 R 13 0 R 12 0 R 13 0 R 13 0 R
13 0 R 13 0 R 13 0 R 12 0 R 13 0 R 13 0 R 13 0 R 13 0 R 13 0 R 12 0 R 13 0 R
13 0 R 13 0 R 13 0 R 13 0 R 12 0 R 13 0 R 13 0 R 13 0 R 13 0 R 13 0 R 12 0 R
13 0 R 13 0 R 13 0 R 13 0 R 13 0 R 12 0 R 13 0 R 13 0 R 13 0 R 13 0 R 13 0 R
12 0 R 13 0 R 13 0 R 13 0 R 13 0 R 13 0 R 12 0 R 13 0 R 13 0 R 13 0 R 13 0 R
13 0 R 13 0 R 12 0 R 13 0 R 13 0 R 13 0 R 13 0 R 13 0 R 12 0 R 13 0 R 13 0 R
13 0 R 13 0 R 13 0 R 12 0 R 13 0 R 13 0 R 13 0 R 13 0 R 13 0 R 12 0 R 13 0 R
13 0 R 13 0 R 13 0 R 13 0 R 12 0 R 13 0 R 13 0 R 13 0 R 13 0 R 13 0 R 12 0 R
13 0 R 13 0 R 13 0 R 13 0 R 13 0 R 12 0 R 13 0 R 13 0 R 13 0 R 13 0 R 13 0 R
12 0 R 13 0 R 13 0 R 13 0 R 13 0 R 13 0 R 12 0 R 13 0 R 13 0 R 13 0 R 13 0 R
13 0 R 12 0 R 13 0 R 13 0 R 13 0 R 13 0 R 13 0 R 12 0 R 13 0 R 13 0 R 13 0 R
13 0 R 13 0 R 12 0 R 13 0 R 13 0 R 13 0 R 13 0 R 13 0 R 13 0 R 12 0 R 13 0 R
13 0 R 13 0 R 13 0 R 13 0 R 12 0 R 13 0 R 13 0 R 13 0 R 13 0 R 13 0 R 12 0 R
13 0 R 13 0 R 13 0 R 13 0 R 13 0 R 12 0 R 13 0 R 13 0 R 13 0 R 13 0 R 13 0 R
12 0 R 13 0 R 13 0 R 13 0 R 13 0 R 13 0 R 12 0 R 13 0 R 13 0 R 13 0 R 13 0 R
13 0 R 12 0 R 13 0 R 13 0 R 13 0 R 13 0 R 13 0 R 12 0 R 13 0 R 13 0 R 13 0 R
13 0 R 13 0 R 12 0 R 13 0 R 13 0 R 13 0 R 13 0 R 13 0 R 12 0 R 13 0 R 13 0 R
13 0 R 13 0 R 13 0 R 12 0 R 13 0 R 13 0 R 13 0 R 13 0 R 13 0 R 12 0 R 13 0 R
13 0 R 13 0 R 13 0 R 13 0 R 12 0 R 13 0 R 13 0 R 13 0 R 13 0 R 13 0 R 13 0 R
12 0 R 13 0 R 13 0 R 13 0 R 13 0 R 13 0 R 12 0 R 13 0 R 13 0 R 13 0 R 13 0 R
13 0 R 12 0 R 13 0 R 13 0 R 13 0 R 13 0 R 13 0 R 12 0 R 13 0 R 13 0 R 13 0 R
13 0 R 13 0 R 12 0 R 13 0 R 13 0 R 13 0 R 13 0 R 13 0 R 12 0 R 13 0 R 13 0 R
13 0 R 13 0 R 13 0 R 12 0 R 13 0 R 13 0 R 13 0 R 13 0 R 13 0 R 12 0 R 13 0 R
13 0 R 13 0 R 13 0 R 13 0 R 12 0 R 13 0 R 13 0 R 13 0 R 13 0 R 13 0 R 12 0 R
13 0 R 13 0 R 13 0 R 13 0 R 13 0 R 12 0 R 13 0 R 13 0 R 13 0 R 13 0 R 13 0 R
12 0 R 13 0 R 13 0 R 13 0 R 13 0 R 13 0 R 12 0 R 13 0 R 13 0 R 13 0 R 13 0 R
13 0 R 13 0 R 12 0 R 13 0 R 13 0 R 13 0 R 13 0 R 13 0 R 12 0 R 13 0 R 13 0 R
13 0 R 13 0 R 13 0 R 12 0 R 13 0 R 13 0 R 13 0 R 13 0 R 13 0 R 12 0 R 13 0 R
13 0 R 13 0 R 13 0 R 13 0 R 12 0 R 13 0 R 13 0 R 13 0 R 13 0 R 13 0 R 12 0 R
13 0 R 13 0 R 13 0 R 13 0 R 13 0 R 12 0 R 13 0 R 13 0 R 13 0 R 13 0 R 13 0 R
12 0 R 13 0 R 13 0 R 13 0 R 13 0 R 13 0 R 12 0 R 13 0 R 13 0 R 13 0 R 13 0 R
13 0 R 12 0 R 13 0 R 13 0 R 13 0 R 13 0 R 13 0 R 12 0 R 13 0 R 13 0 R 13 0 R
13 0 R 13 0 R 12 0 R 13 0 R 13 0 R 13 0 R 13 0 R 13 0 R 13 0 R 12 0 R 13 0 R
13 0 R 13 0 R 13 0 R 13 0 R 12 0 R 13 0 R 13 0 R 13 0 R 13 0 R 13 0 R 12 0 R
13 0 R 13 0 R 13 0 R 13 0 R 13 0 R 12 0 R 13 0 R 13 0 R 13 0 R 13 0 R 13 0 R
12 0 R 13 0 R 13 0 R 13 0 R 13 0 R 13 0 R 12 0 R 13 0 R 13 0 R 13 0 R 13 0 R
13 0 R 12 0 R 13 0 R 13 0 R 13 0 R 13 0 R 13 0 R 12 0 R 13 0 R 13 0 R 13 0 R
13 0 R 13 0 R 12 0 R 13 0 R 13 0 R 13 0 R 13 0 R 13 0 R 12 0 R 13 0 R 13 0 R
13 0 R 13 0 R 13 0 R 12 0 R 13 0 R 13 0 R 13 0 R 13 0 R 13 0 R 12 0 R 13 0 R
13 0 R 13 0 R 13 0 R 13 0 R 12 0 R 13 0 R 13 0 R 13 0 R 13 0 R 13 0 R 13 0 R
12 0 R 13 0 R 13 0 R 13 0 R 13 0 R 13 0 R 12 0 R 13 0 R 13 0 R 13 0 R 13 0 R
13 0 R 12 0 R 13 0 R 13 0 R 13 0 R 13 0 R 13 0 R 12 0 R 13 0 R 13 0 R 13 0 R
13 0 R 13 0 R 12 0 R 13 0 R 13 0 R 13 0 R 13 0 R 13 0 R 12 0 R 13 0 R 13 0 R
13 0 R 13 0 R 13 0 R 12 0 R 13 0 R 13 0 R 13 0 R 13 0 R 13 0 R 12 0 R 13 0 R
13 0 R 13 0 R 13 0 R 13 0 R 12 0 R 13 0 R 13 0 R 13 0 R 13 0 R 13 0 R 12 0 R
13 0 R 13 0 R 13 0 R 13 0 R 13 0 R 12 0 R 13 0 R 13 0 R 13 0 R 13 0 R 13 0 R
12 0 R 13 0 R 13 0 R 13 0 R 13 0 R 13 0 R 12 0 R 13 0 R 13 0 R 13 0 R 13 0 R
13 0 R 13 0 R 12 0 R 13 0 R 13 0 R 13 0 R 13 0 R 13 0 R 12 0 R 13 0 R 13 0 R
13 0 R 13 0 R D 11292 11676 M 13 0 R 12 0 R 13 0 R 13 0 R 13 0 R 13 0 R
13 0 R 12 0 R 13 0 R 13 0 R 13 0 R 13 0 R 13 0 R 12 0 R 13 0 R 13 0 R 13 0 R
13 0 R 13 0 R 12 0 R 13 0 R 13 0 R 13 0 R 13 0 R 13 0 R 12 0 R 13 0 R 13 0 R
13 0 R 13 0 R 13 0 R 12 0 R 13 0 R 13 0 R 13 0 R 13 0 R 13 0 R 12 0 R 13 0 R
13 0 R 13 0 R 13 0 R 13 0 R 12 0 R 13 0 R 13 0 R 13 0 R 13 0 R 13 0 R 12 0 R
13 0 R 13 0 R 13 0 R 13 0 R 13 0 R 12 0 R 13 0 R 13 0 R 13 0 R 13 0 R 13 0 R
13 0 R 12 0 R 13 0 R 13 0 R 13 0 R 13 0 R 13 0 R 12 0 R 13 0 R 13 0 R 13 0 R
13 0 R 13 0 R 12 0 R 13 0 R 13 0 R 13 0 R 13 0 R 13 0 R 12 0 R 13 0 R 13 0 R
13 0 R 13 0 R 13 0 R 12 0 R 13 0 R 13 0 R 13 0 R 13 0 R 13 0 R 12 0 R 13 0 R
13 0 R 13 0 R 13 0 R 13 0 R 12 0 R 13 0 R 13 0 R 13 0 R 13 0 R 13 0 R 12 0 R
13 0 R 13 0 R 13 0 R 13 0 R 13 0 R 12 0 R 13 0 R 13 0 R 13 0 R 13 0 R 13 0 R
12 0 R 13 0 R 13 0 R 13 0 R 13 0 R 13 0 R 12 0 R 13 0 R 13 0 R 13 0 R 13 0 R
13 0 R 12 0 R 13 0 R 13 0 R 13 0 R 13 0 R 13 0 R 12 0 R 13 0 R 13 0 R 13 0 R
13 0 R 13 0 R 13 0 R 12 0 R 13 0 R 13 0 R 13 0 R 13 0 R 13 0 R 12 0 R 13 0 R
13 0 R 13 0 R 13 0 R 13 0 R 12 0 R 13 0 R 13 0 R 13 0 R 13 0 R 13 0 R 12 0 R
13 0 R 13 0 R 13 0 R 13 0 R 13 0 R 12 0 R 13 0 R 13 0 R 13 0 R 13 0 R 13 0 R
12 0 R 13 0 R 13 0 R 13 0 R 13 0 R 13 0 R 12 0 R 13 0 R 13 0 R 13 0 R 13 0 R
13 0 R 12 0 R 13 0 R 13 0 R 13 0 R 13 0 R 13 0 R 12 0 R 13 0 R 13 0 R 13 0 R
13 0 R 13 0 R 12 0 R 13 0 R 13 0 R 13 0 R 13 0 R 13 0 R 12 0 R 13 0 R 13 0 R
13 0 R 13 0 R 13 0 R 12 0 R 13 0 R 13 0 R 13 0 R 13 0 R 13 0 R 12 0 R 13 0 R
13 0 R 13 0 R 13 0 R 13 0 R 13 0 R 12 0 R 13 0 R 13 0 R 13 0 R 13 0 R 13 0 R
12 0 R 13 0 R 13 0 R 13 0 R 13 0 R 13 0 R 12 0 R 13 0 R 13 0 R 13 0 R 13 0 R
13 0 R 12 0 R 13 0 R 13 0 R 13 0 R 13 0 R 13 0 R 12 0 R 13 0 R 13 0 R 13 0 R
13 0 R 12 0 R D 0.565 0.000 0.000 setrgbcolor 2692 11056 M 0 3416 R D
1.000 0.592 0.153 setrgbcolor 1233 10472 M 0 -139 R 8 -25 R 16 -8 R 17 0 R D
1208 10415 M 57 0 R D 1315 10472 M 8 -8 R 8 8 R -8 8 R -8 -8 R D
1323 10415 M 0 -115 R D 1388 10415 M 0 -115 R D 1388 10382 M 25 24 R 16 9 R
25 0 R 16 -9 R 8 -24 R 0 -82 R D 1478 10382 M 25 24 R 16 9 R 25 0 R 16 -9 R
8 -24 R 0 -82 R D 1625 10365 M 98 0 R 0 17 R -8 16 R -8 8 R -16 9 R -25 0 R
-16 -9 R -17 -16 R -8 -25 R 0 -16 R 8 -24 R 17 -17 R 16 -8 R 25 0 R 16 8 R
16 17 R D 1912 10398 M 147 0 R D 1912 10349 M 147 0 R D 3138 10415 M
-8 -25 R -16 -16 R -25 -9 R -8 0 R -24 9 R -17 16 R -8 25 R 0 8 R 8 24 R
17 17 R 24 8 R 8 0 R 25 -8 R 16 -17 R 8 -32 R 0 -41 R -8 -41 R -16 -25 R
-25 -8 R -16 0 R -25 8 R -8 17 R D 3212 10316 M -8 -8 R 8 -8 R 8 8 R -8 8 R
D 3384 10447 M -8 17 R -25 8 R -16 0 R -25 -8 R -16 -25 R -8 -41 R 0 -41 R
8 -32 R 16 -17 R 25 -8 R 8 0 R 24 8 R 17 17 R 8 24 R 0 8 R -8 25 R -17 16 R
-24 8 R -8 0 R -25 -8 R -16 -16 R -8 -25 R D 3490 10472 M -24 -8 R -17 -25 R
-8 -41 R 0 -24 R 8 -41 R 17 -25 R 24 -8 R 16 0 R 25 8 R 16 25 R 9 41 R
0 24 R -9 41 R -16 25 R -25 8 R -16 0 R D 3621 10472 M 90 0 R -49 -66 R
24 0 R 17 -8 R 8 -8 R 8 -25 R 0 -16 R -8 -24 R -16 -17 R -25 -8 R -24 0 R
-25 8 R -8 8 R -8 17 R D 3809 10472 M -24 -8 R -9 -17 R 0 -16 R 9 -16 R
16 -9 R 33 -8 R 24 -8 R 17 -16 R 8 -17 R 0 -24 R -8 -17 R -9 -8 R -24 -8 R
-33 0 R -24 8 R -9 8 R -8 17 R 0 24 R 8 17 R 17 16 R 24 8 R 33 8 R 16 9 R
9 16 R 0 16 R -9 17 R -24 8 R -33 0 R D 3948 10472 M 90 0 R -49 -66 R 25 0 R
16 -8 R 8 -8 R 8 -25 R 0 -16 R -8 -24 R -16 -17 R -25 -8 R -24 0 R -25 8 R
-8 8 R -8 17 R D 4177 10472 M -82 -115 R 123 0 R D 4177 10472 M 0 -172 R D
4365 10415 M -8 -25 R -16 -16 R -25 -9 R -8 0 R -25 9 R -16 16 R -8 25 R
0 8 R 8 24 R 16 17 R 25 8 R 8 0 R 25 -8 R 16 -17 R 8 -32 R 0 -41 R -8 -41 R
-16 -25 R -25 -8 R -16 0 R -25 8 R -8 17 R D 0.000 0.000 0.000 setrgbcolor
1665 6056 M 12836 0 R D 1665 6056 M 0 68 R D 1648 5844 M -27 -9 R -17 -26 R
-9 -44 R 0 -26 R 9 -44 R 17 -26 R 27 -9 R 17 0 R 26 9 R 18 26 R 9 44 R
0 26 R -9 44 R -18 26 R -26 9 R -17 0 R D 4874 6056 M 0 68 R D 4821 5844 M
-87 0 R -9 -79 R 9 9 R 26 9 R 26 0 R 27 -9 R 17 -18 R 9 -26 R 0 -17 R
-9 -27 R -17 -17 R -27 -9 R -26 0 R -26 9 R -9 9 R -9 17 R D 4944 5844 M
-26 -9 R -18 -26 R -9 -44 R 0 -26 R 9 -44 R 18 -26 R 26 -9 R 18 0 R 26 9 R
17 26 R 9 44 R 0 26 R -9 44 R -17 26 R -26 9 R -18 0 R D 8083 6056 M 0 68 R
D 7864 5809 M 17 9 R 27 26 R 0 -184 R D 8065 5844 M -26 -9 R -18 -26 R
-8 -44 R 0 -26 R 8 -44 R 18 -26 R 26 -9 R 18 0 R 26 9 R 18 26 R 8 44 R
0 26 R -8 44 R -18 26 R -26 9 R -18 0 R D 8241 5844 M -27 -9 R -17 -26 R
-9 -44 R 0 -26 R 9 -44 R 17 -26 R 27 -9 R 17 0 R 26 9 R 18 26 R 9 44 R
0 26 R -9 44 R -18 26 R -26 9 R -17 0 R D 11292 6056 M 0 68 R D 11073 5809 M
17 9 R 26 26 R 0 -184 R D 11327 5844 M -88 0 R -9 -79 R 9 9 R 26 9 R 27 0 R
26 -9 R 18 -18 R 8 -26 R 0 -17 R -8 -27 R -18 -17 R -26 -9 R -27 0 R -26 9 R
-9 9 R -8 17 R D 11449 5844 M -26 -9 R -17 -26 R -9 -44 R 0 -26 R 9 -44 R
17 -26 R 26 -9 R 18 0 R 26 9 R 18 26 R 9 44 R 0 26 R -9 44 R -18 26 R
-26 9 R -18 0 R D 14501 6056 M 0 68 R D 14264 5800 M 0 9 R 9 18 R 8 8 R
18 9 R 35 0 R 18 -9 R 8 -8 R 9 -18 R 0 -17 R -9 -18 R -17 -26 R -88 -88 R
123 0 R D 14483 5844 M -26 -9 R -18 -26 R -9 -44 R 0 -26 R 9 -44 R 18 -26 R
26 -9 R 18 0 R 26 9 R 17 26 R 9 44 R 0 26 R -9 44 R -17 26 R -26 9 R -18 0 R
D 14658 5844 M -26 -9 R -18 -26 R -8 -44 R 0 -26 R 8 -44 R 18 -26 R 26 -9 R
18 0 R 26 9 R 18 26 R 8 44 R 0 26 R -8 44 R -18 26 R -26 9 R -18 0 R D
2307 6056 M 0 34 R D 2949 6056 M 0 34 R D 3590 6056 M 0 34 R D 4232 6056 M
0 34 R D 5516 6056 M 0 34 R D 6158 6056 M 0 34 R D 6799 6056 M 0 34 R D
7441 6056 M 0 34 R D 8725 6056 M 0 34 R D 9366 6056 M 0 34 R D 10008 6056 M
0 34 R D 10650 6056 M 0 34 R D 11933 6056 M 0 34 R D 12575 6056 M 0 34 R D
13217 6056 M 0 34 R D 13859 6056 M 0 34 R D 6418 5440 M -97 -123 R D
6321 5440 M 97 0 R D 6321 5317 M 97 0 R D 6681 5536 M -18 -18 R -17 -26 R
-18 -35 R -9 -44 R 0 -35 R 9 -44 R 18 -43 R 17 -27 R 18 -17 R D 6742 5440 M
0 -123 R D 6742 5387 M 9 26 R 17 18 R 18 9 R 26 0 R D 6996 5536 M
-158 -289 R D 7049 5440 M 0 -123 R D 7049 5387 M 9 26 R 17 18 R 18 9 R
26 0 R D 7179 5361 M -12 -6 R -12 -12 R -6 -19 R 0 -12 R 6 -18 R 12 -13 R
12 -6 R 19 0 R 12 6 R 12 13 R 6 18 R 0 12 R -6 19 R -12 12 R -12 6 R -19 0 R
D 7270 5536 M 18 -18 R 18 -26 R 17 -35 R 9 -44 R 0 -35 R -9 -44 R -17 -43 R
-18 -27 R -18 -17 R D 7603 5536 M -17 -18 R -18 -26 R -17 -35 R -9 -44 R
0 -35 R 9 -44 R 17 -43 R 18 -27 R 17 -17 R D 7665 5440 M 0 -123 R D
7665 5387 M 9 26 R 17 18 R 18 9 R 26 0 R D 7777 5404 M 0 -104 R 6 -19 R
12 -6 R 13 0 R D 7759 5361 M 43 0 R D 7852 5422 M 158 0 R D 7852 5369 M
158 0 R D 8124 5501 M -26 -9 R -18 -26 R -9 -44 R 0 -26 R 9 -44 R 18 -26 R
26 -9 R 18 0 R 26 9 R 17 26 R 9 44 R 0 26 R -9 44 R -17 26 R -26 9 R -18 0 R
D 8264 5334 M -9 -8 R 9 -9 R 9 9 R -9 8 R D 8448 5440 M -9 -27 R -17 -17 R
-26 -9 R -9 0 R -26 9 R -18 17 R -9 27 R 0 8 R 9 27 R 18 17 R 26 9 R 9 0 R
26 -9 R 17 -17 R 9 -35 R 0 -44 R -9 -44 R -17 -26 R -26 -9 R -18 0 R -26 9 R
-9 17 R D 8518 5457 M 0 9 R 9 17 R 9 9 R 17 9 R 35 0 R 18 -9 R 9 -9 R
9 -17 R 0 -18 R -9 -17 R -18 -26 R -87 -88 R 122 0 R D 8729 5501 M -27 -9 R
-8 -17 R 0 -18 R 8 -17 R 18 -9 R 35 -9 R 26 -9 R 18 -17 R 9 -18 R 0 -26 R
-9 -18 R -9 -8 R -26 -9 R -35 0 R -27 9 R -8 8 R -9 18 R 0 26 R 9 18 R
17 17 R 26 9 R 35 9 R 18 9 R 9 17 R 0 18 R -9 17 R -26 9 R -35 0 R D
8965 5501 M -87 0 R -9 -79 R 9 9 R 26 9 R 26 0 R 27 -9 R 17 -18 R 9 -26 R
0 -18 R -9 -26 R -17 -17 R -27 -9 R -26 0 R -26 9 R -9 8 R -9 18 R D
9158 5501 M -88 -184 R D 9035 5501 M 123 0 R D 9237 5466 M 17 9 R 27 26 R
0 -184 R D 9395 5440 M 0 -123 R D 9395 5387 M 8 26 R 18 18 R 17 9 R 27 0 R D
9525 5361 M -12 -6 R -12 -12 R -6 -19 R 0 -12 R 6 -18 R 12 -13 R 12 -6 R
19 0 R 12 6 R 12 13 R 6 18 R 0 12 R -6 19 R -12 12 R -12 6 R -19 0 R D
9616 5536 M 18 -18 R 17 -26 R 18 -35 R 9 -44 R 0 -35 R -9 -44 R -18 -43 R
-17 -27 R -18 -17 R D 1665 9472 M 12836 0 R D 1665 9472 M 0 -68 R D
4874 9472 M 0 -68 R D 8083 9472 M 0 -68 R D 11292 9472 M 0 -68 R D
14501 9472 M 0 -68 R D 2307 9472 M 0 -34 R D 2949 9472 M 0 -34 R D
3590 9472 M 0 -34 R D 4232 9472 M 0 -34 R D 5516 9472 M 0 -34 R D
6158 9472 M 0 -34 R D 6799 9472 M 0 -34 R D 7441 9472 M 0 -34 R D
8725 9472 M 0 -34 R D 9366 9472 M 0 -34 R D 10008 9472 M 0 -34 R D
10650 9472 M 0 -34 R D 11933 9472 M 0 -34 R D 12575 9472 M 0 -34 R D
13217 9472 M 0 -34 R D 13859 9472 M 0 -34 R D 1665 6056 M 0 3416 R D L1
1665 6056 M 12836 0 R D L0 1030 6135 M 157 0 R D 1258 6196 M 0 9 R 8 18 R
9 8 R 18 9 R 35 0 R 17 -9 R 9 -8 R 9 -18 R 0 -17 R -9 -18 R -18 -26 R
-87 -88 R 123 0 R D 1477 6240 M -27 -9 R -17 -26 R -9 -44 R 0 -26 R 9 -44 R
17 -26 R 27 -9 R 17 0 R 26 9 R 18 26 R 9 44 R 0 26 R -9 44 R -18 26 R
-26 9 R -17 0 R D L1 1665 6625 M 12836 0 R D L0 1030 6599 M 157 0 R D
1275 6669 M 18 9 R 26 26 R 0 -184 R D 1477 6704 M -27 -9 R -17 -26 R
-9 -44 R 0 -26 R 9 -44 R 17 -26 R 27 -9 R 17 0 R 26 9 R 18 26 R 9 44 R
0 26 R -9 44 R -18 26 R -26 9 R -17 0 R D L1 1665 7195 M 12836 0 R D L0
1477 7273 M -27 -9 R -17 -26 R -9 -44 R 0 -26 R 9 -44 R 17 -26 R 27 -9 R
17 0 R 26 9 R 18 26 R 9 44 R 0 26 R -9 44 R -18 26 R -26 9 R -17 0 R D L1
1665 7764 M 12836 0 R D L0 1275 7807 M 18 9 R 26 27 R 0 -185 R D 1477 7843 M
-27 -9 R -17 -27 R -9 -43 R 0 -27 R 9 -43 R 17 -27 R 27 -9 R 17 0 R 26 9 R
18 27 R 9 43 R 0 27 R -9 43 R -18 27 R -26 9 R -17 0 R D L1 1665 8333 M
12836 0 R D L0 1258 8368 M 0 9 R 8 17 R 9 9 R 18 9 R 35 0 R 17 -9 R 9 -9 R
9 -17 R 0 -18 R -9 -17 R -18 -27 R -87 -87 R 123 0 R D 1477 8412 M -27 -9 R
-17 -26 R -9 -44 R 0 -26 R 9 -44 R 17 -26 R 27 -9 R 17 0 R 26 9 R 18 26 R
9 44 R 0 26 R -9 44 R -18 26 R -26 9 R -17 0 R D L1 1665 8903 M 12836 0 R D
L0 1266 8981 M 97 0 R -53 -70 R 26 0 R 18 -9 R 9 -8 R 9 -27 R 0 -17 R
-9 -27 R -18 -17 R -26 -9 R -26 0 R -27 9 R -8 9 R -9 17 R D 1477 8981 M
-27 -9 R -17 -26 R -9 -44 R 0 -26 R 9 -44 R 17 -26 R 27 -9 R 17 0 R 26 9 R
18 26 R 9 44 R 0 26 R -9 44 R -18 26 R -26 9 R -17 0 R D L1 1665 9472 M
12836 0 R D L0 1336 9471 M -87 -122 R 131 0 R D 1336 9471 M 0 -184 R D
1477 9471 M -27 -8 R -17 -27 R -9 -44 R 0 -26 R 9 -44 R 17 -26 R 27 -9 R
17 0 R 26 9 R 18 26 R 9 44 R 0 26 R -9 44 R -18 27 R -26 8 R -17 0 R D
1665 6113 M 193 0 R D 1665 6170 M 193 0 R D 1665 6227 M 193 0 R D
1665 6284 M 193 0 R D 1665 6341 M 193 0 R D 1665 6398 M 193 0 R D
1665 6455 M 193 0 R D 1665 6512 M 193 0 R D 1665 6568 M 193 0 R D
1665 6682 M 193 0 R D 1665 6739 M 193 0 R D 1665 6796 M 193 0 R D
1665 6853 M 193 0 R D 1665 6910 M 193 0 R D 1665 6967 M 193 0 R D
1665 7024 M 193 0 R D 1665 7081 M 193 0 R D 1665 7138 M 193 0 R D
1665 7252 M 193 0 R D 1665 7309 M 193 0 R D 1665 7366 M 193 0 R D
1665 7422 M 193 0 R D 1665 7479 M 193 0 R D 1665 7536 M 193 0 R D
1665 7593 M 193 0 R D 1665 7650 M 193 0 R D 1665 7707 M 193 0 R D
1665 7821 M 193 0 R D 1665 7878 M 193 0 R D 1665 7935 M 193 0 R D
1665 7992 M 193 0 R D 1665 8049 M 193 0 R D 1665 8106 M 193 0 R D
1665 8163 M 193 0 R D 1665 8220 M 193 0 R D 1665 8276 M 193 0 R D
1665 8390 M 193 0 R D 1665 8447 M 193 0 R D 1665 8504 M 193 0 R D
1665 8561 M 193 0 R D 1665 8618 M 193 0 R D 1665 8675 M 193 0 R D
1665 8732 M 193 0 R D 1665 8789 M 193 0 R D 1665 8846 M 193 0 R D
1665 8960 M 193 0 R D 1665 9017 M 193 0 R D 1665 9074 M 193 0 R D
1665 9130 M 193 0 R D 1665 9187 M 193 0 R D 1665 9244 M 193 0 R D
1665 9301 M 193 0 R D 1665 9358 M 193 0 R D 1665 9415 M 193 0 R D 631 7212 M
88 0 R 26 9 R 9 17 R 0 27 R -9 17 R -26 26 R D 631 7308 M 123 0 R D
535 7580 M 17 -17 R 26 -18 R 35 -18 R 44 -8 R 35 0 R 44 8 R 44 18 R 26 18 R
18 17 R D 631 7641 M 123 0 R D 666 7641 M -26 27 R -9 17 R 0 26 R 9 18 R
26 9 R 88 0 R D 666 7738 M -26 26 R -9 18 R 0 26 R 9 17 R 26 9 R 88 0 R D
535 8044 M 289 -157 R D 657 8185 M -17 -9 R -9 -26 R 0 -27 R 9 -26 R 17 -9 R
18 9 R 9 18 R 8 43 R 9 18 R 18 9 R 8 0 R 18 -9 R 9 -26 R 0 -27 R -9 -26 R
-18 -9 R D 535 8237 M 17 18 R 26 17 R 35 18 R 44 9 R 35 0 R 44 -9 R 44 -18 R
26 -17 R 18 -18 R D 14501 6056 M 0 3416 R D L1 14501 6056 M -12836 0 R D
14501 6625 M -12836 0 R D 14501 7195 M -12836 0 R D 14501 7764 M -12836 0 R
D 14501 8333 M -12836 0 R D 14501 8903 M -12836 0 R D 14501 9472 M
-12836 0 R D L0 14501 6113 M -193 0 R D 14501 6170 M -193 0 R D 14501 6227 M
-193 0 R D 14501 6284 M -193 0 R D 14501 6341 M -193 0 R D 14501 6398 M
-193 0 R D 14501 6455 M -193 0 R D 14501 6512 M -193 0 R D 14501 6568 M
-193 0 R D 14501 6682 M -193 0 R D 14501 6739 M -193 0 R D 14501 6796 M
-193 0 R D 14501 6853 M -193 0 R D 14501 6910 M -193 0 R D 14501 6967 M
-193 0 R D 14501 7024 M -193 0 R D 14501 7081 M -193 0 R D 14501 7138 M
-193 0 R D 14501 7252 M -193 0 R D 14501 7309 M -193 0 R D 14501 7366 M
-193 0 R D 14501 7422 M -193 0 R D 14501 7479 M -193 0 R D 14501 7536 M
-193 0 R D 14501 7593 M -193 0 R D 14501 7650 M -193 0 R D 14501 7707 M
-193 0 R D 14501 7821 M -193 0 R D 14501 7878 M -193 0 R D 14501 7935 M
-193 0 R D 14501 7992 M -193 0 R D 14501 8049 M -193 0 R D 14501 8106 M
-193 0 R D 14501 8163 M -193 0 R D 14501 8220 M -193 0 R D 14501 8276 M
-193 0 R D 14501 8390 M -193 0 R D 14501 8447 M -193 0 R D 14501 8504 M
-193 0 R D 14501 8561 M -193 0 R D 14501 8618 M -193 0 R D 14501 8675 M
-193 0 R D 14501 8732 M -193 0 R D 14501 8789 M -193 0 R D 14501 8846 M
-193 0 R D 14501 8960 M -193 0 R D 14501 9017 M -193 0 R D 14501 9074 M
-193 0 R D 14501 9130 M -193 0 R D 14501 9187 M -193 0 R D 14501 9244 M
-193 0 R D 14501 9301 M -193 0 R D 14501 9358 M -193 0 R D 14501 9415 M
-193 0 R D 1665 6905 M 13 -56 R 13 98 R 13 22 R 12 31 R 13 32 R 13 31 R
13 29 R 13 26 R 13 21 R 12 16 R 13 12 R 13 14 R 13 8 R 13 -3 R 13 -12 R
12 -16 R 13 -16 R 13 -26 R 13 -32 R 13 -27 R 13 -26 R 12 -22 R 13 -16 R
13 -11 R 13 -2 R 13 0 R 13 2 R 12 5 R 13 8 R 13 8 R 13 9 R 13 7 R 13 9 R
12 8 R 13 8 R 13 7 R 13 6 R 13 5 R 13 5 R 12 3 R 13 4 R 13 3 R 13 3 R 13 1 R
13 1 R 13 0 R 12 0 R 13 -1 R 13 0 R 13 2 R 13 4 R 13 5 R 12 6 R 13 9 R
13 11 R 13 10 R 13 8 R 13 9 R 12 7 R 13 6 R 13 4 R 13 3 R 13 2 R 13 1 R
12 -1 R 13 -5 R 13 0 R 13 -3 R 13 -3 R 13 -4 R 12 -2 R 13 -3 R 13 -3 R
13 -1 R 13 -1 R 13 0 R 12 -3 R 13 -19 R 13 37 R 13 -2 R 13 -40 R 13 16 R
12 0 R 13 -2 R 13 0 R 13 0 R 13 3 R 13 3 R 12 4 R 13 6 R 13 6 R 13 7 R
13 5 R 13 10 R 12 8 R 13 6 R 13 5 R 13 5 R 13 5 R 13 3 R 12 3 R 13 2 R
13 2 R 13 0 R 13 -1 R 13 -1 R 12 0 R 13 -1 R 13 -1 R 13 -2 R 13 -1 R 13 -2 R
12 -1 R 13 -1 R 13 -1 R 13 -1 R 13 -1 R 13 0 R 12 0 R 13 0 R 13 0 R 13 0 R
13 1 R 13 1 R 13 0 R 12 1 R 13 1 R 13 0 R 13 0 R 13 1 R 13 1 R 12 0 R 13 0 R
13 0 R 13 0 R 13 -1 R 13 -2 R 12 -3 R 13 -4 R 13 -5 R 13 -8 R 13 -10 R
13 -12 R 12 -16 R 13 -18 R 13 -22 R 13 -24 R 13 -29 R 13 -31 R 12 -32 R
13 -34 R 13 -35 R 13 -37 R 13 -39 R 13 -38 R 12 -39 R 13 -39 R 13 -40 R
13 -37 R 13 -37 R 13 -38 R 12 -36 R 13 -34 R 13 -33 R 13 -32 R 13 -29 R
13 -27 R 12 -22 R 13 -17 R 13 -13 R 13 -10 R 13 -5 R 13 4 R 12 11 R 13 21 R
13 31 R 13 46 R 13 61 R 13 77 R 12 94 R 13 117 R 13 137 R 13 167 R 13 171 R
13 196 R 12 216 R 13 237 R 13 244 R 13 234 R 13 211 R 13 171 R 12 125 R
13 58 R 13 -22 R 13 -64 R 13 -126 R 13 -167 R 13 -190 R 12 -194 R 13 -184 R
13 -163 R 13 -137 R 13 -110 R 13 -85 R 12 -68 R 13 -52 R 13 -42 R 13 -36 R
13 -30 R 13 -26 R 12 -24 R 13 -22 R 13 -21 R 13 -18 R 13 -16 R 13 -16 R
12 -14 R 13 -12 R 13 -9 R 13 -6 R 13 -3 R 13 2 R 12 7 R 13 13 R 13 21 R
13 29 R 13 36 R 13 44 R 12 54 R 13 65 R 13 68 R 13 67 R 13 63 R 13 58 R
12 49 R 13 36 R 13 20 R 13 1 R 13 -16 R 13 -41 R 12 -63 R 13 -85 R 13 -103 R
13 -115 R 13 -113 R 13 -109 R 12 -124 R 13 -128 R 13 -110 R 13 -84 R
13 -58 R 13 -29 R 12 -3 R 13 17 R 13 42 R 13 62 R 13 75 R 13 85 R 12 89 R
13 91 R 13 88 R 13 76 R 13 50 R 13 43 R 12 48 R 13 42 R 13 31 R 13 20 R
13 8 R 13 1 R 12 -5 R 13 -12 R 13 -16 R 13 -19 R 13 -21 R 13 -21 R 13 -20 R
12 -20 R 13 -18 R 13 -15 R 13 -14 R 13 -12 R 13 -10 R 12 -7 R 13 -4 R
13 -2 R 13 -3 R 13 -2 R 13 -2 R 12 -1 R 13 0 R 13 0 R 13 0 R 13 1 R 13 1 R
12 1 R 13 1 R 13 1 R 13 1 R 13 1 R 13 1 R 12 0 R 13 1 R 13 1 R 13 0 R 13 0 R
13 1 R 12 0 R 13 0 R 13 0 R 13 0 R 13 0 R 13 1 R 12 0 R 13 0 R 13 0 R 13 0 R
13 0 R 13 0 R 12 0 R 13 0 R 13 0 R 13 0 R 13 0 R 13 0 R 12 0 R 13 0 R 13 0 R
13 0 R 13 0 R 13 0 R 12 0 R 13 0 R 13 0 R 13 0 R 13 0 R 13 0 R 12 0 R 13 0 R
13 0 R 13 0 R 13 0 R 13 0 R 12 0 R 13 0 R 13 0 R 13 0 R 13 0 R 13 0 R 13 0 R
12 0 R 13 0 R 13 0 R 13 0 R 13 0 R 13 0 R 12 0 R 13 0 R 13 0 R 13 0 R 13 0 R
13 0 R 12 0 R 13 0 R 13 0 R 13 0 R 13 0 R 13 0 R 12 0 R 13 0 R 13 0 R 13 0 R
13 0 R 13 0 R 12 0 R 13 0 R 13 0 R 13 0 R 13 0 R 13 0 R 12 0 R 13 0 R 13 0 R
13 0 R 13 0 R 13 0 R 12 0 R 13 0 R 13 0 R 13 0 R 13 0 R 13 0 R 12 0 R 13 0 R
13 0 R 13 0 R 13 0 R 13 0 R 12 0 R 13 0 R 13 0 R 13 0 R 13 0 R 13 0 R 12 0 R
13 0 R 13 0 R 13 0 R 13 0 R 13 0 R 12 0 R 13 0 R 13 0 R 13 0 R 13 0 R 13 0 R
12 0 R 13 0 R 13 0 R 13 0 R 13 0 R 13 0 R 12 0 R 13 0 R 13 0 R 13 0 R 13 0 R
13 0 R 13 0 R 12 0 R 13 0 R 13 0 R 13 0 R 13 0 R 13 0 R 12 0 R 13 0 R 13 0 R
13 0 R 13 0 R 13 0 R 12 0 R 13 0 R 13 0 R 13 0 R 13 0 R 13 0 R 12 0 R 13 0 R
13 0 R 13 0 R 13 0 R 13 0 R 12 0 R 13 0 R 13 0 R 13 0 R 13 0 R 13 0 R 12 0 R
13 0 R 13 0 R 13 0 R 13 0 R 13 0 R 12 0 R 13 0 R 13 0 R 13 0 R 13 0 R 13 0 R
12 0 R 13 0 R 13 0 R 13 0 R 13 0 R 13 0 R 12 0 R 13 0 R 13 0 R 13 0 R 13 0 R
13 0 R 12 0 R 13 0 R 13 0 R 13 0 R 13 0 R 13 0 R 12 0 R 13 0 R 13 0 R 13 0 R
13 0 R 13 0 R 12 0 R 13 0 R 13 0 R 13 0 R 13 0 R 13 0 R 12 0 R 13 0 R 13 0 R
13 0 R 13 0 R 13 0 R 13 0 R 12 0 R 13 0 R 13 0 R 13 0 R 13 0 R 13 0 R 12 0 R
13 0 R 13 0 R 13 0 R 13 0 R 13 0 R 12 0 R 13 0 R 13 0 R 13 0 R 13 0 R 13 0 R
12 0 R 13 0 R 13 0 R 13 0 R 13 0 R 13 0 R 12 0 R 13 0 R 13 0 R 13 0 R 13 0 R
13 0 R 12 0 R 13 0 R 13 0 R 13 0 R 13 0 R 13 0 R 12 0 R 13 0 R 13 0 R 13 0 R
13 0 R 13 0 R 12 0 R 13 0 R 13 0 R 13 0 R 13 0 R 13 0 R 12 0 R 13 0 R 13 0 R
13 0 R 13 0 R 13 0 R 12 0 R 13 0 R 13 0 R 13 0 R 13 0 R 13 0 R 12 0 R 13 0 R
13 0 R 13 0 R 13 0 R 13 0 R 12 0 R 13 0 R 13 0 R 13 0 R 13 0 R 13 0 R 13 0 R
12 0 R 13 0 R 13 0 R 13 0 R 13 0 R 13 0 R 12 0 R 13 0 R 13 0 R 13 0 R 13 0 R
13 0 R 12 0 R 13 0 R 13 0 R 13 0 R 13 0 R 13 0 R 12 0 R 13 0 R 13 0 R 13 0 R
13 0 R 13 0 R 12 0 R 13 0 R 13 0 R 13 0 R 13 0 R 13 0 R 12 0 R 13 0 R 13 0 R
13 0 R 13 0 R 13 0 R 12 0 R 13 0 R 13 0 R 13 0 R 13 0 R 13 0 R 12 0 R 13 0 R
13 0 R 13 0 R 13 0 R 13 0 R 12 0 R 13 0 R 13 0 R 13 0 R 13 0 R 13 0 R 12 0 R
13 0 R 13 0 R 13 0 R 13 0 R 13 0 R 12 0 R 13 0 R 13 0 R 13 0 R 13 0 R 13 0 R
12 0 R 13 0 R 13 0 R 13 0 R 13 0 R 13 0 R 12 0 R 13 0 R 13 0 R 13 0 R 13 0 R
13 0 R 13 0 R 12 0 R 13 0 R 13 0 R 13 0 R 13 0 R 13 0 R 12 0 R 13 0 R 13 0 R
13 0 R 13 0 R 13 0 R 12 0 R 13 0 R 13 0 R 13 0 R 13 0 R 13 0 R 12 0 R 13 0 R
13 0 R 13 0 R 13 0 R 13 0 R 12 0 R 13 0 R 13 0 R 13 0 R 13 0 R 13 0 R 12 0 R
13 0 R 13 0 R 13 0 R 13 0 R 13 0 R 12 0 R 13 0 R 13 0 R 13 0 R 13 0 R 13 0 R
12 0 R 13 0 R 13 0 R 13 0 R 13 0 R 13 0 R 12 0 R 13 0 R 13 0 R 13 0 R 13 0 R
13 0 R 12 0 R 13 0 R 13 0 R 13 0 R 13 0 R 13 0 R 12 0 R 13 0 R 13 0 R 13 0 R
13 0 R 13 0 R 12 0 R 13 0 R 13 0 R 13 0 R 13 0 R 13 0 R 12 0 R 13 0 R 13 0 R
13 0 R 13 0 R 13 0 R 13 0 R 12 0 R 13 0 R 13 0 R 13 0 R 13 0 R 13 0 R 12 0 R
13 0 R 13 0 R 13 0 R 13 0 R D 11292 7196 M 13 0 R 12 0 R 13 0 R 13 0 R
13 0 R 13 0 R 13 0 R 12 0 R 13 0 R 13 0 R 13 0 R 13 0 R 13 0 R 12 0 R 13 0 R
13 0 R 13 0 R 13 0 R 13 0 R 12 0 R 13 0 R 13 0 R 13 0 R 13 0 R 13 0 R 12 0 R
13 0 R 13 0 R 13 0 R 13 0 R 13 0 R 12 0 R 13 0 R 13 0 R 13 0 R 13 0 R 13 0 R
12 0 R 13 0 R 13 0 R 13 0 R 13 0 R 13 0 R 12 0 R 13 0 R 13 0 R 13 0 R 13 0 R
13 0 R 12 0 R 13 0 R 13 0 R 13 0 R 13 0 R 13 0 R 12 0 R 13 0 R 13 0 R 13 0 R
13 0 R 13 0 R 13 0 R 12 0 R 13 0 R 13 0 R 13 0 R 13 0 R 13 0 R 12 0 R 13 0 R
13 0 R 13 0 R 13 0 R 13 0 R 12 0 R 13 0 R 13 0 R 13 0 R 13 0 R 13 0 R 12 0 R
13 0 R 13 0 R 13 0 R 13 0 R 13 0 R 12 0 R 13 0 R 13 0 R 13 0 R 13 0 R 13 0 R
12 0 R 13 0 R 13 0 R 13 0 R 13 0 R 13 0 R 12 0 R 13 0 R 13 0 R 13 0 R 13 0 R
13 0 R 12 0 R 13 0 R 13 0 R 13 0 R 13 0 R 13 0 R 12 0 R 13 0 R 13 0 R 13 0 R
13 0 R 13 0 R 12 0 R 13 0 R 13 0 R 13 0 R 13 0 R 13 0 R 12 0 R 13 0 R 13 0 R
13 0 R 13 0 R 13 0 R 12 0 R 13 0 R 13 0 R 13 0 R 13 0 R 13 0 R 12 0 R 13 0 R
13 0 R 13 0 R 13 0 R 13 0 R 13 0 R 12 0 R 13 0 R 13 0 R 13 0 R 13 0 R 13 0 R
12 0 R 13 0 R 13 0 R 13 0 R 13 0 R 13 0 R 12 0 R 13 0 R 13 0 R 13 0 R 13 0 R
13 0 R 12 0 R 13 0 R 13 0 R 13 0 R 13 0 R 13 0 R 12 0 R 13 0 R 13 0 R 13 0 R
13 0 R 13 0 R 12 0 R 13 0 R 13 0 R 13 0 R 13 0 R 13 0 R 12 0 R 13 0 R 13 0 R
13 0 R 13 0 R 13 0 R 12 0 R 13 0 R 13 0 R 13 0 R 13 0 R 13 0 R 12 0 R 13 0 R
13 0 R 13 0 R 13 0 R 13 0 R 12 0 R 13 0 R 13 0 R 13 0 R 13 0 R 13 0 R 12 0 R
13 0 R 13 0 R 13 0 R 13 0 R 13 0 R 12 0 R 13 0 R 13 0 R 13 0 R 13 0 R 13 0 R
12 0 R 13 0 R 13 0 R 13 0 R 13 0 R 13 0 R 13 0 R 12 0 R 13 0 R 13 0 R 13 0 R
13 0 R 13 0 R 12 0 R 13 0 R 13 0 R 13 0 R 13 0 R 13 0 R 12 0 R 13 0 R 13 0 R
13 0 R 13 0 R 13 0 R 12 0 R 13 0 R 13 0 R 13 0 R 13 0 R 13 0 R 12 0 R 13 0 R
13 0 R 13 0 R 13 0 R 12 0 R D 0.565 0.000 0.000 setrgbcolor 2692 6056 M
0 3416 R D 1.000 0.592 0.153 setrgbcolor 1233 5472 M 0 -139 R 8 -25 R
16 -8 R 17 0 R D 1208 5415 M 57 0 R D 1315 5472 M 8 -8 R 8 8 R -8 8 R
-8 -8 R D 1323 5415 M 0 -115 R D 1388 5415 M 0 -115 R D 1388 5382 M 25 24 R
16 9 R 25 0 R 16 -9 R 8 -24 R 0 -82 R D 1478 5382 M 25 24 R 16 9 R 25 0 R
16 -9 R 8 -24 R 0 -82 R D 1625 5365 M 98 0 R 0 17 R -8 16 R -8 8 R -16 9 R
-25 0 R -16 -9 R -17 -16 R -8 -25 R 0 -16 R 8 -24 R 17 -17 R 16 -8 R 25 0 R
16 8 R 16 17 R D 1912 5398 M 147 0 R D 1912 5349 M 147 0 R D 3057 5439 M
16 8 R 25 25 R 0 -172 R D 3237 5472 M -25 -8 R -8 -17 R 0 -16 R 8 -16 R
16 -9 R 33 -8 R 25 -8 R 16 -16 R 8 -17 R 0 -24 R -8 -17 R -8 -8 R -25 -8 R
-32 0 R -25 8 R -8 8 R -8 17 R 0 24 R 8 17 R 16 16 R 25 8 R 32 8 R 17 9 R
8 16 R 0 16 R -8 17 R -25 8 R -32 0 R D 3457 5472 M -81 0 R -9 -74 R 9 8 R
24 9 R 25 0 R 24 -9 R 17 -16 R 8 -25 R 0 -16 R -8 -24 R -17 -17 R -24 -8 R
-25 0 R -24 8 R -9 8 R -8 17 R D 3539 5316 M -8 -8 R 8 -8 R 8 8 R -8 8 R D
3629 5439 M 17 8 R 24 25 R 0 -172 R D 3850 5472 M -82 -115 R 123 0 R D
3850 5472 M 0 -172 R D 3956 5439 M 17 8 R 24 25 R 0 -172 R D 4202 5447 M
-9 17 R -24 8 R -16 0 R -25 -8 R -16 -25 R -8 -41 R 0 -41 R 8 -32 R 16 -17 R
25 -8 R 8 0 R 24 8 R 17 17 R 8 24 R 0 8 R -8 25 R -17 16 R -24 8 R -8 0 R
-25 -8 R -16 -16 R -8 -25 R D 4267 5431 M 0 8 R 8 16 R 8 9 R 17 8 R 33 0 R
16 -8 R 8 -9 R 8 -16 R 0 -16 R -8 -17 R -16 -24 R -82 -82 R 114 0 R D
0.000 0.000 0.000 setrgbcolor 1665 1056 M 12836 0 R D 1665 1056 M 0 68 R D
1648 844 M -27 -9 R -17 -26 R -9 -44 R 0 -26 R 9 -44 R 17 -26 R 27 -9 R
17 0 R 26 9 R 18 26 R 9 44 R 0 26 R -9 44 R -18 26 R -26 9 R -17 0 R D
4874 1056 M 0 68 R D 4821 844 M -87 0 R -9 -79 R 9 9 R 26 9 R 26 0 R 27 -9 R
17 -18 R 9 -26 R 0 -17 R -9 -27 R -17 -17 R -27 -9 R -26 0 R -26 9 R -9 9 R
-9 17 R D 4944 844 M -26 -9 R -18 -26 R -9 -44 R 0 -26 R 9 -44 R 18 -26 R
26 -9 R 18 0 R 26 9 R 17 26 R 9 44 R 0 26 R -9 44 R -17 26 R -26 9 R -18 0 R
D 8083 1056 M 0 68 R D 7864 809 M 17 9 R 27 26 R 0 -184 R D 8065 844 M
-26 -9 R -18 -26 R -8 -44 R 0 -26 R 8 -44 R 18 -26 R 26 -9 R 18 0 R 26 9 R
18 26 R 8 44 R 0 26 R -8 44 R -18 26 R -26 9 R -18 0 R D 8241 844 M -27 -9 R
-17 -26 R -9 -44 R 0 -26 R 9 -44 R 17 -26 R 27 -9 R 17 0 R 26 9 R 18 26 R
9 44 R 0 26 R -9 44 R -18 26 R -26 9 R -17 0 R D 11292 1056 M 0 68 R D
11073 809 M 17 9 R 26 26 R 0 -184 R D 11327 844 M -88 0 R -9 -79 R 9 9 R
26 9 R 27 0 R 26 -9 R 18 -18 R 8 -26 R 0 -17 R -8 -27 R -18 -17 R -26 -9 R
-27 0 R -26 9 R -9 9 R -8 17 R D 11449 844 M -26 -9 R -17 -26 R -9 -44 R
0 -26 R 9 -44 R 17 -26 R 26 -9 R 18 0 R 26 9 R 18 26 R 9 44 R 0 26 R -9 44 R
-18 26 R -26 9 R -18 0 R D 14501 1056 M 0 68 R D 14264 800 M 0 9 R 9 18 R
8 8 R 18 9 R 35 0 R 18 -9 R 8 -8 R 9 -18 R 0 -17 R -9 -18 R -17 -26 R
-88 -88 R 123 0 R D 14483 844 M -26 -9 R -18 -26 R -9 -44 R 0 -26 R 9 -44 R
18 -26 R 26 -9 R 18 0 R 26 9 R 17 26 R 9 44 R 0 26 R -9 44 R -17 26 R
-26 9 R -18 0 R D 14658 844 M -26 -9 R -18 -26 R -8 -44 R 0 -26 R 8 -44 R
18 -26 R 26 -9 R 18 0 R 26 9 R 18 26 R 8 44 R 0 26 R -8 44 R -18 26 R
-26 9 R -18 0 R D 2307 1056 M 0 34 R D 2949 1056 M 0 34 R D 3590 1056 M
0 34 R D 4232 1056 M 0 34 R D 5516 1056 M 0 34 R D 6158 1056 M 0 34 R D
6799 1056 M 0 34 R D 7441 1056 M 0 34 R D 8725 1056 M 0 34 R D 9366 1056 M
0 34 R D 10008 1056 M 0 34 R D 10650 1056 M 0 34 R D 11933 1056 M 0 34 R D
12575 1056 M 0 34 R D 13217 1056 M 0 34 R D 13859 1056 M 0 34 R D 6418 440 M
-97 -123 R D 6321 440 M 97 0 R D 6321 317 M 97 0 R D 6681 536 M -18 -18 R
-17 -26 R -18 -35 R -9 -44 R 0 -35 R 9 -44 R 18 -43 R 17 -27 R 18 -17 R D
6742 440 M 0 -123 R D 6742 387 M 9 26 R 17 18 R 18 9 R 26 0 R D 6996 536 M
-158 -289 R D 7049 440 M 0 -123 R D 7049 387 M 9 26 R 17 18 R 18 9 R 26 0 R
D 7179 361 M -12 -6 R -12 -12 R -6 -19 R 0 -12 R 6 -18 R 12 -13 R 12 -6 R
19 0 R 12 6 R 12 13 R 6 18 R 0 12 R -6 19 R -12 12 R -12 6 R -19 0 R D
7270 536 M 18 -18 R 18 -26 R 17 -35 R 9 -44 R 0 -35 R -9 -44 R -17 -43 R
-18 -27 R -18 -17 R D 7603 536 M -17 -18 R -18 -26 R -17 -35 R -9 -44 R
0 -35 R 9 -44 R 17 -43 R 18 -27 R 17 -17 R D 7665 440 M 0 -123 R D
7665 387 M 9 26 R 17 18 R 18 9 R 26 0 R D 7777 404 M 0 -104 R 6 -19 R
12 -6 R 13 0 R D 7759 361 M 43 0 R D 7852 422 M 158 0 R D 7852 369 M 158 0 R
D 8124 501 M -26 -9 R -18 -26 R -9 -44 R 0 -26 R 9 -44 R 18 -26 R 26 -9 R
18 0 R 26 9 R 17 26 R 9 44 R 0 26 R -9 44 R -17 26 R -26 9 R -18 0 R D
8264 334 M -9 -8 R 9 -9 R 9 9 R -9 8 R D 8448 440 M -9 -27 R -17 -17 R
-26 -9 R -9 0 R -26 9 R -18 17 R -9 27 R 0 8 R 9 27 R 18 17 R 26 9 R 9 0 R
26 -9 R 17 -17 R 9 -35 R 0 -44 R -9 -44 R -17 -26 R -26 -9 R -18 0 R -26 9 R
-9 17 R D 8518 457 M 0 9 R 9 17 R 9 9 R 17 9 R 35 0 R 18 -9 R 9 -9 R 9 -17 R
0 -18 R -9 -17 R -18 -26 R -87 -88 R 122 0 R D 8729 501 M -27 -9 R -8 -17 R
0 -18 R 8 -17 R 18 -9 R 35 -9 R 26 -9 R 18 -17 R 9 -18 R 0 -26 R -9 -18 R
-9 -8 R -26 -9 R -35 0 R -27 9 R -8 8 R -9 18 R 0 26 R 9 18 R 17 17 R 26 9 R
35 9 R 18 9 R 9 17 R 0 18 R -9 17 R -26 9 R -35 0 R D 8965 501 M -87 0 R
-9 -79 R 9 9 R 26 9 R 26 0 R 27 -9 R 17 -18 R 9 -26 R 0 -18 R -9 -26 R
-17 -17 R -27 -9 R -26 0 R -26 9 R -9 8 R -9 18 R D 9158 501 M -88 -184 R D
9035 501 M 123 0 R D 9237 466 M 17 9 R 27 26 R 0 -184 R D 9395 440 M
0 -123 R D 9395 387 M 8 26 R 18 18 R 17 9 R 27 0 R D 9525 361 M -12 -6 R
-12 -12 R -6 -19 R 0 -12 R 6 -18 R 12 -13 R 12 -6 R 19 0 R 12 6 R 12 13 R
6 18 R 0 12 R -6 19 R -12 12 R -12 6 R -19 0 R D 9616 536 M 18 -18 R
17 -26 R 18 -35 R 9 -44 R 0 -35 R -9 -44 R -18 -43 R -17 -27 R -18 -17 R D
1665 4472 M 12836 0 R D 1665 4472 M 0 -68 R D 4874 4472 M 0 -68 R D
8083 4472 M 0 -68 R D 11292 4472 M 0 -68 R D 14501 4472 M 0 -68 R D
2307 4472 M 0 -34 R D 2949 4472 M 0 -34 R D 3590 4472 M 0 -34 R D
4232 4472 M 0 -34 R D 5516 4472 M 0 -34 R D 6158 4472 M 0 -34 R D
6799 4472 M 0 -34 R D 7441 4472 M 0 -34 R D 8725 4472 M 0 -34 R D
9366 4472 M 0 -34 R D 10008 4472 M 0 -34 R D 10650 4472 M 0 -34 R D
11933 4472 M 0 -34 R D 12575 4472 M 0 -34 R D 13217 4472 M 0 -34 R D
13859 4472 M 0 -34 R D 1665 1056 M 0 3416 R D L1 1665 1056 M 12836 0 R D L0
1030 1135 M 157 0 R D 1363 1214 M -9 17 R -26 9 R -18 0 R -26 -9 R -18 -26 R
-8 -44 R 0 -44 R 8 -35 R 18 -17 R 26 -9 R 9 0 R 26 9 R 18 17 R 9 27 R 0 8 R
-9 27 R -18 17 R -26 9 R -9 0 R -26 -9 R -18 -17 R -8 -27 R D 1477 1240 M
-27 -9 R -17 -26 R -9 -44 R 0 -26 R 9 -44 R 17 -26 R 27 -9 R 17 0 R 26 9 R
18 26 R 9 44 R 0 26 R -9 44 R -18 26 R -26 9 R -17 0 R D L1 1665 1625 M
12836 0 R D L0 1030 1599 M 157 0 R D 1336 1704 M -87 -123 R 131 0 R D
1336 1704 M 0 -184 R D 1477 1704 M -27 -9 R -17 -26 R -9 -44 R 0 -26 R
9 -44 R 17 -26 R 27 -9 R 17 0 R 26 9 R 18 26 R 9 44 R 0 26 R -9 44 R
-18 26 R -26 9 R -17 0 R D L1 1665 2195 M 12836 0 R D L0 1030 2168 M 157 0 R
D 1258 2229 M 0 9 R 8 18 R 9 8 R 18 9 R 35 0 R 17 -9 R 9 -8 R 9 -18 R
0 -17 R -9 -18 R -18 -26 R -87 -88 R 123 0 R D 1477 2273 M -27 -9 R
-17 -26 R -9 -44 R 0 -26 R 9 -44 R 17 -26 R 27 -9 R 17 0 R 26 9 R 18 26 R
9 44 R 0 26 R -9 44 R -18 26 R -26 9 R -17 0 R D L1 1665 2764 M 12836 0 R D
L0 1477 2843 M -27 -9 R -17 -27 R -9 -43 R 0 -27 R 9 -43 R 17 -27 R 27 -9 R
17 0 R 26 9 R 18 27 R 9 43 R 0 27 R -9 43 R -18 27 R -26 9 R -17 0 R D L1
1665 3333 M 12836 0 R D L0 1258 3368 M 0 9 R 8 17 R 9 9 R 18 9 R 35 0 R
17 -9 R 9 -9 R 9 -17 R 0 -18 R -9 -17 R -18 -27 R -87 -87 R 123 0 R D
1477 3412 M -27 -9 R -17 -26 R -9 -44 R 0 -26 R 9 -44 R 17 -26 R 27 -9 R
17 0 R 26 9 R 18 26 R 9 44 R 0 26 R -9 44 R -18 26 R -26 9 R -17 0 R D L1
1665 3903 M 12836 0 R D L0 1336 3981 M -87 -123 R 131 0 R D 1336 3981 M
0 -184 R D 1477 3981 M -27 -9 R -17 -26 R -9 -44 R 0 -26 R 9 -44 R 17 -26 R
27 -9 R 17 0 R 26 9 R 18 26 R 9 44 R 0 26 R -9 44 R -18 26 R -26 9 R -17 0 R
D L1 1665 4472 M 12836 0 R D L0 1363 4445 M -9 18 R -26 8 R -18 0 R -26 -8 R
-18 -27 R -8 -44 R 0 -43 R 8 -35 R 18 -18 R 26 -9 R 9 0 R 26 9 R 18 18 R
9 26 R 0 9 R -9 26 R -18 17 R -26 9 R -9 0 R -26 -9 R -18 -17 R -8 -26 R D
1477 4471 M -27 -8 R -17 -27 R -9 -44 R 0 -26 R 9 -44 R 17 -26 R 27 -9 R
17 0 R 26 9 R 18 26 R 9 44 R 0 26 R -9 44 R -18 27 R -26 8 R -17 0 R D
1665 1198 M 193 0 R D 1665 1341 M 193 0 R D 1665 1483 M 193 0 R D
1665 1768 M 193 0 R D 1665 1910 M 193 0 R D 1665 2052 M 193 0 R D
1665 2337 M 193 0 R D 1665 2479 M 193 0 R D 1665 2622 M 193 0 R D
1665 2906 M 193 0 R D 1665 3049 M 193 0 R D 1665 3191 M 193 0 R D
1665 3476 M 193 0 R D 1665 3618 M 193 0 R D 1665 3760 M 193 0 R D
1665 4045 M 193 0 R D 1665 4187 M 193 0 R D 1665 4330 M 193 0 R D 631 2212 M
88 0 R 26 9 R 9 17 R 0 27 R -9 17 R -26 26 R D 631 2308 M 123 0 R D
535 2580 M 17 -17 R 26 -18 R 35 -18 R 44 -8 R 35 0 R 44 8 R 44 18 R 26 18 R
18 17 R D 631 2641 M 123 0 R D 666 2641 M -26 27 R -9 17 R 0 26 R 9 18 R
26 9 R 88 0 R D 666 2738 M -26 26 R -9 18 R 0 26 R 9 17 R 26 9 R 88 0 R D
535 3044 M 289 -157 R D 657 3185 M -17 -9 R -9 -26 R 0 -27 R 9 -26 R 17 -9 R
18 9 R 9 18 R 8 43 R 9 18 R 18 9 R 8 0 R 18 -9 R 9 -26 R 0 -27 R -9 -26 R
-18 -9 R D 535 3237 M 17 18 R 26 17 R 35 18 R 44 9 R 35 0 R 44 -9 R 44 -18 R
26 -17 R 18 -18 R D 14501 1056 M 0 3416 R D L1 14501 1056 M -12836 0 R D
14501 1625 M -12836 0 R D 14501 2195 M -12836 0 R D 14501 2764 M -12836 0 R
D 14501 3333 M -12836 0 R D 14501 3903 M -12836 0 R D 14501 4472 M
-12836 0 R D L0 14501 1198 M -193 0 R D 14501 1341 M -193 0 R D 14501 1483 M
-193 0 R D 14501 1768 M -193 0 R D 14501 1910 M -193 0 R D 14501 2052 M
-193 0 R D 14501 2337 M -193 0 R D 14501 2479 M -193 0 R D 14501 2622 M
-193 0 R D 14501 2906 M -193 0 R D 14501 3049 M -193 0 R D 14501 3191 M
-193 0 R D 14501 3476 M -193 0 R D 14501 3618 M -193 0 R D 14501 3760 M
-193 0 R D 14501 4045 M -193 0 R D 14501 4187 M -193 0 R D 14501 4330 M
-193 0 R D 1665 2762 M 13 8 R 13 -4 R 13 0 R 12 1 R 13 1 R 13 0 R 13 0 R
13 -1 R 13 1 R 12 0 R 13 0 R 13 0 R 13 -1 R 13 0 R 13 1 R 12 0 R 13 0 R
13 0 R 13 -1 R 13 0 R 13 0 R 12 0 R 13 0 R 13 -1 R 13 0 R 13 0 R 13 1 R
12 1 R 13 0 R 13 2 R 13 2 R 13 2 R 13 3 R 12 2 R 13 2 R 13 3 R 13 2 R 13 2 R
13 5 R 12 4 R 13 5 R 13 5 R 13 7 R 13 6 R 13 7 R 13 6 R 12 8 R 13 7 R 13 6 R
13 7 R 13 5 R 13 3 R 12 5 R 13 3 R 13 2 R 13 0 R 13 0 R 13 0 R 12 -1 R
13 -6 R 13 -6 R 13 -5 R 13 -8 R 13 -16 R 12 -14 R 13 -16 R 13 -16 R 13 -17 R
13 -19 R 13 -18 R 12 -18 R 13 -16 R 13 -15 R 13 -14 R 13 -13 R 13 -11 R
12 -10 R 13 -9 R 13 -3 R 13 3 R 13 -3 R 13 -1 R 12 7 R 13 6 R 13 8 R 13 9 R
13 11 R 13 12 R 12 11 R 13 9 R 13 12 R 13 9 R 13 8 R 13 10 R 12 7 R 13 7 R
13 7 R 13 5 R 13 4 R 13 4 R 12 4 R 13 4 R 13 3 R 13 2 R 13 3 R 13 1 R 12 2 R
13 1 R 13 0 R 13 1 R 13 1 R 13 1 R 12 0 R 13 1 R 13 1 R 13 1 R 13 2 R 13 1 R
12 0 R 13 1 R 13 0 R 13 1 R 13 0 R 13 0 R 13 0 R 12 1 R 13 1 R 13 2 R 13 1 R
13 2 R 13 2 R 12 3 R 13 1 R 13 2 R 13 1 R 13 0 R 13 0 R 12 0 R 13 -2 R
13 -3 R 13 -3 R 13 -3 R 13 -4 R 12 -4 R 13 -5 R 13 -4 R 13 -5 R 13 -6 R
13 -6 R 12 -7 R 13 -8 R 13 -10 R 13 -11 R 13 -12 R 13 -14 R 12 -13 R
13 -13 R 13 -12 R 13 -12 R 13 -9 R 13 -8 R 12 -5 R 13 -4 R 13 -1 R 13 1 R
13 2 R 13 4 R 12 5 R 13 5 R 13 5 R 13 6 R 13 6 R 13 7 R 12 6 R 13 8 R 13 8 R
13 8 R 13 10 R 13 10 R 12 11 R 13 12 R 13 10 R 13 10 R 13 9 R 13 11 R 12 9 R
13 7 R 13 6 R 13 3 R 13 1 R 13 -2 R 12 -3 R 13 -5 R 13 -7 R 13 -7 R 13 -9 R
13 -10 R 13 -9 R 12 -10 R 13 -10 R 13 -11 R 13 -10 R 13 -11 R 13 -11 R
12 -11 R 13 -11 R 13 -11 R 13 -11 R 13 -11 R 13 -12 R 12 -12 R 13 -13 R
13 -13 R 13 -13 R 13 -14 R 13 -14 R 12 -14 R 13 -15 R 13 -15 R 13 -15 R
13 -16 R 13 -15 R 12 -14 R 13 -13 R 13 -13 R 13 -13 R 13 -12 R 13 -11 R
12 -10 R 13 -10 R 13 -9 R 13 -9 R 13 -6 R 13 -4 R 12 -1 R 13 2 R 13 5 R
13 12 R 13 19 R 13 29 R 12 39 R 13 53 R 13 69 R 13 84 R 13 101 R 13 115 R
12 134 R 13 154 R 13 169 R 13 175 R 13 158 R 13 131 R 12 91 R 13 17 R
13 -37 R 13 -89 R 13 -140 R 13 -165 R 12 -171 R 13 -164 R 13 -145 R
13 -101 R 13 -62 R 13 -32 R 12 -8 R 13 1 R 13 3 R 13 3 R 13 2 R 13 0 R
12 -2 R 13 -3 R 13 -3 R 13 -3 R 13 -3 R 13 -3 R 13 -1 R 12 -1 R 13 -1 R
13 0 R 13 -1 R 13 0 R 13 0 R 12 -1 R 13 -1 R 13 -1 R 13 -3 R 13 -2 R 13 -4 R
12 -4 R 13 -5 R 13 -5 R 13 -4 R 13 -4 R 13 -3 R 12 -3 R 13 -1 R 13 0 R
13 2 R 13 3 R 13 4 R 12 6 R 13 7 R 13 9 R 13 8 R 13 10 R 13 10 R 12 12 R
13 12 R 13 13 R 13 14 R 13 14 R 13 17 R 12 18 R 13 20 R 13 21 R 13 22 R
13 21 R 13 20 R 12 14 R 13 7 R 13 -6 R 13 -19 R 13 -38 R 13 -60 R 12 -82 R
13 -102 R 13 -128 R 13 -157 R 13 -169 R 13 -161 R 12 -142 R 13 -112 R
13 -72 R 13 -28 R 13 25 R 13 75 R 12 131 R 13 174 R 13 204 R 13 222 R
13 215 R 13 202 R 12 224 R 13 234 R 13 212 R 13 180 R 13 149 R 13 120 R
13 87 R 12 46 R 13 2 R 13 -39 R 13 -100 R 13 -162 R 13 -223 R 12 -280 R
13 -316 R 13 -298 R 13 -270 R 13 -301 R 13 -313 R 12 -255 R 13 -167 R
13 -72 R 13 3 R 13 57 R 13 121 R 12 158 R 13 175 R 13 179 R 13 173 R
13 162 R 13 146 R 12 112 R 13 65 R 13 55 R 13 60 R 13 53 R 13 38 R 12 23 R
13 10 R 13 0 R 13 -7 R 13 -15 R 13 -20 R 12 -24 R 13 -25 R 13 -26 R 13 -25 R
13 -24 R 13 -22 R 12 -20 R 13 -17 R 13 -15 R 13 -13 R 13 -11 R 13 -6 R
12 -3 R 13 -3 R 13 -3 R 13 -3 R 13 -1 R 13 -1 R 12 0 R 13 0 R 13 1 R 13 1 R
13 1 R 13 2 R 12 1 R 13 1 R 13 1 R 13 1 R 13 1 R 13 1 R 12 0 R 13 1 R 13 1 R
13 0 R 13 0 R 13 0 R 12 1 R 13 0 R 13 0 R 13 0 R 13 0 R 13 0 R 13 0 R 12 0 R
13 0 R 13 0 R 13 0 R 13 0 R 13 0 R 12 0 R 13 0 R 13 0 R 13 0 R 13 0 R 13 0 R
12 0 R 13 0 R 13 0 R 13 0 R 13 0 R 13 0 R 12 0 R 13 0 R 13 0 R 13 0 R 13 0 R
13 0 R 12 0 R 13 0 R 13 0 R 13 0 R 13 0 R 13 0 R 12 0 R 13 0 R 13 0 R 13 0 R
13 0 R 13 0 R 12 0 R 13 0 R 13 0 R 13 0 R 13 0 R 13 0 R 12 0 R 13 0 R 13 0 R
13 0 R 13 0 R 13 0 R 12 0 R 13 0 R 13 0 R 13 0 R 13 0 R 13 0 R 12 0 R 13 0 R
13 0 R 13 0 R 13 0 R 13 0 R 12 0 R 13 0 R 13 0 R 13 0 R 13 0 R 13 0 R 12 0 R
13 0 R 13 0 R 13 0 R 13 0 R 13 0 R 12 0 R 13 0 R 13 0 R 13 0 R 13 0 R 13 0 R
13 0 R 12 0 R 13 0 R 13 0 R 13 0 R 13 0 R 13 0 R 12 0 R 13 0 R 13 0 R 13 0 R
13 0 R 13 0 R 12 0 R 13 0 R 13 0 R 13 0 R 13 0 R 13 0 R 12 0 R 13 0 R 13 0 R
13 0 R 13 0 R 13 0 R 12 0 R 13 0 R 13 0 R 13 0 R 13 0 R 13 0 R 12 0 R 13 0 R
13 0 R 13 0 R 13 0 R 13 0 R 12 0 R 13 0 R 13 0 R 13 0 R 13 0 R 13 0 R 12 0 R
13 0 R 13 0 R 13 0 R 13 0 R 13 0 R 12 0 R 13 0 R 13 0 R 13 0 R 13 0 R 13 0 R
12 0 R 13 0 R 13 0 R 13 0 R 13 0 R 13 0 R 12 0 R 13 0 R 13 0 R 13 0 R 13 0 R
13 0 R 12 0 R 13 0 R 13 0 R 13 0 R 13 0 R 13 0 R 13 0 R 12 0 R 13 0 R 13 0 R
13 0 R 13 0 R 13 0 R 12 0 R 13 0 R 13 0 R 13 0 R 13 0 R 13 0 R 12 0 R 13 0 R
13 0 R 13 0 R 13 0 R 13 0 R 12 0 R 13 0 R 13 0 R 13 0 R 13 0 R 13 0 R 12 0 R
13 0 R 13 0 R 13 0 R 13 0 R 13 0 R 12 0 R 13 0 R 13 0 R 13 0 R 13 0 R 13 0 R
12 0 R 13 0 R 13 0 R 13 0 R 13 0 R 13 0 R 12 0 R 13 0 R 13 0 R 13 0 R 13 0 R
13 0 R 12 0 R 13 0 R 13 0 R 13 0 R 13 0 R 13 0 R 12 0 R 13 0 R 13 0 R 13 0 R
13 0 R 13 0 R 12 0 R 13 0 R 13 0 R 13 0 R 13 0 R 13 0 R 12 0 R 13 0 R 13 0 R
13 0 R 13 0 R 13 0 R 12 0 R 13 0 R 13 0 R 13 0 R 13 0 R 13 0 R 13 0 R 12 0 R
13 0 R 13 0 R 13 0 R 13 0 R 13 0 R 12 0 R 13 0 R 13 0 R 13 0 R 13 0 R 13 0 R
12 0 R 13 0 R 13 0 R 13 0 R 13 0 R 13 0 R 12 0 R 13 0 R 13 0 R 13 0 R 13 0 R
13 0 R 12 0 R 13 0 R 13 0 R 13 0 R 13 0 R 13 0 R 12 0 R 13 0 R 13 0 R 13 0 R
13 0 R 13 0 R 12 0 R 13 0 R 13 0 R 13 0 R 13 0 R 13 0 R 12 0 R 13 0 R 13 0 R
13 0 R 13 0 R 13 0 R 12 0 R 13 0 R 13 0 R 13 0 R 13 0 R 13 0 R 12 0 R 13 0 R
13 0 R 13 0 R 13 0 R 13 0 R 12 0 R 13 0 R 13 0 R 13 0 R 13 0 R 13 0 R 12 0 R
13 0 R 13 0 R 13 0 R 13 0 R 13 0 R 12 0 R 13 0 R 13 0 R 13 0 R 13 0 R 13 0 R
13 0 R 12 0 R 13 0 R 13 0 R 13 0 R 13 0 R 13 0 R 12 0 R 13 0 R 13 0 R 13 0 R
13 0 R D 11292 2764 M 13 0 R 12 0 R 13 0 R 13 0 R 13 0 R 13 0 R 13 0 R
12 0 R 13 0 R 13 0 R 13 0 R 13 0 R 13 0 R 12 0 R 13 0 R 13 0 R 13 0 R 13 0 R
13 0 R 12 0 R 13 0 R 13 0 R 13 0 R 13 0 R 13 0 R 12 0 R 13 0 R 13 0 R 13 0 R
13 0 R 13 0 R 12 0 R 13 0 R 13 0 R 13 0 R 13 0 R 13 0 R 12 0 R 13 0 R 13 0 R
13 0 R 13 0 R 13 0 R 12 0 R 13 0 R 13 0 R 13 0 R 13 0 R 13 0 R 12 0 R 13 0 R
13 0 R 13 0 R 13 0 R 13 0 R 12 0 R 13 0 R 13 0 R 13 0 R 13 0 R 13 0 R 13 0 R
12 0 R 13 0 R 13 0 R 13 0 R 13 0 R 13 0 R 12 0 R 13 0 R 13 0 R 13 0 R 13 0 R
13 0 R 12 0 R 13 0 R 13 0 R 13 0 R 13 0 R 13 0 R 12 0 R 13 0 R 13 0 R 13 0 R
13 0 R 13 0 R 12 0 R 13 0 R 13 0 R 13 0 R 13 0 R 13 0 R 12 0 R 13 0 R 13 0 R
13 0 R 13 0 R 13 0 R 12 0 R 13 0 R 13 0 R 13 0 R 13 0 R 13 0 R 12 0 R 13 0 R
13 0 R 13 0 R 13 0 R 13 0 R 12 0 R 13 0 R 13 0 R 13 0 R 13 0 R 13 0 R 12 0 R
13 0 R 13 0 R 13 0 R 13 0 R 13 0 R 12 0 R 13 0 R 13 0 R 13 0 R 13 0 R 13 0 R
12 0 R 13 0 R 13 0 R 13 0 R 13 0 R 13 0 R 12 0 R 13 0 R 13 0 R 13 0 R 13 0 R
13 0 R 13 0 R 12 0 R 13 0 R 13 0 R 13 0 R 13 0 R 13 0 R 12 0 R 13 0 R 13 0 R
13 0 R 13 0 R 13 0 R 12 0 R 13 0 R 13 0 R 13 0 R 13 0 R 13 0 R 12 0 R 13 0 R
13 0 R 13 0 R 13 0 R 13 0 R 12 0 R 13 0 R 13 0 R 13 0 R 13 0 R 13 0 R 12 0 R
13 0 R 13 0 R 13 0 R 13 0 R 13 0 R 12 0 R 13 0 R 13 0 R 13 0 R 13 0 R 13 0 R
12 0 R 13 0 R 13 0 R 13 0 R 13 0 R 13 0 R 12 0 R 13 0 R 13 0 R 13 0 R 13 0 R
13 0 R 12 0 R 13 0 R 13 0 R 13 0 R 13 0 R 13 0 R 12 0 R 13 0 R 13 0 R 13 0 R
13 0 R 13 0 R 12 0 R 13 0 R 13 0 R 13 0 R 13 0 R 13 0 R 12 0 R 13 0 R 13 0 R
13 0 R 13 0 R 13 0 R 13 0 R 12 0 R 13 0 R 13 0 R 13 0 R 13 0 R 13 0 R 12 0 R
13 0 R 13 0 R 13 0 R 13 0 R 13 0 R 12 0 R 13 0 R 13 0 R 13 0 R 13 0 R 13 0 R
12 0 R 13 0 R 13 0 R 13 0 R 13 0 R 13 0 R 12 0 R 13 0 R 13 0 R 13 0 R 13 0 R
12 0 R D 0.565 0.000 0.000 setrgbcolor 2692 1056 M 0 3416 R D
1.000 0.592 0.153 setrgbcolor 1233 472 M 0 -139 R 8 -25 R 16 -8 R 17 0 R D
1208 415 M 57 0 R D 1315 472 M 8 -8 R 8 8 R -8 8 R -8 -8 R D 1323 415 M
0 -115 R D 1388 415 M 0 -115 R D 1388 382 M 25 24 R 16 9 R 25 0 R 16 -9 R
8 -24 R 0 -82 R D 1478 382 M 25 24 R 16 9 R 25 0 R 16 -9 R 8 -24 R 0 -82 R D
1625 365 M 98 0 R 0 17 R -8 16 R -8 8 R -16 9 R -25 0 R -16 -9 R -17 -16 R
-8 -25 R 0 -16 R 8 -24 R 17 -17 R 16 -8 R 25 0 R 16 8 R 16 17 R D 1912 398 M
147 0 R D 1912 349 M 147 0 R D 3040 431 M 0 8 R 8 16 R 9 9 R 16 8 R 33 0 R
16 -8 R 8 -9 R 8 -16 R 0 -16 R -8 -17 R -16 -24 R -82 -82 R 115 0 R D
3302 415 M -8 -25 R -17 -16 R -24 -9 R -8 0 R -25 9 R -16 16 R -8 25 R 0 8 R
8 24 R 16 17 R 25 8 R 8 0 R 24 -8 R 17 -17 R 8 -32 R 0 -41 R -8 -41 R
-17 -25 R -24 -8 R -16 0 R -25 8 R -8 17 R D 3441 472 M -82 -115 R 123 0 R D
3441 472 M 0 -172 R D 3539 316 M -8 -8 R 8 -8 R 8 8 R -8 8 R D 3719 472 M
-82 -172 R D 3605 472 M 114 0 R D 3776 431 M 0 8 R 9 16 R 8 9 R 16 8 R
33 0 R 16 -8 R 8 -9 R 9 -16 R 0 -16 R -9 -17 R -16 -24 R -82 -82 R 115 0 R D
4046 472 M -82 -172 R D 3932 472 M 114 0 R D 4136 472 M -24 -8 R -8 -17 R
0 -16 R 8 -16 R 16 -9 R 33 -8 R 24 -8 R 17 -16 R 8 -17 R 0 -24 R -8 -17 R
-9 -8 R -24 -8 R -33 0 R -24 8 R -8 8 R -9 17 R 0 24 R 9 17 R 16 16 R 24 8 R
33 8 R 16 9 R 9 16 R 0 16 R -9 17 R -24 8 R -33 0 R D 4300 472 M -25 -8 R
-8 -17 R 0 -16 R 8 -16 R 17 -9 R 32 -8 R 25 -8 R 16 -16 R 8 -17 R 0 -24 R
-8 -17 R -8 -8 R -24 -8 R -33 0 R -25 8 R -8 8 R -8 17 R 0 24 R 8 17 R
16 16 R 25 8 R 33 8 R 16 9 R 8 16 R 0 16 R -8 17 R -24 8 R -33 0 R D
%%PageTrailer
end
restore
showpage
%%PageResources: font Helvetica
%%Trailer
restore
%%Pages: 1
%%DocumentNeededResources: font Helvetica
%%EOF
