%!PS-Adobe-3.0
%%BoundingBox: 54 360 479 785
%%Title: Graphics produced by IDL
%%For: ap1vf@titania, /scratch/ap1vf/Idl
%%Creator: IDL Version 6.0, Solaris (sunos sparc m64)
%%CreationDate: Mon May 16 20:56:47 2005
%%DocumentData: Clean7bit
%%Requirements: color
%%LanguageLevel: 1
%%PageOrder: Ascend
%%Pages: (atend)
%%DocumentNeededResources: (atend)
%%EndComments
%%BeginProlog
save
%+ prolog.ps -- Prolog for IDL generated PostScript files
%+ Copyright (c) 1988-2003 Research Systems, Inc. All Rights Reserved.
%v 4
/$IDL_DICT 40 dict def $IDL_DICT begin /bdef { bind def } bind def /C
{currentpoint newpath moveto} bdef /CP {currentpoint} bdef /D {currentpoint
stroke moveto} bdef /F {closepath fill} bdef /K { setgray } bdef /M {moveto}
bdef /N {rmoveto} bdef /P {lineto} bdef /R {rlineto} bdef /S {gsave show
grestore} bdef /X {currentpoint pop} bdef /Z {gsave currentpoint lineto 20
setlinewidth 1 setlinecap stroke grestore} bdef /L0 {[] 0 setdash} bdef /L1
{[40 100] 0 setdash} bdef /L2 {[200 200] 0 setdash} bdef /L3 {[200 100 50
100] 0 setdash} bdef /L4 {[300 100 50 100 50 100 50 100] 0 setdash} bdef /L5
{[400 200] 0 setdash} bdef /STDFONT { findfont exch scalefont setfont } bdef
/ISOFONT { findfont dup length dict begin { 1 index /FID ne {def} {pop pop}
ifelse } forall /Encoding ISOLatin1Encoding def currentdict end /idltmpfont
exch definefont exch scalefont setfont } bdef /ISOBULLET { gsave /Helvetica
findfont exch scalefont setfont (\267) show currentpoint grestore moveto}
bdef end 2.5 setmiterlimit
%%EndProlog
%%Page: 0 1
%%PageRequirements: color
%%PageResources: (atend)
%%PageOrientation: Portrait
%%PageBoundingBox: 54 360 479 785
%%BeginPageSetup
save
$IDL_DICT begin 54 360 translate 0.0283465 dup scale
%%IncludeResource: font Helvetica
423.333 /Helvetica STDFONT
%%EndPageSetup
10 setlinewidth L0 0.000 0.000 0.000 setrgbcolor 1665 11056 M 12836 0 R D
1665 11056 M 0 68 R D 1648 10844 M -27 -9 R -17 -26 R -9 -44 R 0 -26 R
9 -44 R 17 -26 R 27 -9 R 17 0 R 26 9 R 18 26 R 9 44 R 0 26 R -9 44 R
-18 26 R -26 9 R -17 0 R D 4874 11056 M 0 68 R D 4821 10844 M -87 0 R
-9 -79 R 9 9 R 26 9 R 26 0 R 27 -9 R 17 -18 R 9 -26 R 0 -17 R -9 -27 R
-17 -17 R -27 -9 R -26 0 R -26 9 R -9 9 R -9 17 R D 4944 10844 M -26 -9 R
-18 -26 R -9 -44 R 0 -26 R 9 -44 R 18 -26 R 26 -9 R 18 0 R 26 9 R 17 26 R
9 44 R 0 26 R -9 44 R -17 26 R -26 9 R -18 0 R D 8083 11056 M 0 68 R D
7864 10809 M 17 9 R 27 26 R 0 -184 R D 8065 10844 M -26 -9 R -18 -26 R
-8 -44 R 0 -26 R 8 -44 R 18 -26 R 26 -9 R 18 0 R 26 9 R 18 26 R 8 44 R
0 26 R -8 44 R -18 26 R -26 9 R -18 0 R D 8241 10844 M -27 -9 R -17 -26 R
-9 -44 R 0 -26 R 9 -44 R 17 -26 R 27 -9 R 17 0 R 26 9 R 18 26 R 9 44 R
0 26 R -9 44 R -18 26 R -26 9 R -17 0 R D 11292 11056 M 0 68 R D
11073 10809 M 17 9 R 26 26 R 0 -184 R D 11327 10844 M -88 0 R -9 -79 R 9 9 R
26 9 R 27 0 R 26 -9 R 18 -18 R 8 -26 R 0 -17 R -8 -27 R -18 -17 R -26 -9 R
-27 0 R -26 9 R -9 9 R -8 17 R D 11449 10844 M -26 -9 R -17 -26 R -9 -44 R
0 -26 R 9 -44 R 17 -26 R 26 -9 R 18 0 R 26 9 R 18 26 R 9 44 R 0 26 R -9 44 R
-18 26 R -26 9 R -18 0 R D 14501 11056 M 0 68 R D 14264 10800 M 0 9 R 9 18 R
8 8 R 18 9 R 35 0 R 18 -9 R 8 -8 R 9 -18 R 0 -17 R -9 -18 R -17 -26 R
-88 -88 R 123 0 R D 14483 10844 M -26 -9 R -18 -26 R -9 -44 R 0 -26 R
9 -44 R 18 -26 R 26 -9 R 18 0 R 26 9 R 17 26 R 9 44 R 0 26 R -9 44 R
-17 26 R -26 9 R -18 0 R D 14658 10844 M -26 -9 R -18 -26 R -8 -44 R 0 -26 R
8 -44 R 18 -26 R 26 -9 R 18 0 R 26 9 R 18 26 R 8 44 R 0 26 R -8 44 R
-18 26 R -26 9 R -18 0 R D 2307 11056 M 0 34 R D 2949 11056 M 0 34 R D
3590 11056 M 0 34 R D 4232 11056 M 0 34 R D 5516 11056 M 0 34 R D
6158 11056 M 0 34 R D 6799 11056 M 0 34 R D 7441 11056 M 0 34 R D
8725 11056 M 0 34 R D 9366 11056 M 0 34 R D 10008 11056 M 0 34 R D
10650 11056 M 0 34 R D 11933 11056 M 0 34 R D 12575 11056 M 0 34 R D
13217 11056 M 0 34 R D 13859 11056 M 0 34 R D 7661 10440 M -97 -123 R D
7564 10440 M 97 0 R D 7564 10317 M 97 0 R D 7924 10536 M -18 -18 R -17 -26 R
-18 -35 R -9 -44 R 0 -35 R 9 -44 R 18 -43 R 17 -27 R 18 -17 R D 7985 10440 M
0 -123 R D 7985 10387 M 9 26 R 17 18 R 18 9 R 26 0 R D 8239 10536 M
-157 -289 R D 8292 10440 M 0 -123 R D 8292 10387 M 9 26 R 17 18 R 18 9 R
26 0 R D 8422 10361 M -12 -6 R -12 -12 R -6 -19 R 0 -12 R 6 -18 R 12 -13 R
12 -6 R 19 0 R 12 6 R 12 13 R 6 18 R 0 12 R -6 19 R -12 12 R -12 6 R -19 0 R
D 8514 10536 M 17 -18 R 18 -26 R 17 -35 R 9 -44 R 0 -35 R -9 -44 R -17 -43 R
-18 -27 R -17 -17 R D 1665 14472 M 12836 0 R D 1665 14472 M 0 -68 R D
4874 14472 M 0 -68 R D 8083 14472 M 0 -68 R D 11292 14472 M 0 -68 R D
14501 14472 M 0 -68 R D 2307 14472 M 0 -34 R D 2949 14472 M 0 -34 R D
3590 14472 M 0 -34 R D 4232 14472 M 0 -34 R D 5516 14472 M 0 -34 R D
6158 14472 M 0 -34 R D 6799 14472 M 0 -34 R D 7441 14472 M 0 -34 R D
8725 14472 M 0 -34 R D 9366 14472 M 0 -34 R D 10008 14472 M 0 -34 R D
10650 14472 M 0 -34 R D 11933 14472 M 0 -34 R D 12575 14472 M 0 -34 R D
13217 14472 M 0 -34 R D 13859 14472 M 0 -34 R D 1665 11056 M 0 3416 R D L1
1665 11056 M 12836 0 R D L0 679 11135 M 158 0 R D 907 11196 M 0 9 R 9 18 R
9 8 R 17 9 R 35 0 R 18 -9 R 8 -8 R 9 -18 R 0 -17 R -9 -18 R -17 -26 R
-88 -88 R 123 0 R D 1126 11240 M -26 -9 R -18 -26 R -8 -44 R 0 -26 R 8 -44 R
18 -26 R 26 -9 R 18 0 R 26 9 R 17 26 R 9 44 R 0 26 R -9 44 R -17 26 R
-26 9 R -18 0 R D 1301 11240 M -26 -9 R -17 -26 R -9 -44 R 0 -26 R 9 -44 R
17 -26 R 26 -9 R 18 0 R 26 9 R 18 26 R 9 44 R 0 26 R -9 44 R -18 26 R
-26 9 R -18 0 R D 1477 11240 M -27 -9 R -17 -26 R -9 -44 R 0 -26 R 9 -44 R
17 -26 R 27 -9 R 17 0 R 26 9 R 18 26 R 9 44 R 0 26 R -9 44 R -18 26 R
-26 9 R -17 0 R D L1 1665 11625 M 12836 0 R D L0 679 11599 M 158 0 R D
925 11669 M 17 9 R 26 26 R 0 -184 R D 1179 11704 M -88 0 R -9 -79 R 9 9 R
26 8 R 27 0 R 26 -8 R 17 -18 R 9 -26 R 0 -18 R -9 -26 R -17 -17 R -26 -9 R
-27 0 R -26 9 R -9 8 R -8 18 R D 1301 11704 M -26 -9 R -17 -26 R -9 -44 R
0 -26 R 9 -44 R 17 -26 R 26 -9 R 18 0 R 26 9 R 18 26 R 9 44 R 0 26 R -9 44 R
-18 26 R -26 9 R -18 0 R D 1477 11704 M -27 -9 R -17 -26 R -9 -44 R 0 -26 R
9 -44 R 17 -26 R 27 -9 R 17 0 R 26 9 R 18 26 R 9 44 R 0 26 R -9 44 R
-18 26 R -26 9 R -17 0 R D L1 1665 12195 M 12836 0 R D L0 679 12168 M
158 0 R D 925 12238 M 17 9 R 26 26 R 0 -184 R D 1126 12273 M -26 -9 R
-18 -26 R -8 -44 R 0 -26 R 8 -44 R 18 -26 R 26 -9 R 18 0 R 26 9 R 17 26 R
9 44 R 0 26 R -9 44 R -17 26 R -26 9 R -18 0 R D 1301 12273 M -26 -9 R
-17 -26 R -9 -44 R 0 -26 R 9 -44 R 17 -26 R 26 -9 R 18 0 R 26 9 R 18 26 R
9 44 R 0 26 R -9 44 R -18 26 R -26 9 R -18 0 R D 1477 12273 M -27 -9 R
-17 -26 R -9 -44 R 0 -26 R 9 -44 R 17 -26 R 27 -9 R 17 0 R 26 9 R 18 26 R
9 44 R 0 26 R -9 44 R -18 26 R -26 9 R -17 0 R D L1 1665 12764 M 12836 0 R D
L0 854 12737 M 158 0 R D 1179 12843 M -88 0 R -9 -79 R 9 8 R 26 9 R 27 0 R
26 -9 R 17 -17 R 9 -26 R 0 -18 R -9 -26 R -17 -18 R -26 -9 R -27 0 R -26 9 R
-9 9 R -8 18 R D 1301 12843 M -26 -9 R -17 -27 R -9 -43 R 0 -27 R 9 -43 R
17 -27 R 26 -9 R 18 0 R 26 9 R 18 27 R 9 43 R 0 27 R -9 43 R -18 27 R
-26 9 R -18 0 R D 1477 12843 M -27 -9 R -17 -27 R -9 -43 R 0 -27 R 9 -43 R
17 -27 R 27 -9 R 17 0 R 26 9 R 18 27 R 9 43 R 0 27 R -9 43 R -18 27 R
-26 9 R -17 0 R D L1 1665 13333 M 12836 0 R D L0 1477 13412 M -27 -9 R
-17 -26 R -9 -44 R 0 -26 R 9 -44 R 17 -26 R 27 -9 R 17 0 R 26 9 R 18 26 R
9 44 R 0 26 R -9 44 R -18 26 R -26 9 R -17 0 R D L1 1665 13903 M 12836 0 R D
L0 1179 13981 M -88 0 R -9 -79 R 9 9 R 26 9 R 27 0 R 26 -9 R 17 -17 R
9 -27 R 0 -17 R -9 -27 R -17 -17 R -26 -9 R -27 0 R -26 9 R -9 9 R -8 17 R D
1301 13981 M -26 -9 R -17 -26 R -9 -44 R 0 -26 R 9 -44 R 17 -26 R 26 -9 R
18 0 R 26 9 R 18 26 R 9 44 R 0 26 R -9 44 R -18 26 R -26 9 R -18 0 R D
1477 13981 M -27 -9 R -17 -26 R -9 -44 R 0 -26 R 9 -44 R 17 -26 R 27 -9 R
17 0 R 26 9 R 18 26 R 9 44 R 0 26 R -9 44 R -18 26 R -26 9 R -17 0 R D L1
1665 14472 M 12836 0 R D L0 925 14436 M 17 9 R 26 26 R 0 -184 R D
1126 14471 M -26 -8 R -18 -27 R -8 -44 R 0 -26 R 8 -44 R 18 -26 R 26 -9 R
18 0 R 26 9 R 17 26 R 9 44 R 0 26 R -9 44 R -17 27 R -26 8 R -18 0 R D
1301 14471 M -26 -8 R -17 -27 R -9 -44 R 0 -26 R 9 -44 R 17 -26 R 26 -9 R
18 0 R 26 9 R 18 26 R 9 44 R 0 26 R -9 44 R -18 27 R -26 8 R -18 0 R D
1477 14471 M -27 -8 R -17 -27 R -9 -44 R 0 -26 R 9 -44 R 17 -26 R 27 -9 R
17 0 R 26 9 R 18 26 R 9 44 R 0 26 R -9 44 R -18 27 R -26 8 R -17 0 R D
1665 11170 M 193 0 R D 1665 11284 M 193 0 R D 1665 11398 M 193 0 R D
1665 11512 M 193 0 R D 1665 11739 M 193 0 R D 1665 11853 M 193 0 R D
1665 11967 M 193 0 R D 1665 12081 M 193 0 R D 1665 12309 M 193 0 R D
1665 12422 M 193 0 R D 1665 12536 M 193 0 R D 1665 12650 M 193 0 R D
1665 12878 M 193 0 R D 1665 12992 M 193 0 R D 1665 13106 M 193 0 R D
1665 13220 M 193 0 R D 1665 13447 M 193 0 R D 1665 13561 M 193 0 R D
1665 13675 M 193 0 R D 1665 13789 M 193 0 R D 1665 14017 M 193 0 R D
1665 14130 M 193 0 R D 1665 14244 M 193 0 R D 1665 14358 M 193 0 R D
280 12212 M 88 0 R 26 9 R 9 17 R 0 27 R -9 17 R -26 26 R D 280 12308 M
123 0 R D 184 12580 M 18 -17 R 26 -18 R 35 -18 R 44 -8 R 35 0 R 44 8 R
43 18 R 27 18 R 17 17 R D 280 12641 M 123 0 R D 316 12641 M -27 27 R -9 17 R
0 26 R 9 18 R 27 9 R 87 0 R D 316 12738 M -27 26 R -9 18 R 0 26 R 9 17 R
27 9 R 87 0 R D 184 13044 M 289 -157 R D 307 13185 M -18 -9 R -9 -26 R
0 -27 R 9 -26 R 18 -9 R 17 9 R 9 18 R 9 43 R 9 18 R 17 9 R 9 0 R 17 -9 R
9 -26 R 0 -27 R -9 -26 R -17 -9 R D 184 13237 M 18 18 R 26 17 R 35 18 R
44 9 R 35 0 R 44 -9 R 43 -18 R 27 -17 R 17 -18 R D 14501 11056 M 0 3416 R D
L1 14501 11056 M -12836 0 R D 14501 11625 M -12836 0 R D 14501 12195 M
-12836 0 R D 14501 12764 M -12836 0 R D 14501 13333 M -12836 0 R D
14501 13903 M -12836 0 R D 14501 14472 M -12836 0 R D L0 14501 11170 M
-193 0 R D 14501 11284 M -193 0 R D 14501 11398 M -193 0 R D 14501 11512 M
-193 0 R D 14501 11739 M -193 0 R D 14501 11853 M -193 0 R D 14501 11967 M
-193 0 R D 14501 12081 M -193 0 R D 14501 12309 M -193 0 R D 14501 12422 M
-193 0 R D 14501 12536 M -193 0 R D 14501 12650 M -193 0 R D 14501 12878 M
-193 0 R D 14501 12992 M -193 0 R D 14501 13106 M -193 0 R D 14501 13220 M
-193 0 R D 14501 13447 M -193 0 R D 14501 13561 M -193 0 R D 14501 13675 M
-193 0 R D 14501 13789 M -193 0 R D 14501 14017 M -193 0 R D 14501 14130 M
-193 0 R D 14501 14244 M -193 0 R D 14501 14358 M -193 0 R D 1665 13333 M
13 0 R 13 0 R 13 0 R 12 0 R 13 0 R 13 0 R 13 0 R 13 0 R 13 0 R 12 0 R 13 0 R
13 0 R 13 1 R 13 0 R 13 0 R 12 -1 R 13 0 R 13 0 R 13 0 R 13 0 R 13 0 R
12 0 R 13 0 R 13 0 R 13 0 R 13 0 R 13 0 R 12 0 R 13 0 R 13 1 R 13 0 R 13 0 R
13 0 R 12 0 R 13 0 R 13 0 R 13 0 R 13 0 R 13 0 R 12 0 R 13 0 R 13 0 R 13 0 R
13 0 R 13 0 R 13 0 R 12 0 R 13 0 R 13 -1 R 13 0 R 13 0 R 13 0 R 12 0 R
13 0 R 13 0 R 13 0 R 13 0 R 13 0 R 12 0 R 13 0 R 13 0 R 13 0 R 13 0 R 13 0 R
12 0 R 13 0 R 13 0 R 13 0 R 13 0 R 13 0 R 12 0 R 13 0 R 13 0 R 13 0 R 13 0 R
13 0 R 12 0 R 13 -1 R 13 1 R 13 0 R 13 -1 R 13 1 R 12 0 R 13 0 R 13 0 R
13 0 R 13 0 R 13 0 R 12 0 R 13 0 R 13 0 R 13 0 R 13 0 R 13 0 R 12 0 R 13 0 R
13 0 R 13 0 R 13 0 R 13 0 R 12 0 R 13 1 R 13 0 R 13 0 R 13 0 R 13 0 R 12 0 R
13 0 R 13 0 R 13 0 R 13 0 R 13 -1 R 12 0 R 13 0 R 13 0 R 13 0 R 13 0 R
13 0 R 12 1 R 13 0 R 13 0 R 13 0 R 13 0 R 13 0 R 13 0 R 12 0 R 13 0 R 13 0 R
13 0 R 13 0 R 13 0 R 12 0 R 13 0 R 13 0 R 13 0 R 13 0 R 13 0 R 12 0 R 13 0 R
13 0 R 13 0 R 13 0 R 13 0 R 12 0 R 13 0 R 13 0 R 13 0 R 13 0 R 13 0 R 12 0 R
13 0 R 13 0 R 13 0 R 13 0 R 13 0 R 12 0 R 13 0 R 13 0 R 13 0 R 13 0 R 13 0 R
12 0 R 13 0 R 13 0 R 13 0 R 13 0 R 13 0 R 12 0 R 13 0 R 13 0 R 13 0 R 13 0 R
13 0 R 12 0 R 13 0 R 13 0 R 13 0 R 13 0 R 13 0 R 12 0 R 13 0 R 13 0 R 13 0 R
13 0 R 13 0 R 12 -1 R 13 0 R 13 1 R 13 0 R 13 0 R 13 0 R 12 0 R 13 0 R
13 0 R 13 0 R 13 0 R 13 0 R 13 0 R 12 0 R 13 0 R 13 0 R 13 0 R 13 1 R 13 0 R
12 0 R 13 0 R 13 1 R 13 0 R 13 0 R 13 0 R 12 0 R 13 1 R 13 0 R 13 0 R 13 0 R
13 0 R 12 0 R 13 0 R 13 0 R 13 -1 R 13 0 R 13 0 R 12 0 R 13 -1 R 13 0 R
13 0 R 13 -1 R 13 0 R 12 -1 R 13 0 R 13 0 R 13 0 R 13 -1 R 13 0 R 12 0 R
13 0 R 13 -1 R 13 0 R 13 0 R 13 0 R 12 0 R 13 0 R 13 0 R 13 0 R 13 0 R
13 0 R 12 0 R 13 0 R 13 1 R 13 0 R 13 0 R 13 0 R 12 0 R 13 1 R 13 0 R 13 0 R
13 0 R 13 0 R 12 0 R 13 0 R 13 0 R 13 0 R 13 0 R 13 0 R 12 0 R 13 0 R 13 0 R
13 0 R 13 0 R 13 0 R 12 0 R 13 0 R 13 0 R 13 0 R 13 0 R 13 0 R 13 0 R 12 0 R
13 0 R 13 0 R 13 0 R 13 0 R 13 0 R 12 0 R 13 0 R 13 0 R 13 0 R 13 0 R 13 0 R
12 0 R 13 0 R 13 0 R 13 0 R 13 0 R 13 0 R 12 0 R 13 0 R 13 0 R 13 0 R 13 0 R
13 0 R 12 0 R 13 0 R 13 0 R 13 0 R 13 0 R 13 0 R 12 0 R 13 0 R 13 0 R 13 0 R
13 0 R 13 0 R 12 0 R 13 0 R 13 0 R 13 0 R 13 0 R 13 0 R 12 0 R 13 0 R 13 0 R
13 0 R 13 0 R 13 0 R 12 0 R 13 0 R 13 0 R 13 -1 R 13 0 R 13 0 R 12 0 R
13 0 R 13 0 R 13 1 R 13 0 R 13 0 R 12 0 R 13 0 R 13 0 R 13 0 R 13 0 R 13 0 R
12 0 R 13 0 R 13 0 R 13 0 R 13 0 R 13 0 R 13 1 R 12 0 R 13 1 R 13 0 R 13 0 R
13 0 R 13 0 R 12 0 R 13 -1 R 13 -1 R 13 -1 R 13 -2 R 13 -1 R 12 -2 R 13 -1 R
13 -1 R 13 0 R 13 1 R 13 1 R 12 2 R 13 1 R 13 2 R 13 3 R 13 1 R 13 2 R
12 0 R 13 0 R 13 -1 R 13 -2 R 13 -3 R 13 -3 R 12 -3 R 13 -2 R 13 -3 R
13 -2 R 13 -2 R 13 -1 R 12 0 R 13 0 R 13 1 R 13 2 R 13 2 R 13 2 R 12 2 R
13 2 R 13 3 R 13 2 R 13 1 R 13 1 R 12 0 R 13 -1 R 13 -2 R 13 -3 R 13 -4 R
13 -5 R 12 -5 R 13 -6 R 13 -6 R 13 -7 R 13 -5 R 13 -4 R 12 -2 R 13 0 R
13 1 R 13 5 R 13 7 R 13 10 R 12 11 R 13 14 R 13 15 R 13 17 R 13 17 R 13 16 R
12 14 R 13 9 R 13 -1 R 13 -7 R 13 -14 R 13 -16 R 13 -16 R 12 -12 R 13 -6 R
13 1 R 13 5 R 13 8 R 13 10 R 12 10 R 13 8 R 13 6 R 13 1 R 13 -5 R 13 -10 R
12 -17 R 13 -22 R 13 -26 R 13 -33 R 13 -37 R 13 -34 R 12 -24 R 13 -11 R
13 1 R 13 10 R 13 19 R 13 23 R 12 24 R 13 21 R 13 18 R 13 15 R 13 12 R
13 9 R 12 6 R 13 5 R 13 5 R 13 4 R 13 4 R 13 4 R 12 4 R 13 5 R 13 5 R 13 6 R
13 7 R 13 7 R 12 8 R 13 8 R 13 9 R 13 8 R 13 8 R 13 8 R 12 9 R 13 8 R 13 9 R
13 8 R 13 5 R 13 1 R 12 -7 R 13 -17 R 13 -34 R 13 -49 R 13 -64 R 13 -84 R
12 -90 R 13 -74 R 13 -37 R 13 7 R 13 46 R 13 73 R 12 74 R 13 64 R 13 31 R
13 15 R 13 9 R 13 9 R 12 8 R 13 8 R 13 4 R 13 3 R 13 1 R 13 -1 R 13 -2 R
12 -4 R 13 -5 R 13 -5 R 13 -6 R 13 -7 R 13 -7 R 12 -7 R 13 -6 R 13 -5 R
13 -4 R 13 -3 R 13 -3 R 12 -2 R 13 -1 R 13 0 R 13 0 R 13 1 R 13 1 R 12 2 R
13 1 R 13 1 R 13 1 R 13 2 R 13 1 R 12 1 R 13 1 R 13 2 R 13 1 R 13 1 R 13 1 R
12 1 R 13 0 R 13 0 R 13 0 R 13 0 R 13 -1 R 12 -2 R 13 -1 R 13 -2 R 13 -2 R
13 -2 R 13 -3 R 12 -2 R 13 -2 R 13 -1 R 13 -2 R 13 -1 R 13 0 R 12 0 R 13 0 R
13 0 R 13 1 R 13 2 R 13 1 R 12 1 R 13 2 R 13 1 R 13 2 R 13 2 R 13 1 R 12 2 R
13 1 R 13 1 R 13 1 R 13 0 R 13 0 R 12 1 R 13 0 R 13 0 R 13 0 R 13 -1 R
13 -1 R 13 -3 R 12 -3 R 13 -3 R 13 -5 R 13 -7 R 13 -7 R 13 -8 R 12 -8 R
13 -5 R 13 -2 R 13 -1 R 13 2 R 13 5 R 12 6 R 13 5 R 13 6 R 13 7 R 13 7 R
13 5 R 12 4 R 13 5 R 13 7 R 13 8 R 13 7 R 13 8 R 12 8 R 13 7 R 13 4 R 13 2 R
13 1 R 13 -1 R 12 -10 R 13 -19 R 13 -13 R 13 8 R 13 37 R 13 81 R 12 88 R
13 35 R 13 -49 R 13 -275 R 13 -442 R 13 -431 R 12 -12 R 13 698 R 13 340 R
13 16 R 13 2 R 13 -1 R 12 -1 R 13 2 R 13 4 R 13 5 R 13 5 R 13 5 R 12 4 R
13 3 R 13 4 R 13 3 R 13 2 R 13 3 R 12 2 R 13 3 R 13 3 R 13 3 R 13 3 R 13 1 R
12 -3 R 13 -7 R 13 -11 R 13 -9 R 13 -2 R 13 14 R 12 56 R 13 106 R 13 119 R
13 53 R 13 -72 R 13 -250 R 13 -618 R 12 -656 R 13 -351 R 13 545 R 13 906 R
13 119 R 13 5 R 12 -2 R 13 -1 R 13 1 R 13 5 R 13 7 R 13 6 R 12 6 R 13 6 R
13 6 R 13 5 R 13 4 R 13 5 R 12 4 R 13 4 R 13 5 R 13 6 R 13 9 R 13 12 R
12 14 R 13 16 R 13 16 R 13 12 R 13 8 R 13 2 R 12 -4 R 13 -11 R 13 -11 R
13 -4 R 13 16 R 13 61 R 12 119 R 13 173 R 13 208 R 13 187 R 13 50 R
13 -113 R 12 -399 R 13 -842 R 13 -911 R 13 -660 R 13 -55 R 13 967 R 12 934 R
13 83 R 13 9 R 13 -4 R 13 -10 R 13 -11 R 12 -8 R 13 -5 R 13 -4 R 13 -2 R
13 -2 R 13 -1 R 12 -2 R 13 -1 R 13 -1 R 13 0 R 13 0 R 13 0 R 12 0 R 13 1 R
13 0 R 13 1 R 13 1 R 13 0 R 12 1 R 13 0 R 13 1 R 13 0 R 13 0 R 13 1 R 13 0 R
12 0 R 13 0 R 13 0 R 13 0 R 13 0 R 13 0 R 12 0 R 13 0 R 13 0 R 13 0 R 13 0 R
D 11292 13333 M 13 0 R 12 0 R 13 0 R 13 0 R 13 0 R 13 0 R 13 0 R 12 0 R
13 0 R 13 0 R 13 0 R 13 0 R 13 0 R 12 0 R 13 0 R 13 0 R 13 0 R 13 0 R 13 0 R
12 0 R 13 0 R 13 0 R 13 0 R 13 0 R 13 0 R 12 0 R 13 0 R 13 0 R 13 0 R 13 0 R
13 0 R 12 0 R 13 0 R 13 0 R 13 0 R 13 0 R 13 0 R 12 0 R 13 0 R 13 0 R 13 0 R
13 0 R 13 0 R 12 0 R 13 0 R 13 0 R 13 0 R 13 0 R 13 0 R 12 0 R 13 0 R 13 0 R
13 0 R 13 0 R 13 0 R 12 0 R 13 0 R 13 0 R 13 0 R 13 0 R 13 0 R 13 0 R 12 0 R
13 0 R 13 0 R 13 0 R 13 0 R 13 0 R 12 0 R 13 0 R 13 0 R 13 0 R 13 0 R 13 0 R
12 0 R 13 0 R 13 0 R 13 0 R 13 0 R 13 0 R 12 0 R 13 0 R 13 0 R 13 0 R 13 0 R
13 0 R 12 0 R 13 0 R 13 0 R 13 0 R 13 0 R 13 0 R 12 0 R 13 0 R 13 0 R 13 0 R
13 0 R 13 0 R 12 0 R 13 0 R 13 0 R 13 0 R 13 0 R 13 0 R 12 0 R 13 0 R 13 0 R
13 0 R 13 0 R 13 0 R 12 0 R 13 0 R 13 0 R 13 0 R 13 0 R 13 0 R 12 0 R 13 0 R
13 0 R 13 0 R 13 0 R 13 0 R 12 0 R 13 0 R 13 0 R 13 0 R 13 0 R 13 0 R 12 0 R
13 0 R 13 0 R 13 0 R 13 0 R 13 0 R 12 0 R 13 0 R 13 0 R 13 0 R 13 0 R 13 0 R
13 0 R 12 0 R 13 0 R 13 0 R 13 0 R 13 0 R 13 0 R 12 0 R 13 0 R 13 0 R 13 0 R
13 0 R 13 0 R 12 0 R 13 0 R 13 0 R 13 0 R 13 0 R 13 0 R 12 0 R 13 0 R 13 0 R
13 0 R 13 0 R 13 0 R 12 0 R 13 0 R 13 0 R 13 0 R 13 0 R 13 0 R 12 0 R 13 0 R
13 0 R 13 0 R 13 0 R 13 0 R 12 0 R 13 0 R 13 0 R 13 0 R 13 0 R 13 0 R 12 0 R
13 0 R 13 0 R 13 0 R 13 0 R 13 0 R 12 0 R 13 0 R 13 0 R 13 0 R 13 0 R 13 0 R
12 0 R 13 0 R 13 0 R 13 0 R 13 0 R 13 0 R 12 0 R 13 0 R 13 0 R 13 0 R 13 0 R
13 0 R 12 0 R 13 0 R 13 0 R 13 0 R 13 0 R 13 0 R 12 0 R 13 0 R 13 0 R 13 0 R
13 0 R 13 0 R 13 0 R 12 0 R 13 0 R 13 0 R 13 0 R 13 0 R 13 0 R 12 0 R 13 0 R
13 0 R 13 0 R 13 0 R 13 0 R 12 0 R 13 0 R 13 0 R 13 0 R 13 0 R 13 0 R 12 0 R
13 0 R 13 0 R 13 0 R 13 0 R 13 0 R 12 0 R 13 0 R 13 0 R 13 0 R 13 0 R 12 0 R
D 0.565 0.000 0.000 setrgbcolor 2692 11056 M 0 3416 R D
1.000 0.592 0.153 setrgbcolor 1233 10472 M 0 -139 R 8 -25 R 16 -8 R 17 0 R D
1208 10415 M 57 0 R D 1315 10472 M 8 -8 R 8 8 R -8 8 R -8 -8 R D
1323 10415 M 0 -115 R D 1388 10415 M 0 -115 R D 1388 10382 M 25 24 R 16 9 R
25 0 R 16 -9 R 8 -24 R 0 -82 R D 1478 10382 M 25 24 R 16 9 R 25 0 R 16 -9 R
8 -24 R 0 -82 R D 1625 10365 M 98 0 R 0 17 R -8 16 R -8 8 R -16 9 R -25 0 R
-16 -9 R -17 -16 R -8 -25 R 0 -16 R 8 -24 R 17 -17 R 16 -8 R 25 0 R 16 8 R
16 17 R D 1912 10398 M 147 0 R D 1912 10349 M 147 0 R D 3138 10447 M -8 17 R
-24 8 R -17 0 R -24 -8 R -17 -25 R -8 -41 R 0 -41 R 8 -32 R 17 -17 R 24 -8 R
9 0 R 24 8 R 16 17 R 9 24 R 0 8 R -9 25 R -16 16 R -24 8 R -9 0 R -24 -8 R
-17 -16 R -8 -25 R D 3245 10472 M -25 -8 R -16 -25 R -8 -41 R 0 -24 R
8 -41 R 16 -25 R 25 -8 R 16 0 R 25 8 R 16 25 R 8 41 R 0 24 R -8 41 R
-16 25 R -25 8 R -16 0 R D 3376 10472 M 90 0 R -50 -66 R 25 0 R 16 -8 R
9 -8 R 8 -25 R 0 -16 R -8 -24 R -17 -17 R -24 -8 R -25 0 R -24 8 R -9 8 R
-8 17 R D 3539 10316 M -8 -8 R 8 -8 R 8 8 R -8 8 R D 3686 10472 M -81 -115 R
122 0 R D 3686 10472 M 0 -172 R D 3776 10431 M 0 8 R 9 16 R 8 9 R 16 8 R
33 0 R 16 -8 R 8 -9 R 9 -16 R 0 -16 R -9 -17 R -16 -24 R -82 -82 R 115 0 R D
4030 10472 M -82 0 R -8 -74 R 8 8 R 25 9 R 24 0 R 25 -9 R 16 -16 R 8 -25 R
0 -16 R -8 -24 R -16 -17 R -25 -8 R -24 0 R -25 8 R -8 8 R -8 17 R D
4210 10472 M -82 -172 R D 4095 10472 M 115 0 R D 4357 10472 M -82 0 R
-8 -74 R 8 8 R 25 9 R 24 0 R 25 -9 R 16 -16 R 8 -25 R 0 -16 R -8 -24 R
-16 -17 R -25 -8 R -24 0 R -25 8 R -8 8 R -8 17 R D
0.000 0.000 0.000 setrgbcolor 1665 6056 M 12836 0 R D 1665 6056 M 0 68 R D
1648 5844 M -27 -9 R -17 -26 R -9 -44 R 0 -26 R 9 -44 R 17 -26 R 27 -9 R
17 0 R 26 9 R 18 26 R 9 44 R 0 26 R -9 44 R -18 26 R -26 9 R -17 0 R D
4874 6056 M 0 68 R D 4821 5844 M -87 0 R -9 -79 R 9 9 R 26 9 R 26 0 R
27 -9 R 17 -18 R 9 -26 R 0 -17 R -9 -27 R -17 -17 R -27 -9 R -26 0 R -26 9 R
-9 9 R -9 17 R D 4944 5844 M -26 -9 R -18 -26 R -9 -44 R 0 -26 R 9 -44 R
18 -26 R 26 -9 R 18 0 R 26 9 R 17 26 R 9 44 R 0 26 R -9 44 R -17 26 R
-26 9 R -18 0 R D 8083 6056 M 0 68 R D 7864 5809 M 17 9 R 27 26 R 0 -184 R D
8065 5844 M -26 -9 R -18 -26 R -8 -44 R 0 -26 R 8 -44 R 18 -26 R 26 -9 R
18 0 R 26 9 R 18 26 R 8 44 R 0 26 R -8 44 R -18 26 R -26 9 R -18 0 R D
8241 5844 M -27 -9 R -17 -26 R -9 -44 R 0 -26 R 9 -44 R 17 -26 R 27 -9 R
17 0 R 26 9 R 18 26 R 9 44 R 0 26 R -9 44 R -18 26 R -26 9 R -17 0 R D
11292 6056 M 0 68 R D 11073 5809 M 17 9 R 26 26 R 0 -184 R D 11327 5844 M
-88 0 R -9 -79 R 9 9 R 26 9 R 27 0 R 26 -9 R 18 -18 R 8 -26 R 0 -17 R
-8 -27 R -18 -17 R -26 -9 R -27 0 R -26 9 R -9 9 R -8 17 R D 11449 5844 M
-26 -9 R -17 -26 R -9 -44 R 0 -26 R 9 -44 R 17 -26 R 26 -9 R 18 0 R 26 9 R
18 26 R 9 44 R 0 26 R -9 44 R -18 26 R -26 9 R -18 0 R D 14501 6056 M 0 68 R
D 14264 5800 M 0 9 R 9 18 R 8 8 R 18 9 R 35 0 R 18 -9 R 8 -8 R 9 -18 R
0 -17 R -9 -18 R -17 -26 R -88 -88 R 123 0 R D 14483 5844 M -26 -9 R
-18 -26 R -9 -44 R 0 -26 R 9 -44 R 18 -26 R 26 -9 R 18 0 R 26 9 R 17 26 R
9 44 R 0 26 R -9 44 R -17 26 R -26 9 R -18 0 R D 14658 5844 M -26 -9 R
-18 -26 R -8 -44 R 0 -26 R 8 -44 R 18 -26 R 26 -9 R 18 0 R 26 9 R 18 26 R
8 44 R 0 26 R -8 44 R -18 26 R -26 9 R -18 0 R D 2307 6056 M 0 34 R D
2949 6056 M 0 34 R D 3590 6056 M 0 34 R D 4232 6056 M 0 34 R D 5516 6056 M
0 34 R D 6158 6056 M 0 34 R D 6799 6056 M 0 34 R D 7441 6056 M 0 34 R D
8725 6056 M 0 34 R D 9366 6056 M 0 34 R D 10008 6056 M 0 34 R D 10650 6056 M
0 34 R D 11933 6056 M 0 34 R D 12575 6056 M 0 34 R D 13217 6056 M 0 34 R D
13859 6056 M 0 34 R D 7661 5440 M -97 -123 R D 7564 5440 M 97 0 R D
7564 5317 M 97 0 R D 7924 5536 M -18 -18 R -17 -26 R -18 -35 R -9 -44 R
0 -35 R 9 -44 R 18 -43 R 17 -27 R 18 -17 R D 7985 5440 M 0 -123 R D
7985 5387 M 9 26 R 17 18 R 18 9 R 26 0 R D 8239 5536 M -157 -289 R D
8292 5440 M 0 -123 R D 8292 5387 M 9 26 R 17 18 R 18 9 R 26 0 R D
8422 5361 M -12 -6 R -12 -12 R -6 -19 R 0 -12 R 6 -18 R 12 -13 R 12 -6 R
19 0 R 12 6 R 12 13 R 6 18 R 0 12 R -6 19 R -12 12 R -12 6 R -19 0 R D
8514 5536 M 17 -18 R 18 -26 R 17 -35 R 9 -44 R 0 -35 R -9 -44 R -17 -43 R
-18 -27 R -17 -17 R D 1665 9472 M 12836 0 R D 1665 9472 M 0 -68 R D
4874 9472 M 0 -68 R D 8083 9472 M 0 -68 R D 11292 9472 M 0 -68 R D
14501 9472 M 0 -68 R D 2307 9472 M 0 -34 R D 2949 9472 M 0 -34 R D
3590 9472 M 0 -34 R D 4232 9472 M 0 -34 R D 5516 9472 M 0 -34 R D
6158 9472 M 0 -34 R D 6799 9472 M 0 -34 R D 7441 9472 M 0 -34 R D
8725 9472 M 0 -34 R D 9366 9472 M 0 -34 R D 10008 9472 M 0 -34 R D
10650 9472 M 0 -34 R D 11933 9472 M 0 -34 R D 12575 9472 M 0 -34 R D
13217 9472 M 0 -34 R D 13859 9472 M 0 -34 R D 1665 6056 M 0 3416 R D L1
1665 6056 M 12836 0 R D L0 679 6135 M 158 0 R D 907 6196 M 0 9 R 9 18 R
9 8 R 17 9 R 35 0 R 18 -9 R 8 -8 R 9 -18 R 0 -17 R -9 -18 R -17 -26 R
-88 -88 R 123 0 R D 1126 6240 M -26 -9 R -18 -26 R -8 -44 R 0 -26 R 8 -44 R
18 -26 R 26 -9 R 18 0 R 26 9 R 17 26 R 9 44 R 0 26 R -9 44 R -17 26 R
-26 9 R -18 0 R D 1301 6240 M -26 -9 R -17 -26 R -9 -44 R 0 -26 R 9 -44 R
17 -26 R 26 -9 R 18 0 R 26 9 R 18 26 R 9 44 R 0 26 R -9 44 R -18 26 R
-26 9 R -18 0 R D 1477 6240 M -27 -9 R -17 -26 R -9 -44 R 0 -26 R 9 -44 R
17 -26 R 27 -9 R 17 0 R 26 9 R 18 26 R 9 44 R 0 26 R -9 44 R -18 26 R
-26 9 R -17 0 R D L1 1665 7195 M 12836 0 R D L0 679 7168 M 158 0 R D
925 7238 M 17 9 R 26 26 R 0 -184 R D 1126 7273 M -26 -9 R -18 -26 R -8 -44 R
0 -26 R 8 -44 R 18 -26 R 26 -9 R 18 0 R 26 9 R 17 26 R 9 44 R 0 26 R -9 44 R
-17 26 R -26 9 R -18 0 R D 1301 7273 M -26 -9 R -17 -26 R -9 -44 R 0 -26 R
9 -44 R 17 -26 R 26 -9 R 18 0 R 26 9 R 18 26 R 9 44 R 0 26 R -9 44 R
-18 26 R -26 9 R -18 0 R D 1477 7273 M -27 -9 R -17 -26 R -9 -44 R 0 -26 R
9 -44 R 17 -26 R 27 -9 R 17 0 R 26 9 R 18 26 R 9 44 R 0 26 R -9 44 R
-18 26 R -26 9 R -17 0 R D L1 1665 8333 M 12836 0 R D L0 1477 8412 M
-27 -9 R -17 -26 R -9 -44 R 0 -26 R 9 -44 R 17 -26 R 27 -9 R 17 0 R 26 9 R
18 26 R 9 44 R 0 26 R -9 44 R -18 26 R -26 9 R -17 0 R D L1 1665 9472 M
12836 0 R D L0 925 9436 M 17 9 R 26 26 R 0 -184 R D 1126 9471 M -26 -8 R
-18 -27 R -8 -44 R 0 -26 R 8 -44 R 18 -26 R 26 -9 R 18 0 R 26 9 R 17 26 R
9 44 R 0 26 R -9 44 R -17 27 R -26 8 R -18 0 R D 1301 9471 M -26 -8 R
-17 -27 R -9 -44 R 0 -26 R 9 -44 R 17 -26 R 26 -9 R 18 0 R 26 9 R 18 26 R
9 44 R 0 26 R -9 44 R -18 27 R -26 8 R -18 0 R D 1477 9471 M -27 -8 R
-17 -27 R -9 -44 R 0 -26 R 9 -44 R 17 -26 R 27 -9 R 17 0 R 26 9 R 18 26 R
9 44 R 0 26 R -9 44 R -18 27 R -26 8 R -17 0 R D 1665 6170 M 193 0 R D
1665 6284 M 193 0 R D 1665 6398 M 193 0 R D 1665 6512 M 193 0 R D
1665 6625 M 193 0 R D 1665 6739 M 193 0 R D 1665 6853 M 193 0 R D
1665 6967 M 193 0 R D 1665 7081 M 193 0 R D 1665 7309 M 193 0 R D
1665 7422 M 193 0 R D 1665 7536 M 193 0 R D 1665 7650 M 193 0 R D
1665 7764 M 193 0 R D 1665 7878 M 193 0 R D 1665 7992 M 193 0 R D
1665 8106 M 193 0 R D 1665 8220 M 193 0 R D 1665 8447 M 193 0 R D
1665 8561 M 193 0 R D 1665 8675 M 193 0 R D 1665 8789 M 193 0 R D
1665 8903 M 193 0 R D 1665 9017 M 193 0 R D 1665 9130 M 193 0 R D
1665 9244 M 193 0 R D 1665 9358 M 193 0 R D 280 7212 M 88 0 R 26 9 R 9 17 R
0 27 R -9 17 R -26 26 R D 280 7308 M 123 0 R D 184 7580 M 18 -17 R 26 -18 R
35 -18 R 44 -8 R 35 0 R 44 8 R 43 18 R 27 18 R 17 17 R D 280 7641 M 123 0 R
D 316 7641 M -27 27 R -9 17 R 0 26 R 9 18 R 27 9 R 87 0 R D 316 7738 M
-27 26 R -9 18 R 0 26 R 9 17 R 27 9 R 87 0 R D 184 8044 M 289 -157 R D
307 8185 M -18 -9 R -9 -26 R 0 -27 R 9 -26 R 18 -9 R 17 9 R 9 18 R 9 43 R
9 18 R 17 9 R 9 0 R 17 -9 R 9 -26 R 0 -27 R -9 -26 R -17 -9 R D 184 8237 M
18 18 R 26 17 R 35 18 R 44 9 R 35 0 R 44 -9 R 43 -18 R 27 -17 R 17 -18 R D
14501 6056 M 0 3416 R D L1 14501 6056 M -12836 0 R D 14501 7195 M -12836 0 R
D 14501 8333 M -12836 0 R D 14501 9472 M -12836 0 R D L0 14501 6170 M
-193 0 R D 14501 6284 M -193 0 R D 14501 6398 M -193 0 R D 14501 6512 M
-193 0 R D 14501 6625 M -193 0 R D 14501 6739 M -193 0 R D 14501 6853 M
-193 0 R D 14501 6967 M -193 0 R D 14501 7081 M -193 0 R D 14501 7309 M
-193 0 R D 14501 7422 M -193 0 R D 14501 7536 M -193 0 R D 14501 7650 M
-193 0 R D 14501 7764 M -193 0 R D 14501 7878 M -193 0 R D 14501 7992 M
-193 0 R D 14501 8106 M -193 0 R D 14501 8220 M -193 0 R D 14501 8447 M
-193 0 R D 14501 8561 M -193 0 R D 14501 8675 M -193 0 R D 14501 8789 M
-193 0 R D 14501 8903 M -193 0 R D 14501 9017 M -193 0 R D 14501 9130 M
-193 0 R D 14501 9244 M -193 0 R D 14501 9358 M -193 0 R D 1665 8333 M
13 0 R 13 0 R 13 0 R 12 0 R 13 0 R 13 0 R 13 0 R 13 0 R 13 0 R 12 0 R 13 0 R
13 0 R 13 0 R 13 0 R 13 0 R 12 0 R 13 0 R 13 0 R 13 0 R 13 0 R 13 0 R 12 1 R
13 0 R 13 0 R 13 0 R 13 0 R 13 0 R 12 0 R 13 0 R 13 0 R 13 0 R 13 0 R
13 -1 R 12 0 R 13 0 R 13 0 R 13 0 R 13 0 R 13 0 R 12 0 R 13 1 R 13 0 R
13 0 R 13 0 R 13 0 R 13 -1 R 12 0 R 13 0 R 13 0 R 13 0 R 13 0 R 13 0 R
12 0 R 13 0 R 13 0 R 13 0 R 13 0 R 13 0 R 12 0 R 13 0 R 13 0 R 13 0 R 13 0 R
13 0 R 12 0 R 13 0 R 13 0 R 13 0 R 13 0 R 13 0 R 12 0 R 13 0 R 13 0 R 13 0 R
13 0 R 13 0 R 12 0 R 13 0 R 13 0 R 13 0 R 13 0 R 13 0 R 12 0 R 13 0 R 13 0 R
13 0 R 13 0 R 13 0 R 12 0 R 13 0 R 13 0 R 13 0 R 13 0 R 13 0 R 12 0 R 13 0 R
13 0 R 13 0 R 13 0 R 13 0 R 12 0 R 13 1 R 13 0 R 13 0 R 13 0 R 13 0 R 12 0 R
13 0 R 13 0 R 13 0 R 13 0 R 13 0 R 12 0 R 13 0 R 13 0 R 13 0 R 13 0 R 13 0 R
12 0 R 13 0 R 13 0 R 13 -1 R 13 0 R 13 0 R 13 0 R 12 0 R 13 0 R 13 1 R
13 0 R 13 0 R 13 0 R 12 0 R 13 0 R 13 0 R 13 0 R 13 0 R 13 0 R 12 0 R 13 0 R
13 0 R 13 0 R 13 -1 R 13 0 R 12 0 R 13 0 R 13 0 R 13 1 R 13 0 R 13 0 R
12 0 R 13 0 R 13 0 R 13 0 R 13 0 R 13 0 R 12 0 R 13 -1 R 13 0 R 13 0 R
13 0 R 13 0 R 12 0 R 13 0 R 13 0 R 13 0 R 13 1 R 13 0 R 12 0 R 13 0 R 13 0 R
13 0 R 13 0 R 13 0 R 12 0 R 13 0 R 13 0 R 13 0 R 13 0 R 13 0 R 12 0 R 13 0 R
13 0 R 13 0 R 13 0 R 13 0 R 12 0 R 13 0 R 13 0 R 13 0 R 13 0 R 13 0 R 12 0 R
13 0 R 13 0 R 13 0 R 13 0 R 13 0 R 13 0 R 12 0 R 13 0 R 13 0 R 13 -1 R
13 0 R 13 0 R 12 0 R 13 0 R 13 0 R 13 0 R 13 0 R 13 0 R 12 0 R 13 0 R 13 0 R
13 0 R 13 0 R 13 0 R 12 0 R 13 1 R 13 0 R 13 0 R 13 0 R 13 0 R 12 0 R 13 0 R
13 0 R 13 0 R 13 0 R 13 1 R 12 0 R 13 0 R 13 0 R 13 1 R 13 0 R 13 0 R 12 0 R
13 1 R 13 0 R 13 0 R 13 0 R 13 0 R 12 0 R 13 -1 R 13 0 R 13 0 R 13 0 R
13 0 R 12 -1 R 13 0 R 13 0 R 13 -1 R 13 0 R 13 0 R 12 -1 R 13 0 R 13 0 R
13 -1 R 13 0 R 13 0 R 12 0 R 13 -1 R 13 0 R 13 0 R 13 0 R 13 0 R 12 0 R
13 0 R 13 0 R 13 0 R 13 0 R 13 0 R 12 0 R 13 0 R 13 0 R 13 0 R 13 1 R 13 0 R
13 0 R 12 0 R 13 0 R 13 1 R 13 0 R 13 0 R 13 0 R 12 0 R 13 0 R 13 0 R 13 0 R
13 0 R 13 -1 R 12 0 R 13 0 R 13 0 R 13 0 R 13 0 R 13 0 R 12 0 R 13 0 R
13 0 R 13 0 R 13 1 R 13 0 R 12 0 R 13 0 R 13 0 R 13 0 R 13 0 R 13 0 R 12 0 R
13 0 R 13 0 R 13 -1 R 13 0 R 13 0 R 12 0 R 13 0 R 13 1 R 13 0 R 13 0 R
13 0 R 12 0 R 13 0 R 13 0 R 13 0 R 13 0 R 13 0 R 12 0 R 13 0 R 13 0 R 13 0 R
13 0 R 13 0 R 12 0 R 13 0 R 13 0 R 13 0 R 13 0 R 13 0 R 12 0 R 13 0 R 13 0 R
13 0 R 13 -1 R 13 0 R 12 0 R 13 0 R 13 0 R 13 0 R 13 0 R 13 0 R 13 0 R
12 0 R 13 0 R 13 0 R 13 0 R 13 0 R 13 -1 R 12 0 R 13 0 R 13 0 R 13 0 R
13 1 R 13 0 R 12 0 R 13 0 R 13 1 R 13 0 R 13 0 R 13 0 R 12 0 R 13 0 R
13 -1 R 13 0 R 13 0 R 13 0 R 12 0 R 13 0 R 13 0 R 13 0 R 13 0 R 13 0 R
12 0 R 13 0 R 13 0 R 13 0 R 13 0 R 13 0 R 12 -1 R 13 0 R 13 -1 R 13 -1 R
13 0 R 13 0 R 12 0 R 13 0 R 13 1 R 13 1 R 13 1 R 13 1 R 12 0 R 13 0 R 13 0 R
13 -1 R 13 -2 R 13 -3 R 12 -3 R 13 -3 R 13 -4 R 13 -3 R 13 -3 R 13 -2 R
12 -1 R 13 1 R 13 3 R 13 3 R 13 4 R 13 3 R 12 5 R 13 4 R 13 4 R 13 3 R
13 1 R 13 0 R 12 -2 R 13 -3 R 13 -4 R 13 -5 R 13 -5 R 13 -5 R 13 -6 R
12 -5 R 13 -4 R 13 -3 R 13 -2 R 13 0 R 13 1 R 12 3 R 13 5 R 13 5 R 13 7 R
13 8 R 13 10 R 12 11 R 13 12 R 13 14 R 13 14 R 13 14 R 13 14 R 12 12 R
13 6 R 13 -4 R 13 -11 R 13 -23 R 13 -32 R 12 -32 R 13 -29 R 13 -23 R
13 -16 R 13 -5 R 13 0 R 12 5 R 13 9 R 13 11 R 13 11 R 13 12 R 13 9 R 12 7 R
13 5 R 13 4 R 13 3 R 13 2 R 13 1 R 12 2 R 13 3 R 13 4 R 13 5 R 13 6 R 13 8 R
12 9 R 13 9 R 13 10 R 13 10 R 13 9 R 13 10 R 12 9 R 13 9 R 13 8 R 13 6 R
13 2 R 13 -5 R 12 -11 R 13 -25 R 13 -40 R 13 -57 R 13 -78 R 13 -88 R
12 -83 R 13 -48 R 13 -3 R 13 34 R 13 68 R 13 70 R 12 54 R 13 35 R 13 20 R
13 11 R 13 6 R 13 4 R 13 3 R 12 4 R 13 4 R 13 5 R 13 6 R 13 7 R 13 8 R
12 9 R 13 9 R 13 8 R 13 9 R 13 8 R 13 8 R 12 8 R 13 7 R 13 6 R 13 5 R 13 5 R
13 4 R 12 3 R 13 1 R 13 0 R 13 0 R 13 -1 R 13 0 R 12 4 R 13 7 R 13 8 R
13 2 R 13 -9 R 13 -26 R 12 -75 R 13 -148 R 13 -169 R 13 -140 R 13 -57 R
13 58 R 12 246 R 13 160 R 13 27 R 13 8 R 13 8 R 13 7 R 12 6 R 13 3 R 13 1 R
13 -1 R 13 -1 R 13 -2 R 12 -3 R 13 -3 R 13 -4 R 13 -4 R 13 -5 R 13 -5 R
12 -6 R 13 -5 R 13 -6 R 13 -5 R 13 -4 R 13 -4 R 12 -3 R 13 -2 R 13 -2 R
13 -1 R 13 0 R 13 0 R 12 1 R 13 1 R 13 2 R 13 1 R 13 2 R 13 1 R 13 1 R
12 2 R 13 1 R 13 1 R 13 1 R 13 1 R 13 1 R 12 1 R 13 0 R 13 0 R 13 0 R 13 0 R
13 -1 R 12 0 R 13 -1 R 13 -1 R 13 -1 R 13 -1 R 13 -2 R 12 -1 R 13 -2 R
13 -1 R 13 -1 R 13 -2 R 13 0 R 12 -1 R 13 0 R 13 0 R 13 0 R 13 1 R 13 1 R
12 0 R 13 2 R 13 2 R 13 1 R 13 2 R 13 2 R 12 2 R 13 2 R 13 2 R 13 2 R 13 1 R
13 2 R 12 2 R 13 2 R 13 2 R 13 2 R 13 1 R 13 1 R 12 1 R 13 0 R 13 0 R
13 -1 R 13 0 R 13 -1 R 12 -6 R 13 -11 R 13 -15 R 13 -16 R 13 -13 R 13 -8 R
12 -1 R 13 3 R 13 10 R 13 14 R 13 13 R 13 11 R 12 8 R 13 7 R 13 4 R 13 6 R
13 7 R 13 4 R 12 4 R 13 5 R 13 5 R 13 6 R 13 5 R 13 3 R 13 -4 R 12 -18 R
13 -22 R 13 -1 R 13 17 R 13 43 R 13 76 R 12 55 R 13 -27 R 13 -191 R
13 -353 R 13 -359 R 13 -26 R 12 528 R 13 307 R 13 24 R 13 1 R 13 -4 R
13 -3 R 12 -2 R 13 2 R 13 3 R 13 4 R 13 2 R 13 3 R 12 2 R 13 2 R 13 2 R
13 2 R 13 2 R 13 1 R 12 2 R 13 1 R 13 1 R 13 0 R 13 1 R 13 0 R 12 0 R
13 -3 R 13 -7 R 13 -13 R 13 -17 R 13 -11 R 12 2 R 13 24 R 13 76 R 13 115 R
13 82 R 13 -25 R 12 -148 R 13 -463 R 13 -567 R 13 -418 R 13 250 R 13 897 R
12 190 R 13 4 R 13 -2 R 13 -3 R 13 0 R 13 2 R 12 4 R 13 3 R 13 3 R 13 3 R
13 3 R 13 4 R 12 4 R 13 4 R 13 5 R 13 5 R 13 6 R 13 5 R 12 6 R 13 4 R 13 4 R
13 4 R 13 2 R 13 3 R 13 3 R 12 4 R 13 6 R 13 9 R 13 14 R 13 16 R 13 18 R
12 17 R 13 14 R 13 7 R 13 -1 R 13 -8 R D 11292 8584 M 13 -18 R 12 -21 R
13 -12 R 13 9 R 13 53 R 13 120 R 13 180 R 12 226 R 13 222 R 13 95 R 13 -83 R
13 -352 R 13 -832 R 12 -1009 R 13 -768 R 13 -242 R 13 792 R 13 1232 R
13 153 R 12 0 R 13 -3 R 13 -2 R 13 0 R 13 0 R 13 1 R 12 1 R 13 1 R 13 1 R
13 1 R 13 0 R 13 1 R 12 1 R 13 0 R 13 1 R 13 0 R 13 0 R 13 1 R 12 0 R 13 0 R
13 0 R 13 0 R 13 0 R 13 0 R 12 0 R 13 0 R 13 0 R 13 0 R 13 0 R 13 0 R 12 0 R
13 0 R 13 0 R 13 0 R 13 0 R 13 0 R 12 0 R 13 0 R 13 0 R 13 0 R 13 0 R 13 0 R
13 0 R 12 0 R 13 0 R 13 0 R 13 0 R 13 0 R 13 0 R 12 0 R 13 0 R 13 0 R 13 0 R
13 0 R 13 0 R 12 0 R 13 0 R 13 0 R 13 0 R 13 0 R 13 0 R 12 0 R 13 0 R 13 0 R
13 0 R 13 0 R 13 0 R 12 0 R 13 0 R 13 0 R 13 0 R 13 0 R 13 0 R 12 0 R 13 0 R
13 0 R 13 0 R 13 0 R 13 0 R 12 0 R 13 0 R 13 0 R 13 0 R 13 0 R 13 0 R 12 0 R
13 0 R 13 0 R 13 0 R 13 0 R 13 0 R 12 0 R 13 0 R 13 0 R 13 0 R 13 0 R 13 0 R
12 0 R 13 0 R 13 0 R 13 0 R 13 0 R 13 0 R 12 0 R 13 0 R 13 0 R 13 0 R 13 0 R
13 0 R 12 0 R 13 0 R 13 0 R 13 0 R 13 0 R 13 0 R 12 0 R 13 0 R 13 0 R 13 0 R
13 0 R 13 0 R 13 0 R 12 0 R 13 0 R 13 0 R 13 0 R 13 0 R 13 0 R 12 0 R 13 0 R
13 0 R 13 0 R 13 0 R 13 0 R 12 0 R 13 0 R 13 0 R 13 0 R 13 0 R 13 0 R 12 0 R
13 0 R 13 0 R 13 0 R 13 0 R 13 0 R 12 0 R 13 0 R 13 0 R 13 0 R 13 0 R 13 0 R
12 0 R 13 0 R 13 0 R 13 0 R 13 0 R 13 0 R 12 0 R 13 0 R 13 0 R 13 0 R 13 0 R
13 0 R 12 0 R 13 0 R 13 0 R 13 0 R 13 0 R 13 0 R 12 0 R 13 0 R 13 0 R 13 0 R
13 0 R 13 0 R 12 0 R 13 0 R 13 0 R 13 0 R 13 0 R 13 0 R 12 0 R 13 0 R 13 0 R
13 0 R 13 0 R 13 0 R 12 0 R 13 0 R 13 0 R 13 0 R 13 0 R 13 0 R 12 0 R 13 0 R
13 0 R 13 0 R 13 0 R 13 0 R 13 0 R 12 0 R 13 0 R 13 0 R 13 0 R 13 0 R 13 0 R
12 0 R 13 0 R 13 0 R 13 0 R 13 0 R 13 0 R 12 0 R 13 0 R 13 0 R 13 0 R 13 0 R
13 0 R 12 0 R 13 0 R 13 0 R 13 0 R 13 0 R 13 0 R 12 0 R 13 0 R 13 0 R 13 0 R
13 0 R 12 0 R D 0.565 0.000 0.000 setrgbcolor 2692 6056 M 0 3416 R D
1.000 0.592 0.153 setrgbcolor 1233 5472 M 0 -139 R 8 -25 R 16 -8 R 17 0 R D
1208 5415 M 57 0 R D 1315 5472 M 8 -8 R 8 8 R -8 8 R -8 -8 R D 1323 5415 M
0 -115 R D 1388 5415 M 0 -115 R D 1388 5382 M 25 24 R 16 9 R 25 0 R 16 -9 R
8 -24 R 0 -82 R D 1478 5382 M 25 24 R 16 9 R 25 0 R 16 -9 R 8 -24 R 0 -82 R
D 1625 5365 M 98 0 R 0 17 R -8 16 R -8 8 R -16 9 R -25 0 R -16 -9 R
-17 -16 R -8 -25 R 0 -16 R 8 -24 R 17 -17 R 16 -8 R 25 0 R 16 8 R 16 17 R D
1912 5398 M 147 0 R D 1912 5349 M 147 0 R D 3138 5447 M -8 17 R -24 8 R
-17 0 R -24 -8 R -17 -25 R -8 -41 R 0 -41 R 8 -32 R 17 -17 R 24 -8 R 9 0 R
24 8 R 16 17 R 9 24 R 0 8 R -9 25 R -16 16 R -24 8 R -9 0 R -24 -8 R
-17 -16 R -8 -25 R D 3277 5472 M -81 -115 R 122 0 R D 3277 5472 M 0 -172 R D
3466 5415 M -9 -25 R -16 -16 R -25 -9 R -8 0 R -24 9 R -17 16 R -8 25 R
0 8 R 8 24 R 17 17 R 24 8 R 8 0 R 25 -8 R 16 -17 R 9 -32 R 0 -41 R -9 -41 R
-16 -25 R -25 -8 R -16 0 R -24 8 R -9 17 R D 3539 5316 M -8 -8 R 8 -8 R
8 8 R -8 8 R D 3629 5439 M 17 8 R 24 25 R 0 -172 R D 3809 5472 M -24 -8 R
-9 -17 R 0 -16 R 9 -16 R 16 -9 R 33 -8 R 24 -8 R 17 -16 R 8 -17 R 0 -24 R
-8 -17 R -9 -8 R -24 -8 R -33 0 R -24 8 R -9 8 R -8 17 R 0 24 R 8 17 R
17 16 R 24 8 R 33 8 R 16 9 R 9 16 R 0 16 R -9 17 R -24 8 R -33 0 R D
4030 5472 M -82 0 R -8 -74 R 8 8 R 25 9 R 24 0 R 25 -9 R 16 -16 R 8 -25 R
0 -16 R -8 -24 R -16 -17 R -25 -8 R -24 0 R -25 8 R -8 8 R -8 17 R D
4177 5472 M -82 -115 R 123 0 R D 4177 5472 M 0 -172 R D 4300 5472 M -25 -8 R
-8 -17 R 0 -16 R 8 -16 R 17 -9 R 32 -8 R 25 -8 R 16 -16 R 8 -17 R 0 -24 R
-8 -17 R -8 -8 R -24 -8 R -33 0 R -25 8 R -8 8 R -8 17 R 0 24 R 8 17 R
16 16 R 25 8 R 33 8 R 16 9 R 8 16 R 0 16 R -8 17 R -24 8 R -33 0 R D
0.000 0.000 0.000 setrgbcolor 1665 1056 M 12836 0 R D 1665 1056 M 0 68 R D
1648 844 M -27 -9 R -17 -26 R -9 -44 R 0 -26 R 9 -44 R 17 -26 R 27 -9 R
17 0 R 26 9 R 18 26 R 9 44 R 0 26 R -9 44 R -18 26 R -26 9 R -17 0 R D
4874 1056 M 0 68 R D 4821 844 M -87 0 R -9 -79 R 9 9 R 26 9 R 26 0 R 27 -9 R
17 -18 R 9 -26 R 0 -17 R -9 -27 R -17 -17 R -27 -9 R -26 0 R -26 9 R -9 9 R
-9 17 R D 4944 844 M -26 -9 R -18 -26 R -9 -44 R 0 -26 R 9 -44 R 18 -26 R
26 -9 R 18 0 R 26 9 R 17 26 R 9 44 R 0 26 R -9 44 R -17 26 R -26 9 R -18 0 R
D 8083 1056 M 0 68 R D 7864 809 M 17 9 R 27 26 R 0 -184 R D 8065 844 M
-26 -9 R -18 -26 R -8 -44 R 0 -26 R 8 -44 R 18 -26 R 26 -9 R 18 0 R 26 9 R
18 26 R 8 44 R 0 26 R -8 44 R -18 26 R -26 9 R -18 0 R D 8241 844 M -27 -9 R
-17 -26 R -9 -44 R 0 -26 R 9 -44 R 17 -26 R 27 -9 R 17 0 R 26 9 R 18 26 R
9 44 R 0 26 R -9 44 R -18 26 R -26 9 R -17 0 R D 11292 1056 M 0 68 R D
11073 809 M 17 9 R 26 26 R 0 -184 R D 11327 844 M -88 0 R -9 -79 R 9 9 R
26 9 R 27 0 R 26 -9 R 18 -18 R 8 -26 R 0 -17 R -8 -27 R -18 -17 R -26 -9 R
-27 0 R -26 9 R -9 9 R -8 17 R D 11449 844 M -26 -9 R -17 -26 R -9 -44 R
0 -26 R 9 -44 R 17 -26 R 26 -9 R 18 0 R 26 9 R 18 26 R 9 44 R 0 26 R -9 44 R
-18 26 R -26 9 R -18 0 R D 14501 1056 M 0 68 R D 14264 800 M 0 9 R 9 18 R
8 8 R 18 9 R 35 0 R 18 -9 R 8 -8 R 9 -18 R 0 -17 R -9 -18 R -17 -26 R
-88 -88 R 123 0 R D 14483 844 M -26 -9 R -18 -26 R -9 -44 R 0 -26 R 9 -44 R
18 -26 R 26 -9 R 18 0 R 26 9 R 17 26 R 9 44 R 0 26 R -9 44 R -17 26 R
-26 9 R -18 0 R D 14658 844 M -26 -9 R -18 -26 R -8 -44 R 0 -26 R 8 -44 R
18 -26 R 26 -9 R 18 0 R 26 9 R 18 26 R 8 44 R 0 26 R -8 44 R -18 26 R
-26 9 R -18 0 R D 2307 1056 M 0 34 R D 2949 1056 M 0 34 R D 3590 1056 M
0 34 R D 4232 1056 M 0 34 R D 5516 1056 M 0 34 R D 6158 1056 M 0 34 R D
6799 1056 M 0 34 R D 7441 1056 M 0 34 R D 8725 1056 M 0 34 R D 9366 1056 M
0 34 R D 10008 1056 M 0 34 R D 10650 1056 M 0 34 R D 11933 1056 M 0 34 R D
12575 1056 M 0 34 R D 13217 1056 M 0 34 R D 13859 1056 M 0 34 R D 7661 440 M
-97 -123 R D 7564 440 M 97 0 R D 7564 317 M 97 0 R D 7924 536 M -18 -18 R
-17 -26 R -18 -35 R -9 -44 R 0 -35 R 9 -44 R 18 -43 R 17 -27 R 18 -17 R D
7985 440 M 0 -123 R D 7985 387 M 9 26 R 17 18 R 18 9 R 26 0 R D 8239 536 M
-157 -289 R D 8292 440 M 0 -123 R D 8292 387 M 9 26 R 17 18 R 18 9 R 26 0 R
D 8422 361 M -12 -6 R -12 -12 R -6 -19 R 0 -12 R 6 -18 R 12 -13 R 12 -6 R
19 0 R 12 6 R 12 13 R 6 18 R 0 12 R -6 19 R -12 12 R -12 6 R -19 0 R D
8514 536 M 17 -18 R 18 -26 R 17 -35 R 9 -44 R 0 -35 R -9 -44 R -17 -43 R
-18 -27 R -17 -17 R D 1665 4472 M 12836 0 R D 1665 4472 M 0 -68 R D
4874 4472 M 0 -68 R D 8083 4472 M 0 -68 R D 11292 4472 M 0 -68 R D
14501 4472 M 0 -68 R D 2307 4472 M 0 -34 R D 2949 4472 M 0 -34 R D
3590 4472 M 0 -34 R D 4232 4472 M 0 -34 R D 5516 4472 M 0 -34 R D
6158 4472 M 0 -34 R D 6799 4472 M 0 -34 R D 7441 4472 M 0 -34 R D
8725 4472 M 0 -34 R D 9366 4472 M 0 -34 R D 10008 4472 M 0 -34 R D
10650 4472 M 0 -34 R D 11933 4472 M 0 -34 R D 12575 4472 M 0 -34 R D
13217 4472 M 0 -34 R D 13859 4472 M 0 -34 R D 1665 1056 M 0 3416 R D L1
1665 1056 M 12836 0 R D L0 679 1135 M 158 0 R D 916 1240 M 96 0 R -52 -70 R
26 0 R 17 -9 R 9 -9 R 9 -26 R 0 -17 R -9 -27 R -17 -17 R -27 -9 R -26 0 R
-26 9 R -9 9 R -9 17 R D 1126 1240 M -26 -9 R -18 -26 R -8 -44 R 0 -26 R
8 -44 R 18 -26 R 26 -9 R 18 0 R 26 9 R 17 26 R 9 44 R 0 26 R -9 44 R
-17 26 R -26 9 R -18 0 R D 1301 1240 M -26 -9 R -17 -26 R -9 -44 R 0 -26 R
9 -44 R 17 -26 R 26 -9 R 18 0 R 26 9 R 18 26 R 9 44 R 0 26 R -9 44 R
-18 26 R -26 9 R -18 0 R D 1477 1240 M -27 -9 R -17 -26 R -9 -44 R 0 -26 R
9 -44 R 17 -26 R 27 -9 R 17 0 R 26 9 R 18 26 R 9 44 R 0 26 R -9 44 R
-18 26 R -26 9 R -17 0 R D L1 1665 1910 M 12836 0 R D L0 679 1883 M 158 0 R
D 907 1945 M 0 8 R 9 18 R 9 9 R 17 9 R 35 0 R 18 -9 R 8 -9 R 9 -18 R 0 -17 R
-9 -18 R -17 -26 R -88 -88 R 123 0 R D 1126 1989 M -26 -9 R -18 -27 R
-8 -43 R 0 -27 R 8 -43 R 18 -27 R 26 -9 R 18 0 R 26 9 R 17 27 R 9 43 R
0 27 R -9 43 R -17 27 R -26 9 R -18 0 R D 1301 1989 M -26 -9 R -17 -27 R
-9 -43 R 0 -27 R 9 -43 R 17 -27 R 26 -9 R 18 0 R 26 9 R 18 27 R 9 43 R
0 27 R -9 43 R -18 27 R -26 9 R -18 0 R D 1477 1989 M -27 -9 R -17 -27 R
-9 -43 R 0 -27 R 9 -43 R 17 -27 R 27 -9 R 17 0 R 26 9 R 18 27 R 9 43 R
0 27 R -9 43 R -18 27 R -26 9 R -17 0 R D L1 1665 2764 M 12836 0 R D L0
679 2737 M 158 0 R D 925 2807 M 17 9 R 26 27 R 0 -185 R D 1126 2843 M
-26 -9 R -18 -27 R -8 -43 R 0 -27 R 8 -43 R 18 -27 R 26 -9 R 18 0 R 26 9 R
17 27 R 9 43 R 0 27 R -9 43 R -17 27 R -26 9 R -18 0 R D 1301 2843 M
-26 -9 R -17 -27 R -9 -43 R 0 -27 R 9 -43 R 17 -27 R 26 -9 R 18 0 R 26 9 R
18 27 R 9 43 R 0 27 R -9 43 R -18 27 R -26 9 R -18 0 R D 1477 2843 M
-27 -9 R -17 -27 R -9 -43 R 0 -27 R 9 -43 R 17 -27 R 27 -9 R 17 0 R 26 9 R
18 27 R 9 43 R 0 27 R -9 43 R -18 27 R -26 9 R -17 0 R D L1 1665 3618 M
12836 0 R D L0 1477 3697 M -27 -9 R -17 -27 R -9 -43 R 0 -27 R 9 -43 R
17 -27 R 27 -9 R 17 0 R 26 9 R 18 27 R 9 43 R 0 27 R -9 43 R -18 27 R
-26 9 R -17 0 R D L1 1665 4472 M 12836 0 R D L0 925 4436 M 17 9 R 26 26 R
0 -184 R D 1126 4471 M -26 -8 R -18 -27 R -8 -44 R 0 -26 R 8 -44 R 18 -26 R
26 -9 R 18 0 R 26 9 R 17 26 R 9 44 R 0 26 R -9 44 R -17 27 R -26 8 R -18 0 R
D 1301 4471 M -26 -8 R -17 -27 R -9 -44 R 0 -26 R 9 -44 R 17 -26 R 26 -9 R
18 0 R 26 9 R 18 26 R 9 44 R 0 26 R -9 44 R -18 27 R -26 8 R -18 0 R D
1477 4471 M -27 -8 R -17 -27 R -9 -44 R 0 -26 R 9 -44 R 17 -26 R 27 -9 R
17 0 R 26 9 R 18 26 R 9 44 R 0 26 R -9 44 R -18 27 R -26 8 R -17 0 R D
1665 1141 M 193 0 R D 1665 1227 M 193 0 R D 1665 1312 M 193 0 R D
1665 1398 M 193 0 R D 1665 1483 M 193 0 R D 1665 1568 M 193 0 R D
1665 1654 M 193 0 R D 1665 1739 M 193 0 R D 1665 1825 M 193 0 R D
1665 1995 M 193 0 R D 1665 2081 M 193 0 R D 1665 2166 M 193 0 R D
1665 2252 M 193 0 R D 1665 2337 M 193 0 R D 1665 2422 M 193 0 R D
1665 2508 M 193 0 R D 1665 2593 M 193 0 R D 1665 2679 M 193 0 R D
1665 2849 M 193 0 R D 1665 2935 M 193 0 R D 1665 3020 M 193 0 R D
1665 3106 M 193 0 R D 1665 3191 M 193 0 R D 1665 3276 M 193 0 R D
1665 3362 M 193 0 R D 1665 3447 M 193 0 R D 1665 3533 M 193 0 R D
1665 3703 M 193 0 R D 1665 3789 M 193 0 R D 1665 3874 M 193 0 R D
1665 3960 M 193 0 R D 1665 4045 M 193 0 R D 1665 4130 M 193 0 R D
1665 4216 M 193 0 R D 1665 4301 M 193 0 R D 1665 4387 M 193 0 R D 280 2212 M
88 0 R 26 9 R 9 17 R 0 27 R -9 17 R -26 26 R D 280 2308 M 123 0 R D
184 2580 M 18 -17 R 26 -18 R 35 -18 R 44 -8 R 35 0 R 44 8 R 43 18 R 27 18 R
17 17 R D 280 2641 M 123 0 R D 316 2641 M -27 27 R -9 17 R 0 26 R 9 18 R
27 9 R 87 0 R D 316 2738 M -27 26 R -9 18 R 0 26 R 9 17 R 27 9 R 87 0 R D
184 3044 M 289 -157 R D 307 3185 M -18 -9 R -9 -26 R 0 -27 R 9 -26 R 18 -9 R
17 9 R 9 18 R 9 43 R 9 18 R 17 9 R 9 0 R 17 -9 R 9 -26 R 0 -27 R -9 -26 R
-17 -9 R D 184 3237 M 18 18 R 26 17 R 35 18 R 44 9 R 35 0 R 44 -9 R 43 -18 R
27 -17 R 17 -18 R D 14501 1056 M 0 3416 R D L1 14501 1056 M -12836 0 R D
14501 1910 M -12836 0 R D 14501 2764 M -12836 0 R D 14501 3618 M -12836 0 R
D 14501 4472 M -12836 0 R D L0 14501 1141 M -193 0 R D 14501 1227 M -193 0 R
D 14501 1312 M -193 0 R D 14501 1398 M -193 0 R D 14501 1483 M -193 0 R D
14501 1568 M -193 0 R D 14501 1654 M -193 0 R D 14501 1739 M -193 0 R D
14501 1825 M -193 0 R D 14501 1995 M -193 0 R D 14501 2081 M -193 0 R D
14501 2166 M -193 0 R D 14501 2252 M -193 0 R D 14501 2337 M -193 0 R D
14501 2422 M -193 0 R D 14501 2508 M -193 0 R D 14501 2593 M -193 0 R D
14501 2679 M -193 0 R D 14501 2849 M -193 0 R D 14501 2935 M -193 0 R D
14501 3020 M -193 0 R D 14501 3106 M -193 0 R D 14501 3191 M -193 0 R D
14501 3276 M -193 0 R D 14501 3362 M -193 0 R D 14501 3447 M -193 0 R D
14501 3533 M -193 0 R D 14501 3703 M -193 0 R D 14501 3789 M -193 0 R D
14501 3874 M -193 0 R D 14501 3960 M -193 0 R D 14501 4045 M -193 0 R D
14501 4130 M -193 0 R D 14501 4216 M -193 0 R D 14501 4301 M -193 0 R D
14501 4387 M -193 0 R D 1665 3618 M 13 0 R 13 0 R 13 0 R 12 0 R 13 0 R
13 0 R 13 0 R 13 0 R 13 0 R 12 0 R 13 0 R 13 0 R 13 0 R 13 0 R 13 0 R 12 0 R
13 0 R 13 0 R 13 0 R 13 0 R 13 0 R 12 0 R 13 0 R 13 0 R 13 0 R 13 0 R 13 0 R
12 0 R 13 0 R 13 0 R 13 0 R 13 0 R 13 0 R 12 0 R 13 0 R 13 0 R 13 0 R 13 0 R
13 0 R 12 0 R 13 0 R 13 0 R 13 0 R 13 0 R 13 0 R 13 0 R 12 0 R 13 0 R 13 0 R
13 0 R 13 0 R 13 0 R 12 0 R 13 0 R 13 0 R 13 0 R 13 0 R 13 0 R 12 0 R 13 0 R
13 0 R 13 0 R 13 0 R 13 0 R 12 0 R 13 0 R 13 0 R 13 0 R 13 0 R 13 0 R 12 0 R
13 0 R 13 0 R 13 0 R 13 0 R 13 0 R 12 0 R 13 -1 R 13 1 R 13 0 R 13 -1 R
13 1 R 12 0 R 13 0 R 13 0 R 13 0 R 13 0 R 13 0 R 12 0 R 13 0 R 13 0 R 13 0 R
13 0 R 13 0 R 12 0 R 13 0 R 13 0 R 13 0 R 13 0 R 13 0 R 12 0 R 13 0 R 13 0 R
13 0 R 13 0 R 13 0 R 12 0 R 13 0 R 13 0 R 13 0 R 13 0 R 13 0 R 12 0 R 13 0 R
13 0 R 13 0 R 13 0 R 13 0 R 12 0 R 13 0 R 13 0 R 13 0 R 13 0 R 13 0 R 13 0 R
12 0 R 13 0 R 13 0 R 13 0 R 13 0 R 13 0 R 12 0 R 13 0 R 13 0 R 13 0 R 13 0 R
13 0 R 12 0 R 13 0 R 13 0 R 13 0 R 13 0 R 13 0 R 12 0 R 13 0 R 13 0 R 13 0 R
13 0 R 13 0 R 12 0 R 13 0 R 13 0 R 13 0 R 13 0 R 13 0 R 12 0 R 13 0 R 13 0 R
13 0 R 13 0 R 13 0 R 12 0 R 13 0 R 13 0 R 13 0 R 13 0 R 13 0 R 12 0 R 13 0 R
13 0 R 13 0 R 13 0 R 13 0 R 12 0 R 13 0 R 13 0 R 13 0 R 13 0 R 13 0 R 12 0 R
13 0 R 13 0 R 13 0 R 13 0 R 13 0 R 12 0 R 13 0 R 13 0 R 13 0 R 13 0 R 13 0 R
12 0 R 13 0 R 13 0 R 13 0 R 13 0 R 13 0 R 13 0 R 12 0 R 13 0 R 13 0 R 13 0 R
13 0 R 13 0 R 12 0 R 13 0 R 13 0 R 13 0 R 13 0 R 13 0 R 12 0 R 13 0 R 13 0 R
13 0 R 13 0 R 13 0 R 12 0 R 13 0 R 13 0 R 13 0 R 13 0 R 13 0 R 12 0 R 13 0 R
13 0 R 13 0 R 13 0 R 13 0 R 12 0 R 13 0 R 13 0 R 13 0 R 13 0 R 13 0 R 12 0 R
13 0 R 13 0 R 13 0 R 13 0 R 13 0 R 12 0 R 13 0 R 13 0 R 13 1 R 13 0 R 13 0 R
12 0 R 13 0 R 13 1 R 13 0 R 13 0 R 13 0 R 12 0 R 13 0 R 13 0 R 13 0 R 13 0 R
13 0 R 12 0 R 13 0 R 13 0 R 13 -1 R 13 0 R 13 0 R 12 0 R 13 0 R 13 -1 R
13 0 R 13 0 R 13 -1 R 12 0 R 13 0 R 13 0 R 13 0 R 13 -1 R 13 0 R 13 0 R
12 0 R 13 0 R 13 0 R 13 0 R 13 0 R 13 0 R 12 0 R 13 0 R 13 0 R 13 0 R 13 0 R
13 0 R 12 0 R 13 0 R 13 1 R 13 0 R 13 0 R 13 0 R 12 0 R 13 0 R 13 0 R 13 0 R
13 0 R 13 0 R 12 0 R 13 0 R 13 0 R 13 0 R 13 0 R 13 0 R 12 0 R 13 0 R 13 0 R
13 0 R 13 0 R 13 0 R 12 0 R 13 0 R 13 0 R 13 0 R 13 0 R 13 0 R 12 0 R 13 0 R
13 0 R 13 0 R 13 0 R 13 0 R 12 0 R 13 0 R 13 0 R 13 0 R 13 0 R 13 0 R 12 0 R
13 1 R 13 0 R 13 0 R 13 -1 R 13 0 R 12 0 R 13 0 R 13 0 R 13 0 R 13 0 R
13 0 R 12 0 R 13 0 R 13 0 R 13 0 R 13 0 R 13 0 R 13 0 R 12 0 R 13 0 R 13 0 R
13 0 R 13 0 R 13 0 R 12 0 R 13 0 R 13 0 R 13 0 R 13 0 R 13 0 R 12 0 R 13 0 R
13 0 R 13 0 R 13 0 R 13 -1 R 12 0 R 13 0 R 13 0 R 13 0 R 13 0 R 13 0 R
12 0 R 13 0 R 13 0 R 13 0 R 13 0 R 13 0 R 12 0 R 13 0 R 13 0 R 13 0 R 13 0 R
13 0 R 12 0 R 13 0 R 13 0 R 13 0 R 13 0 R 13 0 R 12 1 R 13 0 R 13 0 R 13 0 R
13 1 R 13 0 R 12 0 R 13 -1 R 13 0 R 13 0 R 13 -1 R 13 0 R 12 -1 R 13 0 R
13 0 R 13 0 R 13 -1 R 13 0 R 12 0 R 13 0 R 13 0 R 13 0 R 13 0 R 13 -1 R
12 0 R 13 -1 R 13 -1 R 13 -1 R 13 0 R 13 0 R 12 0 R 13 0 R 13 1 R 13 1 R
13 2 R 13 2 R 13 2 R 12 1 R 13 1 R 13 0 R 13 -1 R 13 -1 R 13 -3 R 12 -3 R
13 -4 R 13 -5 R 13 -4 R 13 -4 R 13 -4 R 12 -1 R 13 0 R 13 2 R 13 3 R 13 3 R
13 4 R 12 3 R 13 4 R 13 4 R 13 3 R 13 3 R 13 1 R 12 0 R 13 0 R 13 -2 R
13 -1 R 13 -2 R 13 0 R 12 0 R 13 1 R 13 2 R 13 4 R 13 6 R 13 6 R 12 7 R
13 5 R 13 1 R 13 -3 R 13 -6 R 13 -8 R 12 -7 R 13 -2 R 13 1 R 13 5 R 13 6 R
13 7 R 12 8 R 13 7 R 13 5 R 13 2 R 13 -3 R 13 -5 R 12 -9 R 13 -13 R 13 -14 R
13 -15 R 13 -18 R 13 -16 R 12 -14 R 13 -8 R 13 -2 R 13 3 R 13 6 R 13 10 R
12 10 R 13 9 R 13 7 R 13 6 R 13 4 R 13 3 R 12 3 R 13 2 R 13 3 R 13 4 R
13 4 R 13 6 R 13 7 R 12 8 R 13 8 R 13 8 R 13 8 R 13 6 R 13 7 R 12 5 R 13 5 R
13 3 R 13 3 R 13 1 R 13 2 R 12 2 R 13 3 R 13 1 R 13 0 R 13 -5 R 13 -13 R
12 -26 R 13 -59 R 13 -95 R 13 -109 R 13 -92 R 13 -42 R 12 25 R 13 104 R
13 126 R 13 73 R 13 15 R 13 1 R 12 -2 R 13 -2 R 13 1 R 13 4 R 13 6 R 13 6 R
12 6 R 13 6 R 13 8 R 13 7 R 13 6 R 13 5 R 12 5 R 13 4 R 13 3 R 13 3 R 13 2 R
13 1 R 12 1 R 13 1 R 13 0 R 13 0 R 13 0 R 13 -1 R 12 -2 R 13 -3 R 13 -4 R
13 -6 R 13 -8 R 13 -8 R 12 -7 R 13 -3 R 13 6 R 13 22 R 13 23 R 13 6 R
12 -12 R 13 -74 R 13 -116 R 13 -110 R 13 -65 R 13 9 R 13 145 R 12 127 R
13 26 R 13 6 R 13 3 R 13 2 R 13 -1 R 12 -1 R 13 -1 R 13 -2 R 13 -1 R 13 -2 R
13 -2 R 12 -2 R 13 -2 R 13 -2 R 13 -2 R 13 -3 R 13 -2 R 12 -3 R 13 -3 R
13 -2 R 13 -2 R 13 -3 R 13 -2 R 12 -1 R 13 -1 R 13 0 R 13 0 R 13 0 R 13 1 R
12 0 R 13 1 R 13 1 R 13 1 R 13 0 R 13 1 R 12 0 R 13 0 R 13 1 R 13 1 R 13 1 R
13 1 R 12 0 R 13 1 R 13 0 R 13 0 R 13 1 R 13 1 R 12 0 R 13 0 R 13 0 R
13 -1 R 13 -1 R 13 0 R 12 -1 R 13 -1 R 13 0 R 13 -1 R 13 -1 R 13 0 R 12 1 R
13 0 R 13 0 R 13 1 R 13 0 R 13 1 R 12 2 R 13 1 R 13 1 R 13 2 R 13 1 R 13 2 R
12 1 R 13 2 R 13 1 R 13 2 R 13 1 R 13 1 R 13 2 R 12 1 R 13 2 R 13 1 R 13 1 R
13 1 R 13 0 R 12 0 R 13 1 R 13 0 R 13 1 R 13 -1 R 13 -6 R 12 -14 R 13 -18 R
13 -19 R 13 -12 R 13 -3 R 13 5 R 12 13 R 13 17 R 13 20 R 13 4 R 13 2 R
13 3 R 12 2 R 13 3 R 13 4 R 13 4 R 13 5 R 13 6 R 12 6 R 13 0 R 13 -5 R
13 -9 R 13 -5 R 13 2 R 12 19 R 13 40 R 13 40 R 13 -5 R 13 -96 R 13 -214 R
12 -237 R 13 -68 R 13 270 R 13 260 R 13 39 R 13 3 R 12 -2 R 13 -3 R 13 -2 R
13 0 R 13 1 R 13 3 R 12 1 R 13 2 R 13 1 R 13 2 R 13 1 R 13 1 R 12 1 R 13 1 R
13 1 R 13 1 R 13 0 R 13 1 R 12 0 R 13 1 R 13 0 R 13 1 R 13 -2 R 13 -5 R
12 -8 R 13 -11 R 13 -13 R 13 -11 R 13 -4 R 13 17 R 13 67 R 12 89 R 13 47 R
13 -24 R 13 -162 R 13 -342 R 13 -390 R 12 -199 R 13 361 R 13 504 R 13 61 R
13 2 R D 11292 3672 M 13 -3 R 12 -2 R 13 0 R 13 1 R 13 3 R 13 2 R 13 2 R
12 2 R 13 1 R 13 2 R 13 2 R 13 1 R 13 2 R 12 2 R 13 2 R 13 2 R 13 2 R 13 2 R
13 3 R 12 4 R 13 4 R 13 4 R 13 4 R 13 4 R 13 4 R 12 3 R 13 2 R 13 3 R 13 1 R
13 1 R 13 2 R 12 2 R 13 4 R 13 7 R 13 10 R 13 12 R 13 14 R 12 14 R 13 10 R
13 6 R 13 -1 R 13 -8 R 13 -17 R 12 -21 R 13 -15 R 13 2 R 13 32 R 13 86 R
13 137 R 12 177 R 13 185 R 13 95 R 13 -47 R 13 -245 R 13 -631 R 12 -817 R
13 -640 R 13 -237 R 13 659 R 13 1010 R 13 98 R 13 0 R 12 0 R 13 0 R 13 1 R
13 0 R 13 1 R 13 0 R 12 0 R 13 0 R 13 1 R 13 0 R 13 0 R 13 0 R 12 0 R 13 0 R
13 0 R 13 0 R 13 0 R 13 0 R 12 0 R 13 0 R 13 0 R 13 0 R 13 0 R 13 0 R 12 0 R
13 0 R 13 0 R 13 0 R 13 0 R 13 0 R 12 0 R 13 0 R 13 0 R 13 0 R 13 0 R 13 0 R
12 0 R 13 0 R 13 0 R 13 0 R 13 0 R 13 0 R 12 0 R 13 0 R 13 0 R 13 0 R 13 0 R
13 0 R 12 0 R 13 0 R 13 0 R 13 0 R 13 0 R 13 0 R 12 0 R 13 0 R 13 0 R 13 0 R
13 0 R 13 0 R 12 0 R 13 0 R 13 0 R 13 0 R 13 0 R 13 0 R 12 0 R 13 0 R 13 0 R
13 0 R 13 0 R 13 0 R 12 0 R 13 0 R 13 0 R 13 0 R 13 0 R 13 0 R 13 0 R 12 0 R
13 0 R 13 0 R 13 0 R 13 0 R 13 0 R 12 0 R 13 0 R 13 0 R 13 0 R 13 0 R 13 0 R
12 0 R 13 0 R 13 0 R 13 0 R 13 0 R 13 0 R 12 0 R 13 0 R 13 0 R 13 0 R 13 0 R
13 0 R 12 0 R 13 0 R 13 0 R 13 0 R 13 0 R 13 0 R 12 0 R 13 0 R 13 0 R 13 0 R
13 0 R 13 0 R 12 0 R 13 0 R 13 0 R 13 0 R 13 0 R 13 0 R 12 0 R 13 0 R 13 0 R
13 0 R 13 0 R 13 0 R 12 0 R 13 0 R 13 0 R 13 0 R 13 0 R 13 0 R 12 0 R 13 0 R
13 0 R 13 0 R 13 0 R 13 0 R 12 0 R 13 0 R 13 0 R 13 0 R 13 0 R 13 0 R 12 0 R
13 0 R 13 0 R 13 0 R 13 0 R 13 0 R 12 0 R 13 0 R 13 0 R 13 0 R 13 0 R 13 0 R
13 0 R 12 0 R 13 0 R 13 0 R 13 0 R 13 0 R 13 0 R 12 0 R 13 0 R 13 0 R 13 0 R
13 0 R 13 0 R 12 0 R 13 0 R 13 0 R 13 0 R 13 0 R 13 0 R 12 0 R 13 0 R 13 0 R
13 0 R 13 0 R 13 0 R 12 0 R 13 0 R 13 0 R 13 0 R 13 0 R 12 0 R D
0.565 0.000 0.000 setrgbcolor 2692 1056 M 0 3416 R D
1.000 0.592 0.153 setrgbcolor 1233 472 M 0 -139 R 8 -25 R 16 -8 R 17 0 R D
1208 415 M 57 0 R D 1315 472 M 8 -8 R 8 8 R -8 8 R -8 -8 R D 1323 415 M
0 -115 R D 1388 415 M 0 -115 R D 1388 382 M 25 24 R 16 9 R 25 0 R 16 -9 R
8 -24 R 0 -82 R D 1478 382 M 25 24 R 16 9 R 25 0 R 16 -9 R 8 -24 R 0 -82 R D
1625 365 M 98 0 R 0 17 R -8 16 R -8 8 R -16 9 R -25 0 R -16 -9 R -17 -16 R
-8 -25 R 0 -16 R 8 -24 R 17 -17 R 16 -8 R 25 0 R 16 8 R 16 17 R D 1912 398 M
147 0 R D 1912 349 M 147 0 R D 3138 447 M -8 17 R -24 8 R -17 0 R -24 -8 R
-17 -25 R -8 -41 R 0 -41 R 8 -32 R 17 -17 R 24 -8 R 9 0 R 24 8 R 16 17 R
9 24 R 0 8 R -9 25 R -16 16 R -24 8 R -9 0 R -24 -8 R -17 -16 R -8 -25 R D
3237 472 M -25 -8 R -8 -17 R 0 -16 R 8 -16 R 16 -9 R 33 -8 R 25 -8 R
16 -16 R 8 -17 R 0 -24 R -8 -17 R -8 -8 R -25 -8 R -32 0 R -25 8 R -8 8 R
-8 17 R 0 24 R 8 17 R 16 16 R 25 8 R 32 8 R 17 9 R 8 16 R 0 16 R -8 17 R
-25 8 R -32 0 R D 3408 472 M -24 -8 R -17 -25 R -8 -41 R 0 -24 R 8 -41 R
17 -25 R 24 -8 R 17 0 R 24 8 R 17 25 R 8 41 R 0 24 R -8 41 R -17 25 R
-24 8 R -17 0 R D 3539 316 M -8 -8 R 8 -8 R 8 8 R -8 8 R D 3686 472 M
-81 -115 R 122 0 R D 3686 472 M 0 -172 R D 3883 472 M -82 -172 R D
3768 472 M 115 0 R D 3948 472 M 90 0 R -49 -66 R 25 0 R 16 -8 R 8 -8 R
8 -25 R 0 -16 R -8 -24 R -16 -17 R -25 -8 R -24 0 R -25 8 R -8 8 R -8 17 R D
4193 472 M -81 0 R -8 -74 R 8 8 R 24 9 R 25 0 R 24 -9 R 17 -16 R 8 -25 R
0 -16 R -8 -24 R -17 -17 R -24 -8 R -25 0 R -24 8 R -8 8 R -9 17 R D
4267 431 M 0 8 R 8 16 R 8 9 R 17 8 R 33 0 R 16 -8 R 8 -9 R 8 -16 R 0 -16 R
-8 -17 R -16 -24 R -82 -82 R 114 0 R D
%%PageTrailer
end
restore
showpage
%%PageResources: font Helvetica
%%Trailer
restore
%%Pages: 1
%%DocumentNeededResources: font Helvetica
%%EOF
