%!PS-Adobe-3.0
%%BoundingBox: 54 360 479 785
%%Title: Graphics produced by IDL
%%For: ap1vf@titania, /scratch/ap1vf/Idl
%%Creator: IDL Version 6.0, Solaris (sunos sparc m64)
%%CreationDate: Mon May 16 20:55:22 2005
%%DocumentData: Clean7bit
%%Requirements: color
%%LanguageLevel: 1
%%PageOrder: Ascend
%%Pages: (atend)
%%DocumentNeededResources: (atend)
%%EndComments
%%BeginProlog
save
%+ prolog.ps -- Prolog for IDL generated PostScript files
%+ Copyright (c) 1988-2003 Research Systems, Inc. All Rights Reserved.
%v 4
/$IDL_DICT 40 dict def $IDL_DICT begin /bdef { bind def } bind def /C
{currentpoint newpath moveto} bdef /CP {currentpoint} bdef /D {currentpoint
stroke moveto} bdef /F {closepath fill} bdef /K { setgray } bdef /M {moveto}
bdef /N {rmoveto} bdef /P {lineto} bdef /R {rlineto} bdef /S {gsave show
grestore} bdef /X {currentpoint pop} bdef /Z {gsave currentpoint lineto 20
setlinewidth 1 setlinecap stroke grestore} bdef /L0 {[] 0 setdash} bdef /L1
{[40 100] 0 setdash} bdef /L2 {[200 200] 0 setdash} bdef /L3 {[200 100 50
100] 0 setdash} bdef /L4 {[300 100 50 100 50 100 50 100] 0 setdash} bdef /L5
{[400 200] 0 setdash} bdef /STDFONT { findfont exch scalefont setfont } bdef
/ISOFONT { findfont dup length dict begin { 1 index /FID ne {def} {pop pop}
ifelse } forall /Encoding ISOLatin1Encoding def currentdict end /idltmpfont
exch definefont exch scalefont setfont } bdef /ISOBULLET { gsave /Helvetica
findfont exch scalefont setfont (\267) show currentpoint grestore moveto}
bdef end 2.5 setmiterlimit
%%EndProlog
%%Page: 0 1
%%PageRequirements: color
%%PageResources: (atend)
%%PageOrientation: Portrait
%%PageBoundingBox: 54 360 479 785
%%BeginPageSetup
save
$IDL_DICT begin 54 360 translate 0.0283465 dup scale
%%IncludeResource: font Helvetica
423.333 /Helvetica STDFONT
%%EndPageSetup
10 setlinewidth L0 0.000 0.000 0.000 setrgbcolor 1665 11056 M 12836 0 R D
1665 11056 M 0 68 R D 1648 10844 M -27 -9 R -17 -26 R -9 -44 R 0 -26 R
9 -44 R 17 -26 R 27 -9 R 17 0 R 26 9 R 18 26 R 9 44 R 0 26 R -9 44 R
-18 26 R -26 9 R -17 0 R D 4874 11056 M 0 68 R D 4821 10844 M -87 0 R
-9 -79 R 9 9 R 26 9 R 26 0 R 27 -9 R 17 -18 R 9 -26 R 0 -17 R -9 -27 R
-17 -17 R -27 -9 R -26 0 R -26 9 R -9 9 R -9 17 R D 4944 10844 M -26 -9 R
-18 -26 R -9 -44 R 0 -26 R 9 -44 R 18 -26 R 26 -9 R 18 0 R 26 9 R 17 26 R
9 44 R 0 26 R -9 44 R -17 26 R -26 9 R -18 0 R D 8083 11056 M 0 68 R D
7864 10809 M 17 9 R 27 26 R 0 -184 R D 8065 10844 M -26 -9 R -18 -26 R
-8 -44 R 0 -26 R 8 -44 R 18 -26 R 26 -9 R 18 0 R 26 9 R 18 26 R 8 44 R
0 26 R -8 44 R -18 26 R -26 9 R -18 0 R D 8241 10844 M -27 -9 R -17 -26 R
-9 -44 R 0 -26 R 9 -44 R 17 -26 R 27 -9 R 17 0 R 26 9 R 18 26 R 9 44 R
0 26 R -9 44 R -18 26 R -26 9 R -17 0 R D 11292 11056 M 0 68 R D
11073 10809 M 17 9 R 26 26 R 0 -184 R D 11327 10844 M -88 0 R -9 -79 R 9 9 R
26 9 R 27 0 R 26 -9 R 18 -18 R 8 -26 R 0 -17 R -8 -27 R -18 -17 R -26 -9 R
-27 0 R -26 9 R -9 9 R -8 17 R D 11449 10844 M -26 -9 R -17 -26 R -9 -44 R
0 -26 R 9 -44 R 17 -26 R 26 -9 R 18 0 R 26 9 R 18 26 R 9 44 R 0 26 R -9 44 R
-18 26 R -26 9 R -18 0 R D 14501 11056 M 0 68 R D 14264 10800 M 0 9 R 9 18 R
8 8 R 18 9 R 35 0 R 18 -9 R 8 -8 R 9 -18 R 0 -17 R -9 -18 R -17 -26 R
-88 -88 R 123 0 R D 14483 10844 M -26 -9 R -18 -26 R -9 -44 R 0 -26 R
9 -44 R 18 -26 R 26 -9 R 18 0 R 26 9 R 17 26 R 9 44 R 0 26 R -9 44 R
-17 26 R -26 9 R -18 0 R D 14658 10844 M -26 -9 R -18 -26 R -8 -44 R 0 -26 R
8 -44 R 18 -26 R 26 -9 R 18 0 R 26 9 R 18 26 R 8 44 R 0 26 R -8 44 R
-18 26 R -26 9 R -18 0 R D 2307 11056 M 0 34 R D 2949 11056 M 0 34 R D
3590 11056 M 0 34 R D 4232 11056 M 0 34 R D 5516 11056 M 0 34 R D
6158 11056 M 0 34 R D 6799 11056 M 0 34 R D 7441 11056 M 0 34 R D
8725 11056 M 0 34 R D 9366 11056 M 0 34 R D 10008 11056 M 0 34 R D
10650 11056 M 0 34 R D 11933 11056 M 0 34 R D 12575 11056 M 0 34 R D
13217 11056 M 0 34 R D 13859 11056 M 0 34 R D 7661 10440 M -97 -123 R D
7564 10440 M 97 0 R D 7564 10317 M 97 0 R D 7924 10536 M -18 -18 R -17 -26 R
-18 -35 R -9 -44 R 0 -35 R 9 -44 R 18 -43 R 17 -27 R 18 -17 R D 7985 10440 M
0 -123 R D 7985 10387 M 9 26 R 17 18 R 18 9 R 26 0 R D 8239 10536 M
-157 -289 R D 8292 10440 M 0 -123 R D 8292 10387 M 9 26 R 17 18 R 18 9 R
26 0 R D 8422 10361 M -12 -6 R -12 -12 R -6 -19 R 0 -12 R 6 -18 R 12 -13 R
12 -6 R 19 0 R 12 6 R 12 13 R 6 18 R 0 12 R -6 19 R -12 12 R -12 6 R -19 0 R
D 8514 10536 M 17 -18 R 18 -26 R 17 -35 R 9 -44 R 0 -35 R -9 -44 R -17 -43 R
-18 -27 R -17 -17 R D 1665 14472 M 12836 0 R D 1665 14472 M 0 -68 R D
4874 14472 M 0 -68 R D 8083 14472 M 0 -68 R D 11292 14472 M 0 -68 R D
14501 14472 M 0 -68 R D 2307 14472 M 0 -34 R D 2949 14472 M 0 -34 R D
3590 14472 M 0 -34 R D 4232 14472 M 0 -34 R D 5516 14472 M 0 -34 R D
6158 14472 M 0 -34 R D 6799 14472 M 0 -34 R D 7441 14472 M 0 -34 R D
8725 14472 M 0 -34 R D 9366 14472 M 0 -34 R D 10008 14472 M 0 -34 R D
10650 14472 M 0 -34 R D 11933 14472 M 0 -34 R D 12575 14472 M 0 -34 R D
13217 14472 M 0 -34 R D 13859 14472 M 0 -34 R D 1665 11056 M 0 3416 R D L1
1665 11056 M 12836 0 R D L0 854 11135 M 158 0 R D 1082 11196 M 0 9 R 9 18 R
9 8 R 17 9 R 35 0 R 18 -9 R 9 -8 R 8 -18 R 0 -17 R -8 -18 R -18 -26 R
-87 -88 R 122 0 R D 1301 11240 M -26 -9 R -17 -26 R -9 -44 R 0 -26 R 9 -44 R
17 -26 R 26 -9 R 18 0 R 26 9 R 18 26 R 9 44 R 0 26 R -9 44 R -18 26 R
-26 9 R -18 0 R D 1477 11240 M -27 -9 R -17 -26 R -9 -44 R 0 -26 R 9 -44 R
17 -26 R 27 -9 R 17 0 R 26 9 R 18 26 R 9 44 R 0 26 R -9 44 R -18 26 R
-26 9 R -17 0 R D L1 1665 11910 M 12836 0 R D L0 854 11883 M 158 0 R D
1100 11953 M 17 9 R 27 27 R 0 -185 R D 1301 11989 M -26 -9 R -17 -27 R
-9 -43 R 0 -27 R 9 -43 R 17 -27 R 26 -9 R 18 0 R 26 9 R 18 27 R 9 43 R
0 27 R -9 43 R -18 27 R -26 9 R -18 0 R D 1477 11989 M -27 -9 R -17 -27 R
-9 -43 R 0 -27 R 9 -43 R 17 -27 R 27 -9 R 17 0 R 26 9 R 18 27 R 9 43 R
0 27 R -9 43 R -18 27 R -26 9 R -17 0 R D L1 1665 12764 M 12836 0 R D L0
1477 12843 M -27 -9 R -17 -27 R -9 -43 R 0 -27 R 9 -43 R 17 -27 R 27 -9 R
17 0 R 26 9 R 18 27 R 9 43 R 0 27 R -9 43 R -18 27 R -26 9 R -17 0 R D L1
1665 13618 M 12836 0 R D L0 1100 13661 M 17 9 R 27 27 R 0 -185 R D
1301 13697 M -26 -9 R -17 -27 R -9 -43 R 0 -27 R 9 -43 R 17 -27 R 26 -9 R
18 0 R 26 9 R 18 27 R 9 43 R 0 27 R -9 43 R -18 27 R -26 9 R -18 0 R D
1477 13697 M -27 -9 R -17 -27 R -9 -43 R 0 -27 R 9 -43 R 17 -27 R 27 -9 R
17 0 R 26 9 R 18 27 R 9 43 R 0 27 R -9 43 R -18 27 R -26 9 R -17 0 R D L1
1665 14472 M 12836 0 R D L0 1082 14427 M 0 9 R 9 18 R 9 9 R 17 8 R 35 0 R
18 -8 R 9 -9 R 8 -18 R 0 -17 R -8 -18 R -18 -26 R -87 -88 R 122 0 R D
1301 14471 M -26 -8 R -17 -27 R -9 -44 R 0 -26 R 9 -44 R 17 -26 R 26 -9 R
18 0 R 26 9 R 18 26 R 9 44 R 0 26 R -9 44 R -18 27 R -26 8 R -18 0 R D
1477 14471 M -27 -8 R -17 -27 R -9 -44 R 0 -26 R 9 -44 R 17 -26 R 27 -9 R
17 0 R 26 9 R 18 26 R 9 44 R 0 26 R -9 44 R -18 27 R -26 8 R -17 0 R D
1665 11141 M 193 0 R D 1665 11227 M 193 0 R D 1665 11312 M 193 0 R D
1665 11398 M 193 0 R D 1665 11483 M 193 0 R D 1665 11568 M 193 0 R D
1665 11654 M 193 0 R D 1665 11739 M 193 0 R D 1665 11825 M 193 0 R D
1665 11995 M 193 0 R D 1665 12081 M 193 0 R D 1665 12166 M 193 0 R D
1665 12252 M 193 0 R D 1665 12337 M 193 0 R D 1665 12422 M 193 0 R D
1665 12508 M 193 0 R D 1665 12593 M 193 0 R D 1665 12679 M 193 0 R D
1665 12849 M 193 0 R D 1665 12935 M 193 0 R D 1665 13020 M 193 0 R D
1665 13106 M 193 0 R D 1665 13191 M 193 0 R D 1665 13276 M 193 0 R D
1665 13362 M 193 0 R D 1665 13447 M 193 0 R D 1665 13533 M 193 0 R D
1665 13703 M 193 0 R D 1665 13789 M 193 0 R D 1665 13874 M 193 0 R D
1665 13960 M 193 0 R D 1665 14045 M 193 0 R D 1665 14130 M 193 0 R D
1665 14216 M 193 0 R D 1665 14301 M 193 0 R D 1665 14387 M 193 0 R D
456 12212 M 87 0 R 27 9 R 8 17 R 0 27 R -8 17 R -27 26 R D 456 12308 M
122 0 R D 359 12580 M 18 -17 R 26 -18 R 35 -18 R 44 -8 R 35 0 R 44 8 R
44 18 R 26 18 R 18 17 R D 456 12641 M 122 0 R D 491 12641 M -26 27 R -9 17 R
0 26 R 9 18 R 26 9 R 87 0 R D 491 12738 M -26 26 R -9 18 R 0 26 R 9 17 R
26 9 R 87 0 R D 359 13044 M 290 -157 R D 482 13185 M -17 -9 R -9 -26 R
0 -27 R 9 -26 R 17 -9 R 18 9 R 8 18 R 9 43 R 9 18 R 17 9 R 9 0 R 18 -9 R
8 -26 R 0 -27 R -8 -26 R -18 -9 R D 359 13237 M 18 18 R 26 17 R 35 18 R
44 9 R 35 0 R 44 -9 R 44 -18 R 26 -17 R 18 -18 R D 14501 11056 M 0 3416 R D
L1 14501 11056 M -12836 0 R D 14501 11910 M -12836 0 R D 14501 12764 M
-12836 0 R D 14501 13618 M -12836 0 R D 14501 14472 M -12836 0 R D L0
14501 11141 M -193 0 R D 14501 11227 M -193 0 R D 14501 11312 M -193 0 R D
14501 11398 M -193 0 R D 14501 11483 M -193 0 R D 14501 11568 M -193 0 R D
14501 11654 M -193 0 R D 14501 11739 M -193 0 R D 14501 11825 M -193 0 R D
14501 11995 M -193 0 R D 14501 12081 M -193 0 R D 14501 12166 M -193 0 R D
14501 12252 M -193 0 R D 14501 12337 M -193 0 R D 14501 12422 M -193 0 R D
14501 12508 M -193 0 R D 14501 12593 M -193 0 R D 14501 12679 M -193 0 R D
14501 12849 M -193 0 R D 14501 12935 M -193 0 R D 14501 13020 M -193 0 R D
14501 13106 M -193 0 R D 14501 13191 M -193 0 R D 14501 13276 M -193 0 R D
14501 13362 M -193 0 R D 14501 13447 M -193 0 R D 14501 13533 M -193 0 R D
14501 13703 M -193 0 R D 14501 13789 M -193 0 R D 14501 13874 M -193 0 R D
14501 13960 M -193 0 R D 14501 14045 M -193 0 R D 14501 14130 M -193 0 R D
14501 14216 M -193 0 R D 14501 14301 M -193 0 R D 14501 14387 M -193 0 R D
1665 12764 M 13 2 R 13 -1 R 13 0 R 12 0 R 13 0 R 13 0 R 13 0 R 13 0 R 13 0 R
12 0 R 13 0 R 13 0 R 13 0 R 13 0 R 13 0 R 12 0 R 13 0 R 13 0 R 13 0 R 13 0 R
13 0 R 12 0 R 13 0 R 13 0 R 13 0 R 13 0 R 13 0 R 12 0 R 13 0 R 13 0 R 13 0 R
13 0 R 13 0 R 12 0 R 13 0 R 13 0 R 13 0 R 13 0 R 13 0 R 12 0 R 13 0 R 13 0 R
13 0 R 13 0 R 13 -1 R 13 0 R 12 0 R 13 0 R 13 0 R 13 0 R 13 -1 R 13 0 R
12 0 R 13 0 R 13 -1 R 13 0 R 13 -1 R 13 0 R 12 0 R 13 -1 R 13 0 R 13 0 R
13 -1 R 13 0 R 12 0 R 13 0 R 13 0 R 13 1 R 13 1 R 13 1 R 12 1 R 13 1 R
13 1 R 13 0 R 13 1 R 13 1 R 12 1 R 13 4 R 13 1 R 13 -1 R 13 3 R 13 1 R
12 1 R 13 2 R 13 1 R 13 2 R 13 1 R 13 1 R 12 1 R 13 0 R 13 1 R 13 0 R
13 -1 R 13 -1 R 12 0 R 13 -1 R 13 -1 R 13 -2 R 13 -1 R 13 -2 R 12 -2 R
13 -2 R 13 -2 R 13 -2 R 13 -3 R 13 -2 R 12 -3 R 13 -2 R 13 -3 R 13 -2 R
13 -3 R 13 -2 R 12 -2 R 13 -2 R 13 -2 R 13 -1 R 13 -1 R 13 0 R 12 0 R 13 0 R
13 0 R 13 1 R 13 1 R 13 2 R 13 2 R 12 1 R 13 2 R 13 2 R 13 2 R 13 1 R 13 2 R
12 1 R 13 1 R 13 1 R 13 0 R 13 0 R 13 0 R 12 0 R 13 0 R 13 0 R 13 0 R 13 0 R
13 0 R 12 -1 R 13 0 R 13 0 R 13 -1 R 13 0 R 13 0 R 12 0 R 13 0 R 13 1 R
13 1 R 13 0 R 13 1 R 12 1 R 13 1 R 13 1 R 13 1 R 13 1 R 13 0 R 12 0 R 13 0 R
13 0 R 13 -1 R 13 0 R 13 0 R 12 0 R 13 0 R 13 0 R 13 0 R 13 1 R 13 0 R
12 1 R 13 1 R 13 1 R 13 1 R 13 1 R 13 0 R 12 1 R 13 0 R 13 1 R 13 0 R 13 0 R
13 0 R 12 1 R 13 -1 R 13 0 R 13 0 R 13 -1 R 13 -1 R 12 -1 R 13 -1 R 13 -1 R
13 -1 R 13 -1 R 13 0 R 13 0 R 12 0 R 13 1 R 13 1 R 13 2 R 13 2 R 13 2 R
12 2 R 13 3 R 13 2 R 13 2 R 13 2 R 13 2 R 12 2 R 13 3 R 13 2 R 13 2 R 13 3 R
13 3 R 12 3 R 13 3 R 13 3 R 13 3 R 13 2 R 13 1 R 12 -1 R 13 -2 R 13 -4 R
13 -5 R 13 -7 R 13 -8 R 12 -10 R 13 -9 R 13 -10 R 13 -9 R 13 -9 R 13 -9 R
12 -9 R 13 -7 R 13 -5 R 13 -6 R 13 -5 R 13 -4 R 12 -5 R 13 -5 R 13 -5 R
13 -4 R 13 -5 R 13 -4 R 12 -2 R 13 -2 R 13 0 R 13 0 R 13 2 R 13 3 R 12 5 R
13 4 R 13 5 R 13 4 R 13 5 R 13 4 R 12 4 R 13 3 R 13 2 R 13 0 R 13 -1 R
13 -2 R 12 -4 R 13 -6 R 13 -6 R 13 -8 R 13 -8 R 13 -8 R 12 -9 R 13 -8 R
13 -8 R 13 -6 R 13 -6 R 13 -3 R 13 -2 R 12 0 R 13 3 R 13 7 R 13 10 R 13 14 R
13 21 R 12 26 R 13 32 R 13 38 R 13 44 R 13 52 R 13 59 R 12 65 R 13 62 R
13 56 R 13 42 R 13 18 R 13 -13 R 12 -30 R 13 -58 R 13 -77 R 13 -86 R
13 -69 R 13 -48 R 12 -25 R 13 -12 R 13 3 R 13 4 R 13 5 R 13 4 R 12 3 R
13 1 R 13 0 R 13 -1 R 13 -2 R 13 -1 R 12 -2 R 13 -1 R 13 -1 R 13 0 R 13 -1 R
13 0 R 12 1 R 13 1 R 13 0 R 13 1 R 13 1 R 13 0 R 12 0 R 13 0 R 13 -1 R
13 -1 R 13 0 R 13 -1 R 12 -1 R 13 -1 R 13 -1 R 13 -1 R 13 -1 R 13 0 R
12 -1 R 13 0 R 13 0 R 13 0 R 13 1 R 13 0 R 12 1 R 13 0 R 13 1 R 13 1 R
13 2 R 13 1 R 13 2 R 12 2 R 13 2 R 13 3 R 13 2 R 13 2 R 13 2 R 12 1 R 13 0 R
13 0 R 13 -1 R 13 -3 R 13 -3 R 12 -4 R 13 -6 R 13 -5 R 13 -6 R 13 -7 R
13 -7 R 12 -6 R 13 -6 R 13 -6 R 13 -4 R 13 -5 R 13 -4 R 12 -4 R 13 -5 R
13 -4 R 13 -4 R 13 -3 R 13 -3 R 12 0 R 13 3 R 13 6 R 13 12 R 13 18 R 13 25 R
12 32 R 13 40 R 13 50 R 13 58 R 13 60 R 13 62 R 12 64 R 13 64 R 13 62 R
13 54 R 13 40 R 13 17 R 12 -18 R 13 -58 R 13 -123 R 13 -184 R 13 -230 R
13 -290 R 12 -362 R 13 -363 R 13 -284 R 13 -145 R 13 -11 R 13 96 R 12 210 R
13 264 R 13 275 R 13 258 R 13 227 R 13 172 R 12 128 R 13 127 R 13 130 R
13 115 R 13 97 R 13 84 R 12 73 R 13 66 R 13 58 R 13 51 R 13 41 R 13 28 R
13 9 R 12 -20 R 13 -53 R 13 -110 R 13 -171 R 13 -230 R 13 -261 R 12 -245 R
13 -275 R 13 -307 R 13 -259 R 13 -152 R 13 -43 R 12 37 R 13 116 R 13 166 R
13 177 R 13 167 R 13 147 R 12 124 R 13 100 R 13 59 R 13 30 R 13 29 R 13 30 R
12 26 R 13 18 R 13 10 R 13 5 R 13 -1 R 13 -4 R 12 -7 R 13 -11 R 13 -11 R
13 -13 R 13 -14 R 13 -13 R 12 -12 R 13 -12 R 13 -11 R 13 -9 R 13 -9 R
13 -7 R 12 -6 R 13 -4 R 13 -2 R 13 -1 R 13 -2 R 13 -2 R 12 -1 R 13 0 R
13 -1 R 13 1 R 13 0 R 13 0 R 12 1 R 13 1 R 13 0 R 13 1 R 13 1 R 13 0 R
12 1 R 13 0 R 13 1 R 13 0 R 13 0 R 13 0 R 12 0 R 13 1 R 13 0 R 13 0 R 13 0 R
13 0 R 12 0 R 13 0 R 13 0 R 13 0 R 13 0 R 13 0 R 13 0 R 12 0 R 13 0 R 13 0 R
13 0 R 13 0 R 13 0 R 12 0 R 13 0 R 13 0 R 13 0 R 13 0 R 13 0 R 12 0 R 13 0 R
13 0 R 13 0 R 13 0 R 13 0 R 12 0 R 13 0 R 13 0 R 13 0 R 13 0 R 13 0 R 12 0 R
13 0 R 13 0 R 13 0 R 13 0 R 13 0 R 12 0 R 13 0 R 13 0 R 13 0 R 13 0 R 13 0 R
12 0 R 13 0 R 13 0 R 13 0 R 13 0 R 13 0 R 12 0 R 13 0 R 13 0 R 13 0 R 13 0 R
13 0 R 12 0 R 13 0 R 13 0 R 13 0 R 13 0 R 13 0 R 12 0 R 13 0 R 13 0 R 13 0 R
13 0 R 13 0 R 12 0 R 13 0 R 13 0 R 13 0 R 13 0 R 13 0 R 12 0 R 13 0 R 13 0 R
13 0 R 13 0 R 13 0 R 13 0 R 12 0 R 13 0 R 13 0 R 13 0 R 13 0 R 13 0 R 12 0 R
13 0 R 13 0 R 13 0 R 13 0 R 13 0 R 12 0 R 13 0 R 13 0 R 13 0 R 13 0 R 13 0 R
12 0 R 13 0 R 13 0 R 13 0 R 13 0 R 13 0 R 12 0 R 13 0 R 13 0 R 13 0 R 13 0 R
13 0 R 12 0 R 13 0 R 13 0 R 13 0 R 13 0 R 13 0 R 12 0 R 13 0 R 13 0 R 13 0 R
13 0 R 13 0 R 12 0 R 13 0 R 13 0 R 13 0 R 13 0 R 13 0 R 12 0 R 13 0 R 13 0 R
13 0 R 13 0 R 13 0 R 12 0 R 13 0 R 13 0 R 13 0 R 13 0 R 13 0 R 12 0 R 13 0 R
13 0 R 13 0 R 13 0 R 13 0 R 12 0 R 13 0 R 13 0 R 13 0 R 13 0 R 13 0 R 12 0 R
13 0 R 13 0 R 13 0 R 13 0 R 13 0 R 13 0 R 12 0 R 13 0 R 13 0 R 13 0 R 13 0 R
13 0 R 12 0 R 13 0 R 13 0 R 13 0 R 13 0 R 13 0 R 12 0 R 13 0 R 13 0 R 13 0 R
13 0 R 13 0 R 12 0 R 13 0 R 13 0 R 13 0 R 13 0 R 13 0 R 12 0 R 13 0 R 13 0 R
13 0 R 13 0 R 13 0 R 12 0 R 13 0 R 13 0 R 13 0 R 13 0 R 13 0 R 12 0 R 13 0 R
13 0 R 13 0 R 13 0 R 13 0 R 12 0 R 13 0 R 13 0 R 13 0 R 13 0 R 13 0 R 12 0 R
13 0 R 13 0 R 13 0 R 13 0 R 13 0 R 12 0 R 13 0 R 13 0 R 13 0 R 13 0 R 13 0 R
12 0 R 13 0 R 13 0 R 13 0 R 13 0 R 13 0 R 12 0 R 13 0 R 13 0 R 13 0 R 13 0 R
13 0 R 12 0 R 13 0 R 13 0 R 13 0 R 13 0 R 13 0 R 13 0 R 12 0 R 13 0 R 13 0 R
13 0 R 13 0 R 13 0 R 12 0 R 13 0 R 13 0 R 13 0 R 13 0 R D 11292 12764 M
13 0 R 12 0 R 13 0 R 13 0 R 13 0 R 13 0 R 13 0 R 12 0 R 13 0 R 13 0 R 13 0 R
13 0 R 13 0 R 12 0 R 13 0 R 13 0 R 13 0 R 13 0 R 13 0 R 12 0 R 13 0 R 13 0 R
13 0 R 13 0 R 13 0 R 12 0 R 13 0 R 13 0 R 13 0 R 13 0 R 13 0 R 12 0 R 13 0 R
13 0 R 13 0 R 13 0 R 13 0 R 12 0 R 13 0 R 13 0 R 13 0 R 13 0 R 13 0 R 12 0 R
13 0 R 13 0 R 13 0 R 13 0 R 13 0 R 12 0 R 13 0 R 13 0 R 13 0 R 13 0 R 13 0 R
12 0 R 13 0 R 13 0 R 13 0 R 13 0 R 13 0 R 13 0 R 12 0 R 13 0 R 13 0 R 13 0 R
13 0 R 13 0 R 12 0 R 13 0 R 13 0 R 13 0 R 13 0 R 13 0 R 12 0 R 13 0 R 13 0 R
13 0 R 13 0 R 13 0 R 12 0 R 13 0 R 13 0 R 13 0 R 13 0 R 13 0 R 12 0 R 13 0 R
13 0 R 13 0 R 13 0 R 13 0 R 12 0 R 13 0 R 13 0 R 13 0 R 13 0 R 13 0 R 12 0 R
13 0 R 13 0 R 13 0 R 13 0 R 13 0 R 12 0 R 13 0 R 13 0 R 13 0 R 13 0 R 13 0 R
12 0 R 13 0 R 13 0 R 13 0 R 13 0 R 13 0 R 12 0 R 13 0 R 13 0 R 13 0 R 13 0 R
13 0 R 12 0 R 13 0 R 13 0 R 13 0 R 13 0 R 13 0 R 12 0 R 13 0 R 13 0 R 13 0 R
13 0 R 13 0 R 12 0 R 13 0 R 13 0 R 13 0 R 13 0 R 13 0 R 13 0 R 12 0 R 13 0 R
13 0 R 13 0 R 13 0 R 13 0 R 12 0 R 13 0 R 13 0 R 13 0 R 13 0 R 13 0 R 12 0 R
13 0 R 13 0 R 13 0 R 13 0 R 13 0 R 12 0 R 13 0 R 13 0 R 13 0 R 13 0 R 13 0 R
12 0 R 13 0 R 13 0 R 13 0 R 13 0 R 13 0 R 12 0 R 13 0 R 13 0 R 13 0 R 13 0 R
13 0 R 12 0 R 13 0 R 13 0 R 13 0 R 13 0 R 13 0 R 12 0 R 13 0 R 13 0 R 13 0 R
13 0 R 13 0 R 12 0 R 13 0 R 13 0 R 13 0 R 13 0 R 13 0 R 12 0 R 13 0 R 13 0 R
13 0 R 13 0 R 13 0 R 12 0 R 13 0 R 13 0 R 13 0 R 13 0 R 13 0 R 12 0 R 13 0 R
13 0 R 13 0 R 13 0 R 13 0 R 12 0 R 13 0 R 13 0 R 13 0 R 13 0 R 13 0 R 13 0 R
12 0 R 13 0 R 13 0 R 13 0 R 13 0 R 13 0 R 12 0 R 13 0 R 13 0 R 13 0 R 13 0 R
13 0 R 12 0 R 13 0 R 13 0 R 13 0 R 13 0 R 13 0 R 12 0 R 13 0 R 13 0 R 13 0 R
13 0 R 13 0 R 12 0 R 13 0 R 13 0 R 13 0 R 13 0 R 12 0 R D
0.565 0.000 0.000 setrgbcolor 2692 11056 M 0 3416 R D
1.000 0.592 0.153 setrgbcolor 1233 10472 M 0 -139 R 8 -25 R 16 -8 R 17 0 R D
1208 10415 M 57 0 R D 1315 10472 M 8 -8 R 8 8 R -8 8 R -8 -8 R D
1323 10415 M 0 -115 R D 1388 10415 M 0 -115 R D 1388 10382 M 25 24 R 16 9 R
25 0 R 16 -9 R 8 -24 R 0 -82 R D 1478 10382 M 25 24 R 16 9 R 25 0 R 16 -9 R
8 -24 R 0 -82 R D 1625 10365 M 98 0 R 0 17 R -8 16 R -8 8 R -16 9 R -25 0 R
-16 -9 R -17 -16 R -8 -25 R 0 -16 R 8 -24 R 17 -17 R 16 -8 R 25 0 R 16 8 R
16 17 R D 1912 10398 M 147 0 R D 1912 10349 M 147 0 R D 3048 10472 M 90 0 R
-49 -66 R 25 0 R 16 -8 R 8 -8 R 9 -25 R 0 -16 R -9 -24 R -16 -17 R -24 -8 R
-25 0 R -25 8 R -8 8 R -8 17 R D 3302 10447 M -8 17 R -25 8 R -16 0 R
-25 -8 R -16 -25 R -8 -41 R 0 -41 R 8 -32 R 16 -17 R 25 -8 R 8 0 R 25 8 R
16 17 R 8 24 R 0 8 R -8 25 R -16 16 R -25 8 R -8 0 R -25 -8 R -16 -16 R
-8 -25 R D 3474 10472 M -82 -172 R D 3359 10472 M 115 0 R D 3539 10316 M
-8 -8 R 8 -8 R 8 8 R -8 8 R D 3686 10472 M -81 -115 R 122 0 R D 3686 10472 M
0 -172 R D 3809 10472 M -24 -8 R -9 -17 R 0 -16 R 9 -16 R 16 -9 R 33 -8 R
24 -8 R 17 -16 R 8 -17 R 0 -24 R -8 -17 R -9 -8 R -24 -8 R -33 0 R -24 8 R
-9 8 R -8 17 R 0 24 R 8 17 R 17 16 R 24 8 R 33 8 R 16 9 R 9 16 R 0 16 R
-9 17 R -24 8 R -33 0 R D 3940 10431 M 0 8 R 8 16 R 8 9 R 17 8 R 32 0 R
17 -8 R 8 -9 R 8 -16 R 0 -16 R -8 -17 R -16 -24 R -82 -82 R 114 0 R D
4193 10472 M -81 0 R -8 -74 R 8 8 R 24 9 R 25 0 R 24 -9 R 17 -16 R 8 -25 R
0 -16 R -8 -24 R -17 -17 R -24 -8 R -25 0 R -24 8 R -8 8 R -9 17 R D
4308 10472 M -25 -8 R -16 -25 R -8 -41 R 0 -24 R 8 -41 R 16 -25 R 25 -8 R
16 0 R 25 8 R 16 25 R 8 41 R 0 24 R -8 41 R -16 25 R -25 8 R -16 0 R D
0.000 0.000 0.000 setrgbcolor 1665 6056 M 12836 0 R D 1665 6056 M 0 68 R D
1648 5844 M -27 -9 R -17 -26 R -9 -44 R 0 -26 R 9 -44 R 17 -26 R 27 -9 R
17 0 R 26 9 R 18 26 R 9 44 R 0 26 R -9 44 R -18 26 R -26 9 R -17 0 R D
4874 6056 M 0 68 R D 4821 5844 M -87 0 R -9 -79 R 9 9 R 26 9 R 26 0 R
27 -9 R 17 -18 R 9 -26 R 0 -17 R -9 -27 R -17 -17 R -27 -9 R -26 0 R -26 9 R
-9 9 R -9 17 R D 4944 5844 M -26 -9 R -18 -26 R -9 -44 R 0 -26 R 9 -44 R
18 -26 R 26 -9 R 18 0 R 26 9 R 17 26 R 9 44 R 0 26 R -9 44 R -17 26 R
-26 9 R -18 0 R D 8083 6056 M 0 68 R D 7864 5809 M 17 9 R 27 26 R 0 -184 R D
8065 5844 M -26 -9 R -18 -26 R -8 -44 R 0 -26 R 8 -44 R 18 -26 R 26 -9 R
18 0 R 26 9 R 18 26 R 8 44 R 0 26 R -8 44 R -18 26 R -26 9 R -18 0 R D
8241 5844 M -27 -9 R -17 -26 R -9 -44 R 0 -26 R 9 -44 R 17 -26 R 27 -9 R
17 0 R 26 9 R 18 26 R 9 44 R 0 26 R -9 44 R -18 26 R -26 9 R -17 0 R D
11292 6056 M 0 68 R D 11073 5809 M 17 9 R 26 26 R 0 -184 R D 11327 5844 M
-88 0 R -9 -79 R 9 9 R 26 9 R 27 0 R 26 -9 R 18 -18 R 8 -26 R 0 -17 R
-8 -27 R -18 -17 R -26 -9 R -27 0 R -26 9 R -9 9 R -8 17 R D 11449 5844 M
-26 -9 R -17 -26 R -9 -44 R 0 -26 R 9 -44 R 17 -26 R 26 -9 R 18 0 R 26 9 R
18 26 R 9 44 R 0 26 R -9 44 R -18 26 R -26 9 R -18 0 R D 14501 6056 M 0 68 R
D 14264 5800 M 0 9 R 9 18 R 8 8 R 18 9 R 35 0 R 18 -9 R 8 -8 R 9 -18 R
0 -17 R -9 -18 R -17 -26 R -88 -88 R 123 0 R D 14483 5844 M -26 -9 R
-18 -26 R -9 -44 R 0 -26 R 9 -44 R 18 -26 R 26 -9 R 18 0 R 26 9 R 17 26 R
9 44 R 0 26 R -9 44 R -17 26 R -26 9 R -18 0 R D 14658 5844 M -26 -9 R
-18 -26 R -8 -44 R 0 -26 R 8 -44 R 18 -26 R 26 -9 R 18 0 R 26 9 R 18 26 R
8 44 R 0 26 R -8 44 R -18 26 R -26 9 R -18 0 R D 2307 6056 M 0 34 R D
2949 6056 M 0 34 R D 3590 6056 M 0 34 R D 4232 6056 M 0 34 R D 5516 6056 M
0 34 R D 6158 6056 M 0 34 R D 6799 6056 M 0 34 R D 7441 6056 M 0 34 R D
8725 6056 M 0 34 R D 9366 6056 M 0 34 R D 10008 6056 M 0 34 R D 10650 6056 M
0 34 R D 11933 6056 M 0 34 R D 12575 6056 M 0 34 R D 13217 6056 M 0 34 R D
13859 6056 M 0 34 R D 7661 5440 M -97 -123 R D 7564 5440 M 97 0 R D
7564 5317 M 97 0 R D 7924 5536 M -18 -18 R -17 -26 R -18 -35 R -9 -44 R
0 -35 R 9 -44 R 18 -43 R 17 -27 R 18 -17 R D 7985 5440 M 0 -123 R D
7985 5387 M 9 26 R 17 18 R 18 9 R 26 0 R D 8239 5536 M -157 -289 R D
8292 5440 M 0 -123 R D 8292 5387 M 9 26 R 17 18 R 18 9 R 26 0 R D
8422 5361 M -12 -6 R -12 -12 R -6 -19 R 0 -12 R 6 -18 R 12 -13 R 12 -6 R
19 0 R 12 6 R 12 13 R 6 18 R 0 12 R -6 19 R -12 12 R -12 6 R -19 0 R D
8514 5536 M 17 -18 R 18 -26 R 17 -35 R 9 -44 R 0 -35 R -9 -44 R -17 -43 R
-18 -27 R -17 -17 R D 1665 9472 M 12836 0 R D 1665 9472 M 0 -68 R D
4874 9472 M 0 -68 R D 8083 9472 M 0 -68 R D 11292 9472 M 0 -68 R D
14501 9472 M 0 -68 R D 2307 9472 M 0 -34 R D 2949 9472 M 0 -34 R D
3590 9472 M 0 -34 R D 4232 9472 M 0 -34 R D 5516 9472 M 0 -34 R D
6158 9472 M 0 -34 R D 6799 9472 M 0 -34 R D 7441 9472 M 0 -34 R D
8725 9472 M 0 -34 R D 9366 9472 M 0 -34 R D 10008 9472 M 0 -34 R D
10650 9472 M 0 -34 R D 11933 9472 M 0 -34 R D 12575 9472 M 0 -34 R D
13217 9472 M 0 -34 R D 13859 9472 M 0 -34 R D 1665 6056 M 0 3416 R D L1
1665 6056 M 12836 0 R D L0 679 6135 M 158 0 R D 907 6196 M 0 9 R 9 18 R
9 8 R 17 9 R 35 0 R 18 -9 R 8 -8 R 9 -18 R 0 -17 R -9 -18 R -17 -26 R
-88 -88 R 123 0 R D 1126 6240 M -26 -9 R -18 -26 R -8 -44 R 0 -26 R 8 -44 R
18 -26 R 26 -9 R 18 0 R 26 9 R 17 26 R 9 44 R 0 26 R -9 44 R -17 26 R
-26 9 R -18 0 R D 1301 6240 M -26 -9 R -17 -26 R -9 -44 R 0 -26 R 9 -44 R
17 -26 R 26 -9 R 18 0 R 26 9 R 18 26 R 9 44 R 0 26 R -9 44 R -18 26 R
-26 9 R -18 0 R D 1477 6240 M -27 -9 R -17 -26 R -9 -44 R 0 -26 R 9 -44 R
17 -26 R 27 -9 R 17 0 R 26 9 R 18 26 R 9 44 R 0 26 R -9 44 R -18 26 R
-26 9 R -17 0 R D L1 1665 6625 M 12836 0 R D L0 679 6599 M 158 0 R D
925 6669 M 17 9 R 26 26 R 0 -184 R D 1179 6704 M -88 0 R -9 -79 R 9 9 R
26 8 R 27 0 R 26 -8 R 17 -18 R 9 -26 R 0 -18 R -9 -26 R -17 -17 R -26 -9 R
-27 0 R -26 9 R -9 8 R -8 18 R D 1301 6704 M -26 -9 R -17 -26 R -9 -44 R
0 -26 R 9 -44 R 17 -26 R 26 -9 R 18 0 R 26 9 R 18 26 R 9 44 R 0 26 R -9 44 R
-18 26 R -26 9 R -18 0 R D 1477 6704 M -27 -9 R -17 -26 R -9 -44 R 0 -26 R
9 -44 R 17 -26 R 27 -9 R 17 0 R 26 9 R 18 26 R 9 44 R 0 26 R -9 44 R
-18 26 R -26 9 R -17 0 R D L1 1665 7195 M 12836 0 R D L0 679 7168 M 158 0 R
D 925 7238 M 17 9 R 26 26 R 0 -184 R D 1126 7273 M -26 -9 R -18 -26 R
-8 -44 R 0 -26 R 8 -44 R 18 -26 R 26 -9 R 18 0 R 26 9 R 17 26 R 9 44 R
0 26 R -9 44 R -17 26 R -26 9 R -18 0 R D 1301 7273 M -26 -9 R -17 -26 R
-9 -44 R 0 -26 R 9 -44 R 17 -26 R 26 -9 R 18 0 R 26 9 R 18 26 R 9 44 R
0 26 R -9 44 R -18 26 R -26 9 R -18 0 R D 1477 7273 M -27 -9 R -17 -26 R
-9 -44 R 0 -26 R 9 -44 R 17 -26 R 27 -9 R 17 0 R 26 9 R 18 26 R 9 44 R
0 26 R -9 44 R -18 26 R -26 9 R -17 0 R D L1 1665 7764 M 12836 0 R D L0
854 7737 M 158 0 R D 1179 7843 M -88 0 R -9 -79 R 9 8 R 26 9 R 27 0 R
26 -9 R 17 -17 R 9 -26 R 0 -18 R -9 -26 R -17 -18 R -26 -9 R -27 0 R -26 9 R
-9 9 R -8 18 R D 1301 7843 M -26 -9 R -17 -27 R -9 -43 R 0 -27 R 9 -43 R
17 -27 R 26 -9 R 18 0 R 26 9 R 18 27 R 9 43 R 0 27 R -9 43 R -18 27 R
-26 9 R -18 0 R D 1477 7843 M -27 -9 R -17 -27 R -9 -43 R 0 -27 R 9 -43 R
17 -27 R 27 -9 R 17 0 R 26 9 R 18 27 R 9 43 R 0 27 R -9 43 R -18 27 R
-26 9 R -17 0 R D L1 1665 8333 M 12836 0 R D L0 1477 8412 M -27 -9 R
-17 -26 R -9 -44 R 0 -26 R 9 -44 R 17 -26 R 27 -9 R 17 0 R 26 9 R 18 26 R
9 44 R 0 26 R -9 44 R -18 26 R -26 9 R -17 0 R D L1 1665 8903 M 12836 0 R D
L0 1179 8981 M -88 0 R -9 -79 R 9 9 R 26 9 R 27 0 R 26 -9 R 17 -17 R 9 -27 R
0 -17 R -9 -27 R -17 -17 R -26 -9 R -27 0 R -26 9 R -9 9 R -8 17 R D
1301 8981 M -26 -9 R -17 -26 R -9 -44 R 0 -26 R 9 -44 R 17 -26 R 26 -9 R
18 0 R 26 9 R 18 26 R 9 44 R 0 26 R -9 44 R -18 26 R -26 9 R -18 0 R D
1477 8981 M -27 -9 R -17 -26 R -9 -44 R 0 -26 R 9 -44 R 17 -26 R 27 -9 R
17 0 R 26 9 R 18 26 R 9 44 R 0 26 R -9 44 R -18 26 R -26 9 R -17 0 R D L1
1665 9472 M 12836 0 R D L0 925 9436 M 17 9 R 26 26 R 0 -184 R D 1126 9471 M
-26 -8 R -18 -27 R -8 -44 R 0 -26 R 8 -44 R 18 -26 R 26 -9 R 18 0 R 26 9 R
17 26 R 9 44 R 0 26 R -9 44 R -17 27 R -26 8 R -18 0 R D 1301 9471 M
-26 -8 R -17 -27 R -9 -44 R 0 -26 R 9 -44 R 17 -26 R 26 -9 R 18 0 R 26 9 R
18 26 R 9 44 R 0 26 R -9 44 R -18 27 R -26 8 R -18 0 R D 1477 9471 M
-27 -8 R -17 -27 R -9 -44 R 0 -26 R 9 -44 R 17 -26 R 27 -9 R 17 0 R 26 9 R
18 26 R 9 44 R 0 26 R -9 44 R -18 27 R -26 8 R -17 0 R D 1665 6170 M 193 0 R
D 1665 6284 M 193 0 R D 1665 6398 M 193 0 R D 1665 6512 M 193 0 R D
1665 6739 M 193 0 R D 1665 6853 M 193 0 R D 1665 6967 M 193 0 R D
1665 7081 M 193 0 R D 1665 7309 M 193 0 R D 1665 7422 M 193 0 R D
1665 7536 M 193 0 R D 1665 7650 M 193 0 R D 1665 7878 M 193 0 R D
1665 7992 M 193 0 R D 1665 8106 M 193 0 R D 1665 8220 M 193 0 R D
1665 8447 M 193 0 R D 1665 8561 M 193 0 R D 1665 8675 M 193 0 R D
1665 8789 M 193 0 R D 1665 9017 M 193 0 R D 1665 9130 M 193 0 R D
1665 9244 M 193 0 R D 1665 9358 M 193 0 R D 280 7212 M 88 0 R 26 9 R 9 17 R
0 27 R -9 17 R -26 26 R D 280 7308 M 123 0 R D 184 7580 M 18 -17 R 26 -18 R
35 -18 R 44 -8 R 35 0 R 44 8 R 43 18 R 27 18 R 17 17 R D 280 7641 M 123 0 R
D 316 7641 M -27 27 R -9 17 R 0 26 R 9 18 R 27 9 R 87 0 R D 316 7738 M
-27 26 R -9 18 R 0 26 R 9 17 R 27 9 R 87 0 R D 184 8044 M 289 -157 R D
307 8185 M -18 -9 R -9 -26 R 0 -27 R 9 -26 R 18 -9 R 17 9 R 9 18 R 9 43 R
9 18 R 17 9 R 9 0 R 17 -9 R 9 -26 R 0 -27 R -9 -26 R -17 -9 R D 184 8237 M
18 18 R 26 17 R 35 18 R 44 9 R 35 0 R 44 -9 R 43 -18 R 27 -17 R 17 -18 R D
14501 6056 M 0 3416 R D L1 14501 6056 M -12836 0 R D 14501 6625 M -12836 0 R
D 14501 7195 M -12836 0 R D 14501 7764 M -12836 0 R D 14501 8333 M
-12836 0 R D 14501 8903 M -12836 0 R D 14501 9472 M -12836 0 R D L0
14501 6170 M -193 0 R D 14501 6284 M -193 0 R D 14501 6398 M -193 0 R D
14501 6512 M -193 0 R D 14501 6739 M -193 0 R D 14501 6853 M -193 0 R D
14501 6967 M -193 0 R D 14501 7081 M -193 0 R D 14501 7309 M -193 0 R D
14501 7422 M -193 0 R D 14501 7536 M -193 0 R D 14501 7650 M -193 0 R D
14501 7878 M -193 0 R D 14501 7992 M -193 0 R D 14501 8106 M -193 0 R D
14501 8220 M -193 0 R D 14501 8447 M -193 0 R D 14501 8561 M -193 0 R D
14501 8675 M -193 0 R D 14501 8789 M -193 0 R D 14501 9017 M -193 0 R D
14501 9130 M -193 0 R D 14501 9244 M -193 0 R D 14501 9358 M -193 0 R D
1665 8333 M 13 0 R 13 0 R 13 0 R 12 0 R 13 0 R 13 0 R 13 0 R 13 0 R 13 0 R
12 0 R 13 0 R 13 0 R 13 0 R 13 0 R 13 0 R 12 0 R 13 0 R 13 0 R 13 0 R 13 0 R
13 0 R 12 0 R 13 0 R 13 1 R 13 0 R 13 0 R 13 0 R 12 0 R 13 0 R 13 0 R 13 0 R
13 0 R 13 0 R 12 0 R 13 0 R 13 0 R 13 0 R 13 0 R 13 0 R 12 0 R 13 0 R
13 -1 R 13 0 R 13 0 R 13 0 R 13 0 R 12 0 R 13 0 R 13 0 R 13 0 R 13 0 R
13 0 R 12 0 R 13 0 R 13 0 R 13 0 R 13 0 R 13 0 R 12 0 R 13 0 R 13 0 R 13 0 R
13 0 R 13 0 R 12 0 R 13 0 R 13 0 R 13 0 R 13 0 R 13 0 R 12 0 R 13 -1 R
13 0 R 13 0 R 13 0 R 13 0 R 12 0 R 13 0 R 13 1 R 13 0 R 13 -1 R 13 1 R
12 0 R 13 0 R 13 0 R 13 0 R 13 0 R 13 0 R 12 0 R 13 0 R 13 0 R 13 0 R 13 0 R
13 0 R 12 0 R 13 1 R 13 0 R 13 0 R 13 0 R 13 0 R 12 0 R 13 0 R 13 0 R 13 0 R
13 0 R 13 0 R 12 0 R 13 0 R 13 0 R 13 0 R 13 0 R 13 0 R 12 0 R 13 0 R 13 0 R
13 0 R 13 0 R 13 0 R 12 0 R 13 0 R 13 0 R 13 0 R 13 0 R 13 0 R 13 0 R 12 0 R
13 0 R 13 0 R 13 0 R 13 0 R 13 0 R 12 0 R 13 0 R 13 1 R 13 0 R 13 0 R 13 0 R
12 0 R 13 1 R 13 0 R 13 0 R 13 0 R 13 1 R 12 0 R 13 0 R 13 0 R 13 0 R 13 0 R
13 0 R 12 0 R 13 0 R 13 -1 R 13 0 R 13 0 R 13 0 R 12 -1 R 13 0 R 13 0 R
13 0 R 13 -1 R 13 0 R 12 -1 R 13 0 R 13 0 R 13 -1 R 13 0 R 13 0 R 12 -1 R
13 0 R 13 0 R 13 0 R 13 0 R 13 0 R 12 0 R 13 0 R 13 0 R 13 0 R 13 0 R 13 0 R
12 0 R 13 0 R 13 1 R 13 0 R 13 0 R 13 0 R 12 0 R 13 1 R 13 0 R 13 0 R 13 0 R
13 0 R 12 0 R 13 0 R 13 0 R 13 0 R 13 0 R 13 0 R 13 0 R 12 0 R 13 0 R 13 0 R
13 0 R 13 0 R 13 0 R 12 0 R 13 0 R 13 0 R 13 0 R 13 0 R 13 0 R 12 0 R 13 0 R
13 0 R 13 0 R 13 0 R 13 0 R 12 0 R 13 0 R 13 0 R 13 0 R 13 0 R 13 0 R 12 0 R
13 0 R 13 0 R 13 0 R 13 0 R 13 0 R 12 0 R 13 0 R 13 0 R 13 0 R 13 0 R 13 0 R
12 0 R 13 0 R 13 0 R 13 0 R 13 0 R 13 0 R 12 0 R 13 1 R 13 0 R 13 0 R 13 0 R
13 0 R 12 0 R 13 0 R 13 0 R 13 0 R 13 -1 R 13 0 R 12 0 R 13 -1 R 13 0 R
13 0 R 13 -1 R 13 0 R 12 1 R 13 0 R 13 0 R 13 1 R 13 0 R 13 0 R 12 0 R
13 1 R 13 0 R 13 0 R 13 -1 R 13 0 R 12 0 R 13 0 R 13 -1 R 13 0 R 13 0 R
13 -1 R 13 0 R 12 0 R 13 0 R 13 0 R 13 0 R 13 1 R 13 0 R 12 1 R 13 0 R
13 1 R 13 1 R 13 1 R 13 1 R 12 0 R 13 1 R 13 1 R 13 0 R 13 0 R 13 -1 R
12 0 R 13 -1 R 13 -1 R 13 -2 R 13 -1 R 13 -2 R 12 -1 R 13 -1 R 13 -2 R
13 -1 R 13 -1 R 13 -1 R 12 -1 R 13 -1 R 13 -1 R 13 -1 R 13 -1 R 13 -1 R
12 -2 R 13 -1 R 13 -1 R 13 0 R 13 0 R 13 0 R 12 1 R 13 2 R 13 2 R 13 2 R
13 3 R 13 3 R 12 4 R 13 3 R 13 3 R 13 2 R 13 2 R 13 1 R 12 1 R 13 0 R 13 0 R
13 -1 R 13 -1 R 13 -1 R 12 -2 R 13 -1 R 13 -1 R 13 0 R 13 0 R 13 0 R 12 2 R
13 3 R 13 4 R 13 6 R 13 6 R 13 8 R 13 7 R 12 5 R 13 2 R 13 -3 R 13 -7 R
13 -13 R 13 -19 R 12 -19 R 13 -15 R 13 -9 R 13 -2 R 13 3 R 13 5 R 12 8 R
13 8 R 13 8 R 13 7 R 13 4 R 13 4 R 12 4 R 13 3 R 13 3 R 13 1 R 13 0 R 13 0 R
12 -1 R 13 -1 R 13 -2 R 13 -3 R 13 -2 R 13 -3 R 12 -3 R 13 -2 R 13 -1 R
13 -2 R 13 -1 R 13 -1 R 12 0 R 13 -1 R 13 1 R 13 0 R 13 1 R 13 1 R 12 0 R
13 1 R 13 1 R 13 1 R 13 0 R 13 0 R 12 1 R 13 0 R 13 0 R 13 0 R 13 0 R 13 1 R
12 0 R 13 0 R 13 0 R 13 0 R 13 0 R 13 0 R 12 0 R 13 -1 R 13 0 R 13 0 R
13 -1 R 13 0 R 12 -1 R 13 0 R 13 0 R 13 -1 R 13 0 R 13 0 R 12 0 R 13 1 R
13 0 R 13 1 R 13 0 R 13 1 R 13 0 R 12 1 R 13 0 R 13 1 R 13 0 R 13 0 R 13 0 R
12 0 R 13 0 R 13 0 R 13 0 R 13 -1 R 13 0 R 12 -1 R 13 0 R 13 -1 R 13 -1 R
13 -1 R 13 -2 R 12 -1 R 13 -1 R 13 -2 R 13 -1 R 13 -1 R 13 0 R 12 0 R 13 0 R
13 1 R 13 1 R 13 2 R 13 2 R 12 3 R 13 3 R 13 2 R 13 3 R 13 3 R 13 3 R 12 2 R
13 2 R 13 1 R 13 1 R 13 1 R 13 2 R 12 1 R 13 2 R 13 3 R 13 4 R 13 4 R 13 5 R
12 5 R 13 3 R 13 0 R 13 -5 R 13 -14 R 13 -23 R 12 -36 R 13 -51 R 13 -63 R
13 -61 R 13 -45 R 13 -20 R 12 7 R 13 30 R 13 50 R 13 56 R 13 53 R 13 45 R
12 34 R 13 25 R 13 23 R 13 24 R 13 21 R 13 17 R 12 12 R 13 10 R 13 6 R
13 5 R 13 6 R 13 13 R 13 28 R 12 55 R 13 92 R 13 128 R 13 143 R 13 94 R
13 -38 R 12 -192 R 13 -497 R 13 -851 R 13 -717 R 13 -275 R 13 739 R 12 992 R
13 177 R 13 17 R 13 11 R 13 9 R 13 8 R 12 7 R 13 8 R 13 9 R 13 9 R 13 9 R
13 10 R 12 9 R 13 10 R 13 10 R 13 9 R 13 9 R 13 8 R 12 9 R 13 9 R 13 13 R
13 18 R 13 28 R 13 40 R 12 50 R 13 52 R 13 43 R 13 6 R 13 -48 R 13 -139 R
12 -222 R 13 -325 R 13 -337 R 13 -224 R 13 -38 R 13 168 R 12 312 R 13 270 R
13 115 R 13 12 R 13 7 R 13 8 R 12 7 R 13 5 R 13 3 R 13 1 R 13 0 R 13 0 R
12 -2 R 13 -1 R 13 -3 R 13 -3 R 13 -3 R 13 -3 R 12 -3 R 13 -4 R 13 -3 R
13 -3 R 13 -3 R 13 -3 R 13 -2 R 12 -2 R 13 -2 R 13 -1 R 13 0 R 13 -1 R
13 0 R 12 -1 R 13 0 R 13 0 R 13 0 R 13 0 R 13 0 R 12 0 R 13 1 R 13 0 R
13 0 R 13 0 R 13 0 R 12 1 R 13 0 R 13 0 R 13 0 R 13 0 R 13 0 R 12 0 R 13 0 R
13 0 R 13 0 R 13 0 R 13 0 R 12 0 R 13 0 R 13 0 R 13 0 R 13 0 R 13 0 R 12 0 R
13 0 R 13 0 R 13 0 R 13 0 R 13 0 R 12 0 R 13 0 R 13 0 R 13 0 R 13 0 R 13 0 R
12 0 R 13 0 R 13 0 R 13 0 R 13 0 R 13 0 R 12 0 R 13 0 R 13 0 R 13 0 R 13 0 R
13 0 R 12 0 R 13 0 R 13 0 R 13 0 R 13 0 R 13 0 R 12 0 R 13 0 R 13 0 R 13 0 R
13 0 R 13 0 R 12 0 R 13 0 R 13 0 R 13 0 R 13 0 R 13 0 R 13 0 R 12 0 R 13 0 R
13 0 R 13 0 R 13 0 R 13 0 R 12 0 R 13 0 R 13 0 R 13 0 R 13 0 R 13 0 R 12 0 R
13 0 R 13 0 R 13 0 R 13 0 R 13 0 R 12 0 R 13 0 R 13 0 R 13 0 R 13 0 R 13 0 R
12 0 R 13 0 R 13 0 R 13 0 R 13 0 R 13 0 R 12 0 R 13 0 R 13 0 R 13 0 R 13 0 R
13 0 R 12 0 R 13 0 R 13 0 R 13 0 R 13 0 R 13 0 R 12 0 R 13 0 R 13 0 R 13 0 R
13 0 R 13 0 R 12 0 R 13 0 R 13 0 R 13 0 R 13 0 R 13 0 R 12 0 R 13 0 R 13 0 R
13 0 R 13 0 R 13 0 R 12 0 R 13 0 R 13 0 R 13 0 R 13 0 R 13 0 R 12 0 R 13 0 R
13 0 R 13 0 R 13 0 R 13 0 R 12 0 R 13 0 R 13 0 R 13 0 R 13 0 R 13 0 R 13 0 R
12 0 R 13 0 R 13 0 R 13 0 R 13 0 R 13 0 R 12 0 R 13 0 R 13 0 R 13 0 R 13 0 R
D 11292 8333 M 13 0 R 12 0 R 13 0 R 13 0 R 13 0 R 13 0 R 13 0 R 12 0 R
13 0 R 13 0 R 13 0 R 13 0 R 13 0 R 12 0 R 13 0 R 13 0 R 13 0 R 13 0 R 13 0 R
12 0 R 13 0 R 13 0 R 13 0 R 13 0 R 13 0 R 12 0 R 13 0 R 13 0 R 13 0 R 13 0 R
13 0 R 12 0 R 13 0 R 13 0 R 13 0 R 13 0 R 13 0 R 12 0 R 13 0 R 13 0 R 13 0 R
13 0 R 13 0 R 12 0 R 13 0 R 13 0 R 13 0 R 13 0 R 13 0 R 12 0 R 13 0 R 13 0 R
13 0 R 13 0 R 13 0 R 12 0 R 13 0 R 13 0 R 13 0 R 13 0 R 13 0 R 13 0 R 12 0 R
13 0 R 13 0 R 13 0 R 13 0 R 13 0 R 12 0 R 13 0 R 13 0 R 13 0 R 13 0 R 13 0 R
12 0 R 13 0 R 13 0 R 13 0 R 13 0 R 13 0 R 12 0 R 13 0 R 13 0 R 13 0 R 13 0 R
13 0 R 12 0 R 13 0 R 13 0 R 13 0 R 13 0 R 13 0 R 12 0 R 13 0 R 13 0 R 13 0 R
13 0 R 13 0 R 12 0 R 13 0 R 13 0 R 13 0 R 13 0 R 13 0 R 12 0 R 13 0 R 13 0 R
13 0 R 13 0 R 13 0 R 12 0 R 13 0 R 13 0 R 13 0 R 13 0 R 13 0 R 12 0 R 13 0 R
13 0 R 13 0 R 13 0 R 13 0 R 12 0 R 13 0 R 13 0 R 13 0 R 13 0 R 13 0 R 12 0 R
13 0 R 13 0 R 13 0 R 13 0 R 13 0 R 12 0 R 13 0 R 13 0 R 13 0 R 13 0 R 13 0 R
13 0 R 12 0 R 13 0 R 13 0 R 13 0 R 13 0 R 13 0 R 12 0 R 13 0 R 13 0 R 13 0 R
13 0 R 13 0 R 12 0 R 13 0 R 13 0 R 13 0 R 13 0 R 13 0 R 12 0 R 13 0 R 13 0 R
13 0 R 13 0 R 13 0 R 12 0 R 13 0 R 13 0 R 13 0 R 13 0 R 13 0 R 12 0 R 13 0 R
13 0 R 13 0 R 13 0 R 13 0 R 12 0 R 13 0 R 13 0 R 13 0 R 13 0 R 13 0 R 12 0 R
13 0 R 13 0 R 13 0 R 13 0 R 13 0 R 12 0 R 13 0 R 13 0 R 13 0 R 13 0 R 13 0 R
12 0 R 13 0 R 13 0 R 13 0 R 13 0 R 13 0 R 12 0 R 13 0 R 13 0 R 13 0 R 13 0 R
13 0 R 12 0 R 13 0 R 13 0 R 13 0 R 13 0 R 13 0 R 12 0 R 13 0 R 13 0 R 13 0 R
13 0 R 13 0 R 13 0 R 12 0 R 13 0 R 13 0 R 13 0 R 13 0 R 13 0 R 12 0 R 13 0 R
13 0 R 13 0 R 13 0 R 13 0 R 12 0 R 13 0 R 13 0 R 13 0 R 13 0 R 13 0 R 12 0 R
13 0 R 13 0 R 13 0 R 13 0 R 13 0 R 12 0 R 13 0 R 13 0 R 13 0 R 13 0 R 12 0 R
D 0.565 0.000 0.000 setrgbcolor 2692 6056 M 0 3416 R D
1.000 0.592 0.153 setrgbcolor 1233 5472 M 0 -139 R 8 -25 R 16 -8 R 17 0 R D
1208 5415 M 57 0 R D 1315 5472 M 8 -8 R 8 8 R -8 8 R -8 -8 R D 1323 5415 M
0 -115 R D 1388 5415 M 0 -115 R D 1388 5382 M 25 24 R 16 9 R 25 0 R 16 -9 R
8 -24 R 0 -82 R D 1478 5382 M 25 24 R 16 9 R 25 0 R 16 -9 R 8 -24 R 0 -82 R
D 1625 5365 M 98 0 R 0 17 R -8 16 R -8 8 R -16 9 R -25 0 R -16 -9 R
-17 -16 R -8 -25 R 0 -16 R 8 -24 R 17 -17 R 16 -8 R 25 0 R 16 8 R 16 17 R D
1912 5398 M 147 0 R D 1912 5349 M 147 0 R D 3114 5472 M -82 -115 R 123 0 R D
3114 5472 M 0 -172 R D 3310 5472 M -82 -172 R D 3196 5472 M 114 0 R D
3441 5472 M -82 -115 R 123 0 R D 3441 5472 M 0 -172 R D 3539 5316 M -8 -8 R
8 -8 R 8 8 R -8 8 R D 3613 5431 M 0 8 R 8 16 R 8 9 R 17 8 R 32 0 R 17 -8 R
8 -9 R 8 -16 R 0 -16 R -8 -17 R -17 -24 R -81 -82 R 114 0 R D 3817 5472 M
-24 -8 R -17 -25 R -8 -41 R 0 -24 R 8 -41 R 17 -25 R 24 -8 R 17 0 R 24 8 R
17 25 R 8 41 R 0 24 R -8 41 R -17 25 R -24 8 R -17 0 R D 3956 5439 M 17 8 R
24 25 R 0 -172 R D 4177 5472 M -82 -115 R 123 0 R D 4177 5472 M 0 -172 R D
4365 5415 M -8 -25 R -16 -16 R -25 -9 R -8 0 R -25 9 R -16 16 R -8 25 R
0 8 R 8 24 R 16 17 R 25 8 R 8 0 R 25 -8 R 16 -17 R 8 -32 R 0 -41 R -8 -41 R
-16 -25 R -25 -8 R -16 0 R -25 8 R -8 17 R D 0.000 0.000 0.000 setrgbcolor
1665 1056 M 12836 0 R D 1665 1056 M 0 68 R D 1648 844 M -27 -9 R -17 -26 R
-9 -44 R 0 -26 R 9 -44 R 17 -26 R 27 -9 R 17 0 R 26 9 R 18 26 R 9 44 R
0 26 R -9 44 R -18 26 R -26 9 R -17 0 R D 4874 1056 M 0 68 R D 4821 844 M
-87 0 R -9 -79 R 9 9 R 26 9 R 26 0 R 27 -9 R 17 -18 R 9 -26 R 0 -17 R
-9 -27 R -17 -17 R -27 -9 R -26 0 R -26 9 R -9 9 R -9 17 R D 4944 844 M
-26 -9 R -18 -26 R -9 -44 R 0 -26 R 9 -44 R 18 -26 R 26 -9 R 18 0 R 26 9 R
17 26 R 9 44 R 0 26 R -9 44 R -17 26 R -26 9 R -18 0 R D 8083 1056 M 0 68 R
D 7864 809 M 17 9 R 27 26 R 0 -184 R D 8065 844 M -26 -9 R -18 -26 R
-8 -44 R 0 -26 R 8 -44 R 18 -26 R 26 -9 R 18 0 R 26 9 R 18 26 R 8 44 R
0 26 R -8 44 R -18 26 R -26 9 R -18 0 R D 8241 844 M -27 -9 R -17 -26 R
-9 -44 R 0 -26 R 9 -44 R 17 -26 R 27 -9 R 17 0 R 26 9 R 18 26 R 9 44 R
0 26 R -9 44 R -18 26 R -26 9 R -17 0 R D 11292 1056 M 0 68 R D 11073 809 M
17 9 R 26 26 R 0 -184 R D 11327 844 M -88 0 R -9 -79 R 9 9 R 26 9 R 27 0 R
26 -9 R 18 -18 R 8 -26 R 0 -17 R -8 -27 R -18 -17 R -26 -9 R -27 0 R -26 9 R
-9 9 R -8 17 R D 11449 844 M -26 -9 R -17 -26 R -9 -44 R 0 -26 R 9 -44 R
17 -26 R 26 -9 R 18 0 R 26 9 R 18 26 R 9 44 R 0 26 R -9 44 R -18 26 R
-26 9 R -18 0 R D 14501 1056 M 0 68 R D 14264 800 M 0 9 R 9 18 R 8 8 R
18 9 R 35 0 R 18 -9 R 8 -8 R 9 -18 R 0 -17 R -9 -18 R -17 -26 R -88 -88 R
123 0 R D 14483 844 M -26 -9 R -18 -26 R -9 -44 R 0 -26 R 9 -44 R 18 -26 R
26 -9 R 18 0 R 26 9 R 17 26 R 9 44 R 0 26 R -9 44 R -17 26 R -26 9 R -18 0 R
D 14658 844 M -26 -9 R -18 -26 R -8 -44 R 0 -26 R 8 -44 R 18 -26 R 26 -9 R
18 0 R 26 9 R 18 26 R 8 44 R 0 26 R -8 44 R -18 26 R -26 9 R -18 0 R D
2307 1056 M 0 34 R D 2949 1056 M 0 34 R D 3590 1056 M 0 34 R D 4232 1056 M
0 34 R D 5516 1056 M 0 34 R D 6158 1056 M 0 34 R D 6799 1056 M 0 34 R D
7441 1056 M 0 34 R D 8725 1056 M 0 34 R D 9366 1056 M 0 34 R D 10008 1056 M
0 34 R D 10650 1056 M 0 34 R D 11933 1056 M 0 34 R D 12575 1056 M 0 34 R D
13217 1056 M 0 34 R D 13859 1056 M 0 34 R D 7661 440 M -97 -123 R D
7564 440 M 97 0 R D 7564 317 M 97 0 R D 7924 536 M -18 -18 R -17 -26 R
-18 -35 R -9 -44 R 0 -35 R 9 -44 R 18 -43 R 17 -27 R 18 -17 R D 7985 440 M
0 -123 R D 7985 387 M 9 26 R 17 18 R 18 9 R 26 0 R D 8239 536 M -157 -289 R
D 8292 440 M 0 -123 R D 8292 387 M 9 26 R 17 18 R 18 9 R 26 0 R D 8422 361 M
-12 -6 R -12 -12 R -6 -19 R 0 -12 R 6 -18 R 12 -13 R 12 -6 R 19 0 R 12 6 R
12 13 R 6 18 R 0 12 R -6 19 R -12 12 R -12 6 R -19 0 R D 8514 536 M 17 -18 R
18 -26 R 17 -35 R 9 -44 R 0 -35 R -9 -44 R -17 -43 R -18 -27 R -17 -17 R D
1665 4472 M 12836 0 R D 1665 4472 M 0 -68 R D 4874 4472 M 0 -68 R D
8083 4472 M 0 -68 R D 11292 4472 M 0 -68 R D 14501 4472 M 0 -68 R D
2307 4472 M 0 -34 R D 2949 4472 M 0 -34 R D 3590 4472 M 0 -34 R D
4232 4472 M 0 -34 R D 5516 4472 M 0 -34 R D 6158 4472 M 0 -34 R D
6799 4472 M 0 -34 R D 7441 4472 M 0 -34 R D 8725 4472 M 0 -34 R D
9366 4472 M 0 -34 R D 10008 4472 M 0 -34 R D 10650 4472 M 0 -34 R D
11933 4472 M 0 -34 R D 12575 4472 M 0 -34 R D 13217 4472 M 0 -34 R D
13859 4472 M 0 -34 R D 1665 1056 M 0 3416 R D L1 1665 1056 M 12836 0 R D L0
679 1135 M 158 0 R D 907 1196 M 0 9 R 9 18 R 9 8 R 17 9 R 35 0 R 18 -9 R
8 -8 R 9 -18 R 0 -17 R -9 -18 R -17 -26 R -88 -88 R 123 0 R D 1126 1240 M
-26 -9 R -18 -26 R -8 -44 R 0 -26 R 8 -44 R 18 -26 R 26 -9 R 18 0 R 26 9 R
17 26 R 9 44 R 0 26 R -9 44 R -17 26 R -26 9 R -18 0 R D 1301 1240 M
-26 -9 R -17 -26 R -9 -44 R 0 -26 R 9 -44 R 17 -26 R 26 -9 R 18 0 R 26 9 R
18 26 R 9 44 R 0 26 R -9 44 R -18 26 R -26 9 R -18 0 R D 1477 1240 M
-27 -9 R -17 -26 R -9 -44 R 0 -26 R 9 -44 R 17 -26 R 27 -9 R 17 0 R 26 9 R
18 26 R 9 44 R 0 26 R -9 44 R -18 26 R -26 9 R -17 0 R D L1 1665 1625 M
12836 0 R D L0 679 1599 M 158 0 R D 925 1669 M 17 9 R 26 26 R 0 -184 R D
1179 1704 M -88 0 R -9 -79 R 9 9 R 26 8 R 27 0 R 26 -8 R 17 -18 R 9 -26 R
0 -18 R -9 -26 R -17 -17 R -26 -9 R -27 0 R -26 9 R -9 8 R -8 18 R D
1301 1704 M -26 -9 R -17 -26 R -9 -44 R 0 -26 R 9 -44 R 17 -26 R 26 -9 R
18 0 R 26 9 R 18 26 R 9 44 R 0 26 R -9 44 R -18 26 R -26 9 R -18 0 R D
1477 1704 M -27 -9 R -17 -26 R -9 -44 R 0 -26 R 9 -44 R 17 -26 R 27 -9 R
17 0 R 26 9 R 18 26 R 9 44 R 0 26 R -9 44 R -18 26 R -26 9 R -17 0 R D L1
1665 2195 M 12836 0 R D L0 679 2168 M 158 0 R D 925 2238 M 17 9 R 26 26 R
0 -184 R D 1126 2273 M -26 -9 R -18 -26 R -8 -44 R 0 -26 R 8 -44 R 18 -26 R
26 -9 R 18 0 R 26 9 R 17 26 R 9 44 R 0 26 R -9 44 R -17 26 R -26 9 R -18 0 R
D 1301 2273 M -26 -9 R -17 -26 R -9 -44 R 0 -26 R 9 -44 R 17 -26 R 26 -9 R
18 0 R 26 9 R 18 26 R 9 44 R 0 26 R -9 44 R -18 26 R -26 9 R -18 0 R D
1477 2273 M -27 -9 R -17 -26 R -9 -44 R 0 -26 R 9 -44 R 17 -26 R 27 -9 R
17 0 R 26 9 R 18 26 R 9 44 R 0 26 R -9 44 R -18 26 R -26 9 R -17 0 R D L1
1665 2764 M 12836 0 R D L0 854 2737 M 158 0 R D 1179 2843 M -88 0 R -9 -79 R
9 8 R 26 9 R 27 0 R 26 -9 R 17 -17 R 9 -26 R 0 -18 R -9 -26 R -17 -18 R
-26 -9 R -27 0 R -26 9 R -9 9 R -8 18 R D 1301 2843 M -26 -9 R -17 -27 R
-9 -43 R 0 -27 R 9 -43 R 17 -27 R 26 -9 R 18 0 R 26 9 R 18 27 R 9 43 R
0 27 R -9 43 R -18 27 R -26 9 R -18 0 R D 1477 2843 M -27 -9 R -17 -27 R
-9 -43 R 0 -27 R 9 -43 R 17 -27 R 27 -9 R 17 0 R 26 9 R 18 27 R 9 43 R
0 27 R -9 43 R -18 27 R -26 9 R -17 0 R D L1 1665 3333 M 12836 0 R D L0
1477 3412 M -27 -9 R -17 -26 R -9 -44 R 0 -26 R 9 -44 R 17 -26 R 27 -9 R
17 0 R 26 9 R 18 26 R 9 44 R 0 26 R -9 44 R -18 26 R -26 9 R -17 0 R D L1
1665 3903 M 12836 0 R D L0 1179 3981 M -88 0 R -9 -79 R 9 9 R 26 9 R 27 0 R
26 -9 R 17 -17 R 9 -27 R 0 -17 R -9 -27 R -17 -17 R -26 -9 R -27 0 R -26 9 R
-9 9 R -8 17 R D 1301 3981 M -26 -9 R -17 -26 R -9 -44 R 0 -26 R 9 -44 R
17 -26 R 26 -9 R 18 0 R 26 9 R 18 26 R 9 44 R 0 26 R -9 44 R -18 26 R
-26 9 R -18 0 R D 1477 3981 M -27 -9 R -17 -26 R -9 -44 R 0 -26 R 9 -44 R
17 -26 R 27 -9 R 17 0 R 26 9 R 18 26 R 9 44 R 0 26 R -9 44 R -18 26 R
-26 9 R -17 0 R D L1 1665 4472 M 12836 0 R D L0 925 4436 M 17 9 R 26 26 R
0 -184 R D 1126 4471 M -26 -8 R -18 -27 R -8 -44 R 0 -26 R 8 -44 R 18 -26 R
26 -9 R 18 0 R 26 9 R 17 26 R 9 44 R 0 26 R -9 44 R -17 27 R -26 8 R -18 0 R
D 1301 4471 M -26 -8 R -17 -27 R -9 -44 R 0 -26 R 9 -44 R 17 -26 R 26 -9 R
18 0 R 26 9 R 18 26 R 9 44 R 0 26 R -9 44 R -18 27 R -26 8 R -18 0 R D
1477 4471 M -27 -8 R -17 -27 R -9 -44 R 0 -26 R 9 -44 R 17 -26 R 27 -9 R
17 0 R 26 9 R 18 26 R 9 44 R 0 26 R -9 44 R -18 27 R -26 8 R -17 0 R D
1665 1170 M 193 0 R D 1665 1284 M 193 0 R D 1665 1398 M 193 0 R D
1665 1512 M 193 0 R D 1665 1739 M 193 0 R D 1665 1853 M 193 0 R D
1665 1967 M 193 0 R D 1665 2081 M 193 0 R D 1665 2309 M 193 0 R D
1665 2422 M 193 0 R D 1665 2536 M 193 0 R D 1665 2650 M 193 0 R D
1665 2878 M 193 0 R D 1665 2992 M 193 0 R D 1665 3106 M 193 0 R D
1665 3220 M 193 0 R D 1665 3447 M 193 0 R D 1665 3561 M 193 0 R D
1665 3675 M 193 0 R D 1665 3789 M 193 0 R D 1665 4017 M 193 0 R D
1665 4130 M 193 0 R D 1665 4244 M 193 0 R D 1665 4358 M 193 0 R D 280 2212 M
88 0 R 26 9 R 9 17 R 0 27 R -9 17 R -26 26 R D 280 2308 M 123 0 R D
184 2580 M 18 -17 R 26 -18 R 35 -18 R 44 -8 R 35 0 R 44 8 R 43 18 R 27 18 R
17 17 R D 280 2641 M 123 0 R D 316 2641 M -27 27 R -9 17 R 0 26 R 9 18 R
27 9 R 87 0 R D 316 2738 M -27 26 R -9 18 R 0 26 R 9 17 R 27 9 R 87 0 R D
184 3044 M 289 -157 R D 307 3185 M -18 -9 R -9 -26 R 0 -27 R 9 -26 R 18 -9 R
17 9 R 9 18 R 9 43 R 9 18 R 17 9 R 9 0 R 17 -9 R 9 -26 R 0 -27 R -9 -26 R
-17 -9 R D 184 3237 M 18 18 R 26 17 R 35 18 R 44 9 R 35 0 R 44 -9 R 43 -18 R
27 -17 R 17 -18 R D 14501 1056 M 0 3416 R D L1 14501 1056 M -12836 0 R D
14501 1625 M -12836 0 R D 14501 2195 M -12836 0 R D 14501 2764 M -12836 0 R
D 14501 3333 M -12836 0 R D 14501 3903 M -12836 0 R D 14501 4472 M
-12836 0 R D L0 14501 1170 M -193 0 R D 14501 1284 M -193 0 R D 14501 1398 M
-193 0 R D 14501 1512 M -193 0 R D 14501 1739 M -193 0 R D 14501 1853 M
-193 0 R D 14501 1967 M -193 0 R D 14501 2081 M -193 0 R D 14501 2309 M
-193 0 R D 14501 2422 M -193 0 R D 14501 2536 M -193 0 R D 14501 2650 M
-193 0 R D 14501 2878 M -193 0 R D 14501 2992 M -193 0 R D 14501 3106 M
-193 0 R D 14501 3220 M -193 0 R D 14501 3447 M -193 0 R D 14501 3561 M
-193 0 R D 14501 3675 M -193 0 R D 14501 3789 M -193 0 R D 14501 4017 M
-193 0 R D 14501 4130 M -193 0 R D 14501 4244 M -193 0 R D 14501 4358 M
-193 0 R D 1665 3333 M 13 1 R 13 -1 R 13 0 R 12 1 R 13 0 R 13 0 R 13 0 R
13 0 R 13 0 R 12 0 R 13 0 R 13 0 R 13 0 R 13 0 R 13 0 R 12 0 R 13 0 R 13 0 R
13 0 R 13 0 R 13 0 R 12 0 R 13 0 R 13 0 R 13 0 R 13 0 R 13 0 R 12 0 R 13 0 R
13 0 R 13 0 R 13 0 R 13 0 R 12 0 R 13 0 R 13 0 R 13 0 R 13 0 R 13 0 R 12 0 R
13 0 R 13 0 R 13 0 R 13 0 R 13 0 R 13 0 R 12 0 R 13 0 R 13 0 R 13 -1 R
13 0 R 13 0 R 12 0 R 13 0 R 13 0 R 13 0 R 13 0 R 13 0 R 12 0 R 13 0 R 13 0 R
13 0 R 13 0 R 13 0 R 12 0 R 13 0 R 13 0 R 13 0 R 13 0 R 13 0 R 12 0 R 13 0 R
13 0 R 13 0 R 13 0 R 13 0 R 12 -1 R 13 0 R 13 1 R 13 0 R 13 -1 R 13 1 R
12 0 R 13 0 R 13 0 R 13 0 R 13 0 R 13 0 R 12 0 R 13 0 R 13 0 R 13 0 R 13 0 R
13 0 R 12 0 R 13 0 R 13 0 R 13 0 R 13 1 R 13 0 R 12 0 R 13 0 R 13 0 R 13 0 R
13 0 R 13 0 R 12 0 R 13 0 R 13 0 R 13 0 R 13 0 R 13 0 R 12 0 R 13 0 R 13 0 R
13 0 R 13 0 R 13 0 R 12 0 R 13 0 R 13 0 R 13 0 R 13 0 R 13 0 R 13 0 R 12 0 R
13 0 R 13 0 R 13 0 R 13 0 R 13 0 R 12 0 R 13 0 R 13 0 R 13 0 R 13 0 R 13 0 R
12 0 R 13 0 R 13 0 R 13 0 R 13 0 R 13 0 R 12 0 R 13 0 R 13 0 R 13 0 R 13 0 R
13 -1 R 12 0 R 13 0 R 13 0 R 13 1 R 13 0 R 13 0 R 12 0 R 13 0 R 13 0 R
13 0 R 13 0 R 13 0 R 12 0 R 13 0 R 13 0 R 13 0 R 13 0 R 13 0 R 12 0 R 13 1 R
13 0 R 13 0 R 13 0 R 13 0 R 12 1 R 13 0 R 13 0 R 13 0 R 13 1 R 13 0 R 12 0 R
13 0 R 13 0 R 13 0 R 13 0 R 13 0 R 12 -1 R 13 0 R 13 0 R 13 0 R 13 0 R
13 -1 R 12 0 R 13 0 R 13 -1 R 13 0 R 13 0 R 13 -1 R 13 0 R 12 0 R 13 -1 R
13 0 R 13 0 R 13 -1 R 13 0 R 12 0 R 13 0 R 13 0 R 13 0 R 13 0 R 13 0 R
12 0 R 13 0 R 13 0 R 13 0 R 13 0 R 13 1 R 12 0 R 13 0 R 13 0 R 13 0 R 13 1 R
13 0 R 12 0 R 13 0 R 13 0 R 13 0 R 13 0 R 13 0 R 12 0 R 13 0 R 13 0 R 13 0 R
13 0 R 13 0 R 12 0 R 13 0 R 13 0 R 13 0 R 13 0 R 13 0 R 12 0 R 13 0 R 13 0 R
13 0 R 13 0 R 13 0 R 12 0 R 13 0 R 13 0 R 13 0 R 13 0 R 13 0 R 12 0 R 13 0 R
13 0 R 13 0 R 13 1 R 13 0 R 12 0 R 13 0 R 13 0 R 13 -1 R 13 0 R 13 0 R
12 0 R 13 0 R 13 0 R 13 0 R 13 0 R 13 0 R 12 0 R 13 0 R 13 0 R 13 0 R 13 0 R
13 0 R 13 0 R 12 1 R 13 -1 R 13 0 R 13 0 R 13 0 R 13 0 R 12 0 R 13 0 R
13 0 R 13 0 R 13 0 R 13 0 R 12 0 R 13 1 R 13 0 R 13 0 R 13 -1 R 13 0 R
12 0 R 13 0 R 13 0 R 13 -1 R 13 0 R 13 0 R 12 0 R 13 0 R 13 0 R 13 1 R
13 0 R 13 1 R 12 1 R 13 0 R 13 1 R 13 1 R 13 0 R 13 0 R 12 0 R 13 -1 R
13 0 R 13 -1 R 13 -1 R 13 -1 R 12 -1 R 13 -1 R 13 -1 R 13 0 R 13 1 R 13 0 R
12 1 R 13 1 R 13 0 R 13 1 R 13 1 R 13 0 R 12 0 R 13 0 R 13 0 R 13 0 R
13 -1 R 13 -1 R 12 -2 R 13 -1 R 13 -2 R 13 -2 R 13 -2 R 13 -2 R 12 -2 R
13 -1 R 13 -1 R 13 -1 R 13 -1 R 13 1 R 13 0 R 12 2 R 13 1 R 13 2 R 13 2 R
13 2 R 13 2 R 12 3 R 13 1 R 13 2 R 13 1 R 13 0 R 13 0 R 12 -1 R 13 -1 R
13 -1 R 13 -2 R 13 -1 R 13 -2 R 12 -1 R 13 -2 R 13 -1 R 13 -2 R 13 -2 R
13 -2 R 12 -2 R 13 -2 R 13 -4 R 13 -3 R 13 -3 R 13 -3 R 12 -1 R 13 0 R
13 4 R 13 7 R 13 9 R 13 11 R 12 14 R 13 15 R 13 13 R 13 5 R 13 0 R 13 -5 R
12 -9 R 13 -9 R 13 -5 R 13 -3 R 13 1 R 13 5 R 12 5 R 13 7 R 13 5 R 13 6 R
13 3 R 13 3 R 12 2 R 13 2 R 13 1 R 13 2 R 13 1 R 13 2 R 12 2 R 13 1 R 13 1 R
13 -1 R 13 -3 R 13 -7 R 12 -10 R 13 -15 R 13 -17 R 13 -19 R 13 -23 R
13 -26 R 12 -24 R 13 -18 R 13 -10 R 13 -2 R 13 4 R 13 12 R 13 15 R 12 18 R
13 18 R 13 18 R 13 15 R 13 10 R 13 7 R 12 7 R 13 8 R 13 6 R 13 4 R 13 2 R
13 1 R 12 -1 R 13 -1 R 13 -3 R 13 -4 R 13 -5 R 13 -5 R 12 -6 R 13 -5 R
13 -4 R 13 -3 R 13 -2 R 13 -3 R 12 -1 R 13 -1 R 13 0 R 13 0 R 13 1 R 13 1 R
12 1 R 13 1 R 13 1 R 13 1 R 13 1 R 13 1 R 12 1 R 13 1 R 13 0 R 13 1 R 13 1 R
13 1 R 12 0 R 13 1 R 13 1 R 13 0 R 13 0 R 13 0 R 12 -1 R 13 -1 R 13 -1 R
13 -1 R 13 -1 R 13 -1 R 12 -2 R 13 -1 R 13 -1 R 13 -1 R 13 -1 R 13 0 R
12 0 R 13 0 R 13 1 R 13 1 R 13 1 R 13 1 R 12 1 R 13 1 R 13 2 R 13 1 R 13 1 R
13 1 R 12 1 R 13 1 R 13 0 R 13 1 R 13 0 R 13 0 R 13 0 R 12 -1 R 13 -1 R
13 -2 R 13 -2 R 13 -3 R 13 -4 R 12 -4 R 13 -5 R 13 -6 R 13 -5 R 13 -5 R
13 -4 R 12 -3 R 13 -1 R 13 0 R 13 2 R 13 2 R 13 4 R 12 4 R 13 4 R 13 5 R
13 4 R 13 4 R 13 3 R 12 3 R 13 3 R 13 3 R 13 5 R 13 5 R 13 5 R 12 6 R 13 7 R
13 7 R 13 6 R 13 6 R 13 5 R 12 6 R 13 9 R 13 17 R 13 32 R 13 46 R 13 50 R
12 25 R 13 -33 R 13 -117 R 13 -353 R 13 -443 R 13 -370 R 12 10 R 13 652 R
13 420 R 13 35 R 13 9 R 13 9 R 12 11 R 13 10 R 13 9 R 13 8 R 13 7 R 13 7 R
12 8 R 13 8 R 13 8 R 13 11 R 13 11 R 13 11 R 12 10 R 13 7 R 13 3 R 13 -2 R
13 -4 R 13 -1 R 13 6 R 12 37 R 13 81 R 13 127 R 13 158 R 13 107 R 13 -43 R
12 -203 R 13 -596 R 13 -905 R 13 -760 R 13 46 R 13 1277 R 12 562 R 13 28 R
13 5 R 13 -1 R 13 1 R 13 3 R 12 6 R 13 6 R 13 6 R 13 6 R 13 6 R 13 6 R
12 8 R 13 9 R 13 11 R 13 13 R 13 12 R 13 12 R 12 8 R 13 6 R 13 1 R 13 -1 R
13 0 R 13 6 R 12 24 R 13 56 R 13 98 R 13 137 R 13 158 R 13 132 R 12 25 R
13 -110 R 13 -353 R 13 -706 R 13 -770 R 13 -546 R 12 -52 R 13 729 R 13 838 R
13 146 R 13 23 R 13 8 R 12 0 R 13 -3 R 13 -6 R 13 -5 R 13 -4 R 13 -4 R
12 -4 R 13 -4 R 13 -5 R 13 -4 R 13 -5 R 13 -4 R 12 -4 R 13 -4 R 13 -3 R
13 -3 R 13 -3 R 13 -1 R 12 -1 R 13 -1 R 13 -1 R 13 0 R 13 0 R 13 -1 R 13 0 R
12 1 R 13 0 R 13 0 R 13 1 R 13 0 R 13 0 R 12 1 R 13 0 R 13 0 R 13 0 R 13 1 R
13 0 R 12 0 R 13 0 R 13 0 R 13 0 R 13 0 R 13 0 R 12 0 R 13 0 R 13 0 R 13 0 R
13 0 R 13 0 R 12 0 R 13 0 R 13 0 R 13 0 R 13 0 R 13 0 R 12 0 R 13 0 R 13 0 R
13 0 R 13 0 R 13 0 R 12 0 R 13 0 R 13 0 R 13 0 R 13 0 R 13 0 R 12 0 R 13 0 R
13 0 R 13 0 R 13 0 R 13 0 R 12 0 R 13 0 R 13 0 R 13 0 R 13 0 R 13 0 R 12 0 R
13 0 R 13 0 R 13 0 R 13 0 R 13 0 R 12 0 R 13 0 R 13 0 R 13 0 R 13 0 R 13 0 R
12 0 R 13 0 R 13 0 R 13 0 R 13 0 R 13 0 R 12 0 R 13 0 R 13 0 R 13 0 R 13 0 R
13 0 R 13 0 R 12 0 R 13 0 R 13 0 R 13 0 R 13 0 R 13 0 R 12 0 R 13 0 R 13 0 R
13 0 R 13 0 R D 11292 3333 M 13 0 R 12 0 R 13 0 R 13 0 R 13 0 R 13 0 R
13 0 R 12 0 R 13 0 R 13 0 R 13 0 R 13 0 R 13 0 R 12 0 R 13 0 R 13 0 R 13 0 R
13 0 R 13 0 R 12 0 R 13 0 R 13 0 R 13 0 R 13 0 R 13 0 R 12 0 R 13 0 R 13 0 R
13 0 R 13 0 R 13 0 R 12 0 R 13 0 R 13 0 R 13 0 R 13 0 R 13 0 R 12 0 R 13 0 R
13 0 R 13 0 R 13 0 R 13 0 R 12 0 R 13 0 R 13 0 R 13 0 R 13 0 R 13 0 R 12 0 R
13 0 R 13 0 R 13 0 R 13 0 R 13 0 R 12 0 R 13 0 R 13 0 R 13 0 R 13 0 R 13 0 R
13 0 R 12 0 R 13 0 R 13 0 R 13 0 R 13 0 R 13 0 R 12 0 R 13 0 R 13 0 R 13 0 R
13 0 R 13 0 R 12 0 R 13 0 R 13 0 R 13 0 R 13 0 R 13 0 R 12 0 R 13 0 R 13 0 R
13 0 R 13 0 R 13 0 R 12 0 R 13 0 R 13 0 R 13 0 R 13 0 R 13 0 R 12 0 R 13 0 R
13 0 R 13 0 R 13 0 R 13 0 R 12 0 R 13 0 R 13 0 R 13 0 R 13 0 R 13 0 R 12 0 R
13 0 R 13 0 R 13 0 R 13 0 R 13 0 R 12 0 R 13 0 R 13 0 R 13 0 R 13 0 R 13 0 R
12 0 R 13 0 R 13 0 R 13 0 R 13 0 R 13 0 R 12 0 R 13 0 R 13 0 R 13 0 R 13 0 R
13 0 R 12 0 R 13 0 R 13 0 R 13 0 R 13 0 R 13 0 R 12 0 R 13 0 R 13 0 R 13 0 R
13 0 R 13 0 R 13 0 R 12 0 R 13 0 R 13 0 R 13 0 R 13 0 R 13 0 R 12 0 R 13 0 R
13 0 R 13 0 R 13 0 R 13 0 R 12 0 R 13 0 R 13 0 R 13 0 R 13 0 R 13 0 R 12 0 R
13 0 R 13 0 R 13 0 R 13 0 R 13 0 R 12 0 R 13 0 R 13 0 R 13 0 R 13 0 R 13 0 R
12 0 R 13 0 R 13 0 R 13 0 R 13 0 R 13 0 R 12 0 R 13 0 R 13 0 R 13 0 R 13 0 R
13 0 R 12 0 R 13 0 R 13 0 R 13 0 R 13 0 R 13 0 R 12 0 R 13 0 R 13 0 R 13 0 R
13 0 R 13 0 R 12 0 R 13 0 R 13 0 R 13 0 R 13 0 R 13 0 R 12 0 R 13 0 R 13 0 R
13 0 R 13 0 R 13 0 R 12 0 R 13 0 R 13 0 R 13 0 R 13 0 R 13 0 R 12 0 R 13 0 R
13 0 R 13 0 R 13 0 R 13 0 R 13 0 R 12 0 R 13 0 R 13 0 R 13 0 R 13 0 R 13 0 R
12 0 R 13 0 R 13 0 R 13 0 R 13 0 R 13 0 R 12 0 R 13 0 R 13 0 R 13 0 R 13 0 R
13 0 R 12 0 R 13 0 R 13 0 R 13 0 R 13 0 R 13 0 R 12 0 R 13 0 R 13 0 R 13 0 R
13 0 R 12 0 R D 0.565 0.000 0.000 setrgbcolor 2692 1056 M 0 3416 R D
1.000 0.592 0.153 setrgbcolor 1233 472 M 0 -139 R 8 -25 R 16 -8 R 17 0 R D
1208 415 M 57 0 R D 1315 472 M 8 -8 R 8 8 R -8 8 R -8 -8 R D 1323 415 M
0 -115 R D 1388 415 M 0 -115 R D 1388 382 M 25 24 R 16 9 R 25 0 R 16 -9 R
8 -24 R 0 -82 R D 1478 382 M 25 24 R 16 9 R 25 0 R 16 -9 R 8 -24 R 0 -82 R D
1625 365 M 98 0 R 0 17 R -8 16 R -8 8 R -16 9 R -25 0 R -16 -9 R -17 -16 R
-8 -25 R 0 -16 R 8 -24 R 17 -17 R 16 -8 R 25 0 R 16 8 R 16 17 R D 1912 398 M
147 0 R D 1912 349 M 147 0 R D 3130 472 M -82 0 R -8 -74 R 8 8 R 25 9 R
25 0 R 24 -9 R 16 -16 R 9 -25 R 0 -16 R -9 -24 R -16 -17 R -24 -8 R -25 0 R
-25 8 R -8 8 R -8 17 R D 3277 472 M -81 -115 R 122 0 R D 3277 472 M 0 -172 R
D 3408 472 M -24 -8 R -17 -25 R -8 -41 R 0 -24 R 8 -41 R 17 -25 R 24 -8 R
17 0 R 24 8 R 17 25 R 8 41 R 0 24 R -8 41 R -17 25 R -24 8 R -17 0 R D
3539 316 M -8 -8 R 8 -8 R 8 8 R -8 8 R D 3613 431 M 0 8 R 8 16 R 8 9 R
17 8 R 32 0 R 17 -8 R 8 -9 R 8 -16 R 0 -16 R -8 -17 R -17 -24 R -81 -82 R
114 0 R D 3866 472 M -81 0 R -9 -74 R 9 8 R 24 9 R 25 0 R 24 -9 R 17 -16 R
8 -25 R 0 -16 R -8 -24 R -17 -17 R -24 -8 R -25 0 R -24 8 R -9 8 R -8 17 R D
4030 472 M -82 0 R -8 -74 R 8 8 R 25 9 R 24 0 R 25 -9 R 16 -16 R 8 -25 R
0 -16 R -8 -24 R -16 -17 R -25 -8 R -24 0 R -25 8 R -8 8 R -8 17 R D
4210 472 M -82 -172 R D 4095 472 M 115 0 R D 4300 472 M -25 -8 R -8 -17 R
0 -16 R 8 -16 R 17 -9 R 32 -8 R 25 -8 R 16 -16 R 8 -17 R 0 -24 R -8 -17 R
-8 -8 R -24 -8 R -33 0 R -25 8 R -8 8 R -8 17 R 0 24 R 8 17 R 16 16 R 25 8 R
33 8 R 16 9 R 8 16 R 0 16 R -8 17 R -24 8 R -33 0 R D
%%PageTrailer
end
restore
showpage
%%PageResources: font Helvetica
%%Trailer
restore
%%Pages: 1
%%DocumentNeededResources: font Helvetica
%%EOF
