%!PS-Adobe-3.0
%%BoundingBox: 54 360 558 720
%%Title: Graphics produced by IDL
%%For: ap1vf@acml23.shef.ac.uk, /home/ap1vf/IDL_Examp
%%Creator: IDL Version 6.2 (linux x86 m32)
%%CreationDate: Wed Sep 21 12:22:44 2005
%%DocumentData: Clean7bit
%%Requirements: color
%%LanguageLevel: 1
%%PageOrder: Ascend
%%Pages: (atend)
%%DocumentNeededResources: (atend)
%%EndComments
%%BeginProlog
save
%+ prolog.ps -- Prolog for IDL generated PostScript files
%+ Copyright (c) 1988-2005 Research Systems, Inc. All Rights Reserved.
%v 5
/$IDL_DICT 40 dict def $IDL_DICT begin /bdef { bind def } bind def /C
{currentpoint newpath moveto} bdef /CP {currentpoint} bdef /D {currentpoint
stroke moveto} bdef /F {closepath fill} bdef /K { setgray } bdef /M {moveto}
bdef /N {rmoveto} bdef /P {lineto} bdef /R {rlineto} bdef /S {gsave show
grestore} bdef /X {currentpoint pop} bdef /Z {gsave currentpoint lineto 20
setlinewidth 1 setlinecap stroke grestore} bdef /L0 {[] 0 setdash} bdef /L1
{[40 100] 0 setdash} bdef /L2 {[200 200] 0 setdash} bdef /L3 {[200 100 50
100] 0 setdash} bdef /L4 {[300 100 50 100 50 100 50 100] 0 setdash} bdef /L5
{[400 200] 0 setdash} bdef /STDFONT { findfont exch scalefont setfont } bdef
/ISOFONT { findfont dup length dict begin { 1 index /FID ne {def} {pop pop}
ifelse } forall /Encoding ISOLatin1Encoding def currentdict end /idltmpfont
exch definefont exch scalefont setfont } bdef /ISOBULLET { gsave /Helvetica
findfont exch scalefont setfont (\267) show currentpoint grestore moveto}
bdef /MITERLIMIT { 2.5 setmiterlimit } bdef end
%%EndProlog
%%Page: 0 1
%%PageRequirements: color
%%PageResources: (atend)
%%PageOrientation: Portrait
%%PageBoundingBox: 54 360 558 720
%%BeginPageSetup
save
$IDL_DICT begin 54 360 translate 0.0283465 dup scale MITERLIMIT
%%IncludeResource: font Helvetica
423.333 /Helvetica STDFONT
%%EndPageSetup
10 setlinewidth L0 0.000 0.000 0.000 setrgbcolor 1778 1270 M 14224 0 R D L1
1778 1270 M 0 10160 R D L0 1755 987 M -35 -11 R -24 -35 R -11 -59 R 0 -35 R
11 -58 R 24 -35 R 35 -12 R 23 0 R 35 12 R 23 35 R 12 58 R 0 35 R -12 59 R
-23 35 R -35 11 R -23 0 R D L1 4623 1270 M 0 10160 R D L0 4541 929 M 0 12 R
12 23 R 11 12 R 24 11 R 46 0 R 24 -11 R 12 -12 R 11 -23 R 0 -24 R -11 -23 R
-24 -35 R -117 -117 R 164 0 R D L1 7468 1270 M 0 10160 R D L0 7491 987 M
-117 -163 R 175 0 R D 7491 987 M 0 -245 R D L1 10312 1270 M 0 10160 R D L0
10371 952 M -12 24 R -35 11 R -23 0 R -35 -11 R -24 -35 R -11 -59 R 0 -58 R
11 -47 R 24 -23 R 35 -12 R 11 0 R 35 12 R 24 23 R 12 35 R 0 12 R -12 35 R
-24 23 R -35 12 R -11 0 R -35 -12 R -24 -23 R -11 -35 R D L1 13157 1270 M
0 10160 R D L0 13122 987 M -35 -11 R -12 -24 R 0 -23 R 12 -23 R 23 -12 R
47 -12 R 35 -11 R 24 -24 R 11 -23 R 0 -35 R -11 -24 R -12 -11 R -35 -12 R
-47 0 R -35 12 R -12 11 R -11 24 R 0 35 R 11 23 R 24 24 R 35 11 R 47 12 R
23 12 R 12 23 R 0 23 R -12 24 R -35 11 R -47 0 R D L1 16002 1270 M 0 10160 R
D L0 15827 941 M 23 11 R 35 35 R 0 -245 R D 16095 987 M -35 -11 R -23 -35 R
-12 -59 R 0 -35 R 12 -58 R 23 -35 R 35 -12 R 24 0 R 35 12 R 23 35 R 12 58 R
0 35 R -12 59 R -23 35 R -35 11 R -24 0 R D 2489 1270 M 0 152 R D
3200 1270 M 0 152 R D 3912 1270 M 0 152 R D 5334 1270 M 0 152 R D
6045 1270 M 0 152 R D 6756 1270 M 0 152 R D 8179 1270 M 0 152 R D
8890 1270 M 0 152 R D 9601 1270 M 0 152 R D 11024 1270 M 0 152 R D
11735 1270 M 0 152 R D 12446 1270 M 0 152 R D 13868 1270 M 0 152 R D
14580 1270 M 0 152 R D 15291 1270 M 0 152 R D 8681 530 M 0 -246 R D
8798 448 M -117 -117 R D 8728 378 M 82 -94 R D 8880 448 M 0 -164 R D
8880 378 M 11 35 R 24 23 R 23 12 R 35 0 R D 9047 293 M -14 -8 R -15 -14 R
-7 -22 R 0 -14 R 7 -22 R 15 -14 R 14 -8 R 22 0 R 14 8 R 15 14 R 7 22 R
0 14 R -7 22 R -15 14 R -14 8 R -22 0 R D 1778 11430 M 14224 0 R D L1
1778 11430 M 0 -10160 R D 4623 11430 M 0 -10160 R D 7468 11430 M 0 -10160 R
D 10312 11430 M 0 -10160 R D 13157 11430 M 0 -10160 R D 16002 11430 M
0 -10160 R D L0 2489 11430 M 0 -152 R D 3200 11430 M 0 -152 R D 3912 11430 M
0 -152 R D 5334 11430 M 0 -152 R D 6045 11430 M 0 -152 R D 6756 11430 M
0 -152 R D 8179 11430 M 0 -152 R D 8890 11430 M 0 -152 R D 9601 11430 M
0 -152 R D 11024 11430 M 0 -152 R D 11735 11430 M 0 -152 R D 12446 11430 M
0 -152 R D 13868 11430 M 0 -152 R D 14580 11430 M 0 -152 R D 15291 11430 M
0 -152 R D 1778 1270 M 0 10160 R D L1 1778 2680 M 14224 0 R D L0 1246 2785 M
-116 0 R -12 -105 R 12 11 R 35 12 R 35 0 R 35 -12 R 23 -23 R 12 -35 R
0 -23 R -12 -36 R -23 -23 R -35 -12 R -35 0 R -35 12 R -12 12 R -12 23 R D
1363 2563 M -11 -12 R 11 -12 R 12 12 R -12 12 R D 1492 2738 M 23 12 R
35 35 R 0 -246 R D L1 1778 4889 M 14224 0 R D L0 1246 4993 M -116 0 R
-12 -105 R 12 12 R 35 12 R 35 0 R 35 -12 R 23 -23 R 12 -35 R 0 -24 R
-12 -35 R -23 -23 R -35 -12 R -35 0 R -35 12 R -12 11 R -12 24 R D
1363 4771 M -11 -11 R 11 -12 R 12 12 R -12 11 R D 1468 4935 M 0 12 R 12 23 R
12 12 R 23 11 R 47 0 R 23 -11 R 12 -12 R 12 -23 R 0 -24 R -12 -23 R
-23 -35 R -117 -117 R 163 0 R D L1 1778 7098 M 14224 0 R D L0 1246 7202 M
-116 0 R -12 -105 R 12 12 R 35 11 R 35 0 R 35 -11 R 23 -24 R 12 -35 R
0 -23 R -12 -35 R -23 -24 R -35 -11 R -35 0 R -35 11 R -12 12 R -12 24 R D
1363 6980 M -11 -12 R 11 -11 R 12 11 R -12 12 R D 1480 7202 M 129 0 R
-71 -93 R 36 0 R 23 -12 R 12 -12 R 11 -35 R 0 -23 R -11 -35 R -24 -24 R
-35 -11 R -35 0 R -35 11 R -12 12 R -11 24 R D L1 1778 9306 M 14224 0 R D L0
1246 9411 M -116 0 R -12 -105 R 12 11 R 35 12 R 35 0 R 35 -12 R 23 -23 R
12 -35 R 0 -23 R -12 -35 R -23 -24 R -35 -12 R -35 0 R -35 12 R -12 12 R
-12 23 R D 1363 9189 M -11 -12 R 11 -12 R 12 12 R -12 12 R D 1574 9411 M
-117 -164 R 175 0 R D 1574 9411 M 0 -246 R D 1778 1355 M 213 0 R D
1778 1576 M 213 0 R D 1778 1797 M 213 0 R D 1778 2018 M 213 0 R D
1778 2238 M 213 0 R D 1778 2459 M 213 0 R D 1778 2901 M 213 0 R D
1778 3122 M 213 0 R D 1778 3343 M 213 0 R D 1778 3564 M 213 0 R D
1778 3785 M 213 0 R D 1778 4005 M 213 0 R D 1778 4226 M 213 0 R D
1778 4447 M 213 0 R D 1778 4668 M 213 0 R D 1778 5110 M 213 0 R D
1778 5331 M 213 0 R D 1778 5552 M 213 0 R D 1778 5772 M 213 0 R D
1778 5993 M 213 0 R D 1778 6214 M 213 0 R D 1778 6435 M 213 0 R D
1778 6656 M 213 0 R D 1778 6877 M 213 0 R D 1778 7318 M 213 0 R D
1778 7539 M 213 0 R D 1778 7760 M 213 0 R D 1778 7981 M 213 0 R D
1778 8202 M 213 0 R D 1778 8423 M 213 0 R D 1778 8644 M 213 0 R D
1778 8865 M 213 0 R D 1778 9085 M 213 0 R D 1778 9527 M 213 0 R D
1778 9748 M 213 0 R D 1778 9969 M 213 0 R D 1778 10190 M 213 0 R D
1778 10411 M 213 0 R D 1778 10632 M 213 0 R D 1778 10852 M 213 0 R D
1778 11073 M 213 0 R D 1778 11294 M 213 0 R D 504 5380 M 246 94 R -246 93 R
D 704 5626 M 245 0 R D 704 5626 M 0 151 R D 820 5626 M 0 93 R D 458 6105 M
23 -24 R 35 -23 R 47 -23 R 58 -12 R 47 0 R 58 12 R 59 23 R 35 23 R 23 24 R D
504 6186 M 246 0 R D 586 6303 M 117 -117 R D 656 6233 M 94 82 R D 586 6385 M
164 0 R D 633 6385 M -35 35 R -12 23 R 0 36 R 12 23 R 35 12 R 117 0 R D
633 6514 M -35 35 R -12 23 R 0 35 R 12 23 R 35 12 R 117 0 R D 458 6923 M
385 -211 R D 621 7109 M -23 -11 R -12 -35 R 0 -35 R 12 -35 R 23 -12 R
24 12 R 11 23 R 12 58 R 12 24 R 23 11 R 12 0 R 23 -11 R 12 -35 R 0 -35 R
-12 -35 R -23 -12 R D 458 7180 M 23 23 R 35 23 R 47 24 R 58 11 R 47 0 R
58 -11 R 59 -24 R 35 -23 R 23 -23 R D 16002 1270 M 0 10160 R D L1
16002 2680 M -14224 0 R D 16002 4889 M -14224 0 R D 16002 7098 M -14224 0 R
D 16002 9306 M -14224 0 R D L0 16002 1355 M -213 0 R D 16002 1576 M -213 0 R
D 16002 1797 M -213 0 R D 16002 2018 M -213 0 R D 16002 2238 M -213 0 R D
16002 2459 M -213 0 R D 16002 2901 M -213 0 R D 16002 3122 M -213 0 R D
16002 3343 M -213 0 R D 16002 3564 M -213 0 R D 16002 3785 M -213 0 R D
16002 4005 M -213 0 R D 16002 4226 M -213 0 R D 16002 4447 M -213 0 R D
16002 4668 M -213 0 R D 16002 5110 M -213 0 R D 16002 5331 M -213 0 R D
16002 5552 M -213 0 R D 16002 5772 M -213 0 R D 16002 5993 M -213 0 R D
16002 6214 M -213 0 R D 16002 6435 M -213 0 R D 16002 6656 M -213 0 R D
16002 6877 M -213 0 R D 16002 7318 M -213 0 R D 16002 7539 M -213 0 R D
16002 7760 M -213 0 R D 16002 7981 M -213 0 R D 16002 8202 M -213 0 R D
16002 8423 M -213 0 R D 16002 8644 M -213 0 R D 16002 8865 M -213 0 R D
16002 9085 M -213 0 R D 16002 9527 M -213 0 R D 16002 9748 M -213 0 R D
16002 9969 M -213 0 R D 16002 10190 M -213 0 R D 16002 10411 M -213 0 R D
16002 10632 M -213 0 R D 16002 10852 M -213 0 R D 16002 11073 M -213 0 R D
16002 11294 M -213 0 R D 30 setlinewidth 15995 2104 M -14 0 R -15 1 R
-14 0 R -14 0 R -14 1 R -14 0 R -15 1 R -14 0 R -14 0 R -14 1 R -15 0 R
-14 0 R -14 1 R -14 0 R -14 1 R -15 0 R -14 0 R -14 1 R -14 0 R -15 0 R
-14 1 R -14 0 R -14 1 R -14 0 R -15 0 R -14 1 R -14 0 R -14 0 R -15 1 R
-14 0 R -14 1 R -14 0 R -15 0 R -14 1 R -14 1 R -14 0 R -14 0 R -15 1 R
-14 0 R -14 0 R -14 1 R -15 0 R -14 1 R -14 0 R -14 0 R -14 1 R -15 0 R
-14 1 R -14 0 R -14 1 R -15 0 R -14 0 R -14 1 R -14 0 R -14 0 R -15 1 R
-14 1 R -14 0 R -14 0 R -15 1 R -14 0 R -14 0 R -14 1 R -14 0 R -15 1 R
-14 0 R -14 1 R -14 0 R -15 0 R -14 1 R -14 0 R -14 1 R -14 0 R -15 1 R
-14 0 R -14 0 R -14 1 R -15 0 R -14 1 R -14 0 R -14 1 R -15 0 R -14 0 R
-14 1 R -14 1 R -14 0 R -15 0 R -14 1 R -14 0 R -14 0 R -15 1 R -14 1 R
-14 0 R -14 0 R -14 1 R -15 0 R -14 1 R -14 0 R -14 1 R -15 0 R -14 1 R
-14 0 R -14 0 R -14 1 R -15 0 R -14 1 R -14 0 R -14 1 R -15 0 R -14 1 R
-14 0 R -14 0 R -14 1 R -15 1 R -14 0 R -14 0 R -14 1 R -15 0 R -14 1 R
-14 0 R -14 1 R -14 0 R -15 1 R -14 0 R -14 1 R -14 0 R -15 1 R -14 0 R
-14 1 R -14 0 R -14 0 R -15 1 R -14 1 R -14 0 R -14 1 R -15 0 R -14 1 R
-14 0 R -14 0 R -15 1 R -14 0 R -14 1 R -14 0 R -14 1 R -15 0 R -14 1 R
-14 0 R -14 1 R -15 0 R -14 1 R -14 1 R -14 0 R -14 1 R -15 0 R -14 0 R
-14 1 R -14 0 R -15 1 R -14 0 R -14 1 R -14 0 R -14 1 R -15 0 R -14 1 R
-14 0 R -14 1 R -15 0 R -14 1 R -14 0 R -14 1 R -14 1 R -15 0 R -14 1 R
-14 0 R -14 1 R -15 0 R -14 1 R -14 0 R -14 1 R -14 1 R -15 0 R -14 1 R
-14 0 R -14 1 R -15 0 R -14 1 R -14 0 R -14 1 R -15 0 R -14 1 R -14 0 R
-14 1 R -14 0 R -15 1 R -14 1 R -14 0 R -14 1 R -15 0 R -14 1 R -14 0 R
-14 1 R -14 0 R -15 1 R -14 1 R -14 0 R -14 1 R -15 0 R -14 1 R -14 0 R
-14 1 R -14 1 R -15 0 R -14 1 R -14 0 R -14 1 R -15 0 R -14 1 R -14 1 R
-14 0 R -14 1 R -15 0 R -14 1 R -14 1 R -14 0 R -15 1 R -14 0 R -14 1 R
-14 0 R -14 1 R -15 0 R -14 1 R -14 1 R -14 0 R -15 1 R -14 0 R -14 1 R
-14 1 R -15 0 R -14 1 R -14 1 R -14 0 R -14 1 R -15 0 R -14 1 R -14 1 R
-14 0 R -15 1 R -14 1 R -14 0 R -14 1 R -14 0 R -15 1 R -14 0 R -14 1 R
-14 1 R -15 0 R -14 1 R -14 1 R -14 0 R -14 1 R -15 1 R -14 0 R -14 1 R
-14 1 R -15 0 R -14 1 R -14 0 R -14 1 R -14 1 R -15 0 R -14 1 R -14 1 R
-14 0 R -15 1 R -14 1 R -14 0 R -14 1 R -14 1 R -15 0 R -14 1 R -14 1 R
-14 0 R -15 1 R -14 1 R -14 1 R -14 0 R -14 1 R -15 0 R -14 1 R -14 1 R
-14 0 R -15 1 R -14 1 R -14 1 R -14 0 R -15 1 R -14 0 R -14 1 R -14 1 R
-14 1 R -15 0 R -14 1 R -14 1 R -14 0 R -15 1 R -14 1 R -14 1 R -14 0 R
-14 1 R -15 1 R -14 0 R -14 1 R -14 1 R -15 1 R -14 0 R -14 1 R -14 1 R
-14 0 R -15 1 R -14 1 R -14 1 R -14 0 R -15 1 R -14 1 R -14 1 R -14 0 R
-14 1 R -15 1 R -14 1 R -14 1 R -14 0 R -15 1 R -14 1 R -14 1 R -14 0 R
-14 1 R -15 1 R -14 0 R -14 1 R -14 1 R -15 1 R -14 1 R -14 0 R -14 1 R
-15 1 R -14 1 R -14 1 R -14 0 R -14 1 R -15 1 R -14 1 R -14 1 R -14 0 R
-15 1 R -14 1 R -14 1 R -14 0 R -14 1 R -15 1 R -14 1 R -14 1 R -14 1 R
-15 0 R -14 1 R -14 1 R -14 1 R -14 1 R -15 1 R -14 0 R -14 1 R -14 1 R
-15 1 R -14 1 R -14 0 R -14 1 R -14 1 R -15 1 R -14 1 R -14 1 R -14 1 R
-15 1 R -14 0 R -14 1 R -14 1 R -14 1 R -15 1 R -14 1 R -14 0 R -14 1 R
-15 1 R -14 1 R -14 1 R -14 1 R -14 1 R -15 1 R -14 1 R -14 0 R -14 1 R
-15 1 R -14 1 R -14 1 R -14 1 R -15 1 R -14 1 R -14 1 R -14 1 R -14 1 R
-15 1 R -14 0 R -14 1 R -14 1 R -15 1 R -14 1 R -14 1 R -14 1 R -14 1 R
-15 1 R -14 1 R -14 1 R -14 1 R -15 1 R -14 1 R -14 1 R -14 1 R -14 1 R
-15 1 R -14 1 R -14 1 R -14 1 R -15 1 R -14 0 R -14 1 R -14 1 R -14 1 R
-15 2 R -14 1 R -14 1 R -14 1 R -15 1 R -14 1 R -14 1 R -14 1 R -14 1 R
-15 1 R -14 1 R -14 1 R -14 1 R -15 1 R -14 1 R -14 1 R -14 1 R -15 1 R
-14 1 R -14 1 R -14 1 R -14 1 R -15 1 R -14 1 R -14 1 R -14 2 R -15 0 R
-14 2 R -14 1 R -14 1 R -14 1 R -15 1 R -14 1 R -14 1 R -14 1 R -15 1 R
-14 2 R -14 0 R -14 2 R -14 1 R -15 1 R -14 1 R -14 1 R -14 1 R -15 2 R
-14 1 R -14 1 R -14 1 R -14 1 R -15 1 R -14 1 R -14 2 R -14 1 R -15 1 R
-14 1 R -14 1 R -14 1 R -14 2 R -15 1 R -14 1 R -14 1 R -14 1 R -15 2 R
-14 1 R -14 1 R -14 1 R -14 2 R -15 1 R -14 1 R -14 1 R -14 1 R -15 2 R
-14 1 R -14 1 R -14 1 R -15 2 R -14 1 R -14 1 R -14 1 R -14 2 R -15 1 R
-14 1 R -14 2 R -14 1 R -15 1 R -14 1 R -14 2 R -14 1 R -14 1 R -15 2 R
-14 1 R -14 1 R -14 2 R -15 1 R -14 1 R -14 2 R -14 1 R -14 1 R -15 2 R
-14 1 R -14 1 R -14 2 R -15 1 R -14 2 R -14 1 R -14 1 R -14 2 R -15 1 R
-14 2 R -14 1 R -14 1 R -15 2 R -14 1 R -14 2 R -14 1 R -14 1 R -15 2 R
-14 1 R -14 2 R -14 1 R -15 2 R -14 1 R -14 2 R -14 1 R -15 2 R -14 1 R
-14 2 R -14 1 R -14 2 R -15 1 R -14 1 R -14 2 R -14 2 R -15 1 R -14 2 R
-14 1 R -14 2 R -14 1 R -15 2 R -14 2 R -14 1 R -14 2 R -15 1 R -14 2 R
-14 1 R -14 2 R -14 1 R -15 2 R -14 2 R -14 1 R -14 2 R -15 2 R -14 1 R
-14 2 R -14 2 R -14 1 R -15 2 R -14 2 R -14 1 R -14 2 R -15 2 R -14 1 R
-14 2 R -14 2 R -14 1 R -15 2 R -14 2 R -14 2 R -14 1 R -15 2 R -14 2 R
-14 2 R -14 1 R -15 2 R -14 2 R -14 2 R -14 1 R -14 2 R -15 2 R -14 2 R
-14 2 R -14 1 R -15 3 R -14 1 R -14 2 R -14 2 R -14 2 R -15 2 R -14 2 R
-14 1 R -14 2 R -15 2 R -14 2 R -14 2 R -14 2 R -14 2 R -15 2 R -14 2 R
-14 2 R -14 2 R -15 2 R -14 2 R -14 2 R -14 2 R -14 2 R -15 2 R -14 2 R
-14 2 R -14 2 R -15 2 R -14 2 R -14 2 R -14 2 R -14 2 R -15 2 R -14 2 R
-14 2 R -14 3 R -15 2 R -14 2 R -14 2 R -14 2 R -14 2 R -15 2 R -14 2 R
-14 3 R -14 2 R -15 2 R -14 2 R -14 3 R -14 2 R -15 2 R -14 2 R -14 3 R
-14 2 R -14 2 R -15 2 R -14 3 R -14 2 R -14 2 R -15 3 R -14 2 R -14 3 R
-14 2 R -14 2 R -15 3 R -14 2 R -14 2 R -14 3 R -15 2 R -14 3 R -14 2 R
-14 2 R -14 3 R -15 2 R -14 3 R -14 3 R -14 2 R -15 2 R -14 3 R -14 3 R
-14 2 R -14 3 R -15 2 R -14 3 R -14 2 R -14 3 R -15 3 R -14 2 R -14 3 R
-14 3 R -14 3 R -15 2 R -14 3 R -14 3 R -14 2 R -15 3 R -14 3 R -14 3 R
-14 2 R -15 3 R -14 3 R -14 3 R -14 3 R -14 3 R -15 3 R -14 2 R -14 3 R
-14 3 R -15 3 R -14 3 R -14 3 R -14 3 R -14 3 R -15 3 R -14 3 R -14 3 R
-14 3 R -15 3 R -14 3 R -14 3 R -14 3 R -14 3 R -15 4 R -14 3 R -14 3 R
-14 3 R -15 4 R -14 3 R -14 3 R -14 3 R -14 3 R -15 4 R -14 3 R -14 3 R
-14 4 R D 5327 2948 M -15 3 R -14 3 R -14 4 R -14 3 R -14 3 R -15 4 R
-14 4 R -14 3 R -14 3 R -15 4 R -14 4 R -14 3 R -14 4 R -14 3 R -15 4 R
-14 3 R -14 4 R -14 4 R -15 4 R -14 3 R -14 4 R -14 4 R -15 4 R -14 3 R
-14 4 R -14 4 R -14 4 R -15 4 R -14 4 R -14 3 R -14 4 R -15 5 R -14 4 R
-14 3 R -14 5 R -14 4 R -15 4 R -14 4 R -14 4 R -14 4 R -15 4 R -14 4 R
-14 5 R -14 4 R -14 4 R -15 5 R -14 4 R -14 4 R -14 5 R -15 4 R -14 5 R
-14 4 R -14 4 R -14 5 R -15 4 R -14 5 R -14 5 R -14 4 R -15 5 R -14 5 R
-14 4 R -14 5 R -14 5 R -15 5 R -14 4 R -14 5 R -14 5 R -15 5 R -14 5 R
-14 5 R -14 5 R -15 5 R -14 5 R -14 5 R -14 5 R -14 6 R -15 5 R -14 5 R
-14 5 R -14 6 R -15 5 R -14 5 R -14 6 R -14 5 R -14 6 R -15 5 R -14 6 R
-14 5 R -14 6 R -15 5 R -14 6 R -14 6 R -14 6 R -14 6 R -15 5 R -14 6 R
-14 6 R -14 6 R -15 6 R -14 6 R -14 6 R -14 7 R -14 6 R -15 6 R -14 6 R
-14 6 R -14 7 R -15 6 R -14 7 R -14 6 R -14 6 R -14 7 R -15 7 R -14 6 R
-14 7 R -14 7 R -15 7 R -14 6 R -14 7 R -14 7 R -14 7 R -15 7 R -14 7 R
-14 8 R -14 7 R -15 7 R -14 7 R -14 8 R -14 7 R -14 8 R -15 7 R -14 8 R
-14 7 R -14 8 R -15 8 R -14 8 R -14 7 R -14 8 R -15 8 R -14 8 R -14 8 R
-14 9 R -14 8 R -15 8 R -14 8 R -14 9 R -14 8 R -15 9 R -14 8 R -14 9 R
-14 8 R -14 9 R -15 9 R -14 9 R -14 9 R -14 9 R -15 9 R -14 9 R -14 10 R
-14 9 R -14 9 R -15 9 R -14 10 R -14 10 R -14 9 R -15 10 R -14 10 R -14 9 R
-14 10 R -14 10 R -15 10 R -14 10 R -14 11 R -14 10 R -15 10 R -14 10 R
-14 11 R -14 11 R -14 10 R -15 11 R -14 11 R -14 10 R -14 11 R -15 11 R
-14 11 R -14 11 R -14 11 R -14 12 R -15 11 R -14 11 R -14 12 R -14 11 R
-15 12 R -14 11 R -14 12 R -14 12 R -14 11 R -15 12 R -14 12 R -14 12 R
-14 12 R -15 12 R -14 12 R -14 12 R -14 12 R -15 13 R -14 12 R -14 12 R
-14 13 R -14 12 R -15 12 R -14 13 R -14 12 R -14 12 R -15 13 R -14 12 R
-14 13 R -14 12 R -14 12 R -15 13 R -14 12 R -14 12 R -14 13 R -15 12 R
-14 12 R -14 12 R -14 12 R -14 12 R -15 11 R -14 12 R -14 11 R -14 12 R
-15 11 R -14 11 R -14 10 R -14 11 R -14 10 R -15 9 R -14 10 R -14 9 R
-14 9 R -15 8 R -14 7 R -14 7 R D L3 1792 4802 M 14 -3 R 15 -5 R 14 -6 R
14 -8 R 14 -9 R 15 -9 R 14 -11 R 14 -11 R 14 -12 R 14 -12 R 15 -14 R
14 -13 R 14 -15 R 14 -14 R 15 -16 R 14 -15 R 14 -16 R 14 -17 R 14 -16 R
15 -17 R 14 -17 R 14 -17 R 14 -18 R 15 -18 R 14 -18 R 14 -17 R 14 -19 R
14 -18 R 15 -18 R 14 -18 R 14 -18 R 14 -19 R 15 -18 R 14 -18 R 14 -18 R
14 -18 R 15 -18 R 14 -18 R 14 -18 R 14 -18 R 14 -17 R 15 -18 R 14 -17 R
14 -17 R 14 -17 R 15 -17 R 14 -16 R 14 -16 R 14 -16 R 14 -16 R 15 -16 R
14 -15 R 14 -15 R 14 -15 R 15 -14 R 14 -14 R 14 -14 R 14 -13 R 14 -13 R
15 -13 R 14 -12 R 14 -12 R 14 -12 R 15 -11 R 14 -11 R 14 -10 R 14 -10 R
14 -9 R 15 -10 R 14 -8 R 14 -8 R 14 -8 R 15 -8 R 14 -6 R 14 -7 R 14 -6 R
14 -5 R 15 -5 R 14 -4 R 14 -4 R 14 -3 R 15 -3 R 14 -2 R 14 -2 R 14 -1 R
14 -1 R 15 0 R 14 1 R 14 1 R 14 1 R 15 3 R 14 2 R 14 4 R 14 4 R 15 5 R
14 5 R 14 6 R 14 6 R 14 8 R 15 7 R 14 9 R 14 9 R 14 10 R 15 10 R 14 11 R
14 12 R 14 13 R 14 13 R 15 14 R 14 14 R 14 16 R 14 16 R 15 16 R 14 18 R
14 18 R 14 19 R 14 19 R 15 20 R 14 21 R 14 22 R 14 23 R 15 23 R 14 24 R
14 25 R 14 25 R 14 27 R 15 27 R 14 28 R 14 29 R 14 29 R 15 30 R 14 31 R
14 32 R 14 33 R 14 34 R 15 34 R 14 35 R 14 36 R 14 37 R 15 37 R 14 39 R
14 39 R 14 40 R 14 41 R 15 42 R 14 43 R 14 43 R 14 45 R 15 45 R 14 46 R
14 47 R 14 48 R 14 49 R 15 50 R 14 50 R 14 52 R 14 52 R 15 54 R 14 54 R
14 55 R 14 56 R 15 57 R 14 58 R 14 58 R 14 60 R 14 61 R 15 61 R 14 63 R
14 63 R 14 65 R 15 65 R 14 66 R 14 67 R 14 68 R 14 70 R 15 70 R 14 71 R
14 72 R 14 73 R 15 74 R 14 75 R 14 76 R 14 77 R 14 77 R 15 79 R 14 80 R
14 81 R 14 82 R 15 83 R 14 84 R 14 85 R 14 86 R 14 87 R 15 87 R 14 89 R
14 90 R 14 91 R 15 92 R 14 94 R 14 94 R 14 95 R 14 96 R 15 97 R 14 99 R
14 99 R 14 100 R 15 102 R 14 102 R 14 104 R 14 104 R 14 106 R 15 107 R
14 108 R 14 108 R 14 110 R 15 111 R 14 113 R 14 113 R 14 114 R 15 115 R
14 117 R 14 117 R 14 119 R 14 120 R 15 121 R 14 122 R 2 20 R D L2
1.000 0.000 0.000 setrgbcolor 1792 4804 M 71 0 R 71 0 R 71 0 R 71 0 R 71 0 R
72 0 R 71 0 R 71 0 R 71 0 R 71 0 R 71 0 R 71 0 R 71 0 R 71 0 R 71 0 R 71 0 R
71 0 R 71 0 R 71 0 R 71 0 R 71 0 R 71 0 R 71 0 R 71 0 R 71 0 R 71 0 R 72 0 R
71 0 R 71 0 R 71 0 R 71 0 R 71 0 R 71 0 R 71 0 R 71 0 R 71 0 R 71 0 R 71 0 R
71 0 R 71 0 R 71 0 R 71 0 R 71 0 R 71 0 R 71 0 R 71 0 R 72 0 R 71 0 R 71 0 R
71 0 R 71 0 R 71 0 R 71 0 R 71 0 R 71 0 R 71 0 R 71 0 R 71 0 R 71 0 R 71 0 R
71 0 R 71 0 R 71 0 R 71 0 R 71 0 R 71 0 R 71 0 R 72 0 R 71 0 R 71 0 R 71 0 R
71 0 R 71 0 R 71 0 R 71 0 R 71 0 R 71 0 R 71 0 R 71 0 R 71 0 R 71 0 R 71 0 R
71 0 R 71 0 R 71 0 R 71 0 R 71 0 R 72 0 R 71 0 R 71 0 R 71 0 R 71 0 R 71 0 R
71 0 R 71 0 R 71 0 R 71 0 R 71 0 R 71 0 R 71 0 R 71 0 R 71 0 R 71 0 R 71 0 R
71 0 R 71 0 R 71 0 R 72 0 R 71 0 R 71 0 R 71 0 R 71 0 R 71 0 R 71 0 R 71 0 R
71 0 R 71 0 R 71 0 R 71 0 R 71 0 R 71 0 R 71 0 R 71 0 R 71 0 R 71 0 R 71 0 R
71 0 R 71 0 R 72 0 R 71 0 R 71 0 R 71 0 R 71 0 R 71 0 R 71 0 R 71 0 R 71 0 R
71 0 R 71 0 R 71 0 R 71 0 R 71 0 R 71 0 R 71 0 R 71 0 R 71 0 R 71 0 R 71 0 R
72 0 R 71 0 R 71 0 R 71 0 R 71 0 R 71 0 R 71 0 R 71 0 R 71 0 R 71 0 R 71 0 R
71 0 R 71 0 R 71 0 R 71 0 R 71 0 R 71 0 R 71 0 R 71 0 R 71 0 R 71 0 R 72 0 R
71 0 R 71 0 R 71 0 R 71 0 R 71 0 R 71 0 R 71 0 R 71 0 R 71 0 R 71 0 R 71 0 R
71 0 R 71 0 R 71 0 R 71 0 R 71 0 R 71 0 R 71 0 R 71 0 R 72 0 R 71 0 R 71 0 R
71 0 R 71 0 R 71 0 R 71 0 R 71 0 R 71 0 R 71 0 R 70 0 R D 10 setlinewidth L0
0.000 0.000 0.000 setrgbcolor 599 4987 M -12 23 R -23 24 R -24 11 R -47 0 R
-23 -11 R -23 -24 R -12 -23 R -12 -35 R 0 -59 R 12 -35 R 12 -23 R 23 -23 R
23 -12 R 47 0 R 24 12 R 23 23 R 12 23 R D 727 4846 M 0 -245 R D 645 4846 M
164 0 R D 1.000 1.000 1.000 setrgbcolor 6899 5552 M 8392 0 R 0 4859 R
-8392 0 R F
0.000 0.000 0.000 setrgbcolor 8001 6350 M 7112 0 R D L1 8001 6350 M 0 3810 R
D L0 7842 6124 M -28 -9 R -19 -28 R -9 -47 R 0 -28 R 9 -47 R 19 -28 R
28 -9 R 19 0 R 28 9 R 19 28 R 9 47 R 0 28 R -9 47 R -19 28 R -28 9 R -19 0 R
D 7992 5946 M -10 -9 R 10 -9 R 9 9 R -9 9 R D 8123 6124 M -29 -9 R -18 -28 R
-10 -47 R 0 -28 R 10 -47 R 18 -28 R 29 -9 R 18 0 R 28 9 R 19 28 R 9 47 R
0 28 R -9 47 R -19 28 R -28 9 R -18 0 R D L1 9423 6350 M 0 3810 R D L0
9264 6124 M -28 -9 R -18 -28 R -10 -47 R 0 -28 R 10 -47 R 18 -28 R 28 -9 R
19 0 R 28 9 R 19 28 R 9 47 R 0 28 R -9 47 R -19 28 R -28 9 R -19 0 R D
9414 5946 M -9 -9 R 9 -9 R 9 9 R -9 9 R D 9498 6077 M 0 10 R 10 18 R 9 10 R
19 9 R 37 0 R 19 -9 R 9 -10 R 9 -18 R 0 -19 R -9 -19 R -19 -28 R -93 -93 R
131 0 R D L1 10846 6350 M 0 3810 R D L0 10687 6124 M -28 -9 R -19 -28 R
-9 -47 R 0 -28 R 9 -47 R 19 -28 R 28 -9 R 19 0 R 28 9 R 18 28 R 10 47 R
0 28 R -10 47 R -18 28 R -28 9 R -19 0 R D 10836 5946 M -9 -9 R 9 -9 R
10 9 R -10 9 R D 11005 6124 M -94 -131 R 140 0 R D 11005 6124 M 0 -196 R D
L1 12268 6350 M 0 3810 R D L0 12109 6124 M -28 -9 R -18 -28 R -10 -47 R
0 -28 R 10 -47 R 18 -28 R 28 -9 R 19 0 R 28 9 R 19 28 R 9 47 R 0 28 R
-9 47 R -19 28 R -28 9 R -19 0 R D 12259 5946 M -9 -9 R 9 -9 R 9 9 R -9 9 R
D 12455 6096 M -9 19 R -28 9 R -19 0 R -28 -9 R -19 -28 R -9 -47 R 0 -47 R
9 -37 R 19 -19 R 28 -9 R 9 0 R 28 9 R 19 19 R 9 28 R 0 9 R -9 28 R -19 19 R
-28 9 R -9 0 R -28 -9 R -19 -19 R -9 -28 R D L1 13691 6350 M 0 3810 R D L0
13532 6124 M -28 -9 R -19 -28 R -9 -47 R 0 -28 R 9 -47 R 19 -28 R 28 -9 R
18 0 R 28 9 R 19 28 R 9 47 R 0 28 R -9 47 R -19 28 R -28 9 R -18 0 R D
13681 5946 M -9 -9 R 9 -9 R 10 9 R -10 9 R D 13803 6124 M -28 -9 R -10 -19 R
0 -19 R 10 -19 R 18 -9 R 38 -9 R 28 -10 R 19 -18 R 9 -19 R 0 -28 R -9 -19 R
-10 -9 R -28 -9 R -37 0 R -28 9 R -10 9 R -9 19 R 0 28 R 9 19 R 19 18 R
28 10 R 38 9 R 18 9 R 10 19 R 0 19 R -10 19 R -28 9 R -37 0 R D L1
15113 6350 M 0 3810 R D L0 14926 6087 M 19 9 R 28 28 R 0 -196 R D
15104 5946 M -10 -9 R 10 -9 R 9 9 R -9 9 R D 15235 6124 M -29 -9 R -18 -28 R
-10 -47 R 0 -28 R 10 -47 R 18 -28 R 29 -9 R 18 0 R 28 9 R 19 28 R 9 47 R
0 28 R -9 47 R -19 28 R -28 9 R -18 0 R D 8357 6350 M 0 57 R D 8712 6350 M
0 57 R D 9068 6350 M 0 57 R D 9779 6350 M 0 57 R D 10135 6350 M 0 57 R D
10490 6350 M 0 57 R D 11201 6350 M 0 57 R D 11557 6350 M 0 57 R D
11913 6350 M 0 57 R D 12624 6350 M 0 57 R D 12979 6350 M 0 57 R D
13335 6350 M 0 57 R D 14046 6350 M 0 57 R D 14402 6350 M 0 57 R D
14757 6350 M 0 57 R D 11390 5758 M 0 -196 R D 11483 5692 M -93 -93 R D
11427 5636 M 66 -74 R D 11549 5692 M 0 -130 R D 11549 5636 M 9 28 R 19 19 R
19 9 R 28 0 R D 11683 5568 M -12 -6 R -11 -11 R -6 -18 R 0 -11 R 6 -18 R
11 -11 R 12 -6 R 17 0 R 12 6 R 11 11 R 6 18 R 0 11 R -6 18 R -11 11 R
-12 6 R -17 0 R D 8001 10160 M 7112 0 R D L1 8001 10160 M 0 -3810 R D
9423 10160 M 0 -3810 R D 10846 10160 M 0 -3810 R D 12268 10160 M 0 -3810 R D
13691 10160 M 0 -3810 R D 15113 10160 M 0 -3810 R D L0 8357 10160 M 0 -57 R
D 8712 10160 M 0 -57 R D 9068 10160 M 0 -57 R D 9779 10160 M 0 -57 R D
10135 10160 M 0 -57 R D 10490 10160 M 0 -57 R D 11201 10160 M 0 -57 R D
11557 10160 M 0 -57 R D 11913 10160 M 0 -57 R D 12624 10160 M 0 -57 R D
12979 10160 M 0 -57 R D 13335 10160 M 0 -57 R D 14046 10160 M 0 -57 R D
14402 10160 M 0 -57 R D 14757 10160 M 0 -57 R D 8001 6350 M 0 3810 R D L1
8001 6559 M 7112 0 R D L0 7389 6643 M -94 0 R -9 -84 R 9 9 R 28 10 R 28 0 R
28 -10 R 19 -18 R 9 -28 R 0 -19 R -9 -28 R -19 -19 R -28 -9 R -28 0 R
-28 9 R -9 9 R -9 19 R D 7482 6465 M -9 -9 R 9 -9 R 10 9 R -10 9 R D
7585 6606 M 19 9 R 28 28 R 0 -196 R D 7837 6643 M -93 -131 R 140 0 R D
7837 6643 M 0 -196 R D L1 8001 7104 M 7112 0 R D L0 7389 7187 M -94 0 R
-9 -84 R 9 10 R 28 9 R 28 0 R 28 -9 R 19 -19 R 9 -28 R 0 -19 R -9 -28 R
-19 -19 R -28 -9 R -28 0 R -28 9 R -9 10 R -9 18 R D 7482 7010 M -9 -10 R
9 -9 R 10 9 R -10 10 R D 7585 7150 M 19 9 R 28 28 R 0 -196 R D 7856 7187 M
-93 0 R -10 -84 R 10 10 R 28 9 R 28 0 R 28 -9 R 18 -19 R 10 -28 R 0 -19 R
-10 -28 R -18 -19 R -28 -9 R -28 0 R -28 9 R -10 10 R -9 18 R D L1
8001 7648 M 7112 0 R D L0 7389 7732 M -94 0 R -9 -84 R 9 9 R 28 9 R 28 0 R
28 -9 R 19 -19 R 9 -28 R 0 -19 R -9 -28 R -19 -18 R -28 -10 R -28 0 R
-28 10 R -9 9 R -9 19 R D 7482 7554 M -9 -9 R 9 -10 R 10 10 R -10 9 R D
7585 7694 M 19 10 R 28 28 R 0 -197 R D 7865 7704 M -9 18 R -28 10 R -19 0 R
-28 -10 R -18 -28 R -10 -46 R 0 -47 R 10 -38 R 18 -18 R 28 -10 R 10 0 R
28 10 R 18 18 R 10 28 R 0 10 R -10 28 R -18 19 R -28 9 R -10 0 R -28 -9 R
-18 -19 R -10 -28 R D L1 8001 8192 M 7112 0 R D L0 7389 8276 M -94 0 R
-9 -84 R 9 9 R 28 10 R 28 0 R 28 -10 R 19 -19 R 9 -28 R 0 -18 R -9 -28 R
-19 -19 R -28 -9 R -28 0 R -28 9 R -9 9 R -9 19 R D 7482 8098 M -9 -9 R
9 -9 R 10 9 R -10 9 R D 7585 8239 M 19 9 R 28 28 R 0 -196 R D 7875 8276 M
-94 -196 R D 7744 8276 M 131 0 R D L1 8001 8737 M 7112 0 R D L0 7389 8820 M
-94 0 R -9 -84 R 9 9 R 28 10 R 28 0 R 28 -10 R 19 -18 R 9 -28 R 0 -19 R
-9 -28 R -19 -19 R -28 -9 R -28 0 R -28 9 R -9 10 R -9 18 R D 7482 8643 M
-9 -10 R 9 -9 R 10 9 R -10 10 R D 7585 8783 M 19 9 R 28 28 R 0 -196 R D
7791 8820 M -28 -9 R -10 -19 R 0 -19 R 10 -18 R 18 -10 R 38 -9 R 28 -9 R
18 -19 R 10 -19 R 0 -28 R -10 -18 R -9 -10 R -28 -9 R -37 0 R -28 9 R
-10 10 R -9 18 R 0 28 R 9 19 R 19 19 R 28 9 R 37 9 R 19 10 R 9 18 R 0 19 R
-9 19 R -28 9 R -37 0 R D L1 8001 9281 M 7112 0 R D L0 7389 9365 M -94 0 R
-9 -85 R 9 10 R 28 9 R 28 0 R 28 -9 R 19 -19 R 9 -28 R 0 -19 R -9 -28 R
-19 -18 R -28 -10 R -28 0 R -28 10 R -9 9 R -9 19 R D 7482 9187 M -9 -9 R
9 -10 R 10 10 R -10 9 R D 7585 9327 M 19 9 R 28 29 R 0 -197 R D 7865 9299 M
-9 -28 R -19 -19 R -28 -9 R -9 0 R -28 9 R -19 19 R -9 28 R 0 9 R 9 28 R
19 19 R 28 10 R 9 0 R 28 -10 R 19 -19 R 9 -37 R 0 -47 R -9 -46 R -19 -28 R
-28 -10 R -18 0 R -28 10 R -10 18 R D L1 8001 9825 M 7112 0 R D L0
7389 9909 M -94 0 R -9 -84 R 9 9 R 28 9 R 28 0 R 28 -9 R 19 -19 R 9 -28 R
0 -18 R -9 -28 R -19 -19 R -28 -10 R -28 0 R -28 10 R -9 9 R -9 19 R D
7482 9731 M -9 -9 R 9 -10 R 10 10 R -10 9 R D 7566 9862 M 0 9 R 10 19 R
9 9 R 19 10 R 37 0 R 19 -10 R 9 -9 R 10 -19 R 0 -18 R -10 -19 R -19 -28 R
-93 -94 R 131 0 R D 7800 9909 M -28 -10 R -19 -28 R -9 -46 R 0 -28 R 9 -47 R
19 -28 R 28 -10 R 19 0 R 28 10 R 18 28 R 10 47 R 0 28 R -10 46 R -18 28 R
-28 10 R -19 0 R D 8001 6396 M 107 0 R D 8001 6451 M 107 0 R D 8001 6505 M
107 0 R D 8001 6614 M 107 0 R D 8001 6668 M 107 0 R D 8001 6723 M 107 0 R D
8001 6777 M 107 0 R D 8001 6832 M 107 0 R D 8001 6886 M 107 0 R D
8001 6940 M 107 0 R D 8001 6995 M 107 0 R D 8001 7049 M 107 0 R D
8001 7158 M 107 0 R D 8001 7213 M 107 0 R D 8001 7267 M 107 0 R D
8001 7321 M 107 0 R D 8001 7376 M 107 0 R D 8001 7430 M 107 0 R D
8001 7485 M 107 0 R D 8001 7539 M 107 0 R D 8001 7594 M 107 0 R D
8001 7702 M 107 0 R D 8001 7757 M 107 0 R D 8001 7811 M 107 0 R D
8001 7866 M 107 0 R D 8001 7920 M 107 0 R D 8001 7975 M 107 0 R D
8001 8029 M 107 0 R D 8001 8083 M 107 0 R D 8001 8138 M 107 0 R D
8001 8247 M 107 0 R D 8001 8301 M 107 0 R D 8001 8356 M 107 0 R D
8001 8410 M 107 0 R D 8001 8464 M 107 0 R D 8001 8519 M 107 0 R D
8001 8573 M 107 0 R D 8001 8628 M 107 0 R D 8001 8682 M 107 0 R D
8001 8791 M 107 0 R D 8001 8845 M 107 0 R D 8001 8900 M 107 0 R D
8001 8954 M 107 0 R D 8001 9009 M 107 0 R D 8001 9063 M 107 0 R D
8001 9118 M 107 0 R D 8001 9172 M 107 0 R D 8001 9226 M 107 0 R D
8001 9335 M 107 0 R D 8001 9390 M 107 0 R D 8001 9444 M 107 0 R D
8001 9499 M 107 0 R D 8001 9553 M 107 0 R D 8001 9607 M 107 0 R D
8001 9662 M 107 0 R D 8001 9716 M 107 0 R D 8001 9771 M 107 0 R D
8001 9880 M 107 0 R D 8001 9934 M 107 0 R D 8001 9988 M 107 0 R D
8001 10043 M 107 0 R D 8001 10097 M 107 0 R D 8001 10152 M 107 0 R D
6795 7479 M 196 75 R -196 75 R D 6954 7675 M 197 0 R D 6954 7675 M 0 122 R D
7048 7675 M 0 75 R D 6758 8059 M 18 -19 R 29 -19 R 37 -18 R 47 -10 R 37 0 R
47 10 R 47 18 R 28 19 R 18 19 R D 6795 8124 M 196 0 R D 6861 8218 M 93 -94 R
D 6917 8162 M 74 65 R D 6861 8283 M 130 0 R D 6898 8283 M -28 28 R -9 19 R
0 28 R 9 19 R 28 9 R 93 0 R D 6898 8386 M -28 28 R -9 19 R 0 28 R 9 18 R
28 10 R 93 0 R D 6758 8713 M 308 -168 R D 6889 8863 M -19 -10 R -9 -28 R
0 -28 R 9 -28 R 19 -9 R 18 9 R 10 19 R 9 47 R 9 18 R 19 10 R 9 0 R 19 -10 R
9 -28 R 0 -28 R -9 -28 R -19 -9 R D 6758 8919 M 18 18 R 29 19 R 37 19 R
47 9 R 37 0 R 47 -9 R 47 -19 R 28 -19 R 18 -18 R D 15113 6350 M 0 3810 R D
L1 15113 6559 M -7112 0 R D 15113 7104 M -7112 0 R D 15113 7648 M -7112 0 R
D 15113 8192 M -7112 0 R D 15113 8737 M -7112 0 R D 15113 9281 M -7112 0 R D
15113 9825 M -7112 0 R D L0 15113 6396 M -107 0 R D 15113 6451 M -107 0 R D
15113 6505 M -107 0 R D 15113 6614 M -107 0 R D 15113 6668 M -107 0 R D
15113 6723 M -107 0 R D 15113 6777 M -107 0 R D 15113 6832 M -107 0 R D
15113 6886 M -107 0 R D 15113 6940 M -107 0 R D 15113 6995 M -107 0 R D
15113 7049 M -107 0 R D 15113 7158 M -107 0 R D 15113 7213 M -107 0 R D
15113 7267 M -107 0 R D 15113 7321 M -107 0 R D 15113 7376 M -107 0 R D
15113 7430 M -107 0 R D 15113 7485 M -107 0 R D 15113 7539 M -107 0 R D
15113 7594 M -107 0 R D 15113 7702 M -107 0 R D 15113 7757 M -107 0 R D
15113 7811 M -107 0 R D 15113 7866 M -107 0 R D 15113 7920 M -107 0 R D
15113 7975 M -107 0 R D 15113 8029 M -107 0 R D 15113 8083 M -107 0 R D
15113 8138 M -107 0 R D 15113 8247 M -107 0 R D 15113 8301 M -107 0 R D
15113 8356 M -107 0 R D 15113 8410 M -107 0 R D 15113 8464 M -107 0 R D
15113 8519 M -107 0 R D 15113 8573 M -107 0 R D 15113 8628 M -107 0 R D
15113 8682 M -107 0 R D 15113 8791 M -107 0 R D 15113 8845 M -107 0 R D
15113 8900 M -107 0 R D 15113 8954 M -107 0 R D 15113 9009 M -107 0 R D
15113 9063 M -107 0 R D 15113 9118 M -107 0 R D 15113 9172 M -107 0 R D
15113 9226 M -107 0 R D 15113 9335 M -107 0 R D 15113 9390 M -107 0 R D
15113 9444 M -107 0 R D 15113 9499 M -107 0 R D 15113 9553 M -107 0 R D
15113 9607 M -107 0 R D 15113 9662 M -107 0 R D 15113 9716 M -107 0 R D
15113 9771 M -107 0 R D 15113 9880 M -107 0 R D 15113 9934 M -107 0 R D
15113 9988 M -107 0 R D 15113 10043 M -107 0 R D 15113 10097 M -107 0 R D
15113 10152 M -107 0 R D 30 setlinewidth 15113 7039 M -37 11 R -71 22 R
-71 21 R -71 22 R -71 22 R -71 22 R -72 22 R -71 23 R -71 22 R -71 23 R
-71 23 R -71 23 R -71 23 R -71 24 R -72 23 R -71 23 R -71 24 R -71 24 R
-71 25 R -71 24 R -71 25 R -71 24 R -71 25 R -72 25 R -71 26 R -71 25 R
-71 25 R -71 26 R -71 26 R -71 27 R -71 26 R -72 26 R -71 27 R -71 27 R
-71 26 R -71 28 R -71 27 R -71 28 R -71 27 R -72 28 R -71 28 R -71 28 R
-71 28 R -71 29 R -71 28 R -71 29 R -71 29 R -71 29 R -72 29 R -71 29 R
-71 30 R -71 29 R -71 30 R -71 30 R -71 30 R -71 30 R -72 30 R -71 30 R
-71 30 R -71 31 R -71 30 R -71 30 R -71 31 R -71 30 R -72 31 R -71 31 R
-71 30 R -71 31 R -71 30 R -71 31 R -71 30 R -71 31 R -71 30 R -72 30 R
-71 30 R -71 30 R -71 29 R -71 30 R -71 29 R -71 29 R -71 28 R -72 28 R
-71 28 R -71 27 R -71 27 R -71 26 R -71 26 R -71 25 R -71 24 R -72 23 R
-71 23 R -71 21 R -71 20 R -71 19 R -71 17 R D L3 8072 9612 M 71 -8 R
71 -13 R 71 -15 R 72 -19 R 71 -21 R 71 -24 R 71 -26 R 71 -27 R 71 -30 R
71 -31 R 71 -32 R 72 -34 R 71 -36 R 71 -36 R 71 -38 R 71 -38 R 71 -39 R
71 -41 R 71 -40 R 72 -42 R 71 -42 R 71 -43 R 71 -43 R 71 -44 R 71 -44 R
71 -44 R 71 -44 R 71 -45 R 72 -45 R 71 -45 R 71 -45 R 71 -45 R 71 -45 R
71 -45 R 71 -44 R 71 -45 R 72 -45 R 71 -44 R 71 -44 R 71 -43 R 71 -44 R
71 -42 R 71 -43 R 71 -42 R 72 -42 R 71 -41 R 71 -40 R 71 -40 R 71 -40 R
71 -39 R 71 -38 R 71 -37 R 71 -37 R 72 -36 R 71 -36 R 71 -34 R 71 -34 R
71 -33 R 71 -32 R 71 -32 R 71 -30 R 72 -29 R 71 -29 R 71 -27 R 71 -27 R
71 -26 R 71 -24 R 71 -24 R 71 -22 R 72 -21 R 71 -21 R 71 -19 R 71 -18 R
71 -17 R 71 -15 R 71 -15 R 71 -13 R 71 -12 R 72 -11 R 71 -9 R 71 -9 R
71 -6 R 71 -6 R 71 -4 R 71 -3 R 71 -2 R 72 0 R 71 2 R 71 2 R 71 4 R 71 6 R
71 7 R 71 9 R 71 10 R 72 11 R 71 13 R 71 15 R 71 16 R 71 18 R D L2
1.000 0.000 0.000 setrgbcolor 8072 9616 M 355 0 R 356 0 R 355 0 R 355 0 R
355 0 R 356 0 R 355 0 R 355 0 R 355 0 R 356 0 R 355 0 R 355 0 R 355 0 R
356 0 R 355 0 R 355 0 R 355 0 R 356 0 R 355 0 R 291 0 R D
%%PageTrailer
end
restore
showpage
%%PageResources: font Helvetica
%%Trailer
restore
%%Pages: 1
%%DocumentNeededResources: font Helvetica
%%EOF
